Timestamp;Participant;Study;Method;Variant;TouchEvent;TouchId;TouchX;TouchY;TouchCount;Pressure;MaxPressure;TargetRadius;WidgetHighlighted;WidgetHovered
1499118357141;3;1;FSR;SingleFinger;TOUCH_PRESSED;1;632.8;182.0;1;9;0;33.0;Target:0;Target:0
1499118357257;3;1;FSR;SingleFinger;TOUCH_MOVED;1;633.2;182.0;1;11;13;33.0;Target:0;Target:0
1499118357286;3;1;FSR;SingleFinger;TOUCH_MOVED;1;633.2;181.2;1;13;13;33.0;Target:0;Target:0
1499118357421;3;1;FSR;SingleFinger;TOUCH_RELEASED;1;633.2;181.2;1;12;13;33.0;Target:0;Target:0
1499118361632;3;1;FSR;SingleFinger;TOUCH_PRESSED;1;642.8;176.8;1;283;0;33.0;Target:0;Target:0
1499118361687;3;1;FSR;SingleFinger;TOUCH_MOVED;1;642.8;176.0;1;638;638;33.0;Target:0;Target:0
1499118361711;3;1;FSR;SingleFinger;BUTTON_TRIGGERED;1;642.8;176.8;1;722;638;33.0;Target:0;Target:0
1499118361733;3;1;FSR;SingleFinger;TOUCH_MOVED;1;642.8;175.2;1;751;751;33.0;Target:5;Target:0
1499118361743;3;1;FSR;SingleFinger;TOUCH_MOVED;1;642.0;175.2;1;760;760;33.0;Target:5;Target:0
1499118361758;3;1;FSR;SingleFinger;TOUCH_MOVED;1;642.0;174.8;1;770;770;33.0;Target:5;Target:0
1499118361796;3;1;FSR;SingleFinger;TOUCH_MOVED;1;642.0;174.0;1;716;778;33.0;Target:5;Target:0
1499118361837;3;1;FSR;SingleFinger;TOUCH_MOVED;1;642.0;173.2;1;316;778;33.0;Target:5;Target:0
1499118361862;3;1;FSR;SingleFinger;TOUCH_MOVED;1;642.0;172.8;1;10;778;33.0;Target:5;Target:0
1499118361892;3;1;FSR;SingleFinger;TOUCH_RELEASED;1;642.0;172.8;1;12;778;33.0;Target:5;Target:0
1499118363812;3;1;FSR;SingleFinger;TOUCH_PRESSED;1;585.2;506.0;1;38;0;33.0;Target:5;Target:5
1499118363852;3;1;FSR;SingleFinger;TOUCH_MOVED;1;584.8;506.0;1;451;451;33.0;Target:5;Target:5
1499118363858;3;1;FSR;SingleFinger;TOUCH_MOVED;1;584.8;506.8;1;451;451;33.0;Target:5;Target:5
1499118363897;3;1;FSR;SingleFinger;TOUCH_MOVED;1;584.0;506.8;1;619;619;33.0;Target:5;Target:5
1499118363902;3;1;FSR;SingleFinger;TOUCH_MOVED;1;584.0;507.2;1;629;629;33.0;Target:5;Target:5
1499118363918;3;1;FSR;SingleFinger;TOUCH_MOVED;1;584.0;508.0;1;626;629;33.0;Target:5;Target:5
1499118363922;3;1;FSR;SingleFinger;TOUCH_MOVED;1;583.2;508.0;1;613;629;33.0;Target:5;Target:5
1499118363937;3;1;FSR;SingleFinger;TOUCH_MOVED;1;582.8;508.8;1;595;629;33.0;Target:5;Target:5
1499118363948;3;1;FSR;SingleFinger;TOUCH_MOVED;1;582.8;509.2;1;576;629;33.0;Target:5;Target:5
1499118363958;3;1;FSR;SingleFinger;TOUCH_MOVED;1;582.0;509.2;1;532;629;33.0;Target:5;Target:5
1499118363968;3;1;FSR;SingleFinger;TOUCH_MOVED;1;582.0;510.0;1;465;629;33.0;Target:5;Target:5
1499118363972;3;1;FSR;SingleFinger;TOUCH_MOVED;1;581.2;510.0;1;370;629;33.0;Target:5;Target:5
1499118363988;3;1;FSR;SingleFinger;TOUCH_MOVED;1;581.2;510.8;1;275;629;33.0;Target:5;Target:5
1499118363998;3;1;FSR;SingleFinger;TOUCH_MOVED;1;580.8;510.8;1;109;629;33.0;Target:5;Target:5
1499118364034;3;1;FSR;SingleFinger;TOUCH_RELEASED;1;580.8;510.8;1;8;629;33.0;Target:5;Target:5
1499118365778;3;1;FSR;SingleFinger;TOUCH_PRESSED;1;574.0;521.2;1;185;0;33.0;Target:5;Target:5
1499118365961;3;1;FSR;SingleFinger;TOUCH_RELEASED;1;574.0;521.2;1;10;590;33.0;Target:5;Target:5
1499118366545;3;1;FSR;SingleFinger;TOUCH_PRESSED;1;574.8;522.8;1;18;0;33.0;Target:5;Target:5
1499118366594;3;1;FSR;SingleFinger;TOUCH_MOVED;1;574.8;522.0;1;369;369;33.0;Target:5;Target:5
1499118366607;3;1;FSR;SingleFinger;TOUCH_MOVED;1;574.0;522.0;1;463;463;33.0;Target:5;Target:5
1499118366642;3;1;FSR;SingleFinger;TOUCH_MOVED;1;574.0;521.2;1;602;602;33.0;Target:5;Target:5
1499118366675;3;1;FSR;SingleFinger;TOUCH_MOVED;1;573.2;521.2;1;590;625;33.0;Target:5;Target:5
1499118366711;3;1;FSR;SingleFinger;TOUCH_MOVED;1;573.2;520.8;1;246;625;33.0;Target:5;Target:5
1499118366739;3;1;FSR;SingleFinger;TOUCH_MOVED;1;572.8;520.0;1;12;625;33.0;Target:5;Target:5
1499118366765;3;1;FSR;SingleFinger;TOUCH_RELEASED;1;572.8;520.0;1;12;625;33.0;Target:5;Target:5
1499118367269;3;1;FSR;SingleFinger;TOUCH_PRESSED;1;572.0;524.0;1;348;0;33.0;Target:5;Target:5
1499118367419;3;1;FSR;SingleFinger;TOUCH_MOVED;1;572.0;524.8;1;10;537;33.0;Target:5;Target:5
1499118367435;3;1;FSR;SingleFinger;TOUCH_MOVED;1;572.8;524.8;1;12;537;33.0;Target:5;Target:5
1499118367454;3;1;FSR;SingleFinger;TOUCH_RELEASED;1;572.8;524.8;1;11;537;33.0;Target:5;Target:5
1499118370457;3;1;FSR;SingleFinger;TOUCH_PRESSED;1;584.8;522.8;1;305;0;33.0;Target:5;Target:5
1499118370495;3;1;FSR;SingleFinger;TOUCH_MOVED;1;584.0;522.8;1;469;469;33.0;Target:5;Target:5
1499118370529;3;1;FSR;SingleFinger;TOUCH_MOVED;1;584.0;522.0;1;646;646;33.0;Target:5;Target:5
1499118370535;3;1;FSR;SingleFinger;TOUCH_MOVED;1;583.2;522.0;1;646;646;33.0;Target:5;Target:5
1499118370537;3;1;FSR;SingleFinger;BUTTON_TRIGGERED;1;584.8;522.8;1;704;646;33.0;Target:5;Target:5
1499118370563;3;1;FSR;SingleFinger;TOUCH_MOVED;1;582.8;522.0;1;763;763;33.0;Target:1;Target:5
1499118370615;3;1;FSR;SingleFinger;TOUCH_MOVED;1;582.0;522.0;1;836;836;33.0;Target:1;Target:5
1499118370680;3;1;FSR;SingleFinger;TOUCH_MOVED;1;581.2;522.0;1;800;854;33.0;Target:1;Target:5
1499118370700;3;1;FSR;SingleFinger;TOUCH_MOVED;1;581.2;521.2;1;739;854;33.0;Target:1;Target:5
1499118370740;3;1;FSR;SingleFinger;TOUCH_MOVED;1;580.8;521.2;1;223;854;33.0;Target:1;Target:5
1499118370765;3;1;FSR;SingleFinger;TOUCH_MOVED;1;580.8;520.8;1;12;854;33.0;Target:1;Target:5
1499118370795;3;1;FSR;SingleFinger;TOUCH_RELEASED;1;580.8;520.8;1;10;854;33.0;Target:1;Target:5
1499118371409;3;1;FSR;SingleFinger;TOUCH_PRESSED;1;751.2;214.0;1;342;0;33.0;Target:1;Target:1
1499118371457;3;1;FSR;SingleFinger;BUTTON_TRIGGERED;1;751.2;214.0;1;719;0;33.0;Target:1;Target:1
1499118371503;3;1;FSR;SingleFinger;TOUCH_MOVED;1;751.2;214.8;1;779;779;33.0;Target:6;Target:1
1499118371636;3;1;FSR;SingleFinger;TOUCH_RELEASED;1;751.2;214.8;1;10;790;33.0;Target:6;Target:1
1499118372190;3;1;FSR;SingleFinger;TOUCH_PRESSED;1;500.0;437.2;1;473;0;33.0;Target:6;Target:6
1499118372234;3;1;FSR;SingleFinger;TOUCH_MOVED;1;499.2;437.2;1;678;678;33.0;Target:6;Target:6
1499118372291;3;1;FSR;SingleFinger;TOUCH_MOVED;1;498.8;437.2;1;650;684;33.0;Target:6;Target:6
1499118372348;3;1;FSR;SingleFinger;TOUCH_MOVED;1;498.0;437.2;1;279;684;33.0;Target:6;Target:6
1499118372374;3;1;FSR;SingleFinger;TOUCH_MOVED;1;498.0;436.8;1;11;684;33.0;Target:6;Target:6
1499118372394;3;1;FSR;SingleFinger;TOUCH_RELEASED;1;498.0;436.8;1;11;684;33.0;Target:6;Target:6
1499118373198;3;1;FSR;SingleFinger;TOUCH_PRESSED;1;490.8;440.0;1;480;0;33.0;Target:6;Target:6
1499118373228;3;1;FSR;SingleFinger;TOUCH_MOVED;1;490.0;440.0;1;657;657;33.0;Target:6;Target:6
1499118373236;3;1;FSR;SingleFinger;TOUCH_MOVED;1;489.2;440.0;1;693;693;33.0;Target:6;Target:6
1499118373246;3;1;FSR;SingleFinger;BUTTON_TRIGGERED;1;490.8;440.0;1;721;693;33.0;Target:6;Target:6
1499118373254;3;1;FSR;SingleFinger;TOUCH_MOVED;1;488.8;440.0;1;721;721;33.0;Target:2;Target:6
1499118373267;3;1;FSR;SingleFinger;TOUCH_MOVED;1;488.0;440.0;1;776;776;33.0;Target:2;Target:6
1499118373281;3;1;FSR;SingleFinger;TOUCH_MOVED;1;487.2;440.0;1;779;779;33.0;Target:2;Target:6
1499118373300;3;1;FSR;SingleFinger;TOUCH_MOVED;1;486.8;440.0;1;775;791;33.0;Target:2;Target:6
1499118373327;3;1;FSR;SingleFinger;TOUCH_MOVED;1;486.0;439.2;1;801;801;33.0;Target:2;Target:6
1499118373346;3;1;FSR;SingleFinger;TOUCH_MOVED;1;485.2;439.2;1;814;814;33.0;Target:2;Target:6
1499118373386;3;1;FSR;SingleFinger;TOUCH_MOVED;1;484.8;439.2;1;792;815;33.0;Target:2;Target:6
1499118373419;3;1;FSR;SingleFinger;TOUCH_MOVED;1;484.0;439.2;1;661;815;33.0;Target:2;Target:6
1499118373451;3;1;FSR;SingleFinger;TOUCH_MOVED;1;483.2;439.2;1;274;815;33.0;Target:2;Target:6
1499118373480;3;1;FSR;SingleFinger;TOUCH_MOVED;1;483.2;438.8;1;14;815;33.0;Target:2;Target:6
1499118373501;3;1;FSR;SingleFinger;TOUCH_RELEASED;1;483.2;438.8;1;10;815;33.0;Target:2;Target:6
1499118373908;3;1;FSR;SingleFinger;TOUCH_PRESSED;1;828.8;321.2;1;486;0;33.0;Target:2;Target:2
1499118373935;3;1;FSR;SingleFinger;BUTTON_TRIGGERED;1;828.8;321.2;1;715;0;33.0;Target:2;Target:2
1499118374065;3;1;FSR;SingleFinger;TOUCH_MOVED;1;828.0;321.2;1;584;882;33.0;Target:7;Target:2
1499118374132;3;1;FSR;SingleFinger;TOUCH_RELEASED;1;828.0;321.2;1;12;882;33.0;Target:7;Target:2
1499118374756;3;1;FSR;SingleFinger;TOUCH_PRESSED;1;477.2;328.0;1;609;0;33.0;Target:7;Target:7
1499118374786;3;1;FSR;SingleFinger;TOUCH_MOVED;1;476.8;328.0;1;706;706;33.0;Target:7;Target:7
1499118374786;3;1;FSR;SingleFinger;BUTTON_TRIGGERED;1;477.2;328.0;1;706;706;33.0;Target:7;Target:7
1499118374950;3;1;FSR;SingleFinger;TOUCH_RELEASED;1;476.8;328.0;1;14;802;33.0;Target:3;Target:7
1499118375501;3;1;FSR;SingleFinger;TOUCH_PRESSED;1;800.8;448.0;1;359;0;33.0;Target:3;Target:3
1499118375565;3;1;FSR;SingleFinger;TOUCH_MOVED;1;800.0;448.0;1;630;630;33.0;Target:3;Target:3
1499118375700;3;1;FSR;SingleFinger;TOUCH_RELEASED;1;800.0;448.0;1;11;653;33.0;Target:3;Target:3
1499118377131;3;1;FSR;SingleFinger;TOUCH_PRESSED;1;793.2;447.2;1;325;0;33.0;Target:3;Target:3
1499118377194;3;1;FSR;SingleFinger;BUTTON_TRIGGERED;1;793.2;447.2;1;702;0;33.0;Target:3;Target:3
1499118377326;3;1;FSR;SingleFinger;TOUCH_RELEASED;1;793.2;447.2;1;11;717;33.0;Target:8;Target:3
1499118378034;3;1;FSR;SingleFinger;TOUCH_PRESSED;1;512.0;217.2;1;358;0;33.0;Target:8;Target:8
1499118378064;3;1;FSR;SingleFinger;BUTTON_TRIGGERED;1;512.0;217.2;1;710;0;33.0;Target:8;Target:8
1499118378153;3;1;FSR;SingleFinger;TOUCH_MOVED;1;512.0;216.8;1;235;732;33.0;Target:4;Target:8
1499118378203;3;1;FSR;SingleFinger;TOUCH_RELEASED;1;512.0;216.8;1;10;732;33.0;Target:4;Target:8
1499118378959;3;1;FSR;SingleFinger;TOUCH_PRESSED;1;711.2;528.8;1;400;0;33.0;Target:4;Target:4
1499118379117;3;1;FSR;SingleFinger;TOUCH_RELEASED;1;711.2;528.8;1;11;542;33.0;Target:4;Target:4
1499118379715;3;1;FSR;SingleFinger;TOUCH_PRESSED;1;694.0;517.2;1;417;0;33.0;Target:4;Target:4
1499118379735;3;1;FSR;SingleFinger;TOUCH_MOVED;1;693.2;517.2;1;487;487;33.0;Target:4;Target:4
1499118379763;3;1;FSR;SingleFinger;BUTTON_TRIGGERED;1;694.0;517.2;1;730;487;33.0;Target:4;Target:4
1499118379796;3;1;FSR;SingleFinger;TOUCH_MOVED;1;693.2;516.8;1;798;798;27.0;Target:0;Target:4
1499118379803;3;1;FSR;SingleFinger;TOUCH_MOVED;1;692.8;516.8;1;798;798;27.0;Target:0;Target:4
1499118379836;3;1;FSR;SingleFinger;TOUCH_MOVED;1;692.8;517.2;1;832;838;27.0;Target:0;Target:4
1499118379932;3;1;FSR;SingleFinger;TOUCH_MOVED;1;692.0;517.2;1;131;845;27.0;Target:0;Target:4
1499118379967;3;1;FSR;SingleFinger;TOUCH_RELEASED;1;692.0;517.2;1;11;845;27.0;Target:0;Target:4
1499118380634;3;1;FSR;SingleFinger;TOUCH_PRESSED;1;640.8;173.2;1;459;0;27.0;Target:0;Target:0
1499118380664;3;1;FSR;SingleFinger;BUTTON_TRIGGERED;1;640.8;173.2;1;735;0;27.0;Target:0;Target:0
1499118380834;3;1;FSR;SingleFinger;TOUCH_RELEASED;1;640.8;173.2;1;11;814;27.0;Target:5;Target:0
1499118381404;3;1;FSR;SingleFinger;TOUCH_PRESSED;1;585.2;513.2;1;461;0;27.0;Target:5;Target:5
1499118381453;3;1;FSR;SingleFinger;BUTTON_TRIGGERED;1;585.2;513.2;1;733;0;27.0;Target:5;Target:5
1499118381528;3;1;FSR;SingleFinger;TOUCH_MOVED;1;585.2;514.0;1;805;838;27.0;Target:1;Target:5
1499118381585;3;1;FSR;SingleFinger;TOUCH_MOVED;1;584.8;514.0;1;20;838;27.0;Target:1;Target:5
1499118381595;3;1;FSR;SingleFinger;TOUCH_MOVED;1;584.8;513.2;1;11;838;27.0;Target:1;Target:5
1499118381619;3;1;FSR;SingleFinger;TOUCH_RELEASED;1;584.8;513.2;1;9;838;27.0;Target:1;Target:5
1499118382174;3;1;FSR;SingleFinger;TOUCH_PRESSED;1;744.8;213.2;1;253;0;27.0;Target:1;Target:1
1499118382262;3;1;FSR;SingleFinger;BUTTON_TRIGGERED;1;744.8;213.2;1;702;0;27.0;Target:1;Target:1
1499118382279;3;1;FSR;SingleFinger;TOUCH_MOVED;1;745.2;213.2;1;729;729;27.0;Target:6;Target:1
1499118382377;3;1;FSR;SingleFinger;TOUCH_MOVED;1;746.0;213.2;1;411;797;27.0;Target:6;Target:1
1499118382431;3;1;FSR;SingleFinger;TOUCH_RELEASED;1;746.0;213.2;1;11;797;27.0;Target:6;Target:1
1499118382908;3;1;FSR;SingleFinger;TOUCH_PRESSED;1;469.2;445.2;1;437;0;27.0;Target:6;Target:6
1499118383071;3;1;FSR;SingleFinger;TOUCH_MOVED;1;470.0;445.2;1;27;699;27.0;Target:6;Target:6
1499118383101;3;1;FSR;SingleFinger;TOUCH_RELEASED;1;470.0;445.2;1;12;699;27.0;Target:6;Target:6
1499118383829;3;1;FSR;SingleFinger;TOUCH_PRESSED;1;492.0;434.8;1;396;0;27.0;Target:6;Target:6
1499118383882;3;1;FSR;SingleFinger;BUTTON_TRIGGERED;1;492.0;434.8;1;720;0;27.0;Target:6;Target:6
1499118383903;3;1;FSR;SingleFinger;TOUCH_MOVED;1;491.2;434.8;1;758;758;27.0;Target:2;Target:6
1499118384007;3;1;FSR;SingleFinger;TOUCH_MOVED;1;490.8;434.8;1;531;815;27.0;Target:2;Target:6
1499118384051;3;1;FSR;SingleFinger;TOUCH_MOVED;1;490.0;434.8;1;23;815;27.0;Target:2;Target:6
1499118384071;3;1;FSR;SingleFinger;TOUCH_MOVED;1;490.8;434.8;1;12;815;27.0;Target:2;Target:6
1499118384091;3;1;FSR;SingleFinger;TOUCH_RELEASED;1;490.8;434.8;1;10;815;27.0;Target:2;Target:6
1499118384455;3;1;FSR;SingleFinger;TOUCH_PRESSED;1;802.8;320.8;1;9;0;27.0;Target:2;Target:2
1499118384548;3;1;FSR;SingleFinger;TOUCH_MOVED;1;802.8;320.0;1;286;286;27.0;Target:2;Target:2
1499118384554;3;1;FSR;SingleFinger;TOUCH_MOVED;1;803.2;320.0;1;287;287;27.0;Target:2;Target:2
1499118384622;3;1;FSR;SingleFinger;BUTTON_TRIGGERED;1;802.8;320.8;1;712;287;27.0;Target:2;Target:2
1499118384652;3;1;FSR;SingleFinger;TOUCH_MOVED;1;803.2;320.8;1;794;794;27.0;Target:7;Target:2
1499118384803;3;1;FSR;SingleFinger;TOUCH_RELEASED;1;803.2;320.8;1;7;825;27.0;Target:7;Target:2
1499118385280;3;1;FSR;SingleFinger;TOUCH_PRESSED;1;484.8;331.2;1;211;0;27.0;Target:7;Target:7
1499118385442;3;1;FSR;SingleFinger;BUTTON_TRIGGERED;1;484.8;331.2;1;705;0;27.0;Target:7;Target:7
1499118385508;3;1;FSR;SingleFinger;TOUCH_MOVED;1;484.0;331.2;1;173;705;27.0;Target:3;Target:7
1499118385564;3;1;FSR;SingleFinger;TOUCH_RELEASED;1;484.0;331.2;1;14;705;27.0;Target:3;Target:7
1499118386183;3;1;FSR;SingleFinger;TOUCH_PRESSED;1;804.8;450.0;1;290;0;27.0;Target:3;Target:3
1499118386243;3;1;FSR;SingleFinger;TOUCH_MOVED;1;804.8;450.8;1;473;473;27.0;Target:3;Target:3
1499118386403;3;1;FSR;SingleFinger;TOUCH_RELEASED;1;804.8;450.8;1;10;489;27.0;Target:3;Target:3
1499118387087;3;1;FSR;SingleFinger;TOUCH_PRESSED;1;781.2;442.8;1;24;0;27.0;Target:3;Target:3
1499118387360;3;1;FSR;SingleFinger;TOUCH_MOVED;1;781.2;443.2;1;11;659;27.0;Target:3;Target:3
1499118387370;3;1;FSR;SingleFinger;TOUCH_MOVED;1;781.2;444.0;1;12;659;27.0;Target:3;Target:3
1499118387391;3;1;FSR;SingleFinger;TOUCH_RELEASED;1;781.2;444.0;1;13;659;27.0;Target:3;Target:3
1499118387938;3;1;FSR;SingleFinger;TOUCH_PRESSED;1;802.8;446.8;1;119;0;27.0;Target:3;Target:3
1499118387986;3;1;FSR;SingleFinger;TOUCH_MOVED;1;803.2;446.8;1;239;239;27.0;Target:3;Target:3
1499118387992;3;1;FSR;SingleFinger;TOUCH_MOVED;1;803.2;447.2;1;297;297;27.0;Target:3;Target:3
1499118388003;3;1;FSR;SingleFinger;TOUCH_MOVED;1;804.0;447.2;1;384;384;27.0;Target:3;Target:3
1499118388028;3;1;FSR;SingleFinger;TOUCH_MOVED;1;804.8;447.2;1;568;568;27.0;Target:3;Target:3
1499118388041;3;1;FSR;SingleFinger;TOUCH_MOVED;1;804.8;448.0;1;694;694;27.0;Target:3;Target:3
1499118388048;3;1;FSR;SingleFinger;TOUCH_MOVED;1;805.2;448.0;1;694;694;27.0;Target:3;Target:3
1499118388050;3;1;FSR;SingleFinger;BUTTON_TRIGGERED;1;802.8;446.8;1;715;694;27.0;Target:3;Target:3
1499118388081;3;1;FSR;SingleFinger;TOUCH_MOVED;1;805.2;448.8;1;719;735;27.0;Target:8;Target:3
1499118388094;3;1;FSR;SingleFinger;TOUCH_MOVED;1;806.0;448.8;1;682;735;27.0;Target:8;Target:3
1499118388179;3;1;FSR;SingleFinger;TOUCH_MOVED;1;806.8;448.8;1;96;735;27.0;Target:8;Target:3
1499118388248;3;1;FSR;SingleFinger;TOUCH_RELEASED;1;806.8;448.8;1;11;735;27.0;Target:8;Target:3
1499118388810;3;1;FSR;SingleFinger;TOUCH_PRESSED;1;518.0;213.2;1;628;0;27.0;Target:8;Target:8
1499118388830;3;1;FSR;SingleFinger;BUTTON_TRIGGERED;1;518.0;213.2;1;737;0;27.0;Target:8;Target:8
1499118388895;3;1;FSR;SingleFinger;TOUCH_MOVED;1;518.8;213.2;1;789;811;27.0;Target:4;Target:8
1499118388902;3;1;FSR;SingleFinger;TOUCH_MOVED;1;518.8;214.0;1;798;811;27.0;Target:4;Target:8
1499118389000;3;1;FSR;SingleFinger;TOUCH_RELEASED;1;518.8;214.0;1;11;811;27.0;Target:4;Target:8
1499118389638;3;1;FSR;SingleFinger;TOUCH_PRESSED;1;727.2;529.2;1;425;0;27.0;Target:4;Target:4
1499118389829;3;1;FSR;SingleFinger;TOUCH_RELEASED;1;727.2;529.2;1;11;538;27.0;Target:4;Target:4
1499118390265;3;1;FSR;SingleFinger;TOUCH_PRESSED;1;702.0;516.8;1;392;0;27.0;Target:4;Target:4
1499118390310;3;1;FSR;SingleFinger;BUTTON_TRIGGERED;1;702.0;516.8;1;727;0;27.0;Target:4;Target:4
1499118390340;3;1;FSR;SingleFinger;TOUCH_MOVED;1;702.0;517.2;1;830;830;20.0;Target:0;Target:4
1499118390353;3;1;FSR;SingleFinger;TOUCH_MOVED;1;701.2;517.2;1;837;837;20.0;Target:0;Target:4
1499118390477;3;1;FSR;SingleFinger;TOUCH_MOVED;1;701.2;518.0;1;386;866;20.0;Target:0;Target:4
1499118390484;3;1;FSR;SingleFinger;TOUCH_MOVED;1;700.8;518.0;1;217;866;20.0;Target:0;Target:4
1499118390530;3;1;FSR;SingleFinger;TOUCH_RELEASED;1;700.8;518.0;1;11;866;20.0;Target:0;Target:4
1499118391049;3;1;FSR;SingleFinger;TOUCH_PRESSED;1;632.8;179.2;1;324;0;20.0;Target:0;Target:0
1499118391090;3;1;FSR;SingleFinger;BUTTON_TRIGGERED;1;632.8;179.2;1;713;0;20.0;Target:0;Target:0
1499118391094;3;1;FSR;SingleFinger;TOUCH_MOVED;1;633.2;179.2;1;713;713;20.0;Target:5;Target:0
1499118391185;3;1;FSR;SingleFinger;TOUCH_MOVED;1;633.2;178.8;1;737;810;20.0;Target:5;Target:0
1499118391219;3;1;FSR;SingleFinger;TOUCH_MOVED;1;633.2;178.0;1;298;810;20.0;Target:5;Target:0
1499118391235;3;1;FSR;SingleFinger;TOUCH_MOVED;1;634.0;178.0;1;62;810;20.0;Target:5;Target:0
1499118391271;3;1;FSR;SingleFinger;TOUCH_RELEASED;1;634.0;178.0;1;13;810;20.0;Target:5;Target:0
1499118391756;3;1;FSR;SingleFinger;TOUCH_PRESSED;1;583.2;518.0;1;251;0;20.0;Target:5;Target:5
1499118391820;3;1;FSR;SingleFinger;TOUCH_MOVED;1;583.2;518.8;1;634;634;20.0;Target:5;Target:5
1499118391946;3;1;FSR;SingleFinger;TOUCH_RELEASED;1;583.2;518.8;1;12;634;20.0;Target:5;Target:5
1499118392674;3;1;FSR;SingleFinger;TOUCH_PRESSED;1;580.0;521.2;1;312;0;20.0;Target:5;Target:5
1499118392697;3;1;FSR;SingleFinger;TOUCH_MOVED;1;579.2;521.2;1;440;440;20.0;Target:5;Target:5
1499118392749;3;1;FSR;SingleFinger;BUTTON_TRIGGERED;1;580.0;521.2;1;709;440;20.0;Target:5;Target:5
1499118392884;3;1;FSR;SingleFinger;TOUCH_MOVED;1;580.0;521.2;1;13;770;20.0;Target:1;Target:5
1499118392918;3;1;FSR;SingleFinger;TOUCH_RELEASED;1;580.0;521.2;1;10;770;20.0;Target:1;Target:5
1499118393380;3;1;FSR;SingleFinger;TOUCH_PRESSED;1;756.0;216.8;1;332;0;20.0;Target:1;Target:1
1499118393416;3;1;FSR;SingleFinger;TOUCH_MOVED;1;756.0;216.0;1;530;530;20.0;Target:1;Target:1
1499118393430;3;1;FSR;SingleFinger;TOUCH_MOVED;1;756.8;215.2;1;671;671;20.0;Target:1;Target:1
1499118393439;3;1;FSR;SingleFinger;BUTTON_TRIGGERED;1;756.0;216.8;1;726;671;20.0;Target:1;Target:1
1499118393451;3;1;FSR;SingleFinger;TOUCH_MOVED;1;756.8;214.8;1;768;768;20.0;Target:6;Target:1
1499118393468;3;1;FSR;SingleFinger;TOUCH_MOVED;1;756.8;214.0;1;784;784;20.0;Target:6;Target:1
1499118393489;3;1;FSR;SingleFinger;TOUCH_MOVED;1;757.2;214.0;1;809;809;20.0;Target:6;Target:1
1499118393495;3;1;FSR;SingleFinger;TOUCH_MOVED;1;757.2;213.2;1;822;822;20.0;Target:6;Target:1
1499118393522;3;1;FSR;SingleFinger;TOUCH_MOVED;1;757.2;212.8;1;809;822;20.0;Target:6;Target:1
1499118393548;3;1;FSR;SingleFinger;TOUCH_MOVED;1;757.2;212.0;1;773;822;20.0;Target:6;Target:1
1499118393576;3;1;FSR;SingleFinger;TOUCH_MOVED;1;757.2;211.2;1;513;822;20.0;Target:6;Target:1
1499118393596;3;1;FSR;SingleFinger;TOUCH_MOVED;1;757.2;210.8;1;178;822;20.0;Target:6;Target:1
1499118393662;3;1;FSR;SingleFinger;TOUCH_RELEASED;1;757.2;210.8;1;9;822;20.0;Target:6;Target:1
1499118394172;3;1;FSR;SingleFinger;TOUCH_PRESSED;1;484.8;442.8;1;370;0;20.0;Target:6;Target:6
1499118394230;3;1;FSR;SingleFinger;TOUCH_MOVED;1;484.8;442.0;1;710;710;20.0;Target:6;Target:6
1499118394230;3;1;FSR;SingleFinger;BUTTON_TRIGGERED;1;484.8;442.8;1;710;710;20.0;Target:6;Target:6
1499118394243;3;1;FSR;SingleFinger;TOUCH_MOVED;1;484.0;442.0;1;729;729;20.0;Target:2;Target:6
1499118394345;3;1;FSR;SingleFinger;TOUCH_MOVED;1;484.0;441.2;1;235;763;20.0;Target:2;Target:6
1499118394351;3;1;FSR;SingleFinger;TOUCH_MOVED;1;483.2;441.2;1;138;763;20.0;Target:2;Target:6
1499118394395;3;1;FSR;SingleFinger;TOUCH_RELEASED;1;483.2;441.2;1;13;763;20.0;Target:2;Target:6
1499118394878;3;1;FSR;SingleFinger;TOUCH_PRESSED;1;826.0;326.8;1;407;0;20.0;Target:2;Target:2
1499118394938;3;1;FSR;SingleFinger;BUTTON_TRIGGERED;1;826.0;326.8;1;728;0;20.0;Target:2;Target:2
1499118394970;3;1;FSR;SingleFinger;TOUCH_MOVED;1;825.2;326.8;1;828;828;20.0;Target:7;Target:2
1499118395042;3;1;FSR;SingleFinger;TOUCH_MOVED;1;824.8;326.8;1;728;842;20.0;Target:7;Target:2
1499118395131;3;1;FSR;SingleFinger;TOUCH_RELEASED;1;824.8;326.8;1;8;842;20.0;Target:7;Target:2
1499118395676;3;1;FSR;SingleFinger;TOUCH_PRESSED;1;474.0;320.8;1;23;0;20.0;Target:7;Target:7
1499118395738;3;1;FSR;SingleFinger;BUTTON_TRIGGERED;1;474.0;320.8;1;720;0;20.0;Target:7;Target:7
1499118395744;3;1;FSR;SingleFinger;TOUCH_MOVED;1;473.2;320.8;1;720;720;20.0;Target:3;Target:7
1499118395765;3;1;FSR;SingleFinger;TOUCH_MOVED;1;473.2;320.0;1;747;747;20.0;Target:3;Target:7
1499118395778;3;1;FSR;SingleFinger;TOUCH_MOVED;1;472.8;320.0;1;728;747;20.0;Target:3;Target:7
1499118395797;3;1;FSR;SingleFinger;TOUCH_MOVED;1;472.0;320.0;1;687;747;20.0;Target:3;Target:7
1499118395817;3;1;FSR;SingleFinger;TOUCH_MOVED;1;472.0;319.2;1;588;747;20.0;Target:3;Target:7
1499118395823;3;1;FSR;SingleFinger;TOUCH_MOVED;1;471.2;319.2;1;516;747;20.0;Target:3;Target:7
1499118395853;3;1;FSR;SingleFinger;TOUCH_MOVED;1;470.8;319.2;1;109;747;20.0;Target:3;Target:7
1499118395857;3;1;FSR;SingleFinger;TOUCH_MOVED;1;470.8;318.8;1;109;747;20.0;Target:3;Target:7
1499118395907;3;1;FSR;SingleFinger;TOUCH_RELEASED;1;470.8;318.8;1;12;747;20.0;Target:3;Target:7
1499118396434;3;1;FSR;SingleFinger;TOUCH_PRESSED;1;796.8;446.8;1;262;0;20.0;Target:3;Target:3
1499118396508;3;1;FSR;SingleFinger;BUTTON_TRIGGERED;1;796.8;446.8;1;715;0;20.0;Target:3;Target:3
1499118396645;3;1;FSR;SingleFinger;TOUCH_RELEASED;1;796.8;446.8;1;9;722;20.0;Target:8;Target:3
1499118397271;3;1;FSR;SingleFinger;TOUCH_PRESSED;1;532.8;210.8;1;394;0;20.0;Target:8;Target:8
1499118397290;3;1;FSR;SingleFinger;TOUCH_PRESSED;2;640.8;416.0;2;552;0;20.0;Target:8;None
1499118397303;3;1;FSR;SingleFinger;TOUCH_MOVED;1;532.0;210.8;2;575;575;20.0;Target:8;Target:8
1499118397309;3;1;FSR;SingleFinger;TOUCH_MOVED;2;640.8;416.8;2;615;615;20.0;Target:8;None
1499118397330;3;1;FSR;SingleFinger;TOUCH_PRESSED;3;646.0;380.8;3;670;0;20.0;Target:8;None
1499118397347;3;1;FSR;SingleFinger;BUTTON_TRIGGERED;1;532.8;210.8;1;709;0;20.0;Target:8;Target:8
1499118397382;3;1;FSR;SingleFinger;TOUCH_MOVED;2;641.2;416.8;3;660;716;20.0;Target:4;None
1499118397408;3;1;FSR;SingleFinger;TOUCH_RELEASED;2;641.2;416.8;3;346;716;20.0;Target:4;None
1499118397414;3;1;FSR;SingleFinger;TOUCH_RELEASED;3;646.0;380.8;2;346;716;20.0;Target:4;None
1499118397465;3;1;FSR;SingleFinger;TOUCH_RELEASED;1;532.0;210.8;1;10;716;20.0;Target:4;Target:8
1499118398129;3;1;FSR;SingleFinger;TOUCH_PRESSED;1;704.0;521.2;1;328;0;20.0;Target:4;Target:4
1499118398315;3;1;FSR;SingleFinger;TOUCH_MOVED;1;704.0;520.8;1;14;604;20.0;Target:4;Target:4
1499118398359;3;1;FSR;SingleFinger;TOUCH_RELEASED;1;704.0;520.8;1;9;604;20.0;Target:4;Target:4
1499118398979;3;1;FSR;SingleFinger;TOUCH_PRESSED;1;691.2;506.8;1;345;0;20.0;Target:4;None
1499118399057;3;1;FSR;SingleFinger;BUTTON_TRIGGERED;1;704.0;521.2;1;703;0;20.0;Target:4;Target:4
1499118399062;3;1;FSR;SingleFinger;TOUCH_MOVED;1;691.2;507.2;1;703;703;20.0;None;None
1499118399107;3;1;FSR;SingleFinger;TOUCH_MOVED;1;691.2;508.0;1;798;798;20.0;None;None
1499118399113;3;1;FSR;SingleFinger;TOUCH_MOVED;1;692.0;508.0;1;821;821;20.0;None;None
1499118399140;3;1;FSR;SingleFinger;TOUCH_MOVED;1;692.0;508.8;1;840;846;20.0;None;None
1499118399167;3;1;FSR;SingleFinger;TOUCH_MOVED;1;692.8;508.8;1;825;852;20.0;None;None
1499118399180;3;1;FSR;SingleFinger;TOUCH_MOVED;1;692.8;509.2;1;776;852;20.0;None;None
1499118399263;3;1;FSR;SingleFinger;TOUCH_MOVED;1;692.8;510.0;1;11;852;20.0;None;None
1499118399267;3;1;FSR;SingleFinger;TOUCH_MOVED;1;693.2;510.8;1;11;852;20.0;None;None
1499118399288;3;1;FSR;SingleFinger;TOUCH_RELEASED;1;693.2;510.8;1;10;852;20.0;None;None
