Timestamp;Participant;Study;Method;Variant;TouchEvent;TouchId;TouchX;TouchY;TouchCount;Pressure;MaxPressure;TargetRadius;WidgetHighlighted;WidgetHovered
1499720941619;21;1;DOUBLETAP;SingleFinger;TOUCH_PRESSED;1;628.6666666666666;174.0;1;28;0;33.0;Target:0;Target:0
1499720941675;21;1;DOUBLETAP;SingleFinger;TOUCH_MOVED;1;628.6666666666666;174.66666666666666;1;30;30;33.0;Target:0;Target:0
1499720941733;21;1;DOUBLETAP;SingleFinger;TOUCH_RELEASED;1;628.6666666666666;174.66666666666666;1;28;31;33.0;Target:0;Target:0
1499720941824;21;1;DOUBLETAP;SingleFinger;TOUCH_PRESSED;1;633.3333333333334;178.66666666666666;1;33;0;33.0;Target:0;Target:0
1499720941830;21;1;DOUBLETAP;SingleFinger;TOUCH_MOVED;1;633.3333333333334;178.0;1;33;0;33.0;Target:0;Target:0
1499720941835;21;1;DOUBLETAP;SingleFinger;TOUCH_MOVED;1;633.3333333333334;177.33333333333334;1;28;28;33.0;Target:0;Target:0
1499720941841;21;1;DOUBLETAP;SingleFinger;TOUCH_MOVED;1;633.3333333333334;176.66666666666666;1;28;28;33.0;Target:0;Target:0
1499720941845;21;1;DOUBLETAP;SingleFinger;TOUCH_MOVED;1;633.3333333333334;176.0;1;28;28;33.0;Target:0;Target:0
1499720941851;21;1;DOUBLETAP;SingleFinger;TOUCH_MOVED;1;633.3333333333334;175.33333333333334;1;26;28;33.0;Target:0;Target:0
1499720941854;21;1;DOUBLETAP;SingleFinger;TOUCH_MOVED;1;633.3333333333334;174.66666666666666;1;26;28;33.0;Target:0;Target:0
1499720941860;21;1;DOUBLETAP;SingleFinger;TOUCH_MOVED;1;633.3333333333334;174.0;1;29;29;33.0;Target:0;Target:0
1499720941865;21;1;DOUBLETAP;SingleFinger;TOUCH_MOVED;1;633.3333333333334;173.33333333333334;1;29;29;33.0;Target:0;Target:0
1499720941871;21;1;DOUBLETAP;SingleFinger;TOUCH_MOVED;1;633.3333333333334;172.66666666666666;1;30;30;33.0;Target:0;Target:0
1499720941875;21;1;DOUBLETAP;SingleFinger;TOUCH_MOVED;1;633.3333333333334;171.33333333333334;1;30;30;33.0;Target:0;Target:0
1499720941898;21;1;DOUBLETAP;SingleFinger;TOUCH_RELEASED;1;633.3333333333334;171.33333333333334;1;29;30;33.0;Target:0;Target:0
1499720941898;21;1;DOUBLETAP;SingleFinger;BUTTON_TRIGGERED;1;633.3333333333334;171.33333333333334;1;29;30;33.0;Target:0;Target:0
1499720942563;21;1;DOUBLETAP;SingleFinger;TOUCH_PRESSED;1;575.3333333333334;548.0;1;31;0;33.0;Target:5;Target:5
1499720942647;21;1;DOUBLETAP;SingleFinger;TOUCH_MOVED;1;575.3333333333334;547.3333333333334;1;29;30;33.0;Target:5;Target:5
1499720942688;21;1;DOUBLETAP;SingleFinger;TOUCH_RELEASED;1;575.3333333333334;547.3333333333334;1;27;33;33.0;Target:5;Target:5
1499720942777;21;1;DOUBLETAP;SingleFinger;TOUCH_PRESSED;1;572.6666666666666;499.3333333333333;1;24;0;33.0;Target:5;Target:5
1499720942842;21;1;DOUBLETAP;SingleFinger;TOUCH_MOVED;1;572.6666666666666;500.0;1;31;32;33.0;Target:5;Target:5
1499720942857;21;1;DOUBLETAP;SingleFinger;TOUCH_MOVED;1;573.3333333333334;500.0;1;28;32;33.0;Target:5;Target:5
1499720942867;21;1;DOUBLETAP;SingleFinger;TOUCH_MOVED;1;573.3333333333334;500.6666666666667;1;30;32;33.0;Target:5;Target:5
1499720942891;21;1;DOUBLETAP;SingleFinger;TOUCH_RELEASED;1;573.3333333333334;500.6666666666667;1;29;32;33.0;Target:5;Target:5
1499720942891;21;1;DOUBLETAP;SingleFinger;BUTTON_TRIGGERED;1;573.3333333333334;500.6666666666667;1;29;32;33.0;Target:5;Target:5
1499720943493;21;1;DOUBLETAP;SingleFinger;TOUCH_PRESSED;1;761.3333333333334;204.0;1;29;0;33.0;Target:1;Target:1
1499720943519;21;1;DOUBLETAP;SingleFinger;TOUCH_MOVED;1;761.3333333333334;203.33333333333334;1;31;31;33.0;Target:1;Target:1
1499720943608;21;1;DOUBLETAP;SingleFinger;TOUCH_RELEASED;1;761.3333333333334;203.33333333333334;1;29;31;33.0;Target:1;Target:1
1499720943682;21;1;DOUBLETAP;SingleFinger;TOUCH_PRESSED;1;760.0;208.0;1;29;0;33.0;Target:1;Target:1
1499720943693;21;1;DOUBLETAP;SingleFinger;TOUCH_MOVED;1;760.0;208.66666666666666;1;29;29;33.0;Target:1;Target:1
1499720943696;21;1;DOUBLETAP;SingleFinger;TOUCH_MOVED;1;760.0;209.33333333333334;1;29;29;33.0;Target:1;Target:1
1499720943702;21;1;DOUBLETAP;SingleFinger;TOUCH_MOVED;1;759.3333333333334;209.33333333333334;1;28;29;33.0;Target:1;Target:1
1499720943709;21;1;DOUBLETAP;SingleFinger;TOUCH_MOVED;1;759.3333333333334;210.0;1;28;29;33.0;Target:1;Target:1
1499720943712;21;1;DOUBLETAP;SingleFinger;TOUCH_MOVED;1;759.3333333333334;210.66666666666666;1;29;29;33.0;Target:1;Target:1
1499720943723;21;1;DOUBLETAP;SingleFinger;TOUCH_MOVED;1;759.3333333333334;211.33333333333334;1;28;29;33.0;Target:1;Target:1
1499720943749;21;1;DOUBLETAP;SingleFinger;TOUCH_RELEASED;1;759.3333333333334;211.33333333333334;1;30;30;33.0;Target:1;Target:1
1499720943749;21;1;DOUBLETAP;SingleFinger;BUTTON_TRIGGERED;1;759.3333333333334;211.33333333333334;1;30;30;33.0;Target:1;Target:1
1499720944334;21;1;DOUBLETAP;SingleFinger;TOUCH_PRESSED;1;494.6666666666667;422.6666666666667;1;30;0;33.0;Target:6;Target:6
1499720944349;21;1;DOUBLETAP;SingleFinger;TOUCH_MOVED;1;494.0;422.6666666666667;1;30;30;33.0;Target:6;Target:6
1499720944353;21;1;DOUBLETAP;SingleFinger;TOUCH_MOVED;1;494.0;422.0;1;28;30;33.0;Target:6;Target:6
1499720944385;21;1;DOUBLETAP;SingleFinger;TOUCH_MOVED;1;493.3333333333333;422.0;1;29;30;33.0;Target:6;Target:6
1499720944416;21;1;DOUBLETAP;SingleFinger;TOUCH_MOVED;1;492.6666666666667;422.0;1;31;31;33.0;Target:6;Target:6
1499720944466;21;1;DOUBLETAP;SingleFinger;TOUCH_RELEASED;1;492.6666666666667;422.0;1;30;32;33.0;Target:6;Target:6
1499720944545;21;1;DOUBLETAP;SingleFinger;TOUCH_PRESSED;1;496.0;466.0;1;28;0;33.0;Target:6;Target:6
1499720944619;21;1;DOUBLETAP;SingleFinger;TOUCH_RELEASED;1;496.0;466.0;1;32;32;33.0;Target:6;Target:6
1499720944619;21;1;DOUBLETAP;SingleFinger;BUTTON_TRIGGERED;1;496.0;466.0;1;32;32;33.0;Target:6;Target:6
1499720945212;21;1;DOUBLETAP;SingleFinger;TOUCH_PRESSED;1;831.3333333333334;325.3333333333333;1;29;0;33.0;Target:2;Target:2
1499720945251;21;1;DOUBLETAP;SingleFinger;TOUCH_MOVED;1;830.6666666666666;325.3333333333333;1;29;30;33.0;Target:2;Target:2
1499720945266;21;1;DOUBLETAP;SingleFinger;TOUCH_MOVED;1;830.6666666666666;324.6666666666667;1;27;30;33.0;Target:2;Target:2
1499720945276;21;1;DOUBLETAP;SingleFinger;TOUCH_MOVED;1;830.0;324.6666666666667;1;29;30;33.0;Target:2;Target:2
1499720945281;21;1;DOUBLETAP;SingleFinger;TOUCH_MOVED;1;830.0;324.0;1;29;30;33.0;Target:2;Target:2
1499720945291;21;1;DOUBLETAP;SingleFinger;TOUCH_MOVED;1;829.3333333333334;324.0;1;25;30;33.0;Target:2;Target:2
1499720945296;21;1;DOUBLETAP;SingleFinger;TOUCH_MOVED;1;829.3333333333334;323.3333333333333;1;24;30;33.0;Target:2;Target:2
1499720945306;21;1;DOUBLETAP;SingleFinger;TOUCH_MOVED;1;828.6666666666666;323.3333333333333;1;29;30;33.0;Target:2;Target:2
1499720945321;21;1;DOUBLETAP;SingleFinger;TOUCH_MOVED;1;828.6666666666666;322.6666666666667;1;29;30;33.0;Target:2;Target:2
1499720945336;21;1;DOUBLETAP;SingleFinger;TOUCH_MOVED;1;828.0;322.6666666666667;1;29;31;33.0;Target:2;Target:2
1499720945366;21;1;DOUBLETAP;SingleFinger;TOUCH_RELEASED;1;828.0;322.6666666666667;1;29;31;33.0;Target:2;Target:2
1499720945426;21;1;DOUBLETAP;SingleFinger;TOUCH_PRESSED;1;830.6666666666666;370.0;1;30;0;33.0;Target:2;None
1499720945511;21;1;DOUBLETAP;SingleFinger;TOUCH_RELEASED;1;830.6666666666666;370.0;1;28;30;33.0;Target:2;None
1499720945974;21;1;DOUBLETAP;SingleFinger;TOUCH_PRESSED;1;826.6666666666666;302.6666666666667;1;26;0;33.0;Target:2;Target:2
1499720946114;21;1;DOUBLETAP;SingleFinger;TOUCH_RELEASED;1;826.6666666666666;302.6666666666667;1;29;31;33.0;Target:2;Target:2
1499720946212;21;1;DOUBLETAP;SingleFinger;TOUCH_PRESSED;1;823.3333333333334;300.6666666666667;1;27;0;33.0;Target:2;Target:2
1499720946224;21;1;DOUBLETAP;SingleFinger;TOUCH_MOVED;1;822.6666666666666;300.0;1;27;27;33.0;Target:2;Target:2
1499720946252;21;1;DOUBLETAP;SingleFinger;TOUCH_MOVED;1;822.0;300.0;1;31;31;33.0;Target:2;Target:2
1499720946285;21;1;DOUBLETAP;SingleFinger;TOUCH_MOVED;1;822.0;300.6666666666667;1;28;31;33.0;Target:2;Target:2
1499720946310;21;1;DOUBLETAP;SingleFinger;TOUCH_RELEASED;1;822.0;300.6666666666667;1;30;31;33.0;Target:2;Target:2
1499720946310;21;1;DOUBLETAP;SingleFinger;BUTTON_TRIGGERED;1;822.0;300.6666666666667;1;30;31;33.0;Target:2;Target:2
1499720946911;21;1;DOUBLETAP;SingleFinger;TOUCH_PRESSED;1;442.0;320.0;1;27;0;33.0;Target:7;Target:7
1499720946949;21;1;DOUBLETAP;SingleFinger;TOUCH_MOVED;1;442.0;320.6666666666667;1;29;31;33.0;Target:7;Target:7
1499720947045;21;1;DOUBLETAP;SingleFinger;TOUCH_RELEASED;1;442.0;320.6666666666667;1;29;31;33.0;Target:7;Target:7
1499720947124;21;1;DOUBLETAP;SingleFinger;TOUCH_PRESSED;1;454.0;316.6666666666667;1;28;0;33.0;Target:7;Target:7
1499720947223;21;1;DOUBLETAP;SingleFinger;TOUCH_RELEASED;1;454.0;316.6666666666667;1;29;30;33.0;Target:7;Target:7
1499720947223;21;1;DOUBLETAP;SingleFinger;BUTTON_TRIGGERED;1;454.0;316.6666666666667;1;29;30;33.0;Target:7;Target:7
1499720947935;21;1;DOUBLETAP;SingleFinger;TOUCH_PRESSED;1;803.3333333333334;471.3333333333333;1;29;0;33.0;Target:3;Target:3
1499720948050;21;1;DOUBLETAP;SingleFinger;TOUCH_RELEASED;1;803.3333333333334;471.3333333333333;1;29;31;33.0;Target:3;Target:3
1499720948119;21;1;DOUBLETAP;SingleFinger;TOUCH_PRESSED;1;800.6666666666666;453.3333333333333;1;29;0;33.0;Target:3;Target:3
1499720948189;21;1;DOUBLETAP;SingleFinger;TOUCH_MOVED;1;800.6666666666666;454.0;1;28;30;33.0;Target:3;Target:3
1499720948200;21;1;DOUBLETAP;SingleFinger;TOUCH_MOVED;1;801.3333333333334;454.6666666666667;1;29;30;33.0;Target:3;Target:3
1499720948206;21;1;DOUBLETAP;SingleFinger;TOUCH_MOVED;1;801.3333333333334;456.0;1;29;30;33.0;Target:3;Target:3
1499720948210;21;1;DOUBLETAP;SingleFinger;TOUCH_MOVED;1;802.0;458.0;1;29;30;33.0;Target:3;Target:3
1499720948216;21;1;DOUBLETAP;SingleFinger;TOUCH_MOVED;1;803.3333333333334;460.0;1;28;30;33.0;Target:3;Target:3
1499720948220;21;1;DOUBLETAP;SingleFinger;TOUCH_MOVED;1;804.0;463.3333333333333;1;28;30;33.0;Target:3;Target:3
1499720948241;21;1;DOUBLETAP;SingleFinger;TOUCH_RELEASED;1;804.0;463.3333333333333;1;29;30;33.0;Target:3;Target:3
1499720948242;21;1;DOUBLETAP;SingleFinger;BUTTON_TRIGGERED;1;804.0;463.3333333333333;1;29;30;33.0;Target:3;Target:3
1499720948836;21;1;DOUBLETAP;SingleFinger;TOUCH_PRESSED;1;539.3333333333334;238.0;1;29;0;33.0;Target:8;Target:8
1499720948910;21;1;DOUBLETAP;SingleFinger;TOUCH_MOVED;1;539.3333333333334;237.33333333333334;1;29;30;33.0;Target:8;Target:8
1499720948960;21;1;DOUBLETAP;SingleFinger;TOUCH_RELEASED;1;539.3333333333334;237.33333333333334;1;33;33;33.0;Target:8;Target:8
1499720949034;21;1;DOUBLETAP;SingleFinger;TOUCH_PRESSED;1;526.0;201.33333333333334;1;30;0;33.0;Target:8;Target:8
1499720949078;21;1;DOUBLETAP;SingleFinger;TOUCH_MOVED;1;525.3333333333334;201.33333333333334;1;30;30;33.0;Target:8;Target:8
1499720949139;21;1;DOUBLETAP;SingleFinger;TOUCH_RELEASED;1;525.3333333333334;201.33333333333334;1;27;33;33.0;Target:8;Target:8
1499720949139;21;1;DOUBLETAP;SingleFinger;BUTTON_TRIGGERED;1;525.3333333333334;201.33333333333334;1;27;33;33.0;Target:8;Target:8
1499720951035;21;1;DOUBLETAP;SingleFinger;TOUCH_PRESSED;1;722.0;501.3333333333333;1;27;0;33.0;Target:4;None
1499720951054;21;1;DOUBLETAP;SingleFinger;TOUCH_MOVED;1;722.0;500.6666666666667;1;25;26;33.0;Target:4;None
1499720951094;21;1;DOUBLETAP;SingleFinger;TOUCH_MOVED;1;721.3333333333334;500.6666666666667;1;28;30;33.0;Target:4;None
1499720951175;21;1;DOUBLETAP;SingleFinger;TOUCH_RELEASED;1;721.3333333333334;500.6666666666667;1;26;30;33.0;Target:4;None
1499720951264;21;1;DOUBLETAP;SingleFinger;TOUCH_PRESSED;1;716.6666666666666;558.0;1;28;0;33.0;Target:4;Target:4
1499720951332;21;1;DOUBLETAP;SingleFinger;TOUCH_MOVED;1;716.6666666666666;557.3333333333334;1;27;29;33.0;Target:4;Target:4
1499720951353;21;1;DOUBLETAP;SingleFinger;TOUCH_RELEASED;1;716.6666666666666;557.3333333333334;1;27;29;33.0;Target:4;Target:4
1499720951427;21;1;DOUBLETAP;SingleFinger;TOUCH_PRESSED;1;706.0;535.3333333333334;1;28;0;33.0;Target:4;Target:4
1499720951520;21;1;DOUBLETAP;SingleFinger;TOUCH_RELEASED;1;706.0;535.3333333333334;1;27;29;33.0;Target:4;Target:4
1499720951520;21;1;DOUBLETAP;SingleFinger;BUTTON_TRIGGERED;1;706.0;535.3333333333334;1;27;29;33.0;Target:4;Target:4
1499720952129;21;1;DOUBLETAP;SingleFinger;TOUCH_PRESSED;1;621.3333333333334;167.33333333333334;1;27;0;27.0;Target:0;Target:0
1499720952249;21;1;DOUBLETAP;SingleFinger;TOUCH_RELEASED;1;621.3333333333334;167.33333333333334;1;27;30;27.0;Target:0;Target:0
1499720952339;21;1;DOUBLETAP;SingleFinger;TOUCH_PRESSED;1;628.6666666666666;183.33333333333334;1;29;0;27.0;Target:0;Target:0
1499720952343;21;1;DOUBLETAP;SingleFinger;TOUCH_MOVED;1;628.6666666666666;184.66666666666666;1;29;0;27.0;Target:0;Target:0
1499720952348;21;1;DOUBLETAP;SingleFinger;TOUCH_MOVED;1;628.6666666666666;185.33333333333334;1;31;31;27.0;Target:0;Target:0
1499720952354;21;1;DOUBLETAP;SingleFinger;TOUCH_MOVED;1;628.6666666666666;186.0;1;27;31;27.0;Target:0;Target:0
1499720952360;21;1;DOUBLETAP;SingleFinger;TOUCH_MOVED;1;628.6666666666666;186.66666666666666;1;27;31;27.0;Target:0;Target:0
1499720952366;21;1;DOUBLETAP;SingleFinger;TOUCH_MOVED;1;629.3333333333334;187.33333333333334;1;29;31;27.0;Target:0;Target:0
1499720952373;21;1;DOUBLETAP;SingleFinger;TOUCH_MOVED;1;629.3333333333334;188.0;1;29;31;27.0;Target:0;Target:0
1499720952380;21;1;DOUBLETAP;SingleFinger;TOUCH_MOVED;1;629.3333333333334;188.66666666666666;1;30;31;27.0;Target:0;Target:0
1499720952384;21;1;DOUBLETAP;SingleFinger;TOUCH_MOVED;1;629.3333333333334;189.33333333333334;1;26;31;27.0;Target:0;Target:0
1499720952404;21;1;DOUBLETAP;SingleFinger;TOUCH_RELEASED;1;629.3333333333334;189.33333333333334;1;24;31;27.0;Target:0;Target:0
1499720952404;21;1;DOUBLETAP;SingleFinger;BUTTON_TRIGGERED;1;629.3333333333334;189.33333333333334;1;24;31;27.0;Target:0;Target:0
1499720953001;21;1;DOUBLETAP;SingleFinger;TOUCH_PRESSED;1;582.0;532.0;1;30;0;27.0;Target:5;Target:5
1499720953030;21;1;DOUBLETAP;SingleFinger;TOUCH_MOVED;1;582.0;531.3333333333334;1;28;30;27.0;Target:5;Target:5
1499720953115;21;1;DOUBLETAP;SingleFinger;TOUCH_RELEASED;1;582.0;531.3333333333334;1;28;30;27.0;Target:5;Target:5
1499720953180;21;1;DOUBLETAP;SingleFinger;TOUCH_PRESSED;1;582.0;534.6666666666666;1;27;0;27.0;Target:5;Target:5
1499720953184;21;1;DOUBLETAP;SingleFinger;TOUCH_MOVED;1;582.0;535.3333333333334;1;29;29;27.0;Target:5;Target:5
1499720953190;21;1;DOUBLETAP;SingleFinger;TOUCH_MOVED;1;582.0;536.0;1;29;29;27.0;Target:5;Target:5
1499720953199;21;1;DOUBLETAP;SingleFinger;TOUCH_MOVED;1;582.0;536.6666666666666;1;27;29;27.0;Target:5;Target:5
1499720953204;21;1;DOUBLETAP;SingleFinger;TOUCH_MOVED;1;581.3333333333334;536.6666666666666;1;27;29;27.0;Target:5;Target:5
1499720953209;21;1;DOUBLETAP;SingleFinger;TOUCH_MOVED;1;581.3333333333334;537.3333333333334;1;27;29;27.0;Target:5;Target:5
1499720953219;21;1;DOUBLETAP;SingleFinger;TOUCH_MOVED;1;581.3333333333334;538.0;1;26;29;27.0;Target:5;Target:5
1499720953250;21;1;DOUBLETAP;SingleFinger;TOUCH_RELEASED;1;581.3333333333334;538.0;1;29;29;27.0;Target:5;Target:5
1499720953250;21;1;DOUBLETAP;SingleFinger;BUTTON_TRIGGERED;1;581.3333333333334;538.0;1;29;29;27.0;Target:5;Target:5
1499720953810;21;1;DOUBLETAP;SingleFinger;TOUCH_PRESSED;1;751.3333333333334;230.66666666666666;1;29;0;27.0;Target:1;Target:1
1499720953853;21;1;DOUBLETAP;SingleFinger;TOUCH_MOVED;1;751.3333333333334;230.0;1;27;29;27.0;Target:1;Target:1
1499720953879;21;1;DOUBLETAP;SingleFinger;TOUCH_MOVED;1;751.3333333333334;229.33333333333334;1;29;29;27.0;Target:1;Target:1
1499720953889;21;1;DOUBLETAP;SingleFinger;TOUCH_MOVED;1;750.6666666666666;229.33333333333334;1;25;29;27.0;Target:1;Target:1
1499720953909;21;1;DOUBLETAP;SingleFinger;TOUCH_RELEASED;1;750.6666666666666;229.33333333333334;1;24;29;27.0;Target:1;Target:1
1499720953952;21;1;DOUBLETAP;SingleFinger;TOUCH_PRESSED;1;760.6666666666666;180.66666666666666;1;28;0;27.0;Target:1;None
1499720954055;21;1;DOUBLETAP;SingleFinger;TOUCH_RELEASED;1;760.6666666666666;180.66666666666666;1;27;28;27.0;Target:1;None
1499720954335;21;1;DOUBLETAP;SingleFinger;TOUCH_PRESSED;1;773.3333333333334;159.33333333333334;1;29;0;27.0;Target:1;None
1499720954404;21;1;DOUBLETAP;SingleFinger;TOUCH_MOVED;1;773.3333333333334;160.0;1;27;30;27.0;Target:1;None
1499720954419;21;1;DOUBLETAP;SingleFinger;TOUCH_MOVED;1;773.3333333333334;161.33333333333334;1;28;30;27.0;Target:1;None
1499720954424;21;1;DOUBLETAP;SingleFinger;TOUCH_MOVED;1;773.3333333333334;162.66666666666666;1;26;30;27.0;Target:1;None
1499720954444;21;1;DOUBLETAP;SingleFinger;TOUCH_RELEASED;1;773.3333333333334;162.66666666666666;1;28;30;27.0;Target:1;None
1499720954775;21;1;DOUBLETAP;SingleFinger;TOUCH_PRESSED;1;756.6666666666666;226.0;1;26;0;27.0;Target:1;Target:1
1499720954865;21;1;DOUBLETAP;SingleFinger;TOUCH_MOVED;1;757.3333333333334;226.0;1;28;29;27.0;Target:1;Target:1
1499720954891;21;1;DOUBLETAP;SingleFinger;TOUCH_MOVED;1;757.3333333333334;226.66666666666666;1;26;29;27.0;Target:1;Target:1
1499720954935;21;1;DOUBLETAP;SingleFinger;TOUCH_RELEASED;1;757.3333333333334;226.66666666666666;1;27;30;27.0;Target:1;Target:1
1499720955010;21;1;DOUBLETAP;SingleFinger;TOUCH_PRESSED;1;738.0;228.66666666666666;1;27;0;27.0;Target:1;Target:1
1499720955045;21;1;DOUBLETAP;SingleFinger;TOUCH_MOVED;1;738.0;229.33333333333334;1;26;30;27.0;Target:1;Target:1
1499720955062;21;1;DOUBLETAP;SingleFinger;TOUCH_MOVED;1;738.6666666666666;230.0;1;27;30;27.0;Target:1;Target:1
1499720955068;21;1;DOUBLETAP;SingleFinger;TOUCH_MOVED;1;738.6666666666666;230.66666666666666;1;28;30;27.0;Target:1;Target:1
1499720955074;21;1;DOUBLETAP;SingleFinger;TOUCH_MOVED;1;738.6666666666666;231.33333333333334;1;28;30;27.0;Target:1;Target:1
1499720955078;21;1;DOUBLETAP;SingleFinger;TOUCH_MOVED;1;739.3333333333334;232.0;1;28;30;27.0;Target:1;Target:1
1499720955084;21;1;DOUBLETAP;SingleFinger;TOUCH_MOVED;1;740.0;233.33333333333334;1;28;30;27.0;Target:1;Target:1
1499720955088;21;1;DOUBLETAP;SingleFinger;TOUCH_MOVED;1;740.6666666666666;234.66666666666666;1;28;30;27.0;Target:1;Target:1
1499720955094;21;1;DOUBLETAP;SingleFinger;TOUCH_MOVED;1;741.3333333333334;235.33333333333334;1;28;30;27.0;Target:1;Target:1
1499720955102;21;1;DOUBLETAP;SingleFinger;TOUCH_MOVED;1;742.0;237.33333333333334;1;28;30;27.0;Target:1;Target:1
1499720955118;21;1;DOUBLETAP;SingleFinger;TOUCH_RELEASED;1;742.0;237.33333333333334;1;28;30;27.0;Target:1;Target:1
1499720955118;21;1;DOUBLETAP;SingleFinger;BUTTON_TRIGGERED;1;742.0;237.33333333333334;1;28;30;27.0;Target:1;Target:1
1499720956315;21;1;DOUBLETAP;SingleFinger;TOUCH_PRESSED;1;488.0;472.0;1;28;0;27.0;Target:6;Target:6
1499720956381;21;1;DOUBLETAP;SingleFinger;TOUCH_MOVED;1;488.0;472.6666666666667;1;26;28;27.0;Target:6;Target:6
1499720956402;21;1;DOUBLETAP;SingleFinger;TOUCH_RELEASED;1;488.0;472.6666666666667;1;28;28;27.0;Target:6;Target:6
1499720956515;21;1;DOUBLETAP;SingleFinger;TOUCH_PRESSED;1;488.0;450.6666666666667;1;28;0;27.0;Target:6;Target:6
1499720956549;21;1;DOUBLETAP;SingleFinger;TOUCH_MOVED;1;488.0;450.0;1;30;30;27.0;Target:6;Target:6
1499720956575;21;1;DOUBLETAP;SingleFinger;TOUCH_MOVED;1;487.3333333333333;450.0;1;28;30;27.0;Target:6;Target:6
1499720956626;21;1;DOUBLETAP;SingleFinger;TOUCH_MOVED;1;487.3333333333333;450.6666666666667;1;29;30;27.0;Target:6;Target:6
1499720956650;21;1;DOUBLETAP;SingleFinger;TOUCH_RELEASED;1;487.3333333333333;450.6666666666667;1;29;30;27.0;Target:6;Target:6
1499720956650;21;1;DOUBLETAP;SingleFinger;BUTTON_TRIGGERED;1;487.3333333333333;450.6666666666667;1;29;30;27.0;Target:6;Target:6
1499720958218;21;1;DOUBLETAP;SingleFinger;TOUCH_PRESSED;1;838.0;351.3333333333333;1;28;0;27.0;Target:2;None
1499720958276;21;1;DOUBLETAP;SingleFinger;TOUCH_MOVED;1;838.0;352.0;1;30;31;27.0;Target:2;None
1499720958307;21;1;DOUBLETAP;SingleFinger;TOUCH_MOVED;1;838.0;352.6666666666667;1;28;31;27.0;Target:2;None
1499720958312;21;1;DOUBLETAP;SingleFinger;TOUCH_MOVED;1;838.0;353.3333333333333;1;28;31;27.0;Target:2;None
1499720958316;21;1;DOUBLETAP;SingleFinger;TOUCH_MOVED;1;838.0;355.3333333333333;1;29;31;27.0;Target:2;None
1499720958337;21;1;DOUBLETAP;SingleFinger;TOUCH_RELEASED;1;838.0;355.3333333333333;1;31;31;27.0;Target:2;None
1499720958485;21;1;DOUBLETAP;SingleFinger;TOUCH_PRESSED;1;815.3333333333334;348.6666666666667;1;26;0;27.0;Target:2;Target:2
1499720958594;21;1;DOUBLETAP;SingleFinger;TOUCH_RELEASED;1;815.3333333333334;348.6666666666667;1;30;32;27.0;Target:2;Target:2
1499720958668;21;1;DOUBLETAP;SingleFinger;TOUCH_PRESSED;1;802.0;322.0;1;29;0;27.0;Target:2;Target:2
1499720958728;21;1;DOUBLETAP;SingleFinger;TOUCH_MOVED;1;802.6666666666666;322.0;1;29;30;27.0;Target:2;Target:2
1499720958733;21;1;DOUBLETAP;SingleFinger;TOUCH_MOVED;1;802.6666666666666;322.6666666666667;1;29;30;27.0;Target:2;Target:2
1499720958738;21;1;DOUBLETAP;SingleFinger;TOUCH_MOVED;1;802.6666666666666;323.3333333333333;1;25;30;27.0;Target:2;Target:2
1499720958744;21;1;DOUBLETAP;SingleFinger;TOUCH_MOVED;1;802.6666666666666;324.0;1;25;30;27.0;Target:2;Target:2
1499720958750;21;1;DOUBLETAP;SingleFinger;TOUCH_MOVED;1;803.3333333333334;324.6666666666667;1;32;32;27.0;Target:2;Target:2
1499720958754;21;1;DOUBLETAP;SingleFinger;TOUCH_MOVED;1;803.3333333333334;326.6666666666667;1;32;32;27.0;Target:2;Target:2
1499720958760;21;1;DOUBLETAP;SingleFinger;TOUCH_MOVED;1;804.0;328.6666666666667;1;28;32;27.0;Target:2;Target:2
1499720958781;21;1;DOUBLETAP;SingleFinger;TOUCH_RELEASED;1;804.0;328.6666666666667;1;28;32;27.0;Target:2;Target:2
1499720958781;21;1;DOUBLETAP;SingleFinger;BUTTON_TRIGGERED;1;804.0;328.6666666666667;1;28;32;27.0;Target:2;Target:2
1499720959449;21;1;DOUBLETAP;SingleFinger;TOUCH_PRESSED;1;457.3333333333333;329.3333333333333;1;26;0;27.0;Target:7;Target:7
1499720959583;21;1;DOUBLETAP;SingleFinger;TOUCH_RELEASED;1;457.3333333333333;329.3333333333333;1;29;30;27.0;Target:7;Target:7
1499720959641;21;1;DOUBLETAP;SingleFinger;TOUCH_PRESSED;1;460.6666666666667;290.0;1;28;0;27.0;Target:7;None
1499720959741;21;1;DOUBLETAP;SingleFinger;TOUCH_RELEASED;1;460.6666666666667;290.0;1;31;31;27.0;Target:7;None
1499720960167;21;1;DOUBLETAP;SingleFinger;TOUCH_PRESSED;1;469.3333333333333;286.6666666666667;1;27;0;27.0;Target:7;None
1499720960218;21;1;DOUBLETAP;SingleFinger;TOUCH_MOVED;1;469.3333333333333;287.3333333333333;1;28;28;27.0;Target:7;None
1499720960231;21;1;DOUBLETAP;SingleFinger;TOUCH_MOVED;1;470.0;287.3333333333333;1;27;28;27.0;Target:7;None
1499720960238;21;1;DOUBLETAP;SingleFinger;TOUCH_MOVED;1;470.0;288.0;1;27;28;27.0;Target:7;None
1499720960249;21;1;DOUBLETAP;SingleFinger;TOUCH_MOVED;1;469.3333333333333;289.3333333333333;1;27;28;27.0;Target:7;None
1499720960254;21;1;DOUBLETAP;SingleFinger;TOUCH_MOVED;1;469.3333333333333;290.6666666666667;1;27;28;27.0;Target:7;None
1499720960259;21;1;DOUBLETAP;SingleFinger;TOUCH_MOVED;1;469.3333333333333;292.6666666666667;1;25;28;27.0;Target:7;None
1499720960264;21;1;DOUBLETAP;SingleFinger;TOUCH_MOVED;1;469.3333333333333;294.0;1;25;28;27.0;Target:7;None
1499720960269;21;1;DOUBLETAP;SingleFinger;TOUCH_MOVED;1;469.3333333333333;296.0;1;24;28;27.0;Target:7;None
1499720960290;21;1;DOUBLETAP;SingleFinger;TOUCH_RELEASED;1;469.3333333333333;296.0;1;25;28;27.0;Target:7;None
1499720960585;21;1;DOUBLETAP;SingleFinger;TOUCH_PRESSED;1;470.0;360.0;1;27;0;27.0;Target:7;None
1499720960646;21;1;DOUBLETAP;SingleFinger;TOUCH_MOVED;1;470.6666666666667;360.0;1;28;31;27.0;Target:7;None
1499720960682;21;1;DOUBLETAP;SingleFinger;TOUCH_RELEASED;1;470.6666666666667;360.0;1;26;31;27.0;Target:7;None
1499720960800;21;1;DOUBLETAP;SingleFinger;TOUCH_PRESSED;1;463.3333333333333;264.6666666666667;1;29;0;27.0;Target:7;None
1499720960889;21;1;DOUBLETAP;SingleFinger;TOUCH_MOVED;1;464.0;265.3333333333333;1;29;31;27.0;Target:7;None
1499720960899;21;1;DOUBLETAP;SingleFinger;TOUCH_MOVED;1;464.6666666666667;266.0;1;30;31;27.0;Target:7;None
1499720960920;21;1;DOUBLETAP;SingleFinger;TOUCH_RELEASED;1;464.6666666666667;266.0;1;27;31;27.0;Target:7;None
1499720961240;21;1;DOUBLETAP;SingleFinger;TOUCH_PRESSED;1;469.3333333333333;356.6666666666667;1;28;0;27.0;Target:7;None
1499720961370;21;1;DOUBLETAP;SingleFinger;TOUCH_RELEASED;1;469.3333333333333;356.6666666666667;1;28;31;27.0;Target:7;None
1499720961478;21;1;DOUBLETAP;SingleFinger;TOUCH_PRESSED;1;464.6666666666667;333.3333333333333;1;29;0;27.0;Target:7;Target:7
1499720961529;21;1;DOUBLETAP;SingleFinger;TOUCH_MOVED;1;464.6666666666667;334.0;1;33;33;27.0;Target:7;Target:7
1499720961555;21;1;DOUBLETAP;SingleFinger;TOUCH_MOVED;1;464.6666666666667;334.6666666666667;1;27;33;27.0;Target:7;Target:7
1499720961560;21;1;DOUBLETAP;SingleFinger;TOUCH_MOVED;1;465.3333333333333;334.6666666666667;1;28;33;27.0;Target:7;Target:7
1499720961565;21;1;DOUBLETAP;SingleFinger;TOUCH_MOVED;1;465.3333333333333;335.3333333333333;1;28;33;27.0;Target:7;Target:7
1499720961570;21;1;DOUBLETAP;SingleFinger;TOUCH_MOVED;1;465.3333333333333;336.0;1;30;33;27.0;Target:7;Target:7
1499720961575;21;1;DOUBLETAP;SingleFinger;TOUCH_MOVED;1;466.0;337.3333333333333;1;30;33;27.0;Target:7;Target:7
1499720961595;21;1;DOUBLETAP;SingleFinger;TOUCH_RELEASED;1;466.0;337.3333333333333;1;29;33;27.0;Target:7;Target:7
1499720961699;21;1;DOUBLETAP;SingleFinger;TOUCH_PRESSED;1;461.3333333333333;272.6666666666667;1;29;0;27.0;Target:7;None
1499720961728;21;1;DOUBLETAP;SingleFinger;TOUCH_MOVED;1;460.6666666666667;272.6666666666667;1;29;30;27.0;Target:7;None
1499720961758;21;1;DOUBLETAP;SingleFinger;TOUCH_MOVED;1;460.6666666666667;272.0;1;29;30;27.0;Target:7;None
1499720961793;21;1;DOUBLETAP;SingleFinger;TOUCH_RELEASED;1;460.6666666666667;272.0;1;30;30;27.0;Target:7;None
1499720962793;21;1;DOUBLETAP;SingleFinger;TOUCH_PRESSED;1;475.3333333333333;310.0;1;28;0;27.0;Target:7;Target:7
1499720962835;21;1;DOUBLETAP;SingleFinger;TOUCH_MOVED;1;475.3333333333333;309.3333333333333;1;29;31;27.0;Target:7;Target:7
1499720962860;21;1;DOUBLETAP;SingleFinger;TOUCH_MOVED;1;474.6666666666667;308.6666666666667;1;31;31;27.0;Target:7;Target:7
1499720962875;21;1;DOUBLETAP;SingleFinger;TOUCH_MOVED;1;474.6666666666667;308.0;1;29;31;27.0;Target:7;Target:7
1499720962885;21;1;DOUBLETAP;SingleFinger;TOUCH_MOVED;1;474.6666666666667;307.3333333333333;1;30;31;27.0;Target:7;Target:7
1499720962889;21;1;DOUBLETAP;SingleFinger;TOUCH_MOVED;1;474.0;306.0;1;30;31;27.0;Target:7;Target:7
1499720962910;21;1;DOUBLETAP;SingleFinger;TOUCH_RELEASED;1;474.0;306.0;1;31;31;27.0;Target:7;Target:7
1499720963674;21;1;DOUBLETAP;SingleFinger;TOUCH_PRESSED;1;479.3333333333333;310.0;1;27;0;27.0;Target:7;Target:7
1499720963769;21;1;DOUBLETAP;SingleFinger;TOUCH_RELEASED;1;479.3333333333333;310.0;1;28;29;27.0;Target:7;Target:7
1499720963883;21;1;DOUBLETAP;SingleFinger;TOUCH_PRESSED;1;483.3333333333333;262.0;1;27;0;27.0;Target:7;None
1499720963939;21;1;DOUBLETAP;SingleFinger;TOUCH_MOVED;1;483.3333333333333;262.6666666666667;1;27;29;27.0;Target:7;None
1499720963944;21;1;DOUBLETAP;SingleFinger;TOUCH_MOVED;1;483.3333333333333;263.3333333333333;1;27;29;27.0;Target:7;None
1499720963964;21;1;DOUBLETAP;SingleFinger;TOUCH_RELEASED;1;483.3333333333333;263.3333333333333;1;26;29;27.0;Target:7;None
1499720964689;21;1;DOUBLETAP;SingleFinger;TOUCH_PRESSED;1;454.0;306.6666666666667;1;29;0;27.0;Target:7;Target:7
1499720964747;21;1;DOUBLETAP;SingleFinger;TOUCH_MOVED;1;454.0;306.0;1;28;29;27.0;Target:7;Target:7
1499720964767;21;1;DOUBLETAP;SingleFinger;TOUCH_MOVED;1;453.3333333333333;306.0;1;26;29;27.0;Target:7;Target:7
1499720964792;21;1;DOUBLETAP;SingleFinger;TOUCH_MOVED;1;453.3333333333333;305.3333333333333;1;25;30;27.0;Target:7;Target:7
1499720964813;21;1;DOUBLETAP;SingleFinger;TOUCH_RELEASED;1;453.3333333333333;305.3333333333333;1;31;31;27.0;Target:7;Target:7
1499720965218;21;1;DOUBLETAP;SingleFinger;TOUCH_PRESSED;1;470.6666666666667;296.0;1;28;0;27.0;Target:7;None
1499720965329;21;1;DOUBLETAP;SingleFinger;TOUCH_RELEASED;1;470.6666666666667;296.0;1;27;29;27.0;Target:7;None
1499720965423;21;1;DOUBLETAP;SingleFinger;TOUCH_PRESSED;1;468.0;362.0;1;28;0;27.0;Target:7;None
1499720965522;21;1;DOUBLETAP;SingleFinger;TOUCH_RELEASED;1;468.0;362.0;1;29;29;27.0;Target:7;None
1499720965636;21;1;DOUBLETAP;SingleFinger;TOUCH_PRESSED;1;461.3333333333333;330.0;1;27;0;27.0;Target:7;Target:7
1499720965680;21;1;DOUBLETAP;SingleFinger;TOUCH_MOVED;1;461.3333333333333;330.6666666666667;1;26;29;27.0;Target:7;Target:7
1499720965691;21;1;DOUBLETAP;SingleFinger;TOUCH_MOVED;1;462.0;330.6666666666667;1;26;29;27.0;Target:7;Target:7
1499720965703;21;1;DOUBLETAP;SingleFinger;TOUCH_MOVED;1;462.0;331.3333333333333;1;27;29;27.0;Target:7;Target:7
1499720965708;21;1;DOUBLETAP;SingleFinger;TOUCH_MOVED;1;462.0;332.0;1;27;29;27.0;Target:7;Target:7
1499720965713;21;1;DOUBLETAP;SingleFinger;TOUCH_MOVED;1;462.6666666666667;333.3333333333333;1;27;29;27.0;Target:7;Target:7
1499720965718;21;1;DOUBLETAP;SingleFinger;TOUCH_MOVED;1;462.6666666666667;334.0;1;27;29;27.0;Target:7;Target:7
1499720965724;21;1;DOUBLETAP;SingleFinger;TOUCH_MOVED;1;463.3333333333333;335.3333333333333;1;27;29;27.0;Target:7;Target:7
1499720965730;21;1;DOUBLETAP;SingleFinger;TOUCH_MOVED;1;463.3333333333333;337.3333333333333;1;26;29;27.0;Target:7;Target:7
1499720965734;21;1;DOUBLETAP;SingleFinger;TOUCH_MOVED;1;464.0;338.6666666666667;1;26;29;27.0;Target:7;Target:7
1499720965740;21;1;DOUBLETAP;SingleFinger;TOUCH_MOVED;1;464.6666666666667;341.3333333333333;1;27;29;27.0;Target:7;Target:7
1499720965760;21;1;DOUBLETAP;SingleFinger;TOUCH_RELEASED;1;464.6666666666667;341.3333333333333;1;27;29;27.0;Target:7;Target:7
1499720965986;21;1;DOUBLETAP;SingleFinger;TOUCH_PRESSED;1;478.0;353.3333333333333;1;27;0;27.0;Target:7;None
1499720966075;21;1;DOUBLETAP;SingleFinger;TOUCH_RELEASED;1;478.0;353.3333333333333;1;27;28;27.0;Target:7;None
1499720966340;21;1;DOUBLETAP;SingleFinger;TOUCH_PRESSED;1;456.6666666666667;329.3333333333333;1;27;0;27.0;Target:7;Target:7
1499720966454;21;1;DOUBLETAP;SingleFinger;TOUCH_RELEASED;1;456.6666666666667;329.3333333333333;1;27;28;27.0;Target:7;Target:7
1499720966539;21;1;DOUBLETAP;SingleFinger;TOUCH_PRESSED;1;456.0;342.0;1;27;0;27.0;Target:7;Target:7
1499720966543;21;1;DOUBLETAP;SingleFinger;TOUCH_MOVED;1;456.0;343.3333333333333;1;27;0;27.0;Target:7;Target:7
1499720966549;21;1;DOUBLETAP;SingleFinger;TOUCH_MOVED;1;456.6666666666667;344.0;1;25;25;27.0;Target:7;Target:7
1499720966553;21;1;DOUBLETAP;SingleFinger;TOUCH_MOVED;1;456.6666666666667;345.3333333333333;1;25;25;27.0;Target:7;Target:7
1499720966558;21;1;DOUBLETAP;SingleFinger;TOUCH_MOVED;1;456.6666666666667;346.0;1;27;27;27.0;Target:7;Target:7
1499720966563;21;1;DOUBLETAP;SingleFinger;TOUCH_MOVED;1;456.6666666666667;346.6666666666667;1;27;27;27.0;Target:7;Target:7
1499720966568;21;1;DOUBLETAP;SingleFinger;TOUCH_MOVED;1;457.3333333333333;347.3333333333333;1;29;29;27.0;Target:7;Target:7
1499720966573;21;1;DOUBLETAP;SingleFinger;TOUCH_MOVED;1;457.3333333333333;348.0;1;29;29;27.0;Target:7;Target:7
1499720966578;21;1;DOUBLETAP;SingleFinger;TOUCH_MOVED;1;457.3333333333333;348.6666666666667;1;27;29;27.0;Target:7;Target:7
1499720966602;21;1;DOUBLETAP;SingleFinger;TOUCH_RELEASED;1;457.3333333333333;348.6666666666667;1;27;29;27.0;Target:7;Target:7
1499720966603;21;1;DOUBLETAP;SingleFinger;BUTTON_TRIGGERED;1;457.3333333333333;348.6666666666667;1;27;29;27.0;Target:7;Target:7
1499720967488;21;1;DOUBLETAP;SingleFinger;TOUCH_PRESSED;1;796.6666666666666;445.3333333333333;1;28;0;27.0;Target:3;Target:3
1499720967620;21;1;DOUBLETAP;SingleFinger;TOUCH_RELEASED;1;796.6666666666666;445.3333333333333;1;28;32;27.0;Target:3;Target:3
1499720967689;21;1;DOUBLETAP;SingleFinger;TOUCH_PRESSED;1;804.6666666666666;452.0;1;26;0;27.0;Target:3;Target:3
1499720967739;21;1;DOUBLETAP;SingleFinger;TOUCH_MOVED;1;804.0;452.0;1;24;28;27.0;Target:3;Target:3
1499720967748;21;1;DOUBLETAP;SingleFinger;TOUCH_MOVED;1;804.0;451.3333333333333;1;28;28;27.0;Target:3;Target:3
1499720967789;21;1;DOUBLETAP;SingleFinger;TOUCH_MOVED;1;804.0;450.6666666666667;1;29;29;27.0;Target:3;Target:3
1499720967839;21;1;DOUBLETAP;SingleFinger;TOUCH_RELEASED;1;804.0;450.6666666666667;1;23;29;27.0;Target:3;Target:3
1499720967839;21;1;DOUBLETAP;SingleFinger;BUTTON_TRIGGERED;1;804.0;450.6666666666667;1;23;29;27.0;Target:3;Target:3
1499720968703;21;1;DOUBLETAP;SingleFinger;TOUCH_PRESSED;1;521.3333333333334;222.0;1;28;0;27.0;Target:8;Target:8
1499720968768;21;1;DOUBLETAP;SingleFinger;TOUCH_MOVED;1;520.6666666666666;222.0;1;25;30;27.0;Target:8;Target:8
1499720968774;21;1;DOUBLETAP;SingleFinger;TOUCH_MOVED;1;520.6666666666666;221.33333333333334;1;25;30;27.0;Target:8;Target:8
1499720968833;21;1;DOUBLETAP;SingleFinger;TOUCH_RELEASED;1;520.6666666666666;221.33333333333334;1;28;30;27.0;Target:8;Target:8
1499720968924;21;1;DOUBLETAP;SingleFinger;TOUCH_PRESSED;1;518.6666666666666;218.0;1;29;0;27.0;Target:8;Target:8
1499720968930;21;1;DOUBLETAP;SingleFinger;TOUCH_MOVED;1;518.6666666666666;218.66666666666666;1;26;26;27.0;Target:8;Target:8
1499720968969;21;1;DOUBLETAP;SingleFinger;TOUCH_MOVED;1;518.6666666666666;219.33333333333334;1;24;28;27.0;Target:8;Target:8
1499720969009;21;1;DOUBLETAP;SingleFinger;TOUCH_RELEASED;1;518.6666666666666;219.33333333333334;1;27;29;27.0;Target:8;Target:8
1499720969009;21;1;DOUBLETAP;SingleFinger;BUTTON_TRIGGERED;1;518.6666666666666;219.33333333333334;1;27;29;27.0;Target:8;Target:8
1499720970250;21;1;DOUBLETAP;SingleFinger;TOUCH_PRESSED;1;705.3333333333334;513.3333333333334;1;27;0;27.0;Target:4;Target:4
1499720970298;21;1;DOUBLETAP;SingleFinger;TOUCH_MOVED;1;705.3333333333334;514.0;1;34;34;27.0;Target:4;Target:4
1499720970310;21;1;DOUBLETAP;SingleFinger;TOUCH_MOVED;1;706.0;514.0;1;29;34;27.0;Target:4;Target:4
1499720970316;21;1;DOUBLETAP;SingleFinger;TOUCH_MOVED;1;706.0;515.3333333333334;1;29;34;27.0;Target:4;Target:4
1499720970324;21;1;DOUBLETAP;SingleFinger;TOUCH_MOVED;1;706.0;516.0;1;24;34;27.0;Target:4;Target:4
1499720970328;21;1;DOUBLETAP;SingleFinger;TOUCH_MOVED;1;706.0;518.0;1;24;34;27.0;Target:4;Target:4
1499720970333;21;1;DOUBLETAP;SingleFinger;TOUCH_MOVED;1;706.6666666666666;520.0;1;27;34;27.0;Target:4;Target:4
1499720970338;21;1;DOUBLETAP;SingleFinger;TOUCH_MOVED;1;707.3333333333334;522.6666666666666;1;27;34;27.0;Target:4;Target:4
1499720970343;21;1;DOUBLETAP;SingleFinger;TOUCH_MOVED;1;708.0;526.0;1;26;34;27.0;Target:4;Target:4
1499720970349;21;1;DOUBLETAP;SingleFinger;TOUCH_MOVED;1;708.0;529.3333333333334;1;27;34;27.0;Target:4;Target:4
1499720970353;21;1;DOUBLETAP;SingleFinger;TOUCH_MOVED;1;708.6666666666666;533.3333333333334;1;27;34;27.0;Target:4;Target:4
1499720970373;21;1;DOUBLETAP;SingleFinger;TOUCH_RELEASED;1;708.6666666666666;533.3333333333334;1;27;34;27.0;Target:4;Target:4
1499720971032;21;1;DOUBLETAP;SingleFinger;TOUCH_PRESSED;1;703.3333333333334;510.6666666666667;1;27;0;27.0;Target:4;Target:4
1499720971142;21;1;DOUBLETAP;SingleFinger;TOUCH_RELEASED;1;703.3333333333334;510.6666666666667;1;28;28;27.0;Target:4;Target:4
1499720971223;21;1;DOUBLETAP;SingleFinger;TOUCH_PRESSED;1;706.0;536.6666666666666;1;26;0;27.0;Target:4;Target:4
1499720971333;21;1;DOUBLETAP;SingleFinger;TOUCH_RELEASED;1;706.0;536.6666666666666;1;27;31;27.0;Target:4;Target:4
1499720971333;21;1;DOUBLETAP;SingleFinger;BUTTON_TRIGGERED;1;706.0;536.6666666666666;1;27;31;27.0;Target:4;Target:4
1499720972070;21;1;DOUBLETAP;SingleFinger;TOUCH_PRESSED;1;637.3333333333334;187.33333333333334;1;26;0;20.0;Target:0;Target:0
1499720972115;21;1;DOUBLETAP;SingleFinger;TOUCH_MOVED;1;637.3333333333334;186.66666666666666;1;28;28;20.0;Target:0;Target:0
1499720972180;21;1;DOUBLETAP;SingleFinger;TOUCH_RELEASED;1;637.3333333333334;186.66666666666666;1;29;29;20.0;Target:0;Target:0
1499720972254;21;1;DOUBLETAP;SingleFinger;TOUCH_PRESSED;1;639.3333333333334;164.0;1;25;0;20.0;Target:0;Target:0
1499720972273;21;1;DOUBLETAP;SingleFinger;TOUCH_MOVED;1;639.3333333333334;164.66666666666666;1;31;31;20.0;Target:0;Target:0
1499720972303;21;1;DOUBLETAP;SingleFinger;TOUCH_MOVED;1;639.3333333333334;165.33333333333334;1;27;31;20.0;Target:0;Target:0
1499720972322;21;1;DOUBLETAP;SingleFinger;TOUCH_MOVED;1;639.3333333333334;166.0;1;28;31;20.0;Target:0;Target:0
1499720972328;21;1;DOUBLETAP;SingleFinger;TOUCH_MOVED;1;639.3333333333334;166.66666666666666;1;28;31;20.0;Target:0;Target:0
1499720972332;21;1;DOUBLETAP;SingleFinger;TOUCH_MOVED;1;639.3333333333334;167.33333333333334;1;26;31;20.0;Target:0;Target:0
1499720972338;21;1;DOUBLETAP;SingleFinger;TOUCH_MOVED;1;640.0;168.0;1;26;31;20.0;Target:0;Target:0
1499720972342;21;1;DOUBLETAP;SingleFinger;TOUCH_MOVED;1;640.0;168.66666666666666;1;29;31;20.0;Target:0;Target:0
1499720972348;21;1;DOUBLETAP;SingleFinger;TOUCH_MOVED;1;640.0;169.33333333333334;1;29;31;20.0;Target:0;Target:0
1499720972352;21;1;DOUBLETAP;SingleFinger;TOUCH_MOVED;1;640.6666666666666;170.66666666666666;1;28;31;20.0;Target:0;Target:0
1499720972358;21;1;DOUBLETAP;SingleFinger;TOUCH_MOVED;1;640.6666666666666;172.0;1;28;31;20.0;Target:0;Target:0
1499720972378;21;1;DOUBLETAP;SingleFinger;TOUCH_RELEASED;1;640.6666666666666;172.0;1;27;31;20.0;Target:0;Target:0
1499720972378;21;1;DOUBLETAP;SingleFinger;BUTTON_TRIGGERED;1;640.6666666666666;172.0;1;26;31;20.0;Target:0;Target:0
1499720973100;21;1;DOUBLETAP;SingleFinger;TOUCH_PRESSED;1;577.3333333333334;548.0;1;27;0;20.0;Target:5;Target:5
1499720973205;21;1;DOUBLETAP;SingleFinger;TOUCH_RELEASED;1;577.3333333333334;548.0;1;29;29;20.0;Target:5;Target:5
1499720973304;21;1;DOUBLETAP;SingleFinger;TOUCH_PRESSED;1;590.0;542.0;1;26;0;20.0;Target:5;Target:5
1499720973408;21;1;DOUBLETAP;SingleFinger;TOUCH_RELEASED;1;590.0;542.0;1;27;30;20.0;Target:5;Target:5
1499720973408;21;1;DOUBLETAP;SingleFinger;BUTTON_TRIGGERED;1;590.0;542.0;1;27;30;20.0;Target:5;Target:5
1499720974252;21;1;DOUBLETAP;SingleFinger;TOUCH_PRESSED;1;766.0;214.0;1;27;0;20.0;Target:1;Target:1
1499720974331;21;1;DOUBLETAP;SingleFinger;TOUCH_MOVED;1;765.3333333333334;214.0;1;28;29;20.0;Target:1;Target:1
1499720974382;21;1;DOUBLETAP;SingleFinger;TOUCH_RELEASED;1;765.3333333333334;214.0;1;27;29;20.0;Target:1;Target:1
1499720974473;21;1;DOUBLETAP;SingleFinger;TOUCH_PRESSED;1;762.0;220.66666666666666;1;32;0;20.0;Target:1;Target:1
1499720974569;21;1;DOUBLETAP;SingleFinger;TOUCH_RELEASED;1;762.0;220.66666666666666;1;26;28;20.0;Target:1;Target:1
1499720974569;21;1;DOUBLETAP;SingleFinger;BUTTON_TRIGGERED;1;762.0;220.66666666666666;1;32;28;20.0;Target:1;Target:1
1499720975607;21;1;DOUBLETAP;SingleFinger;TOUCH_PRESSED;1;482.0;443.3333333333333;1;26;0;20.0;Target:6;Target:6
1499720975712;21;1;DOUBLETAP;SingleFinger;TOUCH_RELEASED;1;482.0;443.3333333333333;1;29;29;20.0;Target:6;Target:6
1499720975815;21;1;DOUBLETAP;SingleFinger;TOUCH_PRESSED;1;491.3333333333333;442.0;1;28;0;20.0;Target:6;Target:6
1499720975910;21;1;DOUBLETAP;SingleFinger;TOUCH_RELEASED;1;491.3333333333333;442.0;1;27;34;20.0;Target:6;Target:6
1499720975910;21;1;DOUBLETAP;SingleFinger;BUTTON_TRIGGERED;1;491.3333333333333;442.0;1;27;34;20.0;Target:6;Target:6
1499720977014;21;1;DOUBLETAP;SingleFinger;TOUCH_PRESSED;1;813.3333333333334;318.6666666666667;1;29;0;20.0;Target:2;Target:2
1499720977125;21;1;DOUBLETAP;SingleFinger;TOUCH_RELEASED;1;813.3333333333334;318.6666666666667;1;26;29;20.0;Target:2;Target:2
1499720977209;21;1;DOUBLETAP;SingleFinger;TOUCH_PRESSED;1;814.0;322.0;1;25;0;20.0;Target:2;Target:2
1499720977218;21;1;DOUBLETAP;SingleFinger;TOUCH_MOVED;1;814.0;322.6666666666667;1;26;26;20.0;Target:2;Target:2
1499720977243;21;1;DOUBLETAP;SingleFinger;TOUCH_MOVED;1;814.0;323.3333333333333;1;27;27;20.0;Target:2;Target:2
1499720977283;21;1;DOUBLETAP;SingleFinger;TOUCH_RELEASED;1;814.0;323.3333333333333;1;26;28;20.0;Target:2;Target:2
1499720977283;21;1;DOUBLETAP;SingleFinger;BUTTON_TRIGGERED;1;814.0;323.3333333333333;1;26;28;20.0;Target:2;Target:2
1499720978222;21;1;DOUBLETAP;SingleFinger;TOUCH_PRESSED;1;462.6666666666667;282.0;1;29;0;20.0;Target:7;None
1499720978322;21;1;DOUBLETAP;SingleFinger;TOUCH_RELEASED;1;462.6666666666667;282.0;1;31;31;20.0;Target:7;None
1499720978556;21;1;DOUBLETAP;SingleFinger;TOUCH_PRESSED;1;471.3333333333333;310.0;1;29;0;20.0;Target:7;None
1499720978659;21;1;DOUBLETAP;SingleFinger;TOUCH_RELEASED;1;471.3333333333333;310.0;1;31;31;20.0;Target:7;None
1499720978860;21;1;DOUBLETAP;SingleFinger;TOUCH_PRESSED;1;462.0;281.3333333333333;1;29;0;20.0;Target:7;None
1499720978944;21;1;DOUBLETAP;SingleFinger;TOUCH_RELEASED;1;462.0;281.3333333333333;1;30;30;20.0;Target:7;None
1499720979178;21;1;DOUBLETAP;SingleFinger;TOUCH_PRESSED;1;468.6666666666667;341.3333333333333;1;31;0;20.0;Target:7;Target:7
1499720979291;21;1;DOUBLETAP;SingleFinger;TOUCH_RELEASED;1;468.6666666666667;341.3333333333333;1;30;34;20.0;Target:7;Target:7
1499720979376;21;1;DOUBLETAP;SingleFinger;TOUCH_PRESSED;1;461.3333333333333;329.3333333333333;1;29;0;20.0;Target:7;Target:7
1499720979466;21;1;DOUBLETAP;SingleFinger;TOUCH_MOVED;1;462.0;329.3333333333333;1;28;30;20.0;Target:7;Target:7
1499720979496;21;1;DOUBLETAP;SingleFinger;TOUCH_RELEASED;1;462.0;329.3333333333333;1;30;31;20.0;Target:7;Target:7
1499720979496;21;1;DOUBLETAP;SingleFinger;BUTTON_TRIGGERED;1;462.0;329.3333333333333;1;30;31;20.0;Target:7;Target:7
1499720979550;21;1;DOUBLETAP;SingleFinger;TOUCH_PRESSED;1;468.0;332.0;1;30;0;20.0;Target:3;Target:7
1499720979554;21;1;DOUBLETAP;SingleFinger;TOUCH_MOVED;1;467.3333333333333;332.0;1;29;29;20.0;Target:3;Target:7
1499720979575;21;1;DOUBLETAP;SingleFinger;TOUCH_RELEASED;1;467.3333333333333;332.0;1;30;30;20.0;Target:3;Target:7
1499720979575;21;1;DOUBLETAP;SingleFinger;BUTTON_TRIGGERED;1;467.3333333333333;332.0;1;30;30;20.0;Target:3;Target:7
1499720980258;21;1;DOUBLETAP;SingleFinger;TOUCH_PRESSED;1;788.0;462.6666666666667;1;30;0;20.0;Target:3;Target:3
1499720980422;21;1;DOUBLETAP;SingleFinger;TOUCH_RELEASED;1;788.0;462.6666666666667;1;28;31;20.0;Target:3;Target:3
1499720980476;21;1;DOUBLETAP;SingleFinger;TOUCH_PRESSED;1;798.6666666666666;423.3333333333333;1;28;0;20.0;Target:3;None
1499720980604;21;1;DOUBLETAP;SingleFinger;TOUCH_RELEASED;1;798.6666666666666;423.3333333333333;1;27;30;20.0;Target:3;None
1499720980876;21;1;DOUBLETAP;SingleFinger;TOUCH_PRESSED;1;800.0;458.6666666666667;1;28;0;20.0;Target:3;Target:3
1499720980958;21;1;DOUBLETAP;SingleFinger;TOUCH_MOVED;1;800.6666666666666;458.6666666666667;1;28;30;20.0;Target:3;Target:3
1499720980977;21;1;DOUBLETAP;SingleFinger;TOUCH_RELEASED;1;800.6666666666666;458.6666666666667;1;28;30;20.0;Target:3;Target:3
1499720981080;21;1;DOUBLETAP;SingleFinger;TOUCH_PRESSED;1;802.6666666666666;458.0;1;23;0;20.0;Target:3;Target:3
1499720981117;21;1;DOUBLETAP;SingleFinger;TOUCH_MOVED;1;802.0;458.0;1;30;32;20.0;Target:3;Target:3
1499720981148;21;1;DOUBLETAP;SingleFinger;TOUCH_RELEASED;1;802.0;458.0;1;30;32;20.0;Target:3;Target:3
1499720981148;21;1;DOUBLETAP;SingleFinger;BUTTON_TRIGGERED;1;802.0;458.0;1;30;32;20.0;Target:3;Target:3
1499720981846;21;1;DOUBLETAP;SingleFinger;TOUCH_PRESSED;1;522.6666666666666;231.33333333333334;1;29;0;20.0;Target:8;Target:8
1499720981900;21;1;DOUBLETAP;SingleFinger;TOUCH_MOVED;1;522.6666666666666;230.66666666666666;1;30;30;20.0;Target:8;Target:8
1499720981999;21;1;DOUBLETAP;SingleFinger;TOUCH_RELEASED;1;522.6666666666666;230.66666666666666;1;28;30;20.0;Target:8;Target:8
1499720982074;21;1;DOUBLETAP;SingleFinger;TOUCH_PRESSED;1;520.6666666666666;231.33333333333334;1;30;0;20.0;Target:8;Target:8
1499720982136;21;1;DOUBLETAP;SingleFinger;TOUCH_RELEASED;1;520.6666666666666;231.33333333333334;1;33;33;20.0;Target:8;Target:8
1499720982136;21;1;DOUBLETAP;SingleFinger;BUTTON_TRIGGERED;1;520.6666666666666;231.33333333333334;1;33;33;20.0;Target:8;Target:8
1499720982847;21;1;DOUBLETAP;SingleFinger;TOUCH_PRESSED;1;700.0;518.0;1;35;0;20.0;Target:4;Target:4
1499720982905;21;1;DOUBLETAP;SingleFinger;TOUCH_MOVED;1;700.0;518.6666666666666;1;28;30;20.0;Target:4;Target:4
1499720982963;21;1;DOUBLETAP;SingleFinger;TOUCH_RELEASED;1;700.0;518.6666666666666;1;30;30;20.0;Target:4;Target:4
1499720983036;21;1;DOUBLETAP;SingleFinger;TOUCH_PRESSED;1;704.0;515.3333333333334;1;29;0;20.0;Target:4;Target:4
1499720983161;21;1;DOUBLETAP;SingleFinger;TOUCH_RELEASED;1;704.0;515.3333333333334;1;30;37;20.0;Target:4;Target:4
1499720983161;21;1;DOUBLETAP;SingleFinger;BUTTON_TRIGGERED;1;704.0;515.3333333333334;1;30;37;20.0;Target:4;Target:4
