Timestamp;Participant;Study;Method;Variant;TouchEvent;TouchId;TouchX;TouchY;TouchCount;Pressure;MaxPressure;TargetRadius;WidgetHighlighted;WidgetHovered
1499630820781;16;1;DWELL;SingleFinger;TOUCH_PRESSED;1;626.0;178.66666666666666;1;9;0;33.0;Target:0;Target:0
1499630820979;16;1;DWELL;SingleFinger;TOUCH_MOVED;1;626.0;179.33333333333334;1;10;12;33.0;Target:0;Target:0
1499630821025;16;1;DWELL;SingleFinger;TOUCH_MOVED;1;626.0;180.0;1;12;12;33.0;Target:0;Target:0
1499630821091;16;1;DWELL;SingleFinger;TOUCH_MOVED;1;626.0;180.66666666666666;1;11;12;33.0;Target:0;Target:0
1499630821156;16;1;DWELL;SingleFinger;TOUCH_MOVED;1;626.0;181.33333333333334;1;10;12;33.0;Target:0;Target:0
1499630821228;16;1;DWELL;SingleFinger;TOUCH_MOVED;1;626.0;182.0;1;12;13;33.0;Target:0;Target:0
1499630821317;16;1;DWELL;SingleFinger;TOUCH_MOVED;1;626.0;181.33333333333334;1;12;13;33.0;Target:0;Target:0
1499630821337;16;1;DWELL;SingleFinger;TOUCH_RELEASED;1;626.0;181.33333333333334;1;9;13;33.0;Target:0;Target:0
1499630821337;16;1;DWELL;SingleFinger;BUTTON_TRIGGERED;1;626.0;181.33333333333334;1;9;13;33.0;Target:0;Target:0
1499630821986;16;1;DWELL;SingleFinger;TOUCH_PRESSED;1;576.6666666666666;530.6666666666666;1;9;0;33.0;Target:5;Target:5
1499630822137;16;1;DWELL;SingleFinger;TOUCH_MOVED;1;576.6666666666666;531.3333333333334;1;13;14;33.0;Target:5;Target:5
1499630822217;16;1;DWELL;SingleFinger;TOUCH_MOVED;1;576.6666666666666;532.0;1;12;14;33.0;Target:5;Target:5
1499630822355;16;1;DWELL;SingleFinger;TOUCH_MOVED;1;576.6666666666666;532.6666666666666;1;11;16;33.0;Target:5;Target:5
1499630822499;16;1;DWELL;SingleFinger;TOUCH_MOVED;1;576.6666666666666;533.3333333333334;1;9;16;33.0;Target:5;Target:5
1499630822636;16;1;DWELL;SingleFinger;TOUCH_MOVED;1;576.6666666666666;534.0;1;11;16;33.0;Target:5;Target:5
1499630822780;16;1;DWELL;SingleFinger;TOUCH_RELEASED;1;576.6666666666666;534.0;1;10;16;33.0;Target:5;Target:5
1499630822780;16;1;DWELL;SingleFinger;BUTTON_TRIGGERED;1;576.6666666666666;534.0;1;10;16;33.0;Target:5;Target:5
1499630823298;16;1;DWELL;SingleFinger;TOUCH_PRESSED;1;780.6666666666666;234.66666666666666;1;14;0;33.0;Target:1;Target:1
1499630824126;16;1;DWELL;SingleFinger;TOUCH_RELEASED;1;780.6666666666666;234.66666666666666;1;13;15;33.0;Target:1;Target:1
1499630824126;16;1;DWELL;SingleFinger;BUTTON_TRIGGERED;1;780.6666666666666;234.66666666666666;1;13;15;33.0;Target:1;Target:1
1499630824649;16;1;DWELL;SingleFinger;TOUCH_PRESSED;1;510.6666666666667;456.0;1;10;0;33.0;Target:6;Target:6
1499630825159;16;1;DWELL;SingleFinger;TOUCH_MOVED;1;510.0;456.0;1;11;13;33.0;Target:6;Target:6
1499630825329;16;1;DWELL;SingleFinger;TOUCH_MOVED;1;509.3333333333333;456.0;1;11;13;33.0;Target:6;Target:6
1499630825469;16;1;DWELL;SingleFinger;TOUCH_RELEASED;1;509.3333333333333;456.0;1;11;14;33.0;Target:6;Target:6
1499630825469;16;1;DWELL;SingleFinger;BUTTON_TRIGGERED;1;509.3333333333333;456.0;1;11;14;33.0;Target:6;Target:6
1499630825929;16;1;DWELL;SingleFinger;TOUCH_PRESSED;1;808.0;325.3333333333333;1;11;0;33.0;Target:2;Target:2
1499630826124;16;1;DWELL;SingleFinger;TOUCH_MOVED;1;807.3333333333334;325.3333333333333;1;10;13;33.0;Target:2;Target:2
1499630826783;16;1;DWELL;SingleFinger;TOUCH_RELEASED;1;807.3333333333334;325.3333333333333;1;11;16;33.0;Target:2;Target:2
1499630826783;16;1;DWELL;SingleFinger;BUTTON_TRIGGERED;1;807.3333333333334;325.3333333333333;1;11;16;33.0;Target:2;Target:2
1499630827223;16;1;DWELL;SingleFinger;TOUCH_PRESSED;1;471.3333333333333;343.3333333333333;1;11;0;33.0;Target:7;Target:7
1499630827295;16;1;DWELL;SingleFinger;TOUCH_MOVED;1;471.3333333333333;342.6666666666667;1;11;12;33.0;Target:7;Target:7
1499630827353;16;1;DWELL;SingleFinger;TOUCH_MOVED;1;470.6666666666667;342.6666666666667;1;11;13;33.0;Target:7;Target:7
1499630827471;16;1;DWELL;SingleFinger;TOUCH_MOVED;1;470.0;342.6666666666667;1;10;13;33.0;Target:7;Target:7
1499630827568;16;1;DWELL;SingleFinger;TOUCH_MOVED;1;470.0;342.0;1;12;13;33.0;Target:7;Target:7
1499630827592;16;1;DWELL;SingleFinger;TOUCH_MOVED;1;469.3333333333333;342.0;1;10;13;33.0;Target:7;Target:7
1499630827677;16;1;DWELL;SingleFinger;TOUCH_MOVED;1;469.3333333333333;341.3333333333333;1;11;13;33.0;Target:7;Target:7
1499630827696;16;1;DWELL;SingleFinger;TOUCH_MOVED;1;468.6666666666667;341.3333333333333;1;7;13;33.0;Target:7;Target:7
1499630827786;16;1;DWELL;SingleFinger;TOUCH_MOVED;1;468.6666666666667;340.6666666666667;1;10;13;33.0;Target:7;Target:7
1499630827806;16;1;DWELL;SingleFinger;TOUCH_MOVED;1;468.0;340.6666666666667;1;11;13;33.0;Target:7;Target:7
1499630828057;16;1;DWELL;SingleFinger;TOUCH_RELEASED;1;468.0;340.6666666666667;1;9;13;33.0;Target:7;Target:7
1499630828058;16;1;DWELL;SingleFinger;BUTTON_TRIGGERED;1;468.0;340.6666666666667;1;9;13;33.0;Target:7;Target:7
1499630828549;16;1;DWELL;SingleFinger;TOUCH_PRESSED;1;787.3333333333334;446.0;1;14;0;33.0;Target:3;Target:3
1499630829392;16;1;DWELL;SingleFinger;TOUCH_RELEASED;1;787.3333333333334;446.0;1;13;13;33.0;Target:3;Target:3
1499630829393;16;1;DWELL;SingleFinger;BUTTON_TRIGGERED;1;787.3333333333334;446.0;1;13;13;33.0;Target:3;Target:3
1499630829901;16;1;DWELL;SingleFinger;TOUCH_PRESSED;1;541.3333333333334;229.33333333333334;1;10;0;33.0;Target:8;Target:8
1499630830102;16;1;DWELL;SingleFinger;TOUCH_MOVED;1;540.6666666666666;229.33333333333334;1;10;13;33.0;Target:8;Target:8
1499630830582;16;1;DWELL;SingleFinger;TOUCH_MOVED;1;540.0;229.33333333333334;1;10;14;33.0;Target:8;Target:8
1499630830693;16;1;DWELL;SingleFinger;TOUCH_RELEASED;1;540.0;229.33333333333334;1;13;14;33.0;Target:8;Target:8
1499630830693;16;1;DWELL;SingleFinger;BUTTON_TRIGGERED;1;540.0;229.33333333333334;1;13;14;33.0;Target:8;Target:8
1499630831259;16;1;DWELL;SingleFinger;TOUCH_PRESSED;1;708.0;531.3333333333334;1;10;0;33.0;Target:4;Target:4
1499630831468;16;1;DWELL;SingleFinger;TOUCH_MOVED;1;708.0;532.0;1;13;14;33.0;Target:4;Target:4
1499630831625;16;1;DWELL;SingleFinger;TOUCH_MOVED;1;708.0;532.6666666666666;1;12;14;33.0;Target:4;Target:4
1499630832030;16;1;DWELL;SingleFinger;TOUCH_RELEASED;1;708.0;532.6666666666666;1;10;14;33.0;Target:4;Target:4
1499630832030;16;1;DWELL;SingleFinger;BUTTON_TRIGGERED;1;708.0;532.6666666666666;1;10;14;33.0;Target:4;Target:4
1499630832512;16;1;DWELL;SingleFinger;TOUCH_PRESSED;1;610.6666666666666;204.66666666666666;1;9;0;27.0;Target:0;None
1499630832536;16;1;DWELL;SingleFinger;TOUCH_MOVED;1;610.6666666666666;204.0;1;12;12;27.0;Target:0;None
1499630832566;16;1;DWELL;SingleFinger;TOUCH_MOVED;1;610.6666666666666;203.33333333333334;1;7;12;27.0;Target:0;None
1499630832579;16;1;DWELL;SingleFinger;TOUCH_MOVED;1;610.0;203.33333333333334;1;10;12;27.0;Target:0;None
1499630832596;16;1;DWELL;SingleFinger;TOUCH_MOVED;1;610.0;202.66666666666666;1;12;13;27.0;Target:0;None
1499630832640;16;1;DWELL;SingleFinger;TOUCH_MOVED;1;610.0;202.0;1;9;13;27.0;Target:0;None
1499630832705;16;1;DWELL;SingleFinger;TOUCH_RELEASED;1;610.0;202.0;1;11;13;27.0;Target:0;None
1499630832833;16;1;DWELL;SingleFinger;TOUCH_PRESSED;1;639.3333333333334;189.33333333333334;1;12;0;27.0;Target:0;Target:0
1499630833004;16;1;DWELL;SingleFinger;TOUCH_MOVED;1;639.3333333333334;190.0;1;11;13;27.0;Target:0;Target:0
1499630833142;16;1;DWELL;SingleFinger;TOUCH_MOVED;1;639.3333333333334;190.66666666666666;1;10;13;27.0;Target:0;Target:0
1499630833279;16;1;DWELL;SingleFinger;TOUCH_MOVED;1;639.3333333333334;191.33333333333334;1;10;13;27.0;Target:0;Target:0
1499630833417;16;1;DWELL;SingleFinger;TOUCH_MOVED;1;639.3333333333334;192.0;1;12;15;27.0;Target:0;Target:0
1499630833615;16;1;DWELL;SingleFinger;TOUCH_RELEASED;1;639.3333333333334;192.0;1;11;15;27.0;Target:0;Target:0
1499630833615;16;1;DWELL;SingleFinger;BUTTON_TRIGGERED;1;639.3333333333334;192.0;1;11;15;27.0;Target:0;Target:0
1499630834077;16;1;DWELL;SingleFinger;TOUCH_PRESSED;1;584.6666666666666;532.6666666666666;1;11;0;27.0;Target:5;Target:5
1499630834208;16;1;DWELL;SingleFinger;TOUCH_MOVED;1;584.6666666666666;533.3333333333334;1;12;12;27.0;Target:5;Target:5
1499630834344;16;1;DWELL;SingleFinger;TOUCH_MOVED;1;584.6666666666666;534.0;1;13;13;27.0;Target:5;Target:5
1499630834495;16;1;DWELL;SingleFinger;TOUCH_MOVED;1;584.6666666666666;534.6666666666666;1;9;13;27.0;Target:5;Target:5
1499630834922;16;1;DWELL;SingleFinger;TOUCH_RELEASED;1;584.6666666666666;534.6666666666666;1;8;13;27.0;Target:5;Target:5
1499630834923;16;1;DWELL;SingleFinger;BUTTON_TRIGGERED;1;584.6666666666666;534.6666666666666;1;8;13;27.0;Target:5;Target:5
1499630835490;16;1;DWELL;SingleFinger;TOUCH_PRESSED;1;761.3333333333334;228.0;1;11;0;27.0;Target:1;Target:1
1499630835568;16;1;DWELL;SingleFinger;TOUCH_MOVED;1;761.3333333333334;228.66666666666666;1;11;14;27.0;Target:1;Target:1
1499630836290;16;1;DWELL;SingleFinger;TOUCH_RELEASED;1;761.3333333333334;228.66666666666666;1;11;14;27.0;Target:1;Target:1
1499630836290;16;1;DWELL;SingleFinger;BUTTON_TRIGGERED;1;761.3333333333334;228.66666666666666;1;11;14;27.0;Target:1;Target:1
1499630836870;16;1;DWELL;SingleFinger;TOUCH_PRESSED;1;510.0;450.0;1;11;0;27.0;Target:6;Target:6
1499630836934;16;1;DWELL;SingleFinger;TOUCH_MOVED;1;509.3333333333333;450.0;1;11;12;27.0;Target:6;Target:6
1499630837004;16;1;DWELL;SingleFinger;TOUCH_MOVED;1;509.3333333333333;449.3333333333333;1;10;12;27.0;Target:6;Target:6
1499630837054;16;1;DWELL;SingleFinger;TOUCH_MOVED;1;508.6666666666667;449.3333333333333;1;10;12;27.0;Target:6;Target:6
1499630837299;16;1;DWELL;SingleFinger;TOUCH_MOVED;1;508.0;449.3333333333333;1;11;15;27.0;Target:6;Target:6
1499630837669;16;1;DWELL;SingleFinger;TOUCH_RELEASED;1;508.0;449.3333333333333;1;12;15;27.0;Target:6;Target:6
1499630837669;16;1;DWELL;SingleFinger;BUTTON_TRIGGERED;1;508.0;449.3333333333333;1;12;15;27.0;Target:6;Target:6
1499630838128;16;1;DWELL;SingleFinger;TOUCH_PRESSED;1;831.3333333333334;342.0;1;12;0;27.0;Target:2;Target:2
1499630838202;16;1;DWELL;SingleFinger;TOUCH_MOVED;1;831.3333333333334;341.3333333333333;1;10;12;27.0;Target:2;Target:2
1499630838316;16;1;DWELL;SingleFinger;TOUCH_MOVED;1;831.3333333333334;340.6666666666667;1;10;14;27.0;Target:2;Target:2
1499630839067;16;1;DWELL;SingleFinger;TOUCH_RELEASED;1;831.3333333333334;340.6666666666667;1;10;17;27.0;Target:2;Target:2
1499630839067;16;1;DWELL;SingleFinger;BUTTON_TRIGGERED;1;831.3333333333334;340.6666666666667;1;10;17;27.0;Target:2;Target:2
1499630839563;16;1;DWELL;SingleFinger;TOUCH_PRESSED;1;470.6666666666667;332.6666666666667;1;10;0;27.0;Target:7;Target:7
1499630839682;16;1;DWELL;SingleFinger;TOUCH_MOVED;1;470.0;332.6666666666667;1;9;13;27.0;Target:7;Target:7
1499630839788;16;1;DWELL;SingleFinger;TOUCH_MOVED;1;469.3333333333333;332.6666666666667;1;11;13;27.0;Target:7;Target:7
1499630840047;16;1;DWELL;SingleFinger;TOUCH_MOVED;1;468.6666666666667;332.6666666666667;1;12;15;27.0;Target:7;Target:7
1499630840337;16;1;DWELL;SingleFinger;TOUCH_RELEASED;1;468.6666666666667;332.6666666666667;1;11;15;27.0;Target:7;Target:7
1499630840337;16;1;DWELL;SingleFinger;BUTTON_TRIGGERED;1;468.6666666666667;332.6666666666667;1;11;15;27.0;Target:7;Target:7
1499630840863;16;1;DWELL;SingleFinger;TOUCH_PRESSED;1;801.3333333333334;472.0;1;7;0;27.0;Target:3;Target:3
1499630841726;16;1;DWELL;SingleFinger;TOUCH_RELEASED;1;801.3333333333334;472.0;1;11;17;27.0;Target:3;Target:3
1499630841726;16;1;DWELL;SingleFinger;BUTTON_TRIGGERED;1;801.3333333333334;472.0;1;11;17;27.0;Target:3;Target:3
1499630842248;16;1;DWELL;SingleFinger;TOUCH_PRESSED;1;526.6666666666666;212.0;1;13;0;27.0;Target:8;Target:8
1499630842300;16;1;DWELL;SingleFinger;TOUCH_MOVED;1;526.0;212.0;1;12;15;27.0;Target:8;Target:8
1499630842452;16;1;DWELL;SingleFinger;TOUCH_MOVED;1;525.3333333333334;212.0;1;11;15;27.0;Target:8;Target:8
1499630842787;16;1;DWELL;SingleFinger;TOUCH_MOVED;1;525.3333333333334;211.33333333333334;1;12;16;27.0;Target:8;Target:8
1499630843060;16;1;DWELL;SingleFinger;TOUCH_RELEASED;1;525.3333333333334;211.33333333333334;1;11;16;27.0;Target:8;Target:8
1499630843060;16;1;DWELL;SingleFinger;BUTTON_TRIGGERED;1;525.3333333333334;211.33333333333334;1;11;16;27.0;Target:8;Target:8
1499630843679;16;1;DWELL;SingleFinger;TOUCH_PRESSED;1;716.0;543.3333333333334;1;12;0;27.0;Target:4;Target:4
1499630843853;16;1;DWELL;SingleFinger;TOUCH_MOVED;1;715.3333333333334;543.3333333333334;1;12;15;27.0;Target:4;Target:4
1499630844102;16;1;DWELL;SingleFinger;TOUCH_MOVED;1;714.6666666666666;543.3333333333334;1;12;15;27.0;Target:4;Target:4
1499630844109;16;1;DWELL;SingleFinger;TOUCH_MOVED;1;714.6666666666666;544.0;1;12;15;27.0;Target:4;Target:4
1499630844541;16;1;DWELL;SingleFinger;TOUCH_RELEASED;1;714.6666666666666;544.0;1;10;15;27.0;Target:4;Target:4
1499630844541;16;1;DWELL;SingleFinger;BUTTON_TRIGGERED;1;714.6666666666666;544.0;1;10;15;27.0;Target:4;Target:4
1499630845038;16;1;DWELL;SingleFinger;TOUCH_PRESSED;1;629.3333333333334;176.66666666666666;1;12;0;20.0;Target:0;Target:0
1499630845202;16;1;DWELL;SingleFinger;TOUCH_MOVED;1;628.6666666666666;176.66666666666666;1;9;16;20.0;Target:0;Target:0
1499630845302;16;1;DWELL;SingleFinger;TOUCH_MOVED;1;628.6666666666666;177.33333333333334;1;11;16;20.0;Target:0;Target:0
1499630845341;16;1;DWELL;SingleFinger;TOUCH_MOVED;1;628.0;177.33333333333334;1;11;16;20.0;Target:0;Target:0
1499630845407;16;1;DWELL;SingleFinger;TOUCH_MOVED;1;628.0;178.0;1;12;16;20.0;Target:0;Target:0
1499630845452;16;1;DWELL;SingleFinger;TOUCH_MOVED;1;628.0;178.66666666666666;1;11;16;20.0;Target:0;Target:0
1499630845498;16;1;DWELL;SingleFinger;TOUCH_MOVED;1;628.0;179.33333333333334;1;10;16;20.0;Target:0;Target:0
1499630845551;16;1;DWELL;SingleFinger;TOUCH_MOVED;1;628.0;180.0;1;10;16;20.0;Target:0;Target:0
1499630845576;16;1;DWELL;SingleFinger;TOUCH_MOVED;1;628.6666666666666;180.0;1;8;16;20.0;Target:0;Target:0
1499630845622;16;1;DWELL;SingleFinger;TOUCH_MOVED;1;628.6666666666666;180.66666666666666;1;12;16;20.0;Target:0;Target:0
1499630845688;16;1;DWELL;SingleFinger;TOUCH_MOVED;1;628.6666666666666;181.33333333333334;1;12;16;20.0;Target:0;Target:0
1499630845774;16;1;DWELL;SingleFinger;TOUCH_MOVED;1;628.6666666666666;182.0;1;11;16;20.0;Target:0;Target:0
1499630845875;16;1;DWELL;SingleFinger;TOUCH_RELEASED;1;628.6666666666666;182.0;1;11;16;20.0;Target:0;Target:0
1499630845876;16;1;DWELL;SingleFinger;BUTTON_TRIGGERED;1;628.6666666666666;182.0;1;11;16;20.0;Target:0;Target:0
1499630846441;16;1;DWELL;SingleFinger;TOUCH_PRESSED;1;569.3333333333334;512.0;1;11;0;20.0;Target:5;Target:5
1499630846490;16;1;DWELL;SingleFinger;TOUCH_MOVED;1;569.3333333333334;512.6666666666666;1;14;14;20.0;Target:5;Target:5
1499630846671;16;1;DWELL;SingleFinger;TOUCH_RELEASED;1;569.3333333333334;512.6666666666666;1;10;14;20.0;Target:5;Target:5
1499630846785;16;1;DWELL;SingleFinger;TOUCH_PRESSED;1;572.6666666666666;540.6666666666666;1;10;0;20.0;Target:5;Target:5
1499630847678;16;1;DWELL;SingleFinger;TOUCH_RELEASED;1;572.6666666666666;540.6666666666666;1;11;14;20.0;Target:5;Target:5
1499630847678;16;1;DWELL;SingleFinger;BUTTON_TRIGGERED;1;572.6666666666666;540.6666666666666;1;11;14;20.0;Target:5;Target:5
1499630848460;16;1;DWELL;SingleFinger;TOUCH_PRESSED;1;756.6666666666666;227.33333333333334;1;12;0;20.0;Target:1;Target:1
1499630848627;16;1;DWELL;SingleFinger;TOUCH_RELEASED;1;756.6666666666666;227.33333333333334;1;11;12;20.0;Target:1;Target:1
1499630848784;16;1;DWELL;SingleFinger;TOUCH_PRESSED;1;758.6666666666666;220.66666666666666;1;10;0;20.0;Target:1;Target:1
1499630848915;16;1;DWELL;SingleFinger;TOUCH_MOVED;1;758.6666666666666;221.33333333333334;1;11;14;20.0;Target:1;Target:1
1499630848961;16;1;DWELL;SingleFinger;TOUCH_MOVED;1;758.0;221.33333333333334;1;10;16;20.0;Target:1;Target:1
1499630848974;16;1;DWELL;SingleFinger;TOUCH_MOVED;1;758.0;222.0;1;10;16;20.0;Target:1;Target:1
1499630849058;16;1;DWELL;SingleFinger;TOUCH_MOVED;1;758.0;222.66666666666666;1;11;16;20.0;Target:1;Target:1
1499630849144;16;1;DWELL;SingleFinger;TOUCH_MOVED;1;757.3333333333334;222.66666666666666;1;10;16;20.0;Target:1;Target:1
1499630849197;16;1;DWELL;SingleFinger;TOUCH_MOVED;1;757.3333333333334;223.33333333333334;1;10;16;20.0;Target:1;Target:1
1499630849334;16;1;DWELL;SingleFinger;TOUCH_MOVED;1;757.3333333333334;224.0;1;8;16;20.0;Target:1;Target:1
1499630849479;16;1;DWELL;SingleFinger;TOUCH_MOVED;1;757.3333333333334;224.66666666666666;1;11;16;20.0;Target:1;Target:1
1499630849565;16;1;DWELL;SingleFinger;TOUCH_RELEASED;1;757.3333333333334;224.66666666666666;1;11;16;20.0;Target:1;Target:1
1499630849565;16;1;DWELL;SingleFinger;BUTTON_TRIGGERED;1;757.3333333333334;224.66666666666666;1;11;16;20.0;Target:1;Target:1
1499630850188;16;1;DWELL;SingleFinger;TOUCH_PRESSED;1;483.3333333333333;466.6666666666667;1;13;0;20.0;Target:6;Target:6
1499630850218;16;1;DWELL;SingleFinger;TOUCH_MOVED;1;482.6666666666667;466.6666666666667;1;10;12;20.0;Target:6;Target:6
1499630850222;16;1;DWELL;SingleFinger;TOUCH_MOVED;1;482.6666666666667;466.0;1;10;12;20.0;Target:6;Target:6
1499630850302;16;1;DWELL;SingleFinger;TOUCH_MOVED;1;482.0;466.0;1;10;12;20.0;Target:6;Target:6
1499630850327;16;1;DWELL;SingleFinger;TOUCH_MOVED;1;482.0;465.3333333333333;1;9;12;20.0;Target:6;Target:6
1499630850363;16;1;DWELL;SingleFinger;TOUCH_MOVED;1;481.3333333333333;465.3333333333333;1;12;12;20.0;Target:6;Target:6
1499630850422;16;1;DWELL;SingleFinger;TOUCH_MOVED;1;480.6666666666667;465.3333333333333;1;11;12;20.0;Target:6;Target:6
1499630850432;16;1;DWELL;SingleFinger;TOUCH_MOVED;1;480.6666666666667;464.6666666666667;1;10;12;20.0;Target:6;Target:6
1499630850522;16;1;DWELL;SingleFinger;TOUCH_MOVED;1;480.0;464.6666666666667;1;11;13;20.0;Target:6;Target:6
1499630850537;16;1;DWELL;SingleFinger;TOUCH_MOVED;1;480.0;464.0;1;10;13;20.0;Target:6;Target:6
1499630850702;16;1;DWELL;SingleFinger;TOUCH_MOVED;1;479.3333333333333;464.0;1;11;14;20.0;Target:6;Target:6
1499630851022;16;1;DWELL;SingleFinger;TOUCH_RELEASED;1;479.3333333333333;464.0;1;11;14;20.0;Target:6;Target:6
1499630851022;16;1;DWELL;SingleFinger;BUTTON_TRIGGERED;1;479.3333333333333;464.0;1;11;14;20.0;Target:6;Target:6
1499630851689;16;1;DWELL;SingleFinger;TOUCH_PRESSED;1;808.6666666666666;333.3333333333333;1;11;0;20.0;Target:2;Target:2
1499630852489;16;1;DWELL;SingleFinger;TOUCH_RELEASED;1;808.6666666666666;333.3333333333333;1;11;15;20.0;Target:2;Target:2
1499630852489;16;1;DWELL;SingleFinger;BUTTON_TRIGGERED;1;808.6666666666666;333.3333333333333;1;11;15;20.0;Target:2;Target:2
1499630853029;16;1;DWELL;SingleFinger;TOUCH_PRESSED;1;460.0;348.0;1;12;12;20.0;Target:7;Target:7
1499630853114;16;1;DWELL;SingleFinger;TOUCH_MOVED;1;459.3333333333333;348.0;1;11;13;20.0;Target:7;Target:7
1499630853158;16;1;DWELL;SingleFinger;TOUCH_MOVED;1;459.3333333333333;347.3333333333333;1;12;13;20.0;Target:7;Target:7
1499630853403;16;1;DWELL;SingleFinger;TOUCH_MOVED;1;458.6666666666667;347.3333333333333;1;11;13;20.0;Target:7;Target:7
1499630853844;16;1;DWELL;SingleFinger;TOUCH_RELEASED;1;458.6666666666667;347.3333333333333;1;11;13;20.0;Target:7;Target:7
1499630853844;16;1;DWELL;SingleFinger;BUTTON_TRIGGERED;1;458.6666666666667;347.3333333333333;1;11;13;20.0;Target:7;Target:7
1499630854615;16;1;DWELL;SingleFinger;TOUCH_PRESSED;1;791.3333333333334;470.0;1;10;0;20.0;Target:3;None
1499630855024;16;1;DWELL;SingleFinger;TOUCH_RELEASED;1;791.3333333333334;470.0;1;11;14;20.0;Target:3;None
1499630855177;16;1;DWELL;SingleFinger;TOUCH_PRESSED;1;783.3333333333334;457.3333333333333;1;11;0;20.0;Target:3;Target:3
1499630855471;16;1;DWELL;SingleFinger;TOUCH_MOVED;1;783.3333333333334;458.0;1;8;14;20.0;Target:3;Target:3
1499630855575;16;1;DWELL;SingleFinger;TOUCH_MOVED;1;783.3333333333334;458.6666666666667;1;12;14;20.0;Target:3;Target:3
1499630855860;16;1;DWELL;SingleFinger;TOUCH_MOVED;1;783.3333333333334;459.3333333333333;1;10;14;20.0;Target:3;Target:3
1499630856065;16;1;DWELL;SingleFinger;TOUCH_RELEASED;1;783.3333333333334;459.3333333333333;1;12;14;20.0;Target:3;Target:3
1499630856065;16;1;DWELL;SingleFinger;BUTTON_TRIGGERED;1;783.3333333333334;459.3333333333333;1;12;14;20.0;Target:3;Target:3
1499630856686;16;1;DWELL;SingleFinger;TOUCH_PRESSED;1;520.6666666666666;228.0;1;10;0;20.0;Target:8;Target:8
1499630857497;16;1;DWELL;SingleFinger;TOUCH_RELEASED;1;520.6666666666666;228.0;1;11;14;20.0;Target:8;Target:8
1499630857498;16;1;DWELL;SingleFinger;BUTTON_TRIGGERED;1;520.6666666666666;228.0;1;11;14;20.0;Target:8;Target:8
1499630858122;16;1;DWELL;SingleFinger;TOUCH_PRESSED;1;694.0;544.6666666666666;1;11;0;20.0;Target:4;Target:4
1499630858945;16;1;DWELL;SingleFinger;TOUCH_RELEASED;1;694.0;544.6666666666666;1;13;15;20.0;Target:4;Target:4
1499630858945;16;1;DWELL;SingleFinger;BUTTON_TRIGGERED;1;694.0;544.6666666666666;1;13;15;20.0;Target:4;Target:4
