Timestamp;Participant;Study;Method;Variant;TouchEvent;TouchId;TouchX;TouchY;TouchCount;Pressure;MaxPressure;TargetRadius;WidgetHighlighted;WidgetHovered
1499631294409;16;1;DWELL;SingleFinger;TOUCH_PRESSED;1;660.0;184.66666666666666;1;11;0;33.0;Target:0;Target:0
1499631294448;16;1;DWELL;SingleFinger;TOUCH_MOVED;1;660.0;185.33333333333334;1;10;15;33.0;Target:0;Target:0
1499631294948;16;1;DWELL;SingleFinger;TOUCH_MOVED;1;660.0;186.0;1;12;17;33.0;Target:0;Target:0
1499631295048;16;1;DWELL;SingleFinger;TOUCH_MOVED;1;659.3333333333334;185.33333333333334;1;11;17;33.0;Target:0;Target:0
1499631295073;16;1;DWELL;SingleFinger;TOUCH_RELEASED;1;659.3333333333334;185.33333333333334;1;11;17;33.0;Target:0;Target:0
1499631295073;16;1;DWELL;SingleFinger;BUTTON_TRIGGERED;1;659.3333333333334;185.33333333333334;1;11;17;33.0;Target:0;Target:0
1499631295603;16;1;DWELL;SingleFinger;TOUCH_PRESSED;1;566.6666666666666;541.3333333333334;1;10;0;33.0;Target:5;Target:5
1499631295642;16;1;DWELL;SingleFinger;TOUCH_MOVED;1;566.0;541.3333333333334;1;11;13;33.0;Target:5;Target:5
1499631295725;16;1;DWELL;SingleFinger;TOUCH_MOVED;1;565.3333333333334;541.3333333333334;1;9;13;33.0;Target:5;Target:5
1499631295834;16;1;DWELL;SingleFinger;TOUCH_MOVED;1;564.6666666666666;541.3333333333334;1;11;13;33.0;Target:5;Target:5
1499631295852;16;1;DWELL;SingleFinger;TOUCH_MOVED;1;564.6666666666666;540.6666666666666;1;9;13;33.0;Target:5;Target:5
1499631296098;16;1;DWELL;SingleFinger;TOUCH_MOVED;1;564.0;540.6666666666666;1;10;13;33.0;Target:5;Target:5
1499631296211;16;1;DWELL;SingleFinger;TOUCH_MOVED;1;563.3333333333334;540.6666666666666;1;9;13;33.0;Target:5;Target:5
1499631296255;16;1;DWELL;SingleFinger;TOUCH_RELEASED;1;563.3333333333334;540.6666666666666;1;9;14;33.0;Target:5;Target:5
1499631296255;16;1;DWELL;SingleFinger;BUTTON_TRIGGERED;1;563.3333333333334;540.6666666666666;1;9;14;33.0;Target:5;Target:5
1499631296718;16;1;DWELL;SingleFinger;TOUCH_PRESSED;1;752.0;188.66666666666666;1;12;0;33.0;Target:1;None
1499631296935;16;1;DWELL;SingleFinger;TOUCH_MOVED;1;752.0;189.33333333333334;1;11;14;33.0;Target:1;Target:1
1499631296996;16;1;DWELL;SingleFinger;TOUCH_RELEASED;1;752.0;189.33333333333334;1;11;14;33.0;Target:1;None
1499631297089;16;1;DWELL;SingleFinger;TOUCH_PRESSED;1;774.0;230.66666666666666;1;12;0;33.0;Target:1;Target:1
1499631297148;16;1;DWELL;SingleFinger;TOUCH_MOVED;1;774.0;231.33333333333334;1;11;13;33.0;Target:1;Target:1
1499631297161;16;1;DWELL;SingleFinger;TOUCH_MOVED;1;773.3333333333334;231.33333333333334;1;13;13;33.0;Target:1;Target:1
1499631297168;16;1;DWELL;SingleFinger;TOUCH_MOVED;1;773.3333333333334;232.0;1;13;13;33.0;Target:1;Target:1
1499631297181;16;1;DWELL;SingleFinger;TOUCH_MOVED;1;773.3333333333334;232.66666666666666;1;11;13;33.0;Target:1;Target:1
1499631297181;16;1;DWELL;SingleFinger;TOUCH_PRESSED;2;869.3333333333334;205.33333333333334;2;11;0;33.0;Target:1;None
1499631297194;16;1;DWELL;SingleFinger;TOUCH_MOVED;1;773.3333333333334;233.33333333333334;2;11;13;33.0;Target:1;Target:1
1499631297208;16;1;DWELL;SingleFinger;TOUCH_MOVED;1;773.3333333333334;234.0;2;9;13;33.0;Target:1;Target:1
1499631297215;16;1;DWELL;SingleFinger;TOUCH_MOVED;1;773.3333333333334;234.66666666666666;2;12;13;33.0;Target:1;Target:1
1499631297215;16;1;DWELL;SingleFinger;TOUCH_MOVED;2;869.3333333333334;206.0;2;12;12;33.0;Target:1;None
1499631297228;16;1;DWELL;SingleFinger;TOUCH_MOVED;1;773.3333333333334;235.33333333333334;2;11;13;33.0;Target:1;Target:1
1499631297228;16;1;DWELL;SingleFinger;TOUCH_MOVED;2;870.0;206.0;2;11;12;33.0;Target:1;None
1499631297234;16;1;DWELL;SingleFinger;TOUCH_MOVED;1;773.3333333333334;236.0;2;10;13;33.0;Target:1;Target:1
1499631297241;16;1;DWELL;SingleFinger;TOUCH_MOVED;1;773.3333333333334;236.66666666666666;2;13;13;33.0;Target:1;Target:1
1499631297247;16;1;DWELL;SingleFinger;TOUCH_MOVED;1;772.6666666666666;236.66666666666666;2;13;13;33.0;Target:1;Target:1
1499631297254;16;1;DWELL;SingleFinger;TOUCH_MOVED;1;772.6666666666666;237.33333333333334;2;10;13;33.0;Target:1;Target:1
1499631297274;16;1;DWELL;SingleFinger;TOUCH_RELEASED;2;870.0;206.0;2;10;13;33.0;Target:1;None
1499631297378;16;1;DWELL;SingleFinger;TOUCH_MOVED;1;772.6666666666666;236.66666666666666;1;10;13;33.0;Target:1;Target:1
1499631297602;16;1;DWELL;SingleFinger;TOUCH_MOVED;1;772.6666666666666;236.0;1;12;18;33.0;Target:1;Target:1
1499631297640;16;1;DWELL;SingleFinger;TOUCH_MOVED;1;772.6666666666666;235.33333333333334;1;11;18;33.0;Target:1;Target:1
1499631297646;16;1;DWELL;SingleFinger;TOUCH_MOVED;1;772.0;235.33333333333334;1;11;18;33.0;Target:1;Target:1
1499631297733;16;1;DWELL;SingleFinger;TOUCH_MOVED;1;772.6666666666666;235.33333333333334;1;12;18;33.0;Target:1;Target:1
1499631297752;16;1;DWELL;SingleFinger;TOUCH_MOVED;1;772.6666666666666;236.0;1;12;18;33.0;Target:1;Target:1
1499631297779;16;1;DWELL;SingleFinger;TOUCH_MOVED;1;772.6666666666666;236.66666666666666;1;10;18;33.0;Target:1;Target:1
1499631297792;16;1;DWELL;SingleFinger;TOUCH_MOVED;1;772.6666666666666;237.33333333333334;1;9;18;33.0;Target:1;Target:1
1499631297805;16;1;DWELL;SingleFinger;TOUCH_MOVED;1;772.6666666666666;238.0;1;11;18;33.0;Target:1;Target:1
1499631297817;16;1;DWELL;SingleFinger;TOUCH_MOVED;1;772.6666666666666;238.66666666666666;1;10;18;33.0;Target:1;Target:1
1499631297825;16;1;DWELL;SingleFinger;TOUCH_MOVED;1;772.6666666666666;239.33333333333334;1;13;18;33.0;Target:1;Target:1
1499631297845;16;1;DWELL;SingleFinger;TOUCH_MOVED;1;772.0;240.0;1;12;18;33.0;Target:1;Target:1
1499631297927;16;1;DWELL;SingleFinger;TOUCH_MOVED;1;772.6666666666666;239.33333333333334;1;12;18;33.0;Target:1;Target:1
1499631297945;16;1;DWELL;SingleFinger;TOUCH_RELEASED;1;772.6666666666666;239.33333333333334;1;10;18;33.0;Target:1;Target:1
1499631297945;16;1;DWELL;SingleFinger;BUTTON_TRIGGERED;1;772.6666666666666;239.33333333333334;1;10;18;33.0;Target:1;Target:1
1499631298475;16;1;DWELL;SingleFinger;TOUCH_PRESSED;1;478.0;440.0;1;12;0;33.0;Target:6;Target:6
1499631298569;16;1;DWELL;SingleFinger;TOUCH_MOVED;1;477.3333333333333;440.0;1;12;12;33.0;Target:6;Target:6
1499631298594;16;1;DWELL;SingleFinger;TOUCH_MOVED;1;477.3333333333333;439.3333333333333;1;12;12;33.0;Target:6;Target:6
1499631298669;16;1;DWELL;SingleFinger;TOUCH_MOVED;1;476.6666666666667;439.3333333333333;1;15;15;33.0;Target:6;Target:6
1499631298789;16;1;DWELL;SingleFinger;TOUCH_MOVED;1;476.0;439.3333333333333;1;10;15;33.0;Target:6;Target:6
1499631298913;16;1;DWELL;SingleFinger;TOUCH_MOVED;1;475.3333333333333;439.3333333333333;1;10;17;33.0;Target:6;Target:6
1499631298960;16;1;DWELL;SingleFinger;TOUCH_MOVED;1;475.3333333333333;440.0;1;10;17;33.0;Target:6;Target:6
1499631298986;16;1;DWELL;SingleFinger;TOUCH_MOVED;1;475.3333333333333;440.6666666666667;1;9;17;33.0;Target:6;Target:6
1499631298991;16;1;DWELL;SingleFinger;TOUCH_MOVED;1;474.6666666666667;440.6666666666667;1;10;17;33.0;Target:6;Target:6
1499631299012;16;1;DWELL;SingleFinger;TOUCH_MOVED;1;474.6666666666667;441.3333333333333;1;11;17;33.0;Target:6;Target:6
1499631299043;16;1;DWELL;SingleFinger;TOUCH_MOVED;1;474.6666666666667;442.0;1;10;17;33.0;Target:6;Target:6
1499631299164;16;1;DWELL;SingleFinger;TOUCH_MOVED;1;474.6666666666667;441.3333333333333;1;12;17;33.0;Target:6;Target:6
1499631299205;16;1;DWELL;SingleFinger;TOUCH_RELEASED;1;474.6666666666667;441.3333333333333;1;11;17;33.0;Target:6;Target:6
1499631299205;16;1;DWELL;SingleFinger;BUTTON_TRIGGERED;1;474.6666666666667;441.3333333333333;1;11;17;33.0;Target:6;Target:6
1499631299661;16;1;DWELL;SingleFinger;TOUCH_PRESSED;1;812.0;350.6666666666667;1;12;0;33.0;Target:2;Target:2
1499631299764;16;1;DWELL;SingleFinger;TOUCH_MOVED;1;812.0;351.3333333333333;1;11;12;33.0;Target:2;Target:2
1499631299831;16;1;DWELL;SingleFinger;TOUCH_MOVED;1;811.3333333333334;351.3333333333333;1;11;13;33.0;Target:2;Target:2
1499631299857;16;1;DWELL;SingleFinger;TOUCH_MOVED;1;811.3333333333334;352.0;1;10;13;33.0;Target:2;Target:2
1499631299920;16;1;DWELL;SingleFinger;TOUCH_MOVED;1;811.3333333333334;351.3333333333333;1;11;13;33.0;Target:2;Target:2
1499631299984;16;1;DWELL;SingleFinger;TOUCH_MOVED;1;811.3333333333334;350.6666666666667;1;11;13;33.0;Target:2;Target:2
1499631299989;16;1;DWELL;SingleFinger;TOUCH_MOVED;1;810.6666666666666;350.6666666666667;1;11;13;33.0;Target:2;Target:2
1499631300008;16;1;DWELL;SingleFinger;TOUCH_MOVED;1;810.6666666666666;350.0;1;12;13;33.0;Target:2;Target:2
1499631300034;16;1;DWELL;SingleFinger;TOUCH_MOVED;1;810.6666666666666;349.3333333333333;1;11;13;33.0;Target:2;Target:2
1499631300059;16;1;DWELL;SingleFinger;TOUCH_MOVED;1;810.6666666666666;348.6666666666667;1;9;13;33.0;Target:2;Target:2
1499631300069;16;1;DWELL;SingleFinger;TOUCH_MOVED;1;811.3333333333334;348.6666666666667;1;13;13;33.0;Target:2;Target:2
1499631300089;16;1;DWELL;SingleFinger;TOUCH_MOVED;1;811.3333333333334;348.0;1;0;13;33.0;Target:2;Target:2
1499631300148;16;1;DWELL;SingleFinger;TOUCH_MOVED;1;812.0;348.0;1;11;13;33.0;Target:2;Target:2
1499631300438;16;1;DWELL;SingleFinger;TOUCH_RELEASED;1;812.0;348.0;1;9;14;33.0;Target:2;Target:2
1499631300438;16;1;DWELL;SingleFinger;BUTTON_TRIGGERED;1;812.0;348.0;1;9;14;33.0;Target:2;Target:2
1499631300964;16;1;DWELL;SingleFinger;TOUCH_PRESSED;1;462.6666666666667;306.0;1;13;0;33.0;Target:7;Target:7
1499631301234;16;1;DWELL;SingleFinger;TOUCH_MOVED;1;462.6666666666667;306.6666666666667;1;11;17;33.0;Target:7;Target:7
1499631301299;16;1;DWELL;SingleFinger;TOUCH_MOVED;1;462.0;306.6666666666667;1;12;17;33.0;Target:7;Target:7
1499631301455;16;1;DWELL;SingleFinger;TOUCH_MOVED;1;462.0;306.0;1;8;17;33.0;Target:7;Target:7
1499631301610;16;1;DWELL;SingleFinger;TOUCH_RELEASED;1;462.0;306.0;1;16;17;33.0;Target:7;Target:7
1499631301610;16;1;DWELL;SingleFinger;BUTTON_TRIGGERED;1;462.0;306.0;1;16;17;33.0;Target:7;Target:7
1499631302326;16;1;DWELL;SingleFinger;TOUCH_PRESSED;1;800.0;488.6666666666667;1;11;0;33.0;Target:3;None
1499631302362;16;1;DWELL;SingleFinger;TOUCH_MOVED;1;800.0;488.0;1;11;12;33.0;Target:3;None
1499631302396;16;1;DWELL;SingleFinger;TOUCH_MOVED;1;800.0;487.3333333333333;1;10;13;33.0;Target:3;None
1499631302417;16;1;DWELL;SingleFinger;TOUCH_RELEASED;1;800.0;487.3333333333333;1;10;13;33.0;Target:3;None
1499631302539;16;1;DWELL;SingleFinger;TOUCH_PRESSED;1;800.0;485.3333333333333;1;11;0;33.0;Target:3;None
1499631302594;16;1;DWELL;SingleFinger;TOUCH_MOVED;1;800.0;486.0;1;11;12;33.0;Target:3;None
1499631302613;16;1;DWELL;SingleFinger;TOUCH_MOVED;1;800.0;486.6666666666667;1;12;12;33.0;Target:3;None
1499631302619;16;1;DWELL;SingleFinger;TOUCH_MOVED;1;800.0;487.3333333333333;1;12;12;33.0;Target:3;None
1499631302633;16;1;DWELL;SingleFinger;TOUCH_MOVED;1;800.0;488.0;1;9;12;33.0;Target:3;None
1499631302639;16;1;DWELL;SingleFinger;TOUCH_MOVED;1;800.0;488.6666666666667;1;9;12;33.0;Target:3;None
1499631302653;16;1;DWELL;SingleFinger;TOUCH_MOVED;1;800.0;489.3333333333333;1;13;13;33.0;Target:3;None
1499631302692;16;1;DWELL;SingleFinger;TOUCH_MOVED;1;800.0;490.0;1;12;13;33.0;Target:3;None
1499631302762;16;1;DWELL;SingleFinger;TOUCH_MOVED;1;800.0;489.3333333333333;1;11;13;33.0;Target:3;None
1499631302874;16;1;DWELL;SingleFinger;TOUCH_RELEASED;1;800.0;489.3333333333333;1;11;13;33.0;Target:3;None
1499631303098;16;1;DWELL;SingleFinger;TOUCH_PRESSED;1;797.3333333333334;463.3333333333333;1;11;0;33.0;Target:3;Target:3
1499631303165;16;1;DWELL;SingleFinger;TOUCH_MOVED;1;797.3333333333334;464.0;1;8;13;33.0;Target:3;Target:3
1499631303218;16;1;DWELL;SingleFinger;TOUCH_MOVED;1;797.3333333333334;464.6666666666667;1;14;14;33.0;Target:3;Target:3
1499631303244;16;1;DWELL;SingleFinger;TOUCH_MOVED;1;797.3333333333334;465.3333333333333;1;12;14;33.0;Target:3;Target:3
1499631303257;16;1;DWELL;SingleFinger;TOUCH_MOVED;1;797.3333333333334;466.0;1;12;14;33.0;Target:3;Target:3
1499631303263;16;1;DWELL;SingleFinger;TOUCH_MOVED;1;796.6666666666666;466.0;1;10;14;33.0;Target:3;Target:3
1499631303270;16;1;DWELL;SingleFinger;TOUCH_MOVED;1;796.6666666666666;466.6666666666667;1;10;14;33.0;Target:3;Target:3
1499631303289;16;1;DWELL;SingleFinger;TOUCH_MOVED;1;796.6666666666666;467.3333333333333;1;10;14;33.0;Target:3;Target:3
1499631303303;16;1;DWELL;SingleFinger;TOUCH_MOVED;1;796.6666666666666;468.0;1;12;14;33.0;Target:3;Target:3
1499631303350;16;1;DWELL;SingleFinger;TOUCH_MOVED;1;796.0;468.0;1;10;14;33.0;Target:3;Target:3
1499631303494;16;1;DWELL;SingleFinger;TOUCH_MOVED;1;796.0;468.6666666666667;1;11;15;33.0;Target:3;Target:3
1499631303618;16;1;DWELL;SingleFinger;TOUCH_MOVED;1;795.3333333333334;468.6666666666667;1;11;15;33.0;Target:3;Target:3
1499631303638;16;1;DWELL;SingleFinger;TOUCH_MOVED;1;795.3333333333334;469.3333333333333;1;11;15;33.0;Target:3;Target:3
1499631303703;16;1;DWELL;SingleFinger;TOUCH_MOVED;1;795.3333333333334;468.6666666666667;1;9;15;33.0;Target:3;Target:3
1499631303795;16;1;DWELL;SingleFinger;TOUCH_MOVED;1;795.3333333333334;468.0;1;14;15;33.0;Target:3;Target:3
1499631303840;16;1;DWELL;SingleFinger;TOUCH_RELEASED;1;795.3333333333334;468.0;1;10;15;33.0;Target:3;Target:3
1499631303840;16;1;DWELL;SingleFinger;BUTTON_TRIGGERED;1;795.3333333333334;468.0;1;10;15;33.0;Target:3;Target:3
1499631304537;16;1;DWELL;SingleFinger;TOUCH_PRESSED;1;534.6666666666666;250.66666666666666;1;10;0;33.0;Target:8;Target:8
1499631304617;16;1;DWELL;SingleFinger;TOUCH_MOVED;1;534.6666666666666;251.33333333333334;1;10;13;33.0;Target:8;Target:8
1499631304658;16;1;DWELL;SingleFinger;TOUCH_MOVED;1;534.0;251.33333333333334;1;12;13;33.0;Target:8;Target:8
1499631304671;16;1;DWELL;SingleFinger;TOUCH_MOVED;1;534.0;252.0;1;9;13;33.0;Target:8;Target:8
1499631304697;16;1;DWELL;SingleFinger;TOUCH_MOVED;1;533.3333333333334;252.66666666666666;1;10;13;33.0;Target:8;Target:8
1499631304724;16;1;DWELL;SingleFinger;TOUCH_MOVED;1;533.3333333333334;253.33333333333334;1;11;13;33.0;Target:8;Target:8
1499631304757;16;1;DWELL;SingleFinger;TOUCH_MOVED;1;533.3333333333334;254.0;1;12;13;33.0;Target:8;None
1499631304839;16;1;DWELL;SingleFinger;TOUCH_RELEASED;1;533.3333333333334;254.0;1;11;13;33.0;Target:8;None
1499631304913;16;1;DWELL;SingleFinger;TOUCH_PRESSED;1;535.3333333333334;180.66666666666666;1;10;0;33.0;Target:8;None
1499631304983;16;1;DWELL;SingleFinger;TOUCH_MOVED;1;535.3333333333334;181.33333333333334;1;11;12;33.0;Target:8;None
1499631305056;16;1;DWELL;SingleFinger;TOUCH_MOVED;1;535.3333333333334;182.0;1;14;15;33.0;Target:8;None
1499631305067;16;1;DWELL;SingleFinger;TOUCH_MOVED;1;535.3333333333334;182.66666666666666;1;9;15;33.0;Target:8;None
1499631305072;16;1;DWELL;SingleFinger;TOUCH_MOVED;1;535.3333333333334;183.33333333333334;1;9;15;33.0;Target:8;None
1499631305077;16;1;DWELL;SingleFinger;TOUCH_MOVED;1;535.3333333333334;184.0;1;10;15;33.0;Target:8;None
1499631305082;16;1;DWELL;SingleFinger;TOUCH_MOVED;1;534.6666666666666;185.33333333333334;1;10;15;33.0;Target:8;None
1499631305087;16;1;DWELL;SingleFinger;TOUCH_MOVED;1;534.6666666666666;186.66666666666666;1;12;15;33.0;Target:8;None
1499631305091;16;1;DWELL;SingleFinger;TOUCH_MOVED;1;534.6666666666666;188.66666666666666;1;12;15;33.0;Target:8;None
1499631305118;16;1;DWELL;SingleFinger;TOUCH_RELEASED;1;534.6666666666666;188.66666666666666;1;11;15;33.0;Target:8;None
1499631305182;16;1;DWELL;SingleFinger;TOUCH_PRESSED;1;518.0;244.66666666666666;1;11;0;33.0;Target:8;Target:8
1499631305258;16;1;DWELL;SingleFinger;TOUCH_MOVED;1;518.0;244.0;1;12;12;33.0;Target:8;Target:8
1499631305278;16;1;DWELL;SingleFinger;TOUCH_MOVED;1;517.3333333333334;244.0;1;11;12;33.0;Target:8;Target:8
1499631305302;16;1;DWELL;SingleFinger;TOUCH_MOVED;1;517.3333333333334;243.33333333333334;1;15;15;33.0;Target:8;Target:8
1499631305344;16;1;DWELL;SingleFinger;TOUCH_MOVED;1;517.3333333333334;242.66666666666666;1;10;15;33.0;Target:8;Target:8
1499631305382;16;1;DWELL;SingleFinger;TOUCH_MOVED;1;516.6666666666666;242.66666666666666;1;11;15;33.0;Target:8;Target:8
1499631305398;16;1;DWELL;SingleFinger;TOUCH_MOVED;1;516.6666666666666;242.0;1;9;15;33.0;Target:8;Target:8
1499631305483;16;1;DWELL;SingleFinger;TOUCH_MOVED;1;516.6666666666666;241.33333333333334;1;10;15;33.0;Target:8;Target:8
1499631305566;16;1;DWELL;SingleFinger;TOUCH_MOVED;1;516.0;241.33333333333334;1;12;15;33.0;Target:8;Target:8
1499631305663;16;1;DWELL;SingleFinger;TOUCH_MOVED;1;515.3333333333334;241.33333333333334;1;10;15;33.0;Target:8;Target:8
1499631305693;16;1;DWELL;SingleFinger;TOUCH_MOVED;1;515.3333333333334;240.66666666666666;1;11;15;33.0;Target:8;Target:8
1499631305728;16;1;DWELL;SingleFinger;TOUCH_MOVED;1;515.3333333333334;240.0;1;17;17;33.0;Target:8;Target:8
1499631305753;16;1;DWELL;SingleFinger;TOUCH_MOVED;1;514.6666666666666;240.0;1;10;17;33.0;Target:8;Target:8
1499631305843;16;1;DWELL;SingleFinger;TOUCH_RELEASED;1;514.6666666666666;240.0;1;12;17;33.0;Target:8;Target:8
1499631305843;16;1;DWELL;SingleFinger;BUTTON_TRIGGERED;1;514.6666666666666;240.0;1;12;17;33.0;Target:8;Target:8
1499631306527;16;1;DWELL;SingleFinger;TOUCH_PRESSED;1;692.6666666666666;540.6666666666666;1;11;0;33.0;Target:4;Target:4
1499631306677;16;1;DWELL;SingleFinger;TOUCH_MOVED;1;692.6666666666666;540.0;1;12;13;33.0;Target:4;Target:4
1499631306826;16;1;DWELL;SingleFinger;TOUCH_MOVED;1;692.6666666666666;540.6666666666666;1;11;13;33.0;Target:4;Target:4
1499631306848;16;1;DWELL;SingleFinger;TOUCH_MOVED;1;692.6666666666666;541.3333333333334;1;11;13;33.0;Target:4;Target:4
1499631306859;16;1;DWELL;SingleFinger;TOUCH_MOVED;1;692.6666666666666;542.0;1;11;13;33.0;Target:4;Target:4
1499631306866;16;1;DWELL;SingleFinger;TOUCH_MOVED;1;692.6666666666666;542.6666666666666;1;11;13;33.0;Target:4;Target:4
1499631306869;16;1;DWELL;SingleFinger;TOUCH_MOVED;1;692.6666666666666;543.3333333333334;1;11;13;33.0;Target:4;Target:4
1499631306875;16;1;DWELL;SingleFinger;TOUCH_MOVED;1;692.6666666666666;544.0;1;8;13;33.0;Target:4;Target:4
1499631306879;16;1;DWELL;SingleFinger;TOUCH_MOVED;1;692.6666666666666;544.6666666666666;1;8;13;33.0;Target:4;Target:4
1499631306885;16;1;DWELL;SingleFinger;TOUCH_MOVED;1;692.6666666666666;545.3333333333334;1;9;13;33.0;Target:4;Target:4
1499631306891;16;1;DWELL;SingleFinger;TOUCH_MOVED;1;692.6666666666666;546.0;1;9;13;33.0;Target:4;Target:4
1499631306898;16;1;DWELL;SingleFinger;TOUCH_MOVED;1;692.6666666666666;546.6666666666666;1;12;13;33.0;Target:4;Target:4
1499631306904;16;1;DWELL;SingleFinger;TOUCH_MOVED;1;692.6666666666666;547.3333333333334;1;12;13;33.0;Target:4;Target:4
1499631306917;16;1;DWELL;SingleFinger;TOUCH_MOVED;1;692.6666666666666;548.0;1;11;13;33.0;Target:4;Target:4
1499631306924;16;1;DWELL;SingleFinger;TOUCH_MOVED;1;692.6666666666666;548.6666666666666;1;11;13;33.0;Target:4;Target:4
1499631306930;16;1;DWELL;SingleFinger;TOUCH_MOVED;1;692.0;548.6666666666666;1;11;13;33.0;Target:4;Target:4
1499631306938;16;1;DWELL;SingleFinger;TOUCH_MOVED;1;692.0;549.3333333333334;1;6;13;33.0;Target:4;Target:4
1499631306950;16;1;DWELL;SingleFinger;TOUCH_MOVED;1;692.0;550.0;1;11;13;33.0;Target:4;Target:4
1499631306969;16;1;DWELL;SingleFinger;TOUCH_MOVED;1;692.0;550.6666666666666;1;11;13;33.0;Target:4;Target:4
1499631306994;16;1;DWELL;SingleFinger;TOUCH_MOVED;1;692.0;551.3333333333334;1;13;13;33.0;Target:4;Target:4
1499631307178;16;1;DWELL;SingleFinger;TOUCH_MOVED;1;692.6666666666666;551.3333333333334;1;10;17;33.0;Target:4;Target:4
1499631307204;16;1;DWELL;SingleFinger;TOUCH_MOVED;1;692.6666666666666;552.0;1;11;17;33.0;Target:4;Target:4
1499631307310;16;1;DWELL;SingleFinger;TOUCH_RELEASED;1;692.6666666666666;552.0;1;12;17;33.0;Target:4;Target:4
1499631307310;16;1;DWELL;SingleFinger;BUTTON_TRIGGERED;1;692.6666666666666;552.0;1;12;17;33.0;Target:4;Target:4
1499631307359;16;1;DWELL;SingleFinger;TOUCH_PRESSED;1;686.0;522.6666666666666;1;10;0;27.0;Target:0;Target:4
1499631307394;16;1;DWELL;SingleFinger;TOUCH_MOVED;1;686.0;523.3333333333334;1;9;13;27.0;Target:0;Target:4
1499631307433;16;1;DWELL;SingleFinger;TOUCH_MOVED;1;686.0;524.0;1;11;13;27.0;Target:0;Target:4
1499631307447;16;1;DWELL;SingleFinger;TOUCH_MOVED;1;686.0;524.6666666666666;1;9;13;27.0;Target:0;Target:4
1499631307466;16;1;DWELL;SingleFinger;TOUCH_MOVED;1;686.0;525.3333333333334;1;10;13;27.0;Target:0;Target:4
1499631307479;16;1;DWELL;SingleFinger;TOUCH_MOVED;1;686.0;526.0;1;12;13;27.0;Target:0;Target:4
1499631307500;16;1;DWELL;SingleFinger;TOUCH_MOVED;1;686.0;526.6666666666666;1;12;15;27.0;Target:0;Target:4
1499631307506;16;1;DWELL;SingleFinger;TOUCH_MOVED;1;686.6666666666666;526.6666666666666;1;10;15;27.0;Target:0;Target:4
1499631307512;16;1;DWELL;SingleFinger;TOUCH_MOVED;1;686.0;526.6666666666666;1;10;15;27.0;Target:0;Target:4
1499631307519;16;1;DWELL;SingleFinger;TOUCH_MOVED;1;686.0;527.3333333333334;1;11;15;27.0;Target:0;Target:4
1499631307539;16;1;DWELL;SingleFinger;TOUCH_MOVED;1;686.0;528.0;1;10;15;27.0;Target:0;Target:4
1499631307689;16;1;DWELL;SingleFinger;TOUCH_RELEASED;1;686.0;528.0;1;4;15;27.0;Target:0;Target:4
1499631307928;16;1;DWELL;SingleFinger;TOUCH_PRESSED;1;623.3333333333334;165.33333333333334;1;9;0;27.0;Target:0;Target:0
1499631308046;16;1;DWELL;SingleFinger;TOUCH_MOVED;1;623.3333333333334;166.0;1;11;14;27.0;Target:0;Target:0
1499631308142;16;1;DWELL;SingleFinger;TOUCH_MOVED;1;622.6666666666666;166.0;1;11;14;27.0;Target:0;Target:0
1499631308201;16;1;DWELL;SingleFinger;TOUCH_MOVED;1;622.6666666666666;165.33333333333334;1;14;14;27.0;Target:0;Target:0
1499631308237;16;1;DWELL;SingleFinger;TOUCH_MOVED;1;622.6666666666666;164.66666666666666;1;11;14;27.0;Target:0;Target:0
1499631308268;16;1;DWELL;SingleFinger;TOUCH_MOVED;1;622.0;164.66666666666666;1;10;14;27.0;Target:0;Target:0
1499631308401;16;1;DWELL;SingleFinger;TOUCH_MOVED;1;622.0;165.33333333333334;1;7;14;27.0;Target:0;Target:0
1499631308454;16;1;DWELL;SingleFinger;TOUCH_MOVED;1;622.0;166.0;1;13;14;27.0;Target:0;Target:0
1499631308480;16;1;DWELL;SingleFinger;TOUCH_MOVED;1;621.3333333333334;166.0;1;12;14;27.0;Target:0;Target:0
1499631308519;16;1;DWELL;SingleFinger;TOUCH_MOVED;1;621.3333333333334;166.66666666666666;1;12;14;27.0;Target:0;Target:0
1499631308656;16;1;DWELL;SingleFinger;TOUCH_RELEASED;1;621.3333333333334;166.66666666666666;1;11;14;27.0;Target:0;Target:0
1499631308657;16;1;DWELL;SingleFinger;BUTTON_TRIGGERED;1;621.3333333333334;166.66666666666666;1;11;14;27.0;Target:0;Target:0
1499631309271;16;1;DWELL;SingleFinger;TOUCH_PRESSED;1;573.3333333333334;521.3333333333334;1;15;0;27.0;Target:5;Target:5
1499631309291;16;1;DWELL;SingleFinger;TOUCH_MOVED;1;572.6666666666666;521.3333333333334;1;12;12;27.0;Target:5;Target:5
1499631309304;16;1;DWELL;SingleFinger;TOUCH_MOVED;1;572.6666666666666;522.0;1;9;12;27.0;Target:5;Target:5
1499631309350;16;1;DWELL;SingleFinger;TOUCH_MOVED;1;572.6666666666666;522.6666666666666;1;10;13;27.0;Target:5;Target:5
1499631309389;16;1;DWELL;SingleFinger;TOUCH_MOVED;1;572.6666666666666;523.3333333333334;1;13;13;27.0;Target:5;Target:5
1499631309428;16;1;DWELL;SingleFinger;TOUCH_MOVED;1;572.6666666666666;524.0;1;11;13;27.0;Target:5;Target:5
1499631309474;16;1;DWELL;SingleFinger;TOUCH_MOVED;1;572.0;524.6666666666666;1;12;13;27.0;Target:5;Target:5
1499631309566;16;1;DWELL;SingleFinger;TOUCH_MOVED;1;572.0;525.3333333333334;1;10;13;27.0;Target:5;Target:5
1499631309598;16;1;DWELL;SingleFinger;TOUCH_MOVED;1;571.3333333333334;525.3333333333334;1;9;13;27.0;Target:5;Target:5
1499631309664;16;1;DWELL;SingleFinger;TOUCH_MOVED;1;572.0;525.3333333333334;1;11;14;27.0;Target:5;Target:5
1499631309684;16;1;DWELL;SingleFinger;TOUCH_MOVED;1;572.0;526.0;1;12;14;27.0;Target:5;Target:5
1499631309743;16;1;DWELL;SingleFinger;TOUCH_MOVED;1;572.0;526.6666666666666;1;9;14;27.0;Target:5;Target:5
1499631309769;16;1;DWELL;SingleFinger;TOUCH_MOVED;1;572.0;527.3333333333334;1;10;14;27.0;Target:5;Target:5
1499631309841;16;1;DWELL;SingleFinger;TOUCH_MOVED;1;571.3333333333334;527.3333333333334;1;10;14;27.0;Target:5;Target:5
1499631309958;16;1;DWELL;SingleFinger;TOUCH_MOVED;1;571.3333333333334;528.0;1;11;15;27.0;Target:5;Target:5
1499631309968;16;1;DWELL;SingleFinger;TOUCH_MOVED;1;571.3333333333334;529.3333333333334;1;11;15;27.0;Target:5;Target:5
1499631309975;16;1;DWELL;SingleFinger;TOUCH_MOVED;1;571.3333333333334;530.0;1;11;15;27.0;Target:5;Target:5
1499631309979;16;1;DWELL;SingleFinger;TOUCH_MOVED;1;571.3333333333334;532.0;1;10;15;27.0;Target:5;Target:5
1499631309985;16;1;DWELL;SingleFinger;TOUCH_MOVED;1;572.0;534.0;1;10;15;27.0;Target:5;Target:5
1499631309989;16;1;DWELL;SingleFinger;TOUCH_MOVED;1;572.0;536.6666666666666;1;12;15;27.0;Target:5;Target:5
1499631309995;16;1;DWELL;SingleFinger;TOUCH_MOVED;1;572.0;540.0;1;12;15;27.0;Target:5;Target:5
1499631309999;16;1;DWELL;SingleFinger;TOUCH_MOVED;1;572.6666666666666;544.0;1;10;15;27.0;Target:5;Target:5
1499631310004;16;1;DWELL;SingleFinger;TOUCH_MOVED;1;573.3333333333334;548.6666666666666;1;10;15;27.0;Target:5;Target:5
1499631310024;16;1;DWELL;SingleFinger;TOUCH_RELEASED;1;573.3333333333334;548.6666666666666;1;11;15;27.0;Target:5;Target:5
1499631310024;16;1;DWELL;SingleFinger;BUTTON_TRIGGERED;1;573.3333333333334;548.6666666666666;1;11;15;27.0;Target:5;Target:5
1499631310703;16;1;DWELL;SingleFinger;TOUCH_PRESSED;1;772.0;238.0;1;10;0;27.0;Target:1;Target:1
1499631310825;16;1;DWELL;SingleFinger;TOUCH_MOVED;1;771.3333333333334;238.0;1;11;16;27.0;Target:1;Target:1
1499631311145;16;1;DWELL;SingleFinger;TOUCH_MOVED;1;771.3333333333334;238.66666666666666;1;9;16;27.0;Target:1;Target:1
1499631311179;16;1;DWELL;SingleFinger;TOUCH_MOVED;1;771.3333333333334;239.33333333333334;1;10;16;27.0;Target:1;Target:1
1499631311186;16;1;DWELL;SingleFinger;TOUCH_MOVED;1;770.6666666666666;239.33333333333334;1;10;16;27.0;Target:1;Target:1
1499631311193;16;1;DWELL;SingleFinger;TOUCH_MOVED;1;770.6666666666666;240.0;1;11;16;27.0;Target:1;Target:1
1499631311212;16;1;DWELL;SingleFinger;TOUCH_MOVED;1;770.6666666666666;240.66666666666666;1;11;16;27.0;Target:1;Target:1
1499631311225;16;1;DWELL;SingleFinger;TOUCH_MOVED;1;770.6666666666666;241.33333333333334;1;11;16;27.0;Target:1;Target:1
1499631311243;16;1;DWELL;SingleFinger;TOUCH_MOVED;1;770.6666666666666;242.0;1;11;16;27.0;Target:1;Target:1
1499631311297;16;1;DWELL;SingleFinger;TOUCH_MOVED;1;770.6666666666666;241.33333333333334;1;12;16;27.0;Target:1;Target:1
1499631311303;16;1;DWELL;SingleFinger;TOUCH_MOVED;1;770.0;241.33333333333334;1;10;16;27.0;Target:1;Target:1
1499631311338;16;1;DWELL;SingleFinger;TOUCH_MOVED;1;770.0;240.66666666666666;1;9;16;27.0;Target:1;Target:1
1499631311356;16;1;DWELL;SingleFinger;TOUCH_MOVED;1;770.0;240.0;1;12;16;27.0;Target:1;Target:1
1499631311374;16;1;DWELL;SingleFinger;TOUCH_MOVED;1;769.3333333333334;239.33333333333334;1;12;16;27.0;Target:1;Target:1
1499631311394;16;1;DWELL;SingleFinger;TOUCH_MOVED;1;769.3333333333334;238.66666666666666;1;9;16;27.0;Target:1;Target:1
1499631311420;16;1;DWELL;SingleFinger;TOUCH_MOVED;1;769.3333333333334;238.0;1;11;16;27.0;Target:1;Target:1
1499631311467;16;1;DWELL;SingleFinger;TOUCH_RELEASED;1;769.3333333333334;238.0;1;11;16;27.0;Target:1;Target:1
1499631311467;16;1;DWELL;SingleFinger;BUTTON_TRIGGERED;1;769.3333333333334;238.0;1;11;16;27.0;Target:1;Target:1
1499631312076;16;1;DWELL;SingleFinger;TOUCH_PRESSED;1;488.0;412.0;1;10;0;27.0;Target:6;None
1499631312174;16;1;DWELL;SingleFinger;TOUCH_MOVED;1;487.3333333333333;412.0;1;12;14;27.0;Target:6;None
1499631312187;16;1;DWELL;SingleFinger;TOUCH_MOVED;1;487.3333333333333;412.6666666666667;1;11;14;27.0;Target:6;None
1499631312226;16;1;DWELL;SingleFinger;TOUCH_MOVED;1;487.3333333333333;413.3333333333333;1;11;14;27.0;Target:6;None
1499631312245;16;1;DWELL;SingleFinger;TOUCH_MOVED;1;487.3333333333333;414.0;1;11;14;27.0;Target:6;None
1499631312250;16;1;DWELL;SingleFinger;TOUCH_MOVED;1;488.0;414.0;1;12;14;27.0;Target:6;None
1499631312255;16;1;DWELL;SingleFinger;TOUCH_MOVED;1;488.0;414.6666666666667;1;12;14;27.0;Target:6;None
1499631312259;16;1;DWELL;SingleFinger;TOUCH_MOVED;1;488.0;415.3333333333333;1;12;14;27.0;Target:6;None
1499631312265;16;1;DWELL;SingleFinger;TOUCH_MOVED;1;488.0;416.0;1;12;14;27.0;Target:6;None
1499631312270;16;1;DWELL;SingleFinger;TOUCH_MOVED;1;488.0;416.6666666666667;1;12;14;27.0;Target:6;None
1499631312274;16;1;DWELL;SingleFinger;TOUCH_MOVED;1;488.0;418.0;1;12;14;27.0;Target:6;None
1499631312295;16;1;DWELL;SingleFinger;TOUCH_RELEASED;1;488.0;418.0;1;10;14;27.0;Target:6;None
1499631312379;16;1;DWELL;SingleFinger;TOUCH_PRESSED;1;472.0;434.0;1;12;0;27.0;Target:6;Target:6
1499631312450;16;1;DWELL;SingleFinger;TOUCH_MOVED;1;472.0;433.3333333333333;1;11;13;27.0;Target:6;Target:6
1499631312502;16;1;DWELL;SingleFinger;TOUCH_MOVED;1;472.0;432.6666666666667;1;9;13;27.0;Target:6;Target:6
1499631312535;16;1;DWELL;SingleFinger;TOUCH_MOVED;1;471.3333333333333;432.6666666666667;1;10;13;27.0;Target:6;Target:6
1499631312555;16;1;DWELL;SingleFinger;TOUCH_MOVED;1;471.3333333333333;432.0;1;11;14;27.0;Target:6;Target:6
1499631312606;16;1;DWELL;SingleFinger;TOUCH_MOVED;1;471.3333333333333;432.6666666666667;1;10;14;27.0;Target:6;Target:6
1499631312640;16;1;DWELL;SingleFinger;TOUCH_MOVED;1;471.3333333333333;433.3333333333333;1;11;14;27.0;Target:6;Target:6
1499631312653;16;1;DWELL;SingleFinger;TOUCH_MOVED;1;470.6666666666667;433.3333333333333;1;11;14;27.0;Target:6;Target:6
1499631312660;16;1;DWELL;SingleFinger;TOUCH_MOVED;1;470.6666666666667;434.0;1;10;14;27.0;Target:6;Target:6
1499631312673;16;1;DWELL;SingleFinger;TOUCH_MOVED;1;470.6666666666667;434.6666666666667;1;9;14;27.0;Target:6;Target:6
1499631312686;16;1;DWELL;SingleFinger;TOUCH_MOVED;1;470.6666666666667;435.3333333333333;1;13;14;27.0;Target:6;Target:6
1499631312705;16;1;DWELL;SingleFinger;TOUCH_MOVED;1;470.6666666666667;436.0;1;9;14;27.0;Target:6;Target:6
1499631312725;16;1;DWELL;SingleFinger;TOUCH_MOVED;1;470.6666666666667;436.6666666666667;1;10;14;27.0;Target:6;Target:6
1499631312764;16;1;DWELL;SingleFinger;TOUCH_MOVED;1;470.0;437.3333333333333;1;12;14;27.0;Target:6;Target:6
1499631312811;16;1;DWELL;SingleFinger;TOUCH_MOVED;1;470.0;436.6666666666667;1;9;14;27.0;Target:6;Target:6
1499631312928;16;1;DWELL;SingleFinger;TOUCH_MOVED;1;470.6666666666667;436.6666666666667;1;11;14;27.0;Target:6;Target:6
1499631312954;16;1;DWELL;SingleFinger;TOUCH_MOVED;1;470.6666666666667;437.3333333333333;1;10;14;27.0;Target:6;Target:6
1499631313013;16;1;DWELL;SingleFinger;TOUCH_MOVED;1;471.3333333333333;438.0;1;11;14;27.0;Target:6;Target:6
1499631313033;16;1;DWELL;SingleFinger;TOUCH_MOVED;1;471.3333333333333;438.6666666666667;1;12;14;27.0;Target:6;Target:6
1499631313089;16;1;DWELL;SingleFinger;TOUCH_MOVED;1;471.3333333333333;438.0;1;11;14;27.0;Target:6;Target:6
1499631313114;16;1;DWELL;SingleFinger;TOUCH_RELEASED;1;471.3333333333333;438.0;1;7;14;27.0;Target:6;Target:6
1499631313114;16;1;DWELL;SingleFinger;BUTTON_TRIGGERED;1;471.3333333333333;438.0;1;7;14;27.0;Target:6;Target:6
1499631313634;16;1;DWELL;SingleFinger;TOUCH_PRESSED;1;820.0;332.0;1;9;0;27.0;Target:2;Target:2
1499631314119;16;1;DWELL;SingleFinger;TOUCH_MOVED;1;820.0;331.3333333333333;1;11;16;27.0;Target:2;Target:2
1499631314239;16;1;DWELL;SingleFinger;TOUCH_MOVED;1;820.0;332.0;1;11;16;27.0;Target:2;Target:2
1499631314246;16;1;DWELL;SingleFinger;TOUCH_MOVED;1;820.0;332.6666666666667;1;10;16;27.0;Target:2;Target:2
1499631314252;16;1;DWELL;SingleFinger;TOUCH_MOVED;1;820.6666666666666;334.0;1;11;16;27.0;Target:2;Target:2
1499631314257;16;1;DWELL;SingleFinger;TOUCH_MOVED;1;821.3333333333334;336.0;1;11;16;27.0;Target:2;Target:2
1499631314262;16;1;DWELL;SingleFinger;TOUCH_MOVED;1;821.3333333333334;338.6666666666667;1;10;16;27.0;Target:2;Target:2
1499631314267;16;1;DWELL;SingleFinger;TOUCH_MOVED;1;822.0;342.0;1;10;16;27.0;Target:2;Target:2
1499631314272;16;1;DWELL;SingleFinger;TOUCH_MOVED;1;822.6666666666666;345.3333333333333;1;10;16;27.0;Target:2;Target:2
1499631314277;16;1;DWELL;SingleFinger;TOUCH_MOVED;1;824.0;349.3333333333333;1;10;16;27.0;Target:2;Target:2
1499631314299;16;1;DWELL;SingleFinger;TOUCH_RELEASED;1;824.0;349.3333333333333;1;13;16;27.0;Target:2;Target:2
1499631314299;16;1;DWELL;SingleFinger;BUTTON_TRIGGERED;1;824.0;349.3333333333333;1;13;16;27.0;Target:2;Target:2
1499631315225;16;1;DWELL;SingleFinger;TOUCH_PRESSED;1;450.6666666666667;274.0;1;10;0;27.0;Target:7;None
1499631315264;16;1;DWELL;SingleFinger;TOUCH_MOVED;1;450.6666666666667;273.3333333333333;1;10;11;27.0;Target:7;None
1499631315299;16;1;DWELL;SingleFinger;TOUCH_MOVED;1;450.6666666666667;272.6666666666667;1;10;11;27.0;Target:7;None
1499631315334;16;1;DWELL;SingleFinger;TOUCH_MOVED;1;450.0;272.6666666666667;1;11;11;27.0;Target:7;None
1499631315366;16;1;DWELL;SingleFinger;TOUCH_MOVED;1;450.6666666666667;273.3333333333333;1;11;13;27.0;Target:7;None
1499631315379;16;1;DWELL;SingleFinger;TOUCH_MOVED;1;450.6666666666667;274.0;1;9;13;27.0;Target:7;None
1499631315385;16;1;DWELL;SingleFinger;TOUCH_MOVED;1;450.6666666666667;275.3333333333333;1;9;13;27.0;Target:7;None
1499631315392;16;1;DWELL;SingleFinger;TOUCH_MOVED;1;451.3333333333333;276.6666666666667;1;11;13;27.0;Target:7;None
1499631315398;16;1;DWELL;SingleFinger;TOUCH_MOVED;1;451.3333333333333;279.3333333333333;1;11;13;27.0;Target:7;None
1499631315405;16;1;DWELL;SingleFinger;TOUCH_MOVED;1;452.0;282.0;1;10;13;27.0;Target:7;None
1499631315412;16;1;DWELL;SingleFinger;TOUCH_MOVED;1;452.6666666666667;286.0;1;11;13;27.0;Target:7;None
1499631315418;16;1;DWELL;SingleFinger;TOUCH_MOVED;1;453.3333333333333;290.6666666666667;1;11;13;27.0;Target:7;None
1499631315426;16;1;DWELL;SingleFinger;TOUCH_MOVED;1;453.3333333333333;295.3333333333333;1;11;13;27.0;Target:7;None
1499631315432;16;1;DWELL;SingleFinger;TOUCH_MOVED;1;454.0;300.0;1;9;13;27.0;Target:7;None
1499631315436;16;1;DWELL;SingleFinger;TOUCH_MOVED;1;454.0;304.6666666666667;1;9;13;27.0;Target:7;Target:7
1499631315443;16;1;DWELL;SingleFinger;TOUCH_MOVED;1;454.6666666666667;309.3333333333333;1;11;13;27.0;Target:7;Target:7
1499631315449;16;1;DWELL;SingleFinger;TOUCH_MOVED;1;454.6666666666667;314.0;1;11;13;27.0;Target:7;Target:7
1499631315456;16;1;DWELL;SingleFinger;TOUCH_MOVED;1;454.6666666666667;318.6666666666667;1;9;13;27.0;Target:7;Target:7
1499631315460;16;1;DWELL;SingleFinger;TOUCH_MOVED;1;455.3333333333333;322.6666666666667;1;9;13;27.0;Target:7;Target:7
1499631315466;16;1;DWELL;SingleFinger;TOUCH_MOVED;1;455.3333333333333;326.6666666666667;1;9;13;27.0;Target:7;Target:7
1499631315470;16;1;DWELL;SingleFinger;TOUCH_MOVED;1;456.0;330.0;1;10;13;27.0;Target:7;Target:7
1499631315476;16;1;DWELL;SingleFinger;TOUCH_MOVED;1;456.6666666666667;333.3333333333333;1;10;13;27.0;Target:7;Target:7
1499631315481;16;1;DWELL;SingleFinger;TOUCH_MOVED;1;457.3333333333333;336.0;1;10;13;27.0;Target:7;Target:7
1499631315486;16;1;DWELL;SingleFinger;TOUCH_MOVED;1;458.0;339.3333333333333;1;10;13;27.0;Target:7;Target:7
1499631315491;16;1;DWELL;SingleFinger;TOUCH_MOVED;1;458.6666666666667;341.3333333333333;1;12;13;27.0;Target:7;Target:7
1499631315496;16;1;DWELL;SingleFinger;TOUCH_MOVED;1;459.3333333333333;344.0;1;12;13;27.0;Target:7;Target:7
1499631315517;16;1;DWELL;SingleFinger;TOUCH_RELEASED;1;459.3333333333333;344.0;1;11;13;27.0;Target:7;None
1499631315630;16;1;DWELL;SingleFinger;TOUCH_PRESSED;1;452.0;333.3333333333333;1;13;0;27.0;Target:7;Target:7
1499631315717;16;1;DWELL;SingleFinger;TOUCH_MOVED;1;452.0;334.0;1;10;15;27.0;Target:7;Target:7
1499631315757;16;1;DWELL;SingleFinger;TOUCH_MOVED;1;452.0;334.6666666666667;1;11;15;27.0;Target:7;Target:7
1499631315770;16;1;DWELL;SingleFinger;TOUCH_MOVED;1;452.0;335.3333333333333;1;11;15;27.0;Target:7;Target:7
1499631315783;16;1;DWELL;SingleFinger;TOUCH_MOVED;1;452.0;336.0;1;11;15;27.0;Target:7;Target:7
1499631315795;16;1;DWELL;SingleFinger;TOUCH_MOVED;1;452.0;336.6666666666667;1;10;15;27.0;Target:7;Target:7
1499631315834;16;1;DWELL;SingleFinger;TOUCH_MOVED;1;452.0;337.3333333333333;1;11;15;27.0;Target:7;Target:7
1499631315855;16;1;DWELL;SingleFinger;TOUCH_MOVED;1;451.3333333333333;337.3333333333333;1;10;15;27.0;Target:7;Target:7
1499631315992;16;1;DWELL;SingleFinger;TOUCH_MOVED;1;451.3333333333333;338.0;1;11;15;27.0;Target:7;Target:7
1499631316012;16;1;DWELL;SingleFinger;TOUCH_MOVED;1;451.3333333333333;338.6666666666667;1;11;15;27.0;Target:7;Target:7
1499631316039;16;1;DWELL;SingleFinger;TOUCH_MOVED;1;451.3333333333333;339.3333333333333;1;11;15;27.0;Target:7;Target:7
1499631316058;16;1;DWELL;SingleFinger;TOUCH_MOVED;1;451.3333333333333;340.0;1;10;15;27.0;Target:7;Target:7
1499631316084;16;1;DWELL;SingleFinger;TOUCH_MOVED;1;451.3333333333333;340.6666666666667;1;11;15;27.0;Target:7;Target:7
1499631316091;16;1;DWELL;SingleFinger;TOUCH_MOVED;1;450.6666666666667;340.6666666666667;1;12;15;27.0;Target:7;Target:7
1499631316117;16;1;DWELL;SingleFinger;TOUCH_MOVED;1;450.6666666666667;341.3333333333333;1;11;15;27.0;Target:7;Target:7
1499631316183;16;1;DWELL;SingleFinger;TOUCH_MOVED;1;450.6666666666667;340.6666666666667;1;11;15;27.0;Target:7;Target:7
1499631316245;16;1;DWELL;SingleFinger;TOUCH_MOVED;1;450.6666666666667;340.0;1;9;15;27.0;Target:7;Target:7
1499631316285;16;1;DWELL;SingleFinger;TOUCH_MOVED;1;451.3333333333333;341.3333333333333;1;17;17;27.0;Target:7;Target:7
1499631316290;16;1;DWELL;SingleFinger;TOUCH_MOVED;1;452.0;344.0;1;17;17;27.0;Target:7;Target:7
1499631316295;16;1;DWELL;SingleFinger;TOUCH_MOVED;1;453.3333333333333;348.6666666666667;1;12;17;27.0;Target:7;Target:7
1499631316317;16;1;DWELL;SingleFinger;TOUCH_RELEASED;1;453.3333333333333;348.6666666666667;1;11;17;27.0;Target:7;Target:7
1499631316317;16;1;DWELL;SingleFinger;BUTTON_TRIGGERED;1;453.3333333333333;348.6666666666667;1;11;17;27.0;Target:7;Target:7
1499631316820;16;1;DWELL;SingleFinger;TOUCH_PRESSED;1;765.3333333333334;493.3333333333333;1;11;0;27.0;Target:3;None
1499631316920;16;1;DWELL;SingleFinger;TOUCH_MOVED;1;765.3333333333334;494.0;1;11;13;27.0;Target:3;None
1499631317031;16;1;DWELL;SingleFinger;TOUCH_RELEASED;1;765.3333333333334;494.0;1;12;13;27.0;Target:3;None
1499631317110;16;1;DWELL;SingleFinger;TOUCH_PRESSED;1;794.6666666666666;421.3333333333333;1;11;0;27.0;Target:3;None
1499631317196;16;1;DWELL;SingleFinger;TOUCH_MOVED;1;794.0;421.3333333333333;1;10;14;27.0;Target:3;None
1499631317274;16;1;DWELL;SingleFinger;TOUCH_MOVED;1;794.0;422.0;1;9;14;27.0;Target:3;None
1499631317288;16;1;DWELL;SingleFinger;TOUCH_MOVED;1;794.0;422.6666666666667;1;12;14;27.0;Target:3;None
1499631317294;16;1;DWELL;SingleFinger;TOUCH_MOVED;1;794.0;424.0;1;14;14;27.0;Target:3;Target:3
1499631317301;16;1;DWELL;SingleFinger;TOUCH_MOVED;1;794.0;425.3333333333333;1;10;14;27.0;Target:3;Target:3
1499631317307;16;1;DWELL;SingleFinger;TOUCH_MOVED;1;794.0;427.3333333333333;1;10;14;27.0;Target:3;Target:3
1499631317314;16;1;DWELL;SingleFinger;TOUCH_MOVED;1;794.0;429.3333333333333;1;11;14;27.0;Target:3;Target:3
1499631317320;16;1;DWELL;SingleFinger;TOUCH_MOVED;1;794.0;432.0;1;11;14;27.0;Target:3;Target:3
1499631317327;16;1;DWELL;SingleFinger;TOUCH_MOVED;1;794.0;434.0;1;10;14;27.0;Target:3;Target:3
1499631317334;16;1;DWELL;SingleFinger;TOUCH_MOVED;1;794.0;436.6666666666667;1;14;14;27.0;Target:3;Target:3
1499631317339;16;1;DWELL;SingleFinger;TOUCH_MOVED;1;794.0;440.0;1;14;14;27.0;Target:3;Target:3
1499631317346;16;1;DWELL;SingleFinger;TOUCH_MOVED;1;794.0;443.3333333333333;1;11;14;27.0;Target:3;Target:3
1499631317353;16;1;DWELL;SingleFinger;TOUCH_MOVED;1;794.0;446.0;1;11;14;27.0;Target:3;Target:3
1499631317359;16;1;DWELL;SingleFinger;TOUCH_MOVED;1;794.0;448.0;1;11;14;27.0;Target:3;Target:3
1499631317366;16;1;DWELL;SingleFinger;TOUCH_MOVED;1;794.0;450.0;1;8;14;27.0;Target:3;Target:3
1499631317372;16;1;DWELL;SingleFinger;TOUCH_MOVED;1;794.0;452.0;1;11;14;27.0;Target:3;Target:3
1499631317378;16;1;DWELL;SingleFinger;TOUCH_MOVED;1;794.0;453.3333333333333;1;11;14;27.0;Target:3;Target:3
1499631317385;16;1;DWELL;SingleFinger;TOUCH_MOVED;1;794.0;454.6666666666667;1;12;14;27.0;Target:3;Target:3
1499631317391;16;1;DWELL;SingleFinger;TOUCH_MOVED;1;794.0;456.0;1;12;14;27.0;Target:3;Target:3
1499631317398;16;1;DWELL;SingleFinger;TOUCH_MOVED;1;793.3333333333334;458.0;1;12;14;27.0;Target:3;Target:3
1499631317405;16;1;DWELL;SingleFinger;TOUCH_MOVED;1;793.3333333333334;459.3333333333333;1;11;14;27.0;Target:3;Target:3
1499631317411;16;1;DWELL;SingleFinger;TOUCH_MOVED;1;792.6666666666666;460.0;1;10;14;27.0;Target:3;Target:3
1499631317418;16;1;DWELL;SingleFinger;TOUCH_MOVED;1;792.6666666666666;461.3333333333333;1;10;14;27.0;Target:3;Target:3
1499631317425;16;1;DWELL;SingleFinger;TOUCH_MOVED;1;792.6666666666666;462.0;1;12;14;27.0;Target:3;Target:3
1499631317431;16;1;DWELL;SingleFinger;TOUCH_MOVED;1;792.0;462.6666666666667;1;11;14;27.0;Target:3;Target:3
1499631317438;16;1;DWELL;SingleFinger;TOUCH_MOVED;1;792.0;463.3333333333333;1;11;14;27.0;Target:3;Target:3
1499631317444;16;1;DWELL;SingleFinger;TOUCH_MOVED;1;792.0;464.0;1;12;14;27.0;Target:3;Target:3
1499631317451;16;1;DWELL;SingleFinger;TOUCH_MOVED;1;792.0;464.6666666666667;1;12;14;27.0;Target:3;Target:3
1499631317457;16;1;DWELL;SingleFinger;TOUCH_MOVED;1;791.3333333333334;465.3333333333333;1;10;14;27.0;Target:3;Target:3
1499631317471;16;1;DWELL;SingleFinger;TOUCH_MOVED;1;791.3333333333334;466.0;1;12;14;27.0;Target:3;Target:3
1499631317483;16;1;DWELL;SingleFinger;TOUCH_MOVED;1;791.3333333333334;466.6666666666667;1;10;14;27.0;Target:3;Target:3
1499631317497;16;1;DWELL;SingleFinger;TOUCH_MOVED;1;790.6666666666666;466.6666666666667;1;11;14;27.0;Target:3;Target:3
1499631317517;16;1;DWELL;SingleFinger;TOUCH_MOVED;1;790.6666666666666;467.3333333333333;1;11;14;27.0;Target:3;Target:3
1499631317612;16;1;DWELL;SingleFinger;TOUCH_MOVED;1;790.6666666666666;466.6666666666667;1;10;15;27.0;Target:3;Target:3
1499631317637;16;1;DWELL;SingleFinger;TOUCH_RELEASED;1;790.6666666666666;466.6666666666667;1;11;15;27.0;Target:3;None
1499631317739;16;1;DWELL;SingleFinger;TOUCH_PRESSED;1;794.6666666666666;462.6666666666667;1;11;0;27.0;Target:3;Target:3
1499631317765;16;1;DWELL;SingleFinger;TOUCH_MOVED;1;794.6666666666666;463.3333333333333;1;11;11;27.0;Target:3;Target:3
1499631317790;16;1;DWELL;SingleFinger;TOUCH_MOVED;1;794.6666666666666;464.0;1;10;12;27.0;Target:3;Target:3
1499631317803;16;1;DWELL;SingleFinger;TOUCH_MOVED;1;794.6666666666666;464.6666666666667;1;10;12;27.0;Target:3;Target:3
1499631317817;16;1;DWELL;SingleFinger;TOUCH_MOVED;1;794.6666666666666;465.3333333333333;1;11;12;27.0;Target:3;Target:3
1499631317829;16;1;DWELL;SingleFinger;TOUCH_MOVED;1;794.6666666666666;466.0;1;11;12;27.0;Target:3;Target:3
1499631317961;16;1;DWELL;SingleFinger;TOUCH_MOVED;1;794.6666666666666;465.3333333333333;1;11;13;27.0;Target:3;Target:3
1499631318001;16;1;DWELL;SingleFinger;TOUCH_MOVED;1;794.6666666666666;464.6666666666667;1;5;13;27.0;Target:3;Target:3
1499631318125;16;1;DWELL;SingleFinger;TOUCH_MOVED;1;794.6666666666666;465.3333333333333;1;8;15;27.0;Target:3;Target:3
1499631318151;16;1;DWELL;SingleFinger;TOUCH_MOVED;1;794.6666666666666;466.0;1;16;16;27.0;Target:3;Target:3
1499631318164;16;1;DWELL;SingleFinger;TOUCH_MOVED;1;794.6666666666666;466.6666666666667;1;9;16;27.0;Target:3;Target:3
1499631318177;16;1;DWELL;SingleFinger;TOUCH_MOVED;1;794.0;467.3333333333333;1;11;16;27.0;Target:3;Target:3
1499631318190;16;1;DWELL;SingleFinger;TOUCH_MOVED;1;794.0;468.0;1;11;16;27.0;Target:3;Target:3
1499631318203;16;1;DWELL;SingleFinger;TOUCH_MOVED;1;793.3333333333334;468.6666666666667;1;11;16;27.0;Target:3;Target:3
1499631318217;16;1;DWELL;SingleFinger;TOUCH_MOVED;1;793.3333333333334;469.3333333333333;1;10;16;27.0;Target:3;Target:3
1499631318238;16;1;DWELL;SingleFinger;TOUCH_MOVED;1;793.3333333333334;470.0;1;15;16;27.0;Target:3;Target:3
1499631318243;16;1;DWELL;SingleFinger;TOUCH_MOVED;1;792.6666666666666;470.0;1;12;16;27.0;Target:3;Target:3
1499631318257;16;1;DWELL;SingleFinger;TOUCH_MOVED;1;792.6666666666666;470.6666666666667;1;12;16;27.0;Target:3;Target:3
1499631318282;16;1;DWELL;SingleFinger;TOUCH_MOVED;1;792.6666666666666;471.3333333333333;1;13;16;27.0;Target:3;Target:3
1499631318407;16;1;DWELL;SingleFinger;TOUCH_MOVED;1;793.3333333333334;471.3333333333333;1;11;16;27.0;Target:3;Target:3
1499631318428;16;1;DWELL;SingleFinger;TOUCH_MOVED;1;794.0;472.0;1;10;16;27.0;Target:3;Target:3
1499631318432;16;1;DWELL;SingleFinger;TOUCH_MOVED;1;794.6666666666666;473.3333333333333;1;11;16;27.0;Target:3;Target:3
1499631318453;16;1;DWELL;SingleFinger;TOUCH_RELEASED;1;794.6666666666666;473.3333333333333;1;11;16;27.0;Target:3;Target:3
1499631318453;16;1;DWELL;SingleFinger;BUTTON_TRIGGERED;1;794.6666666666666;473.3333333333333;1;11;16;27.0;Target:3;Target:3
1499631319102;16;1;DWELL;SingleFinger;TOUCH_PRESSED;1;526.0;221.33333333333334;1;10;0;27.0;Target:8;Target:8
1499631319194;16;1;DWELL;SingleFinger;TOUCH_MOVED;1;526.0;222.0;1;25;25;27.0;Target:8;Target:8
1499631319213;16;1;DWELL;SingleFinger;TOUCH_MOVED;1;525.3333333333334;222.0;1;11;25;27.0;Target:8;Target:8
1499631319246;16;1;DWELL;SingleFinger;TOUCH_MOVED;1;525.3333333333334;222.66666666666666;1;11;25;27.0;Target:8;Target:8
1499631319332;16;1;DWELL;SingleFinger;TOUCH_MOVED;1;524.6666666666666;222.66666666666666;1;11;25;27.0;Target:8;Target:8
1499631319336;16;1;DWELL;SingleFinger;TOUCH_MOVED;1;524.6666666666666;222.0;1;11;25;27.0;Target:8;Target:8
1499631319392;16;1;DWELL;SingleFinger;TOUCH_MOVED;1;524.6666666666666;221.33333333333334;1;10;25;27.0;Target:8;Target:8
1499631319451;16;1;DWELL;SingleFinger;TOUCH_MOVED;1;524.0;221.33333333333334;1;11;25;27.0;Target:8;Target:8
1499631319470;16;1;DWELL;SingleFinger;TOUCH_MOVED;1;524.0;222.0;1;9;25;27.0;Target:8;Target:8
1499631319510;16;1;DWELL;SingleFinger;TOUCH_MOVED;1;524.0;222.66666666666666;1;7;25;27.0;Target:8;Target:8
1499631319529;16;1;DWELL;SingleFinger;TOUCH_MOVED;1;524.0;223.33333333333334;1;13;25;27.0;Target:8;Target:8
1499631319549;16;1;DWELL;SingleFinger;TOUCH_MOVED;1;524.0;224.0;1;11;25;27.0;Target:8;Target:8
1499631319562;16;1;DWELL;SingleFinger;TOUCH_MOVED;1;524.0;224.66666666666666;1;12;25;27.0;Target:8;Target:8
1499631319575;16;1;DWELL;SingleFinger;TOUCH_MOVED;1;524.0;225.33333333333334;1;12;25;27.0;Target:8;Target:8
1499631319595;16;1;DWELL;SingleFinger;TOUCH_MOVED;1;524.0;226.0;1;11;25;27.0;Target:8;Target:8
1499631319614;16;1;DWELL;SingleFinger;TOUCH_MOVED;1;524.0;226.66666666666666;1;10;25;27.0;Target:8;Target:8
1499631319647;16;1;DWELL;SingleFinger;TOUCH_MOVED;1;524.0;227.33333333333334;1;11;25;27.0;Target:8;Target:8
1499631319725;16;1;DWELL;SingleFinger;TOUCH_MOVED;1;524.0;226.66666666666666;1;11;25;27.0;Target:8;Target:8
1499631319817;16;1;DWELL;SingleFinger;TOUCH_RELEASED;1;524.0;226.66666666666666;1;14;25;27.0;Target:8;Target:8
1499631319817;16;1;DWELL;SingleFinger;BUTTON_TRIGGERED;1;524.0;226.66666666666666;1;14;25;27.0;Target:8;Target:8
1499631320245;16;1;DWELL;SingleFinger;TOUCH_PRESSED;1;714.6666666666666;538.0;1;11;0;27.0;Target:4;Target:4
1499631320310;16;1;DWELL;SingleFinger;TOUCH_MOVED;1;714.6666666666666;538.6666666666666;1;10;11;27.0;Target:4;Target:4
1499631320350;16;1;DWELL;SingleFinger;TOUCH_MOVED;1;714.0;538.6666666666666;1;12;12;27.0;Target:4;Target:4
1499631320461;16;1;DWELL;SingleFinger;TOUCH_MOVED;1;713.3333333333334;538.6666666666666;1;7;16;27.0;Target:4;Target:4
1499631320488;16;1;DWELL;SingleFinger;TOUCH_MOVED;1;713.3333333333334;539.3333333333334;1;11;16;27.0;Target:4;Target:4
1499631320525;16;1;DWELL;SingleFinger;TOUCH_MOVED;1;713.3333333333334;540.0;1;10;16;27.0;Target:4;Target:4
1499631320531;16;1;DWELL;SingleFinger;TOUCH_MOVED;1;713.3333333333334;540.6666666666666;1;10;16;27.0;Target:4;Target:4
1499631320539;16;1;DWELL;SingleFinger;TOUCH_MOVED;1;713.3333333333334;541.3333333333334;1;12;16;27.0;Target:4;Target:4
1499631320545;16;1;DWELL;SingleFinger;TOUCH_MOVED;1;713.3333333333334;542.0;1;10;16;27.0;Target:4;Target:4
1499631320552;16;1;DWELL;SingleFinger;TOUCH_MOVED;1;713.3333333333334;543.3333333333334;1;10;16;27.0;Target:4;Target:4
1499631320557;16;1;DWELL;SingleFinger;TOUCH_MOVED;1;713.3333333333334;544.6666666666666;1;10;16;27.0;Target:4;Target:4
1499631320564;16;1;DWELL;SingleFinger;TOUCH_MOVED;1;713.3333333333334;545.3333333333334;1;7;16;27.0;Target:4;Target:4
1499631320570;16;1;DWELL;SingleFinger;TOUCH_MOVED;1;713.3333333333334;546.6666666666666;1;7;16;27.0;Target:4;Target:4
1499631320578;16;1;DWELL;SingleFinger;TOUCH_MOVED;1;713.3333333333334;548.0;1;11;16;27.0;Target:4;Target:4
1499631320584;16;1;DWELL;SingleFinger;TOUCH_MOVED;1;713.3333333333334;549.3333333333334;1;11;16;27.0;Target:4;Target:4
1499631320591;16;1;DWELL;SingleFinger;TOUCH_MOVED;1;712.6666666666666;550.6666666666666;1;11;16;27.0;Target:4;Target:4
1499631320598;16;1;DWELL;SingleFinger;TOUCH_MOVED;1;712.6666666666666;552.6666666666666;1;10;16;27.0;Target:4;Target:4
1499631320604;16;1;DWELL;SingleFinger;TOUCH_MOVED;1;712.0;554.0;1;8;16;27.0;Target:4;Target:4
1499631320611;16;1;DWELL;SingleFinger;TOUCH_MOVED;1;712.0;555.3333333333334;1;8;16;27.0;Target:4;None
1499631320618;16;1;DWELL;SingleFinger;TOUCH_MOVED;1;711.3333333333334;556.0;1;10;16;27.0;Target:4;None
1499631320624;16;1;DWELL;SingleFinger;TOUCH_MOVED;1;711.3333333333334;557.3333333333334;1;11;16;27.0;Target:4;None
1499631320631;16;1;DWELL;SingleFinger;TOUCH_MOVED;1;711.3333333333334;558.0;1;11;16;27.0;Target:4;None
1499631320637;16;1;DWELL;SingleFinger;TOUCH_MOVED;1;710.6666666666666;558.0;1;12;16;27.0;Target:4;None
1499631320644;16;1;DWELL;SingleFinger;TOUCH_MOVED;1;710.6666666666666;558.6666666666666;1;11;16;27.0;Target:4;None
1499631320657;16;1;DWELL;SingleFinger;TOUCH_MOVED;1;710.6666666666666;559.3333333333334;1;10;16;27.0;Target:4;None
1499631320693;16;1;DWELL;SingleFinger;TOUCH_MOVED;1;710.0;559.3333333333334;1;11;16;27.0;Target:4;None
1499631320820;16;1;DWELL;SingleFinger;TOUCH_MOVED;1;710.0;558.6666666666666;1;9;16;27.0;Target:4;None
1499631320878;16;1;DWELL;SingleFinger;TOUCH_MOVED;1;710.0;558.0;1;12;16;27.0;Target:4;None
1499631320913;16;1;DWELL;SingleFinger;TOUCH_RELEASED;1;710.0;558.0;1;12;16;27.0;Target:4;None
1499631321030;16;1;DWELL;SingleFinger;TOUCH_PRESSED;1;686.0;550.6666666666666;1;9;0;27.0;Target:4;Target:4
1499631321135;16;1;DWELL;SingleFinger;TOUCH_MOVED;1;686.0;550.0;1;9;12;27.0;Target:4;Target:4
1499631321175;16;1;DWELL;SingleFinger;TOUCH_MOVED;1;686.0;549.3333333333334;1;12;12;27.0;Target:4;Target:4
1499631321190;16;1;DWELL;SingleFinger;TOUCH_MOVED;1;686.0;548.6666666666666;1;7;12;27.0;Target:4;Target:4
1499631321204;16;1;DWELL;SingleFinger;TOUCH_MOVED;1;686.6666666666666;548.6666666666666;1;11;13;27.0;Target:4;Target:4
1499631321214;16;1;DWELL;SingleFinger;TOUCH_MOVED;1;686.6666666666666;548.0;1;10;13;27.0;Target:4;Target:4
1499631321264;16;1;DWELL;SingleFinger;TOUCH_MOVED;1;686.6666666666666;547.3333333333334;1;10;13;27.0;Target:4;Target:4
1499631321289;16;1;DWELL;SingleFinger;TOUCH_MOVED;1;687.3333333333334;547.3333333333334;1;10;13;27.0;Target:4;Target:4
1499631321315;16;1;DWELL;SingleFinger;TOUCH_RELEASED;1;687.3333333333334;547.3333333333334;1;11;13;27.0;Target:4;Target:4
1499631321414;16;1;DWELL;SingleFinger;TOUCH_PRESSED;1;688.0;524.6666666666666;1;10;0;27.0;Target:4;Target:4
1499631321513;16;1;DWELL;SingleFinger;TOUCH_MOVED;1;687.3333333333334;524.6666666666666;1;10;15;27.0;Target:4;Target:4
1499631321518;16;1;DWELL;SingleFinger;TOUCH_MOVED;1;687.3333333333334;525.3333333333334;1;8;15;27.0;Target:4;Target:4
1499631321731;16;1;DWELL;SingleFinger;TOUCH_MOVED;1;687.3333333333334;526.0;1;11;15;27.0;Target:4;Target:4
1499631321757;16;1;DWELL;SingleFinger;TOUCH_MOVED;1;687.3333333333334;526.6666666666666;1;10;15;27.0;Target:4;Target:4
1499631321762;16;1;DWELL;SingleFinger;TOUCH_MOVED;1;688.0;527.3333333333334;1;10;15;27.0;Target:4;Target:4
1499631321768;16;1;DWELL;SingleFinger;TOUCH_MOVED;1;688.0;528.6666666666666;1;12;15;27.0;Target:4;Target:4
1499631321773;16;1;DWELL;SingleFinger;TOUCH_MOVED;1;688.0;530.6666666666666;1;12;15;27.0;Target:4;Target:4
1499631321781;16;1;DWELL;SingleFinger;TOUCH_MOVED;1;688.0;532.6666666666666;1;11;15;27.0;Target:4;Target:4
1499631321787;16;1;DWELL;SingleFinger;TOUCH_MOVED;1;688.6666666666666;535.3333333333334;1;12;15;27.0;Target:4;Target:4
1499631321793;16;1;DWELL;SingleFinger;TOUCH_MOVED;1;688.6666666666666;538.6666666666666;1;12;15;27.0;Target:4;Target:4
1499631321799;16;1;DWELL;SingleFinger;TOUCH_MOVED;1;688.6666666666666;543.3333333333334;1;11;15;27.0;Target:4;Target:4
1499631321806;16;1;DWELL;SingleFinger;TOUCH_MOVED;1;689.3333333333334;547.3333333333334;1;12;15;27.0;Target:4;Target:4
1499631321810;16;1;DWELL;SingleFinger;TOUCH_MOVED;1;689.3333333333334;550.6666666666666;1;12;15;27.0;Target:4;Target:4
1499631321816;16;1;DWELL;SingleFinger;TOUCH_MOVED;1;689.3333333333334;554.6666666666666;1;11;15;27.0;Target:4;None
1499631321821;16;1;DWELL;SingleFinger;TOUCH_MOVED;1;689.3333333333334;558.0;1;11;15;27.0;Target:4;None
1499631321829;16;1;DWELL;SingleFinger;TOUCH_MOVED;1;690.0;560.6666666666666;1;11;15;27.0;Target:4;None
1499631321835;16;1;DWELL;SingleFinger;TOUCH_MOVED;1;690.0;563.3333333333334;1;10;15;27.0;Target:4;None
1499631321842;16;1;DWELL;SingleFinger;TOUCH_MOVED;1;690.0;565.3333333333334;1;10;15;27.0;Target:4;None
1499631321848;16;1;DWELL;SingleFinger;TOUCH_MOVED;1;690.0;567.3333333333334;1;11;15;27.0;Target:4;None
1499631321855;16;1;DWELL;SingleFinger;TOUCH_MOVED;1;690.0;568.6666666666666;1;12;15;27.0;Target:4;None
1499631321861;16;1;DWELL;SingleFinger;TOUCH_MOVED;1;690.0;570.0;1;12;15;27.0;Target:4;None
1499631321868;16;1;DWELL;SingleFinger;TOUCH_MOVED;1;690.0;571.3333333333334;1;8;15;27.0;Target:4;None
1499631321874;16;1;DWELL;SingleFinger;TOUCH_MOVED;1;689.3333333333334;572.0;1;12;15;27.0;Target:4;None
1499631321881;16;1;DWELL;SingleFinger;TOUCH_MOVED;1;689.3333333333334;573.3333333333334;1;12;15;27.0;Target:4;None
1499631321886;16;1;DWELL;SingleFinger;TOUCH_MOVED;1;689.3333333333334;574.0;1;12;15;27.0;Target:4;None
1499631321894;16;1;DWELL;SingleFinger;TOUCH_MOVED;1;689.3333333333334;574.6666666666666;1;12;15;27.0;Target:4;None
1499631321901;16;1;DWELL;SingleFinger;TOUCH_MOVED;1;689.3333333333334;575.3333333333334;1;10;15;27.0;Target:4;None
1499631321914;16;1;DWELL;SingleFinger;TOUCH_MOVED;1;689.3333333333334;576.0;1;11;15;27.0;Target:4;None
1499631321952;16;1;DWELL;SingleFinger;TOUCH_MOVED;1;689.3333333333334;576.6666666666666;1;13;15;27.0;Target:4;None
1499631322002;16;1;DWELL;SingleFinger;TOUCH_RELEASED;1;689.3333333333334;576.6666666666666;1;13;15;27.0;Target:4;None
1499631322301;16;1;DWELL;SingleFinger;TOUCH_PRESSED;1;705.3333333333334;536.0;1;12;0;27.0;Target:4;Target:4
1499631322406;16;1;DWELL;SingleFinger;TOUCH_MOVED;1;705.3333333333334;536.6666666666666;1;10;14;27.0;Target:4;Target:4
1499631322452;16;1;DWELL;SingleFinger;TOUCH_MOVED;1;705.3333333333334;537.3333333333334;1;10;14;27.0;Target:4;Target:4
1499631322559;16;1;DWELL;SingleFinger;TOUCH_MOVED;1;704.6666666666666;537.3333333333334;1;12;15;27.0;Target:4;Target:4
1499631322579;16;1;DWELL;SingleFinger;TOUCH_MOVED;1;704.6666666666666;536.6666666666666;1;11;15;27.0;Target:4;Target:4
1499631322709;16;1;DWELL;SingleFinger;TOUCH_MOVED;1;704.6666666666666;537.3333333333334;1;10;15;27.0;Target:4;Target:4
1499631322721;16;1;DWELL;SingleFinger;TOUCH_MOVED;1;705.3333333333334;538.0;1;13;15;27.0;Target:4;Target:4
1499631322727;16;1;DWELL;SingleFinger;TOUCH_MOVED;1;705.3333333333334;538.6666666666666;1;11;15;27.0;Target:4;Target:4
1499631322734;16;1;DWELL;SingleFinger;TOUCH_MOVED;1;705.3333333333334;540.0;1;11;15;27.0;Target:4;Target:4
1499631322739;16;1;DWELL;SingleFinger;TOUCH_MOVED;1;706.0;540.6666666666666;1;11;15;27.0;Target:4;Target:4
1499631322746;16;1;DWELL;SingleFinger;TOUCH_MOVED;1;706.0;542.0;1;13;15;27.0;Target:4;Target:4
1499631322752;16;1;DWELL;SingleFinger;TOUCH_MOVED;1;706.0;542.6666666666666;1;13;15;27.0;Target:4;Target:4
1499631322759;16;1;DWELL;SingleFinger;TOUCH_MOVED;1;706.6666666666666;543.3333333333334;1;11;15;27.0;Target:4;Target:4
1499631322764;16;1;DWELL;SingleFinger;TOUCH_MOVED;1;706.6666666666666;544.0;1;10;15;27.0;Target:4;Target:4
1499631322773;16;1;DWELL;SingleFinger;TOUCH_MOVED;1;706.6666666666666;544.6666666666666;1;10;15;27.0;Target:4;Target:4
1499631322781;16;1;DWELL;SingleFinger;TOUCH_MOVED;1;706.6666666666666;545.3333333333334;1;11;15;27.0;Target:4;Target:4
1499631322785;16;1;DWELL;SingleFinger;TOUCH_MOVED;1;706.6666666666666;546.0;1;11;15;27.0;Target:4;Target:4
1499631322793;16;1;DWELL;SingleFinger;TOUCH_MOVED;1;706.6666666666666;546.6666666666666;1;11;15;27.0;Target:4;Target:4
1499631322805;16;1;DWELL;SingleFinger;TOUCH_MOVED;1;706.6666666666666;547.3333333333334;1;11;15;27.0;Target:4;Target:4
1499631322811;16;1;DWELL;SingleFinger;TOUCH_MOVED;1;706.6666666666666;548.0;1;11;15;27.0;Target:4;Target:4
1499631322825;16;1;DWELL;SingleFinger;TOUCH_MOVED;1;706.6666666666666;548.6666666666666;1;12;15;27.0;Target:4;Target:4
1499631322993;16;1;DWELL;SingleFinger;TOUCH_MOVED;1;706.6666666666666;548.0;1;10;15;27.0;Target:4;Target:4
1499631323037;16;1;DWELL;SingleFinger;TOUCH_MOVED;1;707.3333333333334;548.0;1;11;15;27.0;Target:4;Target:4
1499631323068;16;1;DWELL;SingleFinger;TOUCH_RELEASED;1;707.3333333333334;548.0;1;12;15;27.0;Target:4;Target:4
1499631323068;16;1;DWELL;SingleFinger;BUTTON_TRIGGERED;1;707.3333333333334;548.0;1;12;15;27.0;Target:4;Target:4
1499631323691;16;1;DWELL;SingleFinger;TOUCH_PRESSED;1;635.3333333333334;201.33333333333334;1;10;0;20.0;Target:0;None
1499631323789;16;1;DWELL;SingleFinger;TOUCH_MOVED;1;635.3333333333334;200.66666666666666;1;10;12;20.0;Target:0;None
1499631323835;16;1;DWELL;SingleFinger;TOUCH_MOVED;1;634.6666666666666;200.66666666666666;1;8;12;20.0;Target:0;None
1499631323926;16;1;DWELL;SingleFinger;TOUCH_MOVED;1;634.6666666666666;200.0;1;10;13;20.0;Target:0;None
1499631324007;16;1;DWELL;SingleFinger;TOUCH_RELEASED;1;634.6666666666666;200.0;1;10;13;20.0;Target:0;None
1499631324082;16;1;DWELL;SingleFinger;TOUCH_PRESSED;1;645.3333333333334;177.33333333333334;1;11;0;20.0;Target:0;Target:0
1499631324273;16;1;DWELL;SingleFinger;TOUCH_MOVED;1;645.3333333333334;178.0;1;9;13;20.0;Target:0;Target:0
1499631324299;16;1;DWELL;SingleFinger;TOUCH_MOVED;1;644.6666666666666;178.66666666666666;1;12;13;20.0;Target:0;Target:0
1499631324325;16;1;DWELL;SingleFinger;TOUCH_MOVED;1;644.6666666666666;179.33333333333334;1;10;13;20.0;Target:0;Target:0
1499631324351;16;1;DWELL;SingleFinger;TOUCH_MOVED;1;644.6666666666666;180.0;1;10;13;20.0;Target:0;Target:0
1499631324384;16;1;DWELL;SingleFinger;TOUCH_MOVED;1;644.6666666666666;180.66666666666666;1;14;16;20.0;Target:0;Target:0
1499631324391;16;1;DWELL;SingleFinger;TOUCH_MOVED;1;644.0;180.66666666666666;1;11;16;20.0;Target:0;Target:0
1499631324430;16;1;DWELL;SingleFinger;TOUCH_MOVED;1;644.0;181.33333333333334;1;12;16;20.0;Target:0;Target:0
1499631324566;16;1;DWELL;SingleFinger;TOUCH_MOVED;1;644.0;180.66666666666666;1;10;16;20.0;Target:0;Target:0
1499631324677;16;1;DWELL;SingleFinger;TOUCH_MOVED;1;644.0;181.33333333333334;1;10;16;20.0;Target:0;Target:0
1499631324692;16;1;DWELL;SingleFinger;TOUCH_MOVED;1;644.6666666666666;182.0;1;9;16;20.0;Target:0;Target:0
1499631324697;16;1;DWELL;SingleFinger;TOUCH_MOVED;1;644.6666666666666;182.66666666666666;1;9;16;20.0;Target:0;Target:0
1499631324704;16;1;DWELL;SingleFinger;TOUCH_MOVED;1;644.6666666666666;184.0;1;9;16;20.0;Target:0;Target:0
1499631324711;16;1;DWELL;SingleFinger;TOUCH_MOVED;1;645.3333333333334;186.0;1;9;16;20.0;Target:0;Target:0
1499631324716;16;1;DWELL;SingleFinger;TOUCH_MOVED;1;645.3333333333334;188.66666666666666;1;10;16;20.0;Target:0;Target:0
1499631324721;16;1;DWELL;SingleFinger;TOUCH_MOVED;1;646.0;192.66666666666666;1;10;16;20.0;Target:0;Target:0
1499631324725;16;1;DWELL;SingleFinger;TOUCH_MOVED;1;646.0;197.33333333333334;1;10;16;20.0;Target:0;Target:0
1499631324746;16;1;DWELL;SingleFinger;TOUCH_RELEASED;1;646.0;197.33333333333334;1;11;16;20.0;Target:0;Target:0
1499631324746;16;1;DWELL;SingleFinger;BUTTON_TRIGGERED;1;646.0;197.33333333333334;1;11;16;20.0;Target:0;Target:0
1499631325301;16;1;DWELL;SingleFinger;TOUCH_PRESSED;1;581.3333333333334;526.0;1;10;0;20.0;Target:5;Target:5
1499631325392;16;1;DWELL;SingleFinger;TOUCH_MOVED;1;581.3333333333334;526.6666666666666;1;10;12;20.0;Target:5;Target:5
1499631325477;16;1;DWELL;SingleFinger;TOUCH_MOVED;1;580.6666666666666;526.6666666666666;1;11;12;20.0;Target:5;Target:5
1499631325522;16;1;DWELL;SingleFinger;TOUCH_MOVED;1;580.6666666666666;527.3333333333334;1;11;12;20.0;Target:5;Target:5
1499631325616;16;1;DWELL;SingleFinger;TOUCH_MOVED;1;580.0;527.3333333333334;1;11;13;20.0;Target:5;Target:5
1499631325833;16;1;DWELL;SingleFinger;TOUCH_MOVED;1;579.3333333333334;527.3333333333334;1;12;15;20.0;Target:5;Target:5
1499631325843;16;1;DWELL;SingleFinger;TOUCH_MOVED;1;579.3333333333334;528.0;1;11;15;20.0;Target:5;Target:5
1499631325898;16;1;DWELL;SingleFinger;TOUCH_MOVED;1;579.3333333333334;527.3333333333334;1;12;15;20.0;Target:5;Target:5
1499631325928;16;1;DWELL;SingleFinger;TOUCH_RELEASED;1;579.3333333333334;527.3333333333334;1;12;15;20.0;Target:5;Target:5
1499631325928;16;1;DWELL;SingleFinger;BUTTON_TRIGGERED;1;579.3333333333334;527.3333333333334;1;12;15;20.0;Target:5;Target:5
1499631326583;16;1;DWELL;SingleFinger;TOUCH_PRESSED;1;767.3333333333334;222.66666666666666;1;10;0;20.0;Target:1;Target:1
1499631326802;16;1;DWELL;SingleFinger;TOUCH_MOVED;1;767.3333333333334;223.33333333333334;1;9;14;20.0;Target:1;Target:1
1499631326809;16;1;DWELL;SingleFinger;TOUCH_MOVED;1;766.6666666666666;223.33333333333334;1;11;14;20.0;Target:1;Target:1
1499631326875;16;1;DWELL;SingleFinger;TOUCH_MOVED;1;766.6666666666666;224.0;1;9;14;20.0;Target:1;Target:1
1499631326954;16;1;DWELL;SingleFinger;TOUCH_MOVED;1;766.0;224.0;1;11;15;20.0;Target:1;Target:1
1499631327016;16;1;DWELL;SingleFinger;TOUCH_MOVED;1;766.0;223.33333333333334;1;8;15;20.0;Target:1;Target:1
1499631327102;16;1;DWELL;SingleFinger;TOUCH_MOVED;1;765.3333333333334;223.33333333333334;1;13;15;20.0;Target:1;Target:1
1499631327148;16;1;DWELL;SingleFinger;TOUCH_MOVED;1;765.3333333333334;224.0;1;11;15;20.0;Target:1;Target:1
1499631327203;16;1;DWELL;SingleFinger;TOUCH_RELEASED;1;765.3333333333334;224.0;1;8;15;20.0;Target:1;Target:1
1499631327203;16;1;DWELL;SingleFinger;BUTTON_TRIGGERED;1;765.3333333333334;224.0;1;8;15;20.0;Target:1;Target:1
1499631327807;16;1;DWELL;SingleFinger;TOUCH_PRESSED;1;476.6666666666667;459.3333333333333;1;10;0;20.0;Target:6;Target:6
1499631328254;16;1;DWELL;SingleFinger;TOUCH_MOVED;1;476.6666666666667;460.0;1;11;13;20.0;Target:6;Target:6
1499631328424;16;1;DWELL;SingleFinger;TOUCH_RELEASED;1;476.6666666666667;460.0;1;11;13;20.0;Target:6;Target:6
1499631328424;16;1;DWELL;SingleFinger;BUTTON_TRIGGERED;1;476.6666666666667;460.0;1;11;13;20.0;Target:6;Target:6
1499631328876;16;1;DWELL;SingleFinger;TOUCH_PRESSED;1;825.3333333333334;341.3333333333333;1;11;0;20.0;Target:2;Target:2
1499631328954;16;1;DWELL;SingleFinger;TOUCH_MOVED;1;825.3333333333334;342.0;1;9;11;20.0;Target:2;Target:2
1499631329014;16;1;DWELL;SingleFinger;TOUCH_MOVED;1;826.0;342.0;1;11;12;20.0;Target:2;Target:2
1499631329230;16;1;DWELL;SingleFinger;TOUCH_MOVED;1;826.0;342.6666666666667;1;12;13;20.0;Target:2;Target:2
1499631329303;16;1;DWELL;SingleFinger;TOUCH_MOVED;1;826.0;343.3333333333333;1;11;13;20.0;Target:2;Target:2
1499631329512;16;1;DWELL;SingleFinger;TOUCH_MOVED;1;826.0;344.0;1;10;13;20.0;Target:2;Target:2
1499631329569;16;1;DWELL;SingleFinger;TOUCH_MOVED;1;825.3333333333334;344.6666666666667;1;10;13;20.0;Target:2;Target:2
1499631329584;16;1;DWELL;SingleFinger;TOUCH_RELEASED;1;825.3333333333334;344.6666666666667;1;10;13;20.0;Target:2;Target:2
1499631329584;16;1;DWELL;SingleFinger;BUTTON_TRIGGERED;1;825.3333333333334;344.6666666666667;1;10;13;20.0;Target:2;Target:2
1499631330117;16;1;DWELL;SingleFinger;TOUCH_PRESSED;1;459.3333333333333;310.6666666666667;1;12;0;20.0;Target:7;Target:7
1499631330156;16;1;DWELL;SingleFinger;TOUCH_MOVED;1;459.3333333333333;310.0;1;11;11;20.0;Target:7;Target:7
1499631330207;16;1;DWELL;SingleFinger;TOUCH_MOVED;1;458.6666666666667;310.0;1;11;12;20.0;Target:7;Target:7
1499631330326;16;1;DWELL;SingleFinger;TOUCH_MOVED;1;458.0;310.0;1;12;14;20.0;Target:7;Target:7
1499631330339;16;1;DWELL;SingleFinger;TOUCH_MOVED;1;458.0;310.6666666666667;1;12;14;20.0;Target:7;Target:7
1499631330379;16;1;DWELL;SingleFinger;TOUCH_MOVED;1;458.0;311.3333333333333;1;10;14;20.0;Target:7;Target:7
1499631330392;16;1;DWELL;SingleFinger;TOUCH_MOVED;1;457.3333333333333;311.3333333333333;1;9;14;20.0;Target:7;Target:7
1499631330425;16;1;DWELL;SingleFinger;TOUCH_MOVED;1;457.3333333333333;312.0;1;10;14;20.0;Target:7;Target:7
1499631330523;16;1;DWELL;SingleFinger;TOUCH_MOVED;1;456.6666666666667;312.0;1;13;14;20.0;Target:7;Target:7
1499631330587;16;1;DWELL;SingleFinger;TOUCH_MOVED;1;456.6666666666667;311.3333333333333;1;12;15;20.0;Target:7;Target:7
1499631330628;16;1;DWELL;SingleFinger;TOUCH_MOVED;1;456.6666666666667;310.6666666666667;1;13;15;20.0;Target:7;Target:7
1499631330661;16;1;DWELL;SingleFinger;TOUCH_MOVED;1;456.0;310.6666666666667;1;11;15;20.0;Target:7;Target:7
1499631330759;16;1;DWELL;SingleFinger;TOUCH_MOVED;1;456.0;311.3333333333333;1;8;15;20.0;Target:7;Target:7
1499631330812;16;1;DWELL;SingleFinger;TOUCH_MOVED;1;456.0;312.0;1;12;15;20.0;Target:7;Target:7
1499631330815;16;1;DWELL;SingleFinger;TOUCH_MOVED;1;455.3333333333333;312.6666666666667;1;12;15;20.0;Target:7;Target:7
1499631330822;16;1;DWELL;SingleFinger;TOUCH_MOVED;1;455.3333333333333;314.6666666666667;1;10;15;20.0;Target:7;Target:7
1499631330826;16;1;DWELL;SingleFinger;TOUCH_MOVED;1;455.3333333333333;316.6666666666667;1;10;15;20.0;Target:7;Target:7
1499631330847;16;1;DWELL;SingleFinger;TOUCH_RELEASED;1;455.3333333333333;316.6666666666667;1;10;15;20.0;Target:7;Target:7
1499631330848;16;1;DWELL;SingleFinger;BUTTON_TRIGGERED;1;455.3333333333333;316.6666666666667;1;10;15;20.0;Target:7;Target:7
1499631331421;16;1;DWELL;SingleFinger;TOUCH_PRESSED;1;825.3333333333334;486.0;1;10;0;20.0;Target:3;None
1499631331628;16;1;DWELL;SingleFinger;TOUCH_RELEASED;1;825.3333333333334;486.0;1;10;12;20.0;Target:3;None
1499631331751;16;1;DWELL;SingleFinger;TOUCH_PRESSED;1;798.0;458.6666666666667;1;12;0;20.0;Target:3;Target:3
1499631331849;16;1;DWELL;SingleFinger;TOUCH_MOVED;1;798.0;459.3333333333333;1;10;12;20.0;Target:3;Target:3
1499631331856;16;1;DWELL;SingleFinger;TOUCH_MOVED;1;797.3333333333334;459.3333333333333;1;13;13;20.0;Target:3;Target:3
1499631331934;16;1;DWELL;SingleFinger;TOUCH_MOVED;1;797.3333333333334;460.0;1;11;13;20.0;Target:3;Target:3
1499631332374;16;1;DWELL;SingleFinger;TOUCH_MOVED;1;797.3333333333334;459.3333333333333;1;10;13;20.0;Target:3;Target:3
1499631332427;16;1;DWELL;SingleFinger;TOUCH_RELEASED;1;797.3333333333334;459.3333333333333;1;12;13;20.0;Target:3;Target:3
1499631332427;16;1;DWELL;SingleFinger;BUTTON_TRIGGERED;1;797.3333333333334;459.3333333333333;1;12;13;20.0;Target:3;Target:3
1499631333129;16;1;DWELL;SingleFinger;TOUCH_PRESSED;1;506.0;233.33333333333334;1;10;0;20.0;Target:8;None
1499631333277;16;1;DWELL;SingleFinger;TOUCH_MOVED;1;505.3333333333333;233.33333333333334;1;11;13;20.0;Target:8;None
1499631333477;16;1;DWELL;SingleFinger;TOUCH_RELEASED;1;505.3333333333333;233.33333333333334;1;11;13;20.0;Target:8;None
1499631333561;16;1;DWELL;SingleFinger;TOUCH_PRESSED;1;510.0;237.33333333333334;1;12;0;20.0;Target:8;None
1499631333565;16;1;DWELL;SingleFinger;TOUCH_MOVED;1;510.6666666666667;238.0;1;12;0;20.0;Target:8;None
1499631333570;16;1;DWELL;SingleFinger;TOUCH_MOVED;1;511.3333333333333;238.66666666666666;1;12;0;20.0;Target:8;None
1499631333575;16;1;DWELL;SingleFinger;TOUCH_MOVED;1;511.3333333333333;239.33333333333334;1;16;16;20.0;Target:8;None
1499631333580;16;1;DWELL;SingleFinger;TOUCH_MOVED;1;512.0;239.33333333333334;1;16;16;20.0;Target:8;None
1499631333586;16;1;DWELL;SingleFinger;TOUCH_MOVED;1;512.6666666666666;240.0;1;11;16;20.0;Target:8;None
1499631333596;16;1;DWELL;SingleFinger;TOUCH_MOVED;1;513.3333333333334;240.66666666666666;1;10;16;20.0;Target:8;None
1499631333606;16;1;DWELL;SingleFinger;TOUCH_MOVED;1;514.0;241.33333333333334;1;10;16;20.0;Target:8;None
1499631333615;16;1;DWELL;SingleFinger;TOUCH_MOVED;1;514.6666666666666;241.33333333333334;1;11;16;20.0;Target:8;None
1499631333620;16;1;DWELL;SingleFinger;TOUCH_MOVED;1;514.6666666666666;242.0;1;11;16;20.0;Target:8;None
1499631333625;16;1;DWELL;SingleFinger;TOUCH_MOVED;1;515.3333333333334;242.0;1;10;16;20.0;Target:8;None
1499631333635;16;1;DWELL;SingleFinger;TOUCH_MOVED;1;515.3333333333334;242.66666666666666;1;10;16;20.0;Target:8;None
1499631333641;16;1;DWELL;SingleFinger;TOUCH_MOVED;1;516.0;242.66666666666666;1;10;16;20.0;Target:8;None
1499631333656;16;1;DWELL;SingleFinger;TOUCH_MOVED;1;516.6666666666666;243.33333333333334;1;14;16;20.0;Target:8;None
1499631333676;16;1;DWELL;SingleFinger;TOUCH_MOVED;1;517.3333333333334;243.33333333333334;1;10;16;20.0;Target:8;None
1499631333696;16;1;DWELL;SingleFinger;TOUCH_MOVED;1;518.0;244.0;1;10;16;20.0;Target:8;None
1499631333721;16;1;DWELL;SingleFinger;TOUCH_MOVED;1;518.6666666666666;244.0;1;11;16;20.0;Target:8;None
1499631333751;16;1;DWELL;SingleFinger;TOUCH_MOVED;1;519.3333333333334;244.66666666666666;1;11;16;20.0;Target:8;None
1499631333781;16;1;DWELL;SingleFinger;TOUCH_MOVED;1;520.0;244.66666666666666;1;15;16;20.0;Target:8;None
1499631333806;16;1;DWELL;SingleFinger;TOUCH_MOVED;1;520.0;245.33333333333334;1;12;16;20.0;Target:8;None
1499631333826;16;1;DWELL;SingleFinger;TOUCH_MOVED;1;520.6666666666666;245.33333333333334;1;14;16;20.0;Target:8;None
1499631333861;16;1;DWELL;SingleFinger;TOUCH_MOVED;1;520.6666666666666;246.0;1;12;16;20.0;Target:8;None
1499631333906;16;1;DWELL;SingleFinger;TOUCH_MOVED;1;521.3333333333334;246.0;1;10;16;20.0;Target:8;None
1499631333941;16;1;DWELL;SingleFinger;TOUCH_RELEASED;1;521.3333333333334;246.0;1;11;16;20.0;Target:8;None
1499631334014;16;1;DWELL;SingleFinger;TOUCH_PRESSED;1;525.3333333333334;236.66666666666666;1;10;0;20.0;Target:8;Target:8
1499631334019;16;1;DWELL;SingleFinger;TOUCH_MOVED;1;525.3333333333334;235.33333333333334;1;10;0;20.0;Target:8;Target:8
1499631334025;16;1;DWELL;SingleFinger;TOUCH_MOVED;1;525.3333333333334;234.66666666666666;1;11;11;20.0;Target:8;Target:8
1499631334029;16;1;DWELL;SingleFinger;TOUCH_MOVED;1;525.3333333333334;234.0;1;11;11;20.0;Target:8;Target:8
1499631334034;16;1;DWELL;SingleFinger;TOUCH_MOVED;1;526.0;233.33333333333334;1;13;13;20.0;Target:8;Target:8
1499631334045;16;1;DWELL;SingleFinger;TOUCH_MOVED;1;526.0;232.66666666666666;1;11;13;20.0;Target:8;Target:8
1499631334050;16;1;DWELL;SingleFinger;TOUCH_MOVED;1;526.0;232.0;1;11;13;20.0;Target:8;Target:8
1499631334059;16;1;DWELL;SingleFinger;TOUCH_MOVED;1;526.0;231.33333333333334;1;10;13;20.0;Target:8;Target:8
1499631334064;16;1;DWELL;SingleFinger;TOUCH_MOVED;1;526.0;230.66666666666666;1;12;13;20.0;Target:8;Target:8
1499631334075;16;1;DWELL;SingleFinger;TOUCH_MOVED;1;526.0;230.0;1;9;13;20.0;Target:8;Target:8
1499631334084;16;1;DWELL;SingleFinger;TOUCH_MOVED;1;526.0;229.33333333333334;1;9;13;20.0;Target:8;Target:8
1499631334094;16;1;DWELL;SingleFinger;TOUCH_MOVED;1;526.0;228.66666666666666;1;10;13;20.0;Target:8;Target:8
1499631334100;16;1;DWELL;SingleFinger;TOUCH_MOVED;1;526.6666666666666;228.66666666666666;1;10;13;20.0;Target:8;Target:8
1499631334105;16;1;DWELL;SingleFinger;TOUCH_MOVED;1;526.6666666666666;228.0;1;10;13;20.0;Target:8;Target:8
1499631334119;16;1;DWELL;SingleFinger;TOUCH_MOVED;1;526.6666666666666;227.33333333333334;1;10;13;20.0;Target:8;Target:8
1499631334135;16;1;DWELL;SingleFinger;TOUCH_MOVED;1;526.6666666666666;226.66666666666666;1;11;13;20.0;Target:8;Target:8
1499631334155;16;1;DWELL;SingleFinger;TOUCH_MOVED;1;526.6666666666666;226.0;1;10;13;20.0;Target:8;Target:8
1499631334175;16;1;DWELL;SingleFinger;TOUCH_MOVED;1;526.6666666666666;225.33333333333334;1;14;14;20.0;Target:8;Target:8
1499631334205;16;1;DWELL;SingleFinger;TOUCH_MOVED;1;526.6666666666666;224.66666666666666;1;12;14;20.0;Target:8;Target:8
1499631334294;16;1;DWELL;SingleFinger;TOUCH_MOVED;1;526.6666666666666;224.0;1;11;14;20.0;Target:8;Target:8
1499631334449;16;1;DWELL;SingleFinger;TOUCH_MOVED;1;526.6666666666666;223.33333333333334;1;10;16;20.0;Target:8;Target:8
1499631334641;16;1;DWELL;SingleFinger;TOUCH_RELEASED;1;526.6666666666666;223.33333333333334;1;13;16;20.0;Target:8;Target:8
1499631334641;16;1;DWELL;SingleFinger;BUTTON_TRIGGERED;1;526.6666666666666;223.33333333333334;1;10;16;20.0;Target:8;Target:8
1499631335289;16;1;DWELL;SingleFinger;TOUCH_PRESSED;1;703.3333333333334;564.6666666666666;1;12;0;20.0;Target:4;None
1499631335463;16;1;DWELL;SingleFinger;TOUCH_RELEASED;1;703.3333333333334;564.6666666666666;1;10;16;20.0;Target:4;None
1499631335572;16;1;DWELL;SingleFinger;TOUCH_PRESSED;1;696.6666666666666;560.6666666666666;1;11;0;20.0;Target:4;None
1499631335780;16;1;DWELL;SingleFinger;TOUCH_RELEASED;1;696.6666666666666;560.6666666666666;1;11;15;20.0;Target:4;None
1499631335818;16;1;DWELL;SingleFinger;TOUCH_PRESSED;1;700.6666666666666;504.6666666666667;1;10;0;20.0;Target:4;None
1499631335894;16;1;DWELL;SingleFinger;TOUCH_MOVED;1;700.6666666666666;504.0;1;14;14;20.0;Target:4;None
1499631336046;16;1;DWELL;SingleFinger;TOUCH_MOVED;1;700.6666666666666;504.6666666666667;1;12;14;20.0;Target:4;None
1499631336092;16;1;DWELL;SingleFinger;TOUCH_MOVED;1;700.6666666666666;505.3333333333333;1;13;14;20.0;Target:4;None
1499631336098;16;1;DWELL;SingleFinger;TOUCH_MOVED;1;700.6666666666666;504.6666666666667;1;13;14;20.0;Target:4;None
1499631336207;16;1;DWELL;SingleFinger;TOUCH_RELEASED;1;700.6666666666666;504.6666666666667;1;10;14;20.0;Target:4;None
1499631336287;16;1;DWELL;SingleFinger;TOUCH_PRESSED;1;700.6666666666666;522.0;1;12;0;20.0;Target:4;Target:4
1499631336632;16;1;DWELL;SingleFinger;TOUCH_MOVED;1;700.6666666666666;522.6666666666666;1;9;15;20.0;Target:4;Target:4
1499631336643;16;1;DWELL;SingleFinger;TOUCH_MOVED;1;700.6666666666666;524.0;1;10;15;20.0;Target:4;Target:4
1499631336648;16;1;DWELL;SingleFinger;TOUCH_MOVED;1;701.3333333333334;525.3333333333334;1;10;15;20.0;Target:4;Target:4
1499631336653;16;1;DWELL;SingleFinger;TOUCH_MOVED;1;701.3333333333334;527.3333333333334;1;11;15;20.0;Target:4;Target:4
1499631336658;16;1;DWELL;SingleFinger;TOUCH_MOVED;1;702.0;530.0;1;11;15;20.0;Target:4;Target:4
1499631336664;16;1;DWELL;SingleFinger;TOUCH_MOVED;1;702.0;533.3333333333334;1;15;15;20.0;Target:4;Target:4
1499631336671;16;1;DWELL;SingleFinger;TOUCH_MOVED;1;702.0;536.6666666666666;1;15;15;20.0;Target:4;Target:4
1499631336675;16;1;DWELL;SingleFinger;TOUCH_MOVED;1;702.6666666666666;540.6666666666666;1;11;15;20.0;Target:4;Target:4
1499631336682;16;1;DWELL;SingleFinger;TOUCH_MOVED;1;702.6666666666666;544.6666666666666;1;11;15;20.0;Target:4;Target:4
1499631336688;16;1;DWELL;SingleFinger;TOUCH_MOVED;1;703.3333333333334;548.6666666666666;1;10;15;20.0;Target:4;Target:4
1499631336691;16;1;DWELL;SingleFinger;TOUCH_MOVED;1;703.3333333333334;552.6666666666666;1;10;15;20.0;Target:4;None
1499631336698;16;1;DWELL;SingleFinger;TOUCH_MOVED;1;703.3333333333334;556.6666666666666;1;11;15;20.0;Target:4;None
1499631336701;16;1;DWELL;SingleFinger;TOUCH_MOVED;1;703.3333333333334;560.0;1;11;15;20.0;Target:4;None
1499631336707;16;1;DWELL;SingleFinger;TOUCH_MOVED;1;703.3333333333334;563.3333333333334;1;10;15;20.0;Target:4;None
1499631336715;16;1;DWELL;SingleFinger;TOUCH_MOVED;1;703.3333333333334;566.0;1;11;15;20.0;Target:4;None
1499631336721;16;1;DWELL;SingleFinger;TOUCH_MOVED;1;703.3333333333334;568.6666666666666;1;11;15;20.0;Target:4;None
1499631336728;16;1;DWELL;SingleFinger;TOUCH_MOVED;1;703.3333333333334;570.6666666666666;1;10;15;20.0;Target:4;None
1499631336735;16;1;DWELL;SingleFinger;TOUCH_MOVED;1;703.3333333333334;572.6666666666666;1;10;15;20.0;Target:4;None
1499631336741;16;1;DWELL;SingleFinger;TOUCH_MOVED;1;703.3333333333334;574.6666666666666;1;10;15;20.0;Target:4;None
1499631336748;16;1;DWELL;SingleFinger;TOUCH_MOVED;1;703.3333333333334;576.0;1;9;15;20.0;Target:4;None
1499631336755;16;1;DWELL;SingleFinger;TOUCH_MOVED;1;703.3333333333334;577.3333333333334;1;10;15;20.0;Target:4;None
1499631336761;16;1;DWELL;SingleFinger;TOUCH_MOVED;1;703.3333333333334;578.0;1;10;15;20.0;Target:4;None
1499631336768;16;1;DWELL;SingleFinger;TOUCH_MOVED;1;703.3333333333334;579.3333333333334;1;13;15;20.0;Target:4;None
1499631336774;16;1;DWELL;SingleFinger;TOUCH_MOVED;1;703.3333333333334;580.0;1;10;15;20.0;Target:4;None
1499631336787;16;1;DWELL;SingleFinger;TOUCH_MOVED;1;703.3333333333334;580.6666666666666;1;11;15;20.0;Target:4;None
1499631336792;16;1;DWELL;SingleFinger;TOUCH_MOVED;1;703.3333333333334;581.3333333333334;1;11;15;20.0;Target:4;None
1499631336803;16;1;DWELL;SingleFinger;TOUCH_MOVED;1;703.3333333333334;582.0;1;10;15;20.0;Target:4;None
1499631336822;16;1;DWELL;SingleFinger;TOUCH_MOVED;1;703.3333333333334;582.6666666666666;1;12;15;20.0;Target:4;None
1499631336858;16;1;DWELL;SingleFinger;TOUCH_MOVED;1;703.3333333333334;583.3333333333334;1;10;15;20.0;Target:4;None
1499631336903;16;1;DWELL;SingleFinger;TOUCH_RELEASED;1;703.3333333333334;583.3333333333334;1;11;15;20.0;Target:4;None
1499631337103;16;1;DWELL;SingleFinger;TOUCH_PRESSED;1;702.6666666666666;533.3333333333334;1;9;0;20.0;Target:4;Target:4
1499631337426;16;1;DWELL;SingleFinger;TOUCH_MOVED;1;702.6666666666666;534.0;1;13;14;20.0;Target:4;Target:4
1499631337562;16;1;DWELL;SingleFinger;TOUCH_MOVED;1;702.6666666666666;534.6666666666666;1;11;14;20.0;Target:4;Target:4
1499631337569;16;1;DWELL;SingleFinger;TOUCH_MOVED;1;702.0;534.6666666666666;1;11;14;20.0;Target:4;Target:4
1499631337713;16;1;DWELL;SingleFinger;TOUCH_RELEASED;1;702.0;534.6666666666666;1;9;14;20.0;Target:4;Target:4
1499631337714;16;1;DWELL;SingleFinger;BUTTON_TRIGGERED;1;702.0;534.6666666666666;1;9;14;20.0;Target:4;Target:4
