Timestamp;Participant;Study;Method;Variant;TouchEvent;TouchId;TouchX;TouchY;TouchCount;Pressure;MaxPressure;TargetRadius;WidgetHighlighted;WaitingButtonPress;WidgetHovered
1499631250717;16;2;DWELL;AnyNumberFinger;TOUCH_PRESSED;1;927.3333333333334;260.0;1;11;0;27.0;Target:0;0;None
1499631250719;16;2;DWELL;AnyNumberFinger;TOUCH_PRESSED;2;878.0;172.0;2;11;0;27.0;Target:0;0;None
1499631250729;16;2;DWELL;AnyNumberFinger;TOUCH_PRESSED;3;823.3333333333334;140.0;3;12;0;27.0;Target:0;0;None
1499631250745;16;2;DWELL;AnyNumberFinger;TOUCH_PRESSED;4;574.0;394.0;4;9;0;27.0;Target:0;0;None
1499631250783;16;2;DWELL;AnyNumberFinger;TOUCH_MOVED;3;822.6666666666666;140.0;4;11;12;27.0;Target:0;0;None
1499631250788;16;2;DWELL;AnyNumberFinger;TOUCH_PRESSED;5;632.6666666666666;173.33333333333334;5;11;0;27.0;Target:0;0;Target:0
1499631250816;16;2;DWELL;AnyNumberFinger;TOUCH_MOVED;3;822.6666666666666;140.66666666666666;5;11;13;27.0;Target:0;0;None
1499631250820;16;2;DWELL;AnyNumberFinger;TOUCH_MOVED;2;877.3333333333334;172.0;5;11;13;27.0;Target:0;0;None
1499631250820;16;2;DWELL;AnyNumberFinger;TOUCH_MOVED;3;822.0;140.66666666666666;5;11;13;27.0;Target:0;0;None
1499631250846;16;2;DWELL;AnyNumberFinger;TOUCH_MOVED;1;927.3333333333334;260.6666666666667;5;12;13;27.0;Target:0;0;None
1499631250851;16;2;DWELL;AnyNumberFinger;TOUCH_MOVED;2;877.3333333333334;172.66666666666666;5;11;13;27.0;Target:0;0;None
1499631250857;16;2;DWELL;AnyNumberFinger;TOUCH_MOVED;4;574.6666666666666;394.0;5;11;13;27.0;Target:0;0;None
1499631250862;16;2;DWELL;AnyNumberFinger;TOUCH_MOVED;3;821.3333333333334;140.66666666666666;5;11;13;27.0;Target:0;0;None
1499631250889;16;2;DWELL;AnyNumberFinger;TOUCH_MOVED;4;575.3333333333334;394.0;5;12;13;27.0;Target:0;0;None
1499631250899;16;2;DWELL;AnyNumberFinger;TOUCH_MOVED;3;820.6666666666666;141.33333333333334;5;11;13;27.0;Target:0;0;None
1499631250935;16;2;DWELL;AnyNumberFinger;TOUCH_MOVED;2;876.6666666666666;172.66666666666666;5;13;13;27.0;Target:0;0;None
1499631250935;16;2;DWELL;AnyNumberFinger;TOUCH_MOVED;5;632.6666666666666;174.0;5;13;13;27.0;Target:0;0;Target:0
1499631250951;16;2;DWELL;AnyNumberFinger;TOUCH_MOVED;1;927.3333333333334;261.3333333333333;5;10;13;27.0;Target:0;0;None
1499631250952;16;2;DWELL;AnyNumberFinger;TOUCH_MOVED;3;820.0;141.33333333333334;5;10;13;27.0;Target:0;0;None
1499631250963;16;2;DWELL;AnyNumberFinger;TOUCH_MOVED;1;926.6666666666666;261.3333333333333;5;9;13;27.0;Target:0;0;None
1499631250963;16;2;DWELL;AnyNumberFinger;TOUCH_MOVED;2;876.6666666666666;173.33333333333334;5;9;13;27.0;Target:0;0;None
1499631250974;16;2;DWELL;AnyNumberFinger;TOUCH_MOVED;4;576.0;394.0;5;11;13;27.0;Target:0;0;None
1499631251005;16;2;DWELL;AnyNumberFinger;TOUCH_MOVED;3;819.3333333333334;141.33333333333334;5;11;13;27.0;Target:0;0;None
1499631251010;16;2;DWELL;AnyNumberFinger;TOUCH_MOVED;3;819.3333333333334;142.0;5;11;13;27.0;Target:0;0;None
1499631251010;16;2;DWELL;AnyNumberFinger;TOUCH_MOVED;4;576.6666666666666;394.0;5;11;13;27.0;Target:0;0;None
1499631251042;16;2;DWELL;AnyNumberFinger;TOUCH_MOVED;2;876.0;173.33333333333334;5;9;13;27.0;Target:0;0;None
1499631251042;16;2;DWELL;AnyNumberFinger;TOUCH_MOVED;5;632.6666666666666;174.66666666666666;5;9;13;27.0;Target:0;0;Target:0
1499631251048;16;2;DWELL;AnyNumberFinger;TOUCH_MOVED;4;577.3333333333334;394.0;5;9;13;27.0;Target:0;0;None
1499631251063;16;2;DWELL;AnyNumberFinger;TOUCH_MOVED;1;926.6666666666666;262.0;5;10;13;27.0;Target:0;0;None
1499631251079;16;2;DWELL;AnyNumberFinger;TOUCH_MOVED;2;876.0;174.0;5;13;13;27.0;Target:0;0;None
1499631251084;16;2;DWELL;AnyNumberFinger;TOUCH_MOVED;3;818.6666666666666;142.0;5;9;13;27.0;Target:0;0;None
1499631251101;16;2;DWELL;AnyNumberFinger;TOUCH_MOVED;4;578.0;394.0;5;10;13;27.0;Target:0;0;None
1499631251116;16;2;DWELL;AnyNumberFinger;TOUCH_MOVED;3;818.6666666666666;142.66666666666666;5;9;13;27.0;Target:0;0;None
1499631251154;16;2;DWELL;AnyNumberFinger;TOUCH_MOVED;5;632.6666666666666;175.33333333333334;5;11;13;27.0;Target:0;0;Target:0
1499631251164;16;2;DWELL;AnyNumberFinger;TOUCH_MOVED;4;578.6666666666666;394.0;5;12;13;27.0;Target:0;0;None
1499631251196;16;2;DWELL;AnyNumberFinger;TOUCH_MOVED;3;818.0;142.66666666666666;5;12;13;27.0;Target:0;0;None
1499631251275;16;2;DWELL;AnyNumberFinger;TOUCH_MOVED;3;818.0;142.0;5;12;14;27.0;Target:0;0;None
1499631251291;16;2;DWELL;AnyNumberFinger;TOUCH_RELEASED;4;578.6666666666666;394.0;5;10;14;27.0;Target:0;0;None
1499631251310;16;2;DWELL;AnyNumberFinger;TOUCH_MOVED;1;926.0;262.6666666666667;4;12;14;27.0;Target:0;0;None
1499631251322;16;2;DWELL;AnyNumberFinger;TOUCH_MOVED;1;925.3333333333334;263.3333333333333;4;9;14;27.0;Target:0;0;None
1499631251328;16;2;DWELL;AnyNumberFinger;TOUCH_MOVED;1;924.6666666666666;264.6666666666667;4;9;14;27.0;Target:0;0;None
1499631251336;16;2;DWELL;AnyNumberFinger;TOUCH_MOVED;1;924.0;266.0;4;11;14;27.0;Target:0;0;None
1499631251344;16;2;DWELL;AnyNumberFinger;TOUCH_MOVED;2;876.0;174.66666666666666;4;11;14;27.0;Target:0;0;None
1499631251344;16;2;DWELL;AnyNumberFinger;TOUCH_RELEASED;5;632.6666666666666;175.33333333333334;4;11;14;27.0;Target:0;0;Target:0
1499631251344;16;2;DWELL;AnyNumberFinger;BUTTON_TRIGGERED;5;632.6666666666666;175.33333333333334;4;11;14;27.0;Target:0;0;Target:0
1499631251350;16;2;DWELL;AnyNumberFinger;TOUCH_MOVED;2;876.0;175.33333333333334;3;11;14;27.0;Target:7;1;None
1499631251357;16;2;DWELL;AnyNumberFinger;TOUCH_RELEASED;1;924.0;266.0;3;12;14;27.0;Target:7;1;None
1499631251367;16;2;DWELL;AnyNumberFinger;TOUCH_RELEASED;3;818.0;142.0;2;11;14;27.0;Target:7;1;None
1499631251396;16;2;DWELL;AnyNumberFinger;TOUCH_RELEASED;2;876.0;175.33333333333334;1;12;14;27.0;Target:7;1;None
1499631252809;16;2;DWELL;AnyNumberFinger;TOUCH_PRESSED;1;599.3333333333334;535.3333333333334;1;10;0;27.0;Target:7;0;Target:7
1499631252828;16;2;DWELL;AnyNumberFinger;TOUCH_MOVED;1;599.3333333333334;534.6666666666666;1;11;16;27.0;Target:7;0;Target:7
1499631252992;16;2;DWELL;AnyNumberFinger;TOUCH_MOVED;1;599.3333333333334;535.3333333333334;1;9;16;27.0;Target:7;0;Target:7
1499631253058;16;2;DWELL;AnyNumberFinger;TOUCH_MOVED;1;599.3333333333334;536.0;1;10;16;27.0;Target:7;0;Target:7
1499631253084;16;2;DWELL;AnyNumberFinger;TOUCH_MOVED;1;600.0;536.0;1;10;16;27.0;Target:7;0;Target:7
1499631253091;16;2;DWELL;AnyNumberFinger;TOUCH_MOVED;1;600.0;536.6666666666666;1;10;16;27.0;Target:7;0;Target:7
1499631253123;16;2;DWELL;AnyNumberFinger;TOUCH_MOVED;1;600.0;537.3333333333334;1;11;16;27.0;Target:7;0;Target:7
1499631253156;16;2;DWELL;AnyNumberFinger;TOUCH_MOVED;1;600.6666666666666;538.0;1;12;16;27.0;Target:7;0;Target:7
1499631253202;16;2;DWELL;AnyNumberFinger;TOUCH_MOVED;1;600.6666666666666;538.6666666666666;1;12;16;27.0;Target:7;0;Target:7
1499631253248;16;2;DWELL;AnyNumberFinger;TOUCH_MOVED;1;600.6666666666666;539.3333333333334;1;10;16;27.0;Target:7;0;Target:7
1499631253280;16;2;DWELL;AnyNumberFinger;TOUCH_MOVED;1;601.3333333333334;539.3333333333334;1;10;16;27.0;Target:7;0;Target:7
1499631253314;16;2;DWELL;AnyNumberFinger;TOUCH_MOVED;1;601.3333333333334;540.0;1;12;16;27.0;Target:7;0;Target:7
1499631253395;16;2;DWELL;AnyNumberFinger;TOUCH_RELEASED;1;601.3333333333334;540.0;1;11;16;27.0;Target:7;0;Target:7
1499631253396;16;2;DWELL;AnyNumberFinger;BUTTON_TRIGGERED;1;601.3333333333334;540.0;1;11;16;27.0;Target:7;0;Target:7
1499631254461;16;2;DWELL;AnyNumberFinger;TOUCH_PRESSED;1;737.3333333333334;178.66666666666666;1;12;0;27.0;Target:1;0;Target:1
1499631254545;16;2;DWELL;AnyNumberFinger;TOUCH_MOVED;1;737.3333333333334;179.33333333333334;1;11;11;27.0;Target:1;0;Target:1
1499631254591;16;2;DWELL;AnyNumberFinger;TOUCH_MOVED;1;737.3333333333334;180.0;1;13;13;27.0;Target:1;0;Target:1
1499631254610;16;2;DWELL;AnyNumberFinger;TOUCH_MOVED;1;736.6666666666666;180.0;1;11;13;27.0;Target:1;0;Target:1
1499631254643;16;2;DWELL;AnyNumberFinger;TOUCH_MOVED;1;736.6666666666666;180.66666666666666;1;11;13;27.0;Target:1;0;Target:1
1499631254755;16;2;DWELL;AnyNumberFinger;TOUCH_MOVED;1;736.6666666666666;181.33333333333334;1;13;13;27.0;Target:1;0;Target:1
1499631254788;16;2;DWELL;AnyNumberFinger;TOUCH_MOVED;1;736.0;181.33333333333334;1;12;13;27.0;Target:1;0;Target:1
1499631254827;16;2;DWELL;AnyNumberFinger;TOUCH_MOVED;1;736.0;182.0;1;10;13;27.0;Target:1;0;Target:1
1499631254892;16;2;DWELL;AnyNumberFinger;TOUCH_MOVED;1;736.0;182.66666666666666;1;12;13;27.0;Target:1;0;Target:1
1499631255010;16;2;DWELL;AnyNumberFinger;TOUCH_MOVED;1;736.0;183.33333333333334;1;10;13;27.0;Target:1;0;Target:1
1499631255193;16;2;DWELL;AnyNumberFinger;TOUCH_RELEASED;1;736.0;183.33333333333334;1;13;13;27.0;Target:1;0;Target:1
1499631255193;16;2;DWELL;AnyNumberFinger;BUTTON_TRIGGERED;1;736.0;183.33333333333334;1;11;13;27.0;Target:1;0;Target:1
1499631256319;16;2;DWELL;AnyNumberFinger;TOUCH_PRESSED;1;532.6666666666666;486.0;1;10;0;27.0;Target:8;0;Target:8
1499631256418;16;2;DWELL;AnyNumberFinger;TOUCH_MOVED;1;532.0;486.0;1;9;13;27.0;Target:8;0;Target:8
1499631256962;16;2;DWELL;AnyNumberFinger;TOUCH_RELEASED;1;532.0;486.0;1;12;13;27.0;Target:8;0;Target:8
1499631256962;16;2;DWELL;AnyNumberFinger;BUTTON_TRIGGERED;1;532.0;486.0;1;12;13;27.0;Target:8;0;Target:8
1499631258254;16;2;DWELL;AnyNumberFinger;TOUCH_PRESSED;1;780.0;272.6666666666667;1;12;0;27.0;Target:2;0;Target:2
1499631258431;16;2;DWELL;AnyNumberFinger;TOUCH_MOVED;1;780.0;272.0;1;10;13;27.0;Target:2;0;Target:2
1499631258576;16;2;DWELL;AnyNumberFinger;TOUCH_MOVED;1;780.0;271.3333333333333;1;12;13;27.0;Target:2;0;Target:2
1499631258713;16;2;DWELL;AnyNumberFinger;TOUCH_MOVED;1;780.0;270.6666666666667;1;11;13;27.0;Target:2;0;Target:2
1499631258765;16;2;DWELL;AnyNumberFinger;TOUCH_MOVED;1;779.3333333333334;270.6666666666667;1;11;13;27.0;Target:2;0;Target:2
1499631258851;16;2;DWELL;AnyNumberFinger;TOUCH_MOVED;1;780.0;270.0;1;12;13;27.0;Target:2;0;Target:2
1499631258866;16;2;DWELL;AnyNumberFinger;TOUCH_MOVED;1;780.6666666666666;270.0;1;12;13;27.0;Target:2;0;Target:2
1499631258887;16;2;DWELL;AnyNumberFinger;TOUCH_RELEASED;1;780.6666666666666;270.0;1;10;13;27.0;Target:2;0;Target:2
1499631258887;16;2;DWELL;AnyNumberFinger;BUTTON_TRIGGERED;1;780.6666666666666;270.0;1;10;13;27.0;Target:2;0;Target:2
1499631260188;16;2;DWELL;AnyNumberFinger;TOUCH_PRESSED;1;488.6666666666667;424.0;1;11;0;27.0;Target:9;0;Target:9
1499631260323;16;2;DWELL;AnyNumberFinger;TOUCH_MOVED;1;489.3333333333333;424.6666666666667;1;10;12;27.0;Target:9;0;Target:9
1499631260540;16;2;DWELL;AnyNumberFinger;TOUCH_MOVED;1;488.6666666666667;424.6666666666667;1;9;14;27.0;Target:9;0;Target:9
1499631260671;16;2;DWELL;AnyNumberFinger;TOUCH_MOVED;1;488.0;424.6666666666667;1;10;14;27.0;Target:9;0;Target:9
1499631260795;16;2;DWELL;AnyNumberFinger;TOUCH_MOVED;1;488.6666666666667;424.6666666666667;1;11;14;27.0;Target:9;0;Target:9
1499631260825;16;2;DWELL;AnyNumberFinger;TOUCH_MOVED;1;489.3333333333333;424.6666666666667;1;13;14;27.0;Target:9;0;Target:9
1499631260844;16;2;DWELL;AnyNumberFinger;TOUCH_RELEASED;1;489.3333333333333;424.6666666666667;1;10;14;27.0;Target:9;0;Target:9
1499631260844;16;2;DWELL;AnyNumberFinger;BUTTON_TRIGGERED;1;489.3333333333333;424.6666666666667;1;10;14;27.0;Target:9;0;Target:9
1499631262456;16;2;DWELL;AnyNumberFinger;TOUCH_PRESSED;1;822.6666666666666;344.6666666666667;1;11;0;27.0;Target:3;0;Target:3
1499631262823;16;2;DWELL;AnyNumberFinger;TOUCH_MOVED;1;822.6666666666666;344.0;1;10;17;27.0;Target:3;0;Target:3
1499631262869;16;2;DWELL;AnyNumberFinger;TOUCH_MOVED;1;822.0;344.0;1;11;17;27.0;Target:3;0;Target:3
1499631262954;16;2;DWELL;AnyNumberFinger;TOUCH_MOVED;1;822.0;343.3333333333333;1;10;17;27.0;Target:3;0;Target:3
1499631262999;16;2;DWELL;AnyNumberFinger;TOUCH_MOVED;1;821.3333333333334;343.3333333333333;1;13;17;27.0;Target:3;0;Target:3
1499631263182;16;2;DWELL;AnyNumberFinger;TOUCH_RELEASED;1;821.3333333333334;343.3333333333333;1;14;17;27.0;Target:3;0;Target:3
1499631263183;16;2;DWELL;AnyNumberFinger;BUTTON_TRIGGERED;1;821.3333333333334;343.3333333333333;1;14;17;27.0;Target:3;0;Target:3
1499631264275;16;2;DWELL;AnyNumberFinger;TOUCH_PRESSED;1;471.3333333333333;342.6666666666667;1;10;0;27.0;Target:10;0;Target:10
1499631264353;16;2;DWELL;AnyNumberFinger;TOUCH_MOVED;1;471.3333333333333;343.3333333333333;1;13;13;27.0;Target:10;0;Target:10
1499631264477;16;2;DWELL;AnyNumberFinger;TOUCH_MOVED;1;471.3333333333333;344.0;1;11;13;27.0;Target:10;0;Target:10
1499631264595;16;2;DWELL;AnyNumberFinger;TOUCH_MOVED;1;470.6666666666667;344.0;1;12;13;27.0;Target:10;0;Target:10
1499631264608;16;2;DWELL;AnyNumberFinger;TOUCH_MOVED;1;470.6666666666667;344.6666666666667;1;11;13;27.0;Target:10;0;Target:10
1499631264720;16;2;DWELL;AnyNumberFinger;TOUCH_MOVED;1;470.6666666666667;344.0;1;10;13;27.0;Target:10;0;Target:10
1499631264751;16;2;DWELL;AnyNumberFinger;TOUCH_MOVED;1;470.0;344.0;1;10;13;27.0;Target:10;0;Target:10
1499631264931;16;2;DWELL;AnyNumberFinger;TOUCH_MOVED;1;470.6666666666667;344.0;1;12;13;27.0;Target:10;0;Target:10
1499631264935;16;2;DWELL;AnyNumberFinger;TOUCH_MOVED;1;471.3333333333333;344.0;1;12;13;27.0;Target:10;0;Target:10
1499631264956;16;2;DWELL;AnyNumberFinger;TOUCH_RELEASED;1;471.3333333333333;344.0;1;11;13;27.0;Target:10;0;Target:10
1499631264957;16;2;DWELL;AnyNumberFinger;BUTTON_TRIGGERED;1;471.3333333333333;344.0;1;11;13;27.0;Target:10;0;Target:10
1499631266039;16;2;DWELL;AnyNumberFinger;TOUCH_PRESSED;1;811.3333333333334;413.3333333333333;1;14;0;27.0;Target:4;0;Target:4
1499631266457;16;2;DWELL;AnyNumberFinger;TOUCH_MOVED;1;811.3333333333334;414.0;1;12;16;27.0;Target:4;0;Target:4
1499631266728;16;2;DWELL;AnyNumberFinger;TOUCH_RELEASED;1;811.3333333333334;414.0;1;11;16;27.0;Target:4;0;Target:4
1499631266728;16;2;DWELL;AnyNumberFinger;BUTTON_TRIGGERED;1;811.3333333333334;414.0;1;11;16;27.0;Target:4;0;Target:4
1499631267811;16;2;DWELL;AnyNumberFinger;TOUCH_PRESSED;1;491.3333333333333;244.66666666666666;1;10;0;27.0;Target:11;0;Target:11
1499631267916;16;2;DWELL;AnyNumberFinger;TOUCH_MOVED;1;490.6666666666667;244.66666666666666;1;12;14;27.0;Target:11;0;Target:11
1499631267994;16;2;DWELL;AnyNumberFinger;TOUCH_MOVED;1;490.6666666666667;245.33333333333334;1;10;14;27.0;Target:11;0;Target:11
1499631268054;16;2;DWELL;AnyNumberFinger;TOUCH_MOVED;1;490.0;245.33333333333334;1;9;14;27.0;Target:11;0;Target:11
1499631268073;16;2;DWELL;AnyNumberFinger;TOUCH_MOVED;1;490.0;246.0;1;10;14;27.0;Target:11;0;Target:11
1499631268178;16;2;DWELL;AnyNumberFinger;TOUCH_MOVED;1;490.0;246.66666666666666;1;12;14;27.0;Target:11;0;Target:11
1499631268191;16;2;DWELL;AnyNumberFinger;TOUCH_MOVED;1;489.3333333333333;246.66666666666666;1;10;14;27.0;Target:11;0;Target:11
1499631268276;16;2;DWELL;AnyNumberFinger;TOUCH_MOVED;1;489.3333333333333;247.33333333333334;1;11;14;27.0;Target:11;0;Target:11
1499631268329;16;2;DWELL;AnyNumberFinger;TOUCH_MOVED;1;488.6666666666667;247.33333333333334;1;10;14;27.0;Target:11;0;Target:11
1499631268354;16;2;DWELL;AnyNumberFinger;TOUCH_MOVED;1;488.6666666666667;248.0;1;11;14;27.0;Target:11;0;Target:11
1499631268381;16;2;DWELL;AnyNumberFinger;TOUCH_MOVED;1;489.3333333333333;248.0;1;10;14;27.0;Target:11;0;Target:11
1499631268421;16;2;DWELL;AnyNumberFinger;TOUCH_MOVED;1;489.3333333333333;248.66666666666666;1;10;14;27.0;Target:11;0;Target:11
1499631268502;16;2;DWELL;AnyNumberFinger;TOUCH_RELEASED;1;489.3333333333333;248.66666666666666;1;11;14;27.0;Target:11;0;Target:11
1499631268502;16;2;DWELL;AnyNumberFinger;BUTTON_TRIGGERED;1;489.3333333333333;248.66666666666666;1;11;14;27.0;Target:11;0;Target:11
1499631269593;16;2;DWELL;AnyNumberFinger;TOUCH_PRESSED;1;754.6666666666666;498.6666666666667;1;11;0;27.0;Target:5;0;Target:5
1499631269622;16;2;DWELL;AnyNumberFinger;TOUCH_MOVED;1;754.6666666666666;498.0;1;11;11;27.0;Target:5;0;Target:5
1499631269658;16;2;DWELL;AnyNumberFinger;TOUCH_MOVED;1;754.0;498.0;1;11;12;27.0;Target:5;0;Target:5
1499631269707;16;2;DWELL;AnyNumberFinger;TOUCH_MOVED;1;754.0;497.3333333333333;1;10;12;27.0;Target:5;0;Target:5
1499631269822;16;2;DWELL;AnyNumberFinger;TOUCH_MOVED;1;754.0;496.6666666666667;1;9;12;27.0;Target:5;0;Target:5
1499631269933;16;2;DWELL;AnyNumberFinger;TOUCH_MOVED;1;754.0;496.0;1;11;12;27.0;Target:5;0;Target:5
1499631269955;16;2;DWELL;AnyNumberFinger;TOUCH_MOVED;1;753.3333333333334;496.0;1;10;12;27.0;Target:5;0;Target:5
1499631270022;16;2;DWELL;AnyNumberFinger;TOUCH_MOVED;1;753.3333333333334;495.3333333333333;1;11;12;27.0;Target:5;0;Target:5
1499631270087;16;2;DWELL;AnyNumberFinger;TOUCH_MOVED;1;753.3333333333334;494.6666666666667;1;9;13;27.0;Target:5;0;Target:5
1499631270173;16;2;DWELL;AnyNumberFinger;TOUCH_MOVED;1;753.3333333333334;494.0;1;12;13;27.0;Target:5;0;Target:5
1499631270208;16;2;DWELL;AnyNumberFinger;TOUCH_MOVED;1;753.3333333333334;494.6666666666667;1;10;13;27.0;Target:5;0;Target:5
1499631270212;16;2;DWELL;AnyNumberFinger;TOUCH_MOVED;1;754.0;494.6666666666667;1;10;13;27.0;Target:5;0;Target:5
1499631270218;16;2;DWELL;AnyNumberFinger;TOUCH_MOVED;1;754.6666666666666;495.3333333333333;1;13;13;27.0;Target:5;0;Target:5
1499631270223;16;2;DWELL;AnyNumberFinger;TOUCH_MOVED;1;756.0;496.0;1;11;13;27.0;Target:5;0;Target:5
1499631270243;16;2;DWELL;AnyNumberFinger;TOUCH_RELEASED;1;756.0;496.0;1;10;13;27.0;Target:5;0;Target:5
1499631270243;16;2;DWELL;AnyNumberFinger;BUTTON_TRIGGERED;1;756.0;496.0;1;10;13;27.0;Target:5;0;Target:5
1499631271310;16;2;DWELL;AnyNumberFinger;TOUCH_PRESSED;1;565.3333333333334;190.66666666666666;1;11;0;27.0;Target:12;0;Target:12
1499631271388;16;2;DWELL;AnyNumberFinger;TOUCH_MOVED;1;565.3333333333334;190.0;1;10;12;27.0;Target:12;0;Target:12
1499631271824;16;2;DWELL;AnyNumberFinger;TOUCH_MOVED;1;565.3333333333334;190.66666666666666;1;10;15;27.0;Target:12;0;Target:12
1499631271828;16;2;DWELL;AnyNumberFinger;TOUCH_MOVED;1;565.3333333333334;191.33333333333334;1;10;15;27.0;Target:12;0;Target:12
1499631271834;16;2;DWELL;AnyNumberFinger;TOUCH_MOVED;1;564.6666666666666;192.66666666666666;1;9;15;27.0;Target:12;0;Target:12
1499631271854;16;2;DWELL;AnyNumberFinger;TOUCH_RELEASED;1;564.6666666666666;192.66666666666666;1;8;15;27.0;Target:12;0;Target:12
1499631271854;16;2;DWELL;AnyNumberFinger;BUTTON_TRIGGERED;1;564.6666666666666;192.66666666666666;1;8;15;27.0;Target:12;0;Target:12
1499631272978;16;2;DWELL;AnyNumberFinger;TOUCH_PRESSED;1;691.3333333333334;515.3333333333334;1;10;0;27.0;Target:6;0;Target:6
1499631273524;16;2;DWELL;AnyNumberFinger;TOUCH_MOVED;1;691.3333333333334;516.0;1;10;13;27.0;Target:6;0;Target:6
1499631273562;16;2;DWELL;AnyNumberFinger;TOUCH_MOVED;1;690.6666666666666;516.0;1;10;16;27.0;Target:6;0;Target:6
1499631273604;16;2;DWELL;AnyNumberFinger;TOUCH_MOVED;1;691.3333333333334;516.6666666666666;1;12;16;27.0;Target:6;0;Target:6
1499631273609;16;2;DWELL;AnyNumberFinger;TOUCH_MOVED;1;691.3333333333334;517.3333333333334;1;12;16;27.0;Target:6;0;Target:6
1499631273613;16;2;DWELL;AnyNumberFinger;TOUCH_MOVED;1;691.3333333333334;518.0;1;12;16;27.0;Target:6;0;Target:6
1499631273619;16;2;DWELL;AnyNumberFinger;TOUCH_MOVED;1;692.0;520.0;1;12;16;27.0;Target:6;0;Target:6
1499631273624;16;2;DWELL;AnyNumberFinger;TOUCH_MOVED;1;693.3333333333334;522.6666666666666;1;12;16;27.0;Target:6;0;Target:6
1499631273645;16;2;DWELL;AnyNumberFinger;TOUCH_RELEASED;1;693.3333333333334;522.6666666666666;1;11;16;27.0;Target:6;0;Target:6
1499631273645;16;2;DWELL;AnyNumberFinger;BUTTON_TRIGGERED;1;693.3333333333334;522.6666666666666;1;11;16;27.0;Target:6;0;Target:6
