Timestamp;Participant;Study;IsTraining;Method;Variant;TouchEvent;TouchId;TouchX;TouchY;TouchCount;Pressure;MaxPressure;LastWarning;WidgetHovered
1499186474807;5;3;1;DWELL;SingleFinger;TOUCH_PRESSED;1;1046.0;460.6666666666667;1;1023;0;APU Fault - EGT Temp;None
1499186474852;5;3;1;DWELL;SingleFinger;TOUCH_MOVED;1;1046.0;460.0;1;1023;1023;APU Fault - EGT Temp;None
1499186474882;5;3;1;DWELL;SingleFinger;TOUCH_MOVED;1;1046.0;459.3333333333333;1;1023;1023;APU Fault - EGT Temp;None
1499186474923;5;3;1;DWELL;SingleFinger;TOUCH_MOVED;1;1046.0;458.6666666666667;1;1023;1023;APU Fault - EGT Temp;None
1499186474972;5;3;1;DWELL;SingleFinger;TOUCH_MOVED;1;1046.0;458.0;1;1023;1023;APU Fault - EGT Temp;None
1499186474997;5;3;1;DWELL;SingleFinger;TOUCH_RELEASED;1;1046.0;458.0;1;1023;1023;APU Fault - EGT Temp;None
1499186476206;5;3;1;DWELL;SingleFinger;TOUCH_PRESSED;1;1002.0;462.6666666666667;1;1023;0;APU Fault - EGT Temp;None
1499186476242;5;3;1;DWELL;SingleFinger;TOUCH_MOVED;1;1002.6666666666666;462.6666666666667;1;1023;1023;APU Fault - EGT Temp;None
1499186476269;5;3;1;DWELL;SingleFinger;TOUCH_MOVED;1;1002.6666666666666;462.0;1;1023;1023;APU Fault - EGT Temp;None
1499186476284;5;3;1;DWELL;SingleFinger;TOUCH_MOVED;1;1002.6666666666666;461.3333333333333;1;1023;1023;APU Fault - EGT Temp;None
1499186476294;5;3;1;DWELL;SingleFinger;TOUCH_MOVED;1;1002.6666666666666;460.6666666666667;1;1023;1023;APU Fault - EGT Temp;None
1499186476300;5;3;1;DWELL;SingleFinger;TOUCH_MOVED;1;1002.6666666666666;460.0;1;1023;1023;APU Fault - EGT Temp;None
1499186476314;5;3;1;DWELL;SingleFinger;TOUCH_MOVED;1;1002.6666666666666;459.3333333333333;1;1023;1023;APU Fault - EGT Temp;None
1499186476326;5;3;1;DWELL;SingleFinger;TOUCH_MOVED;1;1002.6666666666666;458.6666666666667;1;1023;1023;APU Fault - EGT Temp;None
1499186476333;5;3;1;DWELL;SingleFinger;TOUCH_MOVED;1;1002.6666666666666;458.0;1;1023;1023;APU Fault - EGT Temp;None
1499186476339;5;3;1;DWELL;SingleFinger;TOUCH_MOVED;1;1002.6666666666666;457.3333333333333;1;1023;1023;APU Fault - EGT Temp;None
1499186476347;5;3;1;DWELL;SingleFinger;TOUCH_MOVED;1;1002.6666666666666;456.6666666666667;1;1023;1023;APU Fault - EGT Temp;None
1499186476359;5;3;1;DWELL;SingleFinger;TOUCH_MOVED;1;1002.0;456.0;1;1023;1023;APU Fault - EGT Temp;None
1499186476366;5;3;1;DWELL;SingleFinger;TOUCH_MOVED;1;1002.0;455.3333333333333;1;1023;1023;APU Fault - EGT Temp;None
1499186476373;5;3;1;DWELL;SingleFinger;TOUCH_MOVED;1;1002.0;454.6666666666667;1;1023;1023;APU Fault - EGT Temp;None
1499186476386;5;3;1;DWELL;SingleFinger;TOUCH_MOVED;1;1002.0;454.0;1;1023;1023;APU Fault - EGT Temp;None
1499186476413;5;3;1;DWELL;SingleFinger;TOUCH_MOVED;1;1002.0;453.3333333333333;1;1023;1023;APU Fault - EGT Temp;None
1499186476439;5;3;1;DWELL;SingleFinger;TOUCH_MOVED;1;1002.0;452.6666666666667;1;1023;1023;APU Fault - EGT Temp;None
1499186476445;5;3;1;DWELL;SingleFinger;TOUCH_MOVED;1;1001.3333333333334;452.6666666666667;1;1023;1023;APU Fault - EGT Temp;None
1499186476452;5;3;1;DWELL;SingleFinger;TOUCH_MOVED;1;1001.3333333333334;452.0;1;1023;1023;APU Fault - EGT Temp;None
1499186476478;5;3;1;DWELL;SingleFinger;TOUCH_MOVED;1;1001.3333333333334;451.3333333333333;1;1023;1023;APU Fault - EGT Temp;None
1499186476498;5;3;1;DWELL;SingleFinger;TOUCH_MOVED;1;1001.3333333333334;450.6666666666667;1;1023;1023;APU Fault - EGT Temp;None
1499186476544;5;3;1;DWELL;SingleFinger;TOUCH_MOVED;1;1000.6666666666666;450.6666666666667;1;1023;1023;APU Fault - EGT Temp;None
1499186476582;5;3;1;DWELL;SingleFinger;TOUCH_MOVED;1;1000.6666666666666;450.0;1;1023;1023;APU Fault - EGT Temp;None
1499186476687;5;3;1;DWELL;SingleFinger;TOUCH_MOVED;1;1000.0;450.0;1;1023;1023;APU Fault - EGT Temp;None
1499186477598;5;3;1;DWELL;SingleFinger;TOUCH_MOVED;1;999.3333333333334;450.0;1;1023;1023;APU Fault - EGT Temp;None
1499186478732;5;3;1;DWELL;SingleFinger;TOUCH_MOVED;1;998.6666666666666;450.0;1;1023;1023;APU Fault - EGT Temp;None
1499186478816;5;3;1;DWELL;SingleFinger;TOUCH_PRESSED;2;996.6666666666666;462.0;2;1023;0;APU Fault - EGT Temp;None
1499186478883;5;3;1;DWELL;SingleFinger;TOUCH_RELEASED;2;996.6666666666666;462.0;2;1023;1023;APU Fault - EGT Temp;None
1499186478928;5;3;1;DWELL;SingleFinger;TOUCH_PRESSED;3;994.0;462.0;2;1023;0;APU Fault - EGT Temp;None
1499186478954;5;3;1;DWELL;SingleFinger;TOUCH_MOVED;1;998.0;450.0;2;1023;1023;APU Fault - EGT Temp;None
1499186478994;5;3;1;DWELL;SingleFinger;TOUCH_RELEASED;3;994.0;462.0;2;1023;1023;APU Fault - EGT Temp;None
1499186479289;5;3;1;DWELL;SingleFinger;TOUCH_MOVED;1;997.3333333333334;450.0;1;1023;1023;APU Fault - EGT Temp;None
1499186479705;5;3;1;DWELL;SingleFinger;TOUCH_PRESSED;4;994.0;462.0;2;1023;0;APU Fault - EGT Temp;None
1499186479744;5;3;1;DWELL;SingleFinger;TOUCH_MOVED;1;996.6666666666666;450.0;2;1023;1023;APU Fault - EGT Temp;None
1499186479770;5;3;1;DWELL;SingleFinger;TOUCH_RELEASED;4;994.0;462.0;2;1023;1023;APU Fault - EGT Temp;None
1499186479816;5;3;1;DWELL;SingleFinger;TOUCH_PRESSED;5;994.0;462.0;2;1023;0;APU Fault - EGT Temp;None
1499186479882;5;3;1;DWELL;SingleFinger;TOUCH_MOVED;1;996.0;450.0;2;1023;1023;APU Fault - EGT Temp;None
1499186479882;5;3;1;DWELL;SingleFinger;TOUCH_RELEASED;5;994.0;462.0;2;1023;1023;APU Fault - EGT Temp;None
1499186480099;5;3;1;DWELL;SingleFinger;TOUCH_MOVED;1;996.0;449.3333333333333;1;1023;1023;APU Fault - EGT Temp;None
1499186480125;5;3;1;DWELL;SingleFinger;TOUCH_MOVED;1;996.0;448.6666666666667;1;1023;1023;APU Fault - EGT Temp;None
1499186480165;5;3;1;DWELL;SingleFinger;TOUCH_RELEASED;1;996.0;448.6666666666667;1;1023;1023;APU Fault - EGT Temp;None
1499186480481;5;3;1;DWELL;SingleFinger;TOUCH_PRESSED;1;938.0;449.3333333333333;1;1023;0;APU Fault - EGT Temp;Button:WarningAPU Fault - EGT Temp
1499186480604;5;3;1;DWELL;SingleFinger;TOUCH_MOVED;1;937.3333333333334;449.3333333333333;1;1023;1023;APU Fault - EGT Temp;Button:WarningAPU Fault - EGT Temp
1499186480742;5;3;1;DWELL;SingleFinger;TOUCH_MOVED;1;936.6666666666666;449.3333333333333;1;1023;1023;APU Fault - EGT Temp;Button:WarningAPU Fault - EGT Temp
1499186481167;5;3;1;DWELL;SingleFinger;TOUCH_MOVED;1;936.0;449.3333333333333;1;1023;1023;APU Fault - EGT Temp;Button:WarningAPU Fault - EGT Temp
1499186482439;5;3;1;DWELL;SingleFinger;TOUCH_MOVED;1;935.3333333333334;449.3333333333333;1;1023;1023;APU Fault - EGT Temp;Button:WarningAPU Fault - EGT Temp
1499186482990;5;3;1;DWELL;SingleFinger;TOUCH_MOVED;1;936.0;449.3333333333333;1;1023;1023;APU Fault - EGT Temp;Button:WarningAPU Fault - EGT Temp
1499186483009;5;3;1;DWELL;SingleFinger;TOUCH_MOVED;1;936.0;448.6666666666667;1;1023;1023;APU Fault - EGT Temp;Button:WarningAPU Fault - EGT Temp
1499186483028;5;3;1;DWELL;SingleFinger;TOUCH_MOVED;1;936.6666666666666;448.0;1;1023;1023;APU Fault - EGT Temp;Button:WarningAPU Fault - EGT Temp
1499186483054;5;3;1;DWELL;SingleFinger;TOUCH_RELEASED;1;936.6666666666666;448.0;1;1023;1023;APU Fault - EGT Temp;Button:WarningAPU Fault - EGT Temp
1499186483054;5;3;1;DWELL;SingleFinger;BUTTON_TRIGGERED;1;936.6666666666666;448.0;1;1023;1023;APU Fault - EGT Temp;Button:WarningAPU Fault - EGT Temp
1499186493991;5;3;1;DWELL;SingleFinger;TOUCH_PRESSED;1;476.0;290.0;1;1023;0;APU Fault - EGT Temp;Button:FAULT
1499186495677;5;3;1;DWELL;SingleFinger;TOUCH_MOVED;1;475.3333333333333;290.0;1;1023;1023;APU Fault - EGT Temp;Button:FAULT
1499186495695;5;3;1;DWELL;SingleFinger;TOUCH_RELEASED;1;475.3333333333333;290.0;1;1023;1023;APU Fault - EGT Temp;Button:FAULT
1499186495696;5;3;1;DWELL;SingleFinger;BUTTON_TRIGGERED;1;475.3333333333333;290.0;1;1023;1023;APU Fault - EGT Temp;Button:FAULT
1499186501469;5;3;1;DWELL;SingleFinger;TOUCH_PRESSED;1;772.6666666666666;186.66666666666666;1;1023;0;APU Fault - EGT Temp;Button:Back
1499186501802;5;3;1;DWELL;SingleFinger;TOUCH_MOVED;1;772.6666666666666;186.0;1;1023;1023;APU Fault - EGT Temp;Button:Back
1499186502573;5;3;1;DWELL;SingleFinger;TOUCH_RELEASED;1;772.6666666666666;186.0;1;1023;1023;APU Fault - EGT Temp;Button:Back
1499186502573;5;3;1;DWELL;SingleFinger;BUTTON_TRIGGERED;1;772.6666666666666;186.0;1;1023;1023;APU Fault - EGT Temp;Button:Back
1499186507324;5;3;1;DWELL;SingleFinger;TOUCH_PRESSED;1;920.6666666666666;429.3333333333333;1;1023;0;APU Fault - EGT Temp;Button:WarningAPU Fault - EGT Temp
1499186507354;5;3;1;DWELL;SingleFinger;TOUCH_MOVED;1;920.6666666666666;430.0;1;1023;1023;APU Fault - EGT Temp;Button:WarningAPU Fault - EGT Temp
1499186507454;5;3;1;DWELL;SingleFinger;TOUCH_MOVED;1;920.0;430.6666666666667;1;1023;1023;APU Fault - EGT Temp;Button:WarningAPU Fault - EGT Temp
1499186507493;5;3;1;DWELL;SingleFinger;TOUCH_MOVED;1;920.0;431.3333333333333;1;1023;1023;APU Fault - EGT Temp;Button:WarningAPU Fault - EGT Temp
1499186507533;5;3;1;DWELL;SingleFinger;TOUCH_MOVED;1;920.0;432.0;1;1023;1023;APU Fault - EGT Temp;Button:WarningAPU Fault - EGT Temp
1499186507572;5;3;1;DWELL;SingleFinger;TOUCH_MOVED;1;919.3333333333334;432.6666666666667;1;1023;1023;APU Fault - EGT Temp;Button:WarningAPU Fault - EGT Temp
1499186507604;5;3;1;DWELL;SingleFinger;TOUCH_MOVED;1;919.3333333333334;433.3333333333333;1;1023;1023;APU Fault - EGT Temp;Button:WarningAPU Fault - EGT Temp
1499186507651;5;3;1;DWELL;SingleFinger;TOUCH_MOVED;1;919.3333333333334;434.0;1;1023;1023;APU Fault - EGT Temp;Button:WarningAPU Fault - EGT Temp
1499186507691;5;3;1;DWELL;SingleFinger;TOUCH_MOVED;1;919.3333333333334;434.6666666666667;1;1023;1023;APU Fault - EGT Temp;Button:WarningAPU Fault - EGT Temp
1499186507709;5;3;1;DWELL;SingleFinger;TOUCH_MOVED;1;918.6666666666666;434.6666666666667;1;1023;1023;APU Fault - EGT Temp;Button:WarningAPU Fault - EGT Temp
1499186507755;5;3;1;DWELL;SingleFinger;TOUCH_MOVED;1;918.6666666666666;435.3333333333333;1;1023;1023;APU Fault - EGT Temp;Button:WarningAPU Fault - EGT Temp
1499186507775;5;3;1;DWELL;SingleFinger;TOUCH_MOVED;1;918.6666666666666;436.0;1;1023;1023;APU Fault - EGT Temp;Button:WarningAPU Fault - EGT Temp
1499186507795;5;3;1;DWELL;SingleFinger;TOUCH_MOVED;1;918.6666666666666;436.6666666666667;1;1023;1023;APU Fault - EGT Temp;Button:WarningAPU Fault - EGT Temp
1499186507821;5;3;1;DWELL;SingleFinger;TOUCH_MOVED;1;918.6666666666666;437.3333333333333;1;1023;1023;APU Fault - EGT Temp;Button:WarningAPU Fault - EGT Temp
1499186507848;5;3;1;DWELL;SingleFinger;TOUCH_MOVED;1;918.0;437.3333333333333;1;1023;1023;APU Fault - EGT Temp;Button:WarningAPU Fault - EGT Temp
1499186507855;5;3;1;DWELL;SingleFinger;TOUCH_MOVED;1;918.0;438.0;1;1023;1023;APU Fault - EGT Temp;Button:WarningAPU Fault - EGT Temp
1499186507881;5;3;1;DWELL;SingleFinger;TOUCH_MOVED;1;918.0;438.6666666666667;1;1023;1023;APU Fault - EGT Temp;Button:WarningAPU Fault - EGT Temp
1499186507926;5;3;1;DWELL;SingleFinger;TOUCH_MOVED;1;918.0;439.3333333333333;1;1023;1023;APU Fault - EGT Temp;Button:WarningAPU Fault - EGT Temp
1499186507966;5;3;1;DWELL;SingleFinger;TOUCH_MOVED;1;918.0;440.0;1;1023;1023;APU Fault - EGT Temp;Button:WarningAPU Fault - EGT Temp
1499186508032;5;3;1;DWELL;SingleFinger;TOUCH_MOVED;1;918.0;440.6666666666667;1;1023;1023;APU Fault - EGT Temp;Button:WarningAPU Fault - EGT Temp
1499186508096;5;3;1;DWELL;SingleFinger;TOUCH_MOVED;1;918.0;441.3333333333333;1;1023;1023;APU Fault - EGT Temp;Button:WarningAPU Fault - EGT Temp
1499186508195;5;3;1;DWELL;SingleFinger;TOUCH_MOVED;1;918.0;442.0;1;1023;1023;APU Fault - EGT Temp;Button:WarningAPU Fault - EGT Temp
1499186508326;5;3;1;DWELL;SingleFinger;TOUCH_MOVED;1;918.0;442.6666666666667;1;1023;1023;APU Fault - EGT Temp;Button:WarningAPU Fault - EGT Temp
1499186508412;5;3;1;DWELL;SingleFinger;TOUCH_MOVED;1;918.0;442.0;1;1023;1023;APU Fault - EGT Temp;Button:WarningAPU Fault - EGT Temp
1499186508441;5;3;1;DWELL;SingleFinger;TOUCH_MOVED;1;918.0;441.3333333333333;1;1023;1023;APU Fault - EGT Temp;Button:WarningAPU Fault - EGT Temp
1499186508461;5;3;1;DWELL;SingleFinger;TOUCH_MOVED;1;918.0;440.6666666666667;1;1023;1023;APU Fault - EGT Temp;Button:WarningAPU Fault - EGT Temp
1499186508481;5;3;1;DWELL;SingleFinger;TOUCH_RELEASED;1;918.0;440.6666666666667;1;1023;1023;APU Fault - EGT Temp;Button:WarningAPU Fault - EGT Temp
1499186508482;5;3;1;DWELL;SingleFinger;BUTTON_TRIGGERED;1;918.0;440.6666666666667;1;1023;1023;APU Fault - EGT Temp;Button:WarningAPU Fault - EGT Temp
1499186521487;5;3;1;DWELL;SingleFinger;TOUCH_PRESSED;1;907.3333333333334;452.0;1;1023;0;APU Feed Fault;Button:WarningAPU Feed Fault
1499186521561;5;3;1;DWELL;SingleFinger;TOUCH_MOVED;1;907.3333333333334;451.3333333333333;1;1023;1023;APU Feed Fault;Button:WarningAPU Feed Fault
1499186521666;5;3;1;DWELL;SingleFinger;TOUCH_MOVED;1;907.3333333333334;450.6666666666667;1;1023;1023;APU Feed Fault;Button:WarningAPU Feed Fault
1499186521797;5;3;1;DWELL;SingleFinger;TOUCH_MOVED;1;907.3333333333334;450.0;1;1023;1023;APU Feed Fault;Button:WarningAPU Feed Fault
1499186522704;5;3;1;DWELL;SingleFinger;TOUCH_MOVED;1;907.3333333333334;449.3333333333333;1;1023;1023;APU Feed Fault;Button:WarningAPU Feed Fault
1499186522710;5;3;1;DWELL;SingleFinger;TOUCH_MOVED;1;908.0;449.3333333333333;1;1023;1023;APU Feed Fault;Button:WarningAPU Feed Fault
1499186522730;5;3;1;DWELL;SingleFinger;TOUCH_RELEASED;1;908.0;449.3333333333333;1;1023;1023;APU Feed Fault;Button:WarningAPU Feed Fault
1499186522730;5;3;1;DWELL;SingleFinger;BUTTON_TRIGGERED;1;908.0;449.3333333333333;1;1023;1023;APU Feed Fault;Button:WarningAPU Feed Fault
1499186527709;5;3;1;DWELL;SingleFinger;TOUCH_PRESSED;1;623.3333333333334;554.0;1;1023;0;APU Feed Fault;Button:FUEL
1499186528494;5;3;1;DWELL;SingleFinger;TOUCH_MOVED;1;622.6666666666666;554.0;1;1023;1023;APU Feed Fault;Button:FUEL
1499186529153;5;3;1;DWELL;SingleFinger;TOUCH_MOVED;1;622.0;554.0;1;1023;1023;APU Feed Fault;Button:FUEL
1499186529157;5;3;1;DWELL;SingleFinger;TOUCH_MOVED;1;622.0;553.3333333333334;1;1023;1023;APU Feed Fault;Button:FUEL
1499186529198;5;3;1;DWELL;SingleFinger;TOUCH_RELEASED;1;622.0;553.3333333333334;1;1023;1023;APU Feed Fault;Button:FUEL
1499186529198;5;3;1;DWELL;SingleFinger;BUTTON_TRIGGERED;1;622.0;553.3333333333334;1;1023;1023;APU Feed Fault;Button:FUEL
1499186543257;5;3;1;DWELL;SingleFinger;TOUCH_PRESSED;1;987.3333333333334;445.3333333333333;1;1023;0;APU Feed Fault;Button:WarningAPU Feed Fault
1499186543361;5;3;1;DWELL;SingleFinger;TOUCH_MOVED;1;987.3333333333334;444.6666666666667;1;1023;1023;APU Feed Fault;Button:WarningAPU Feed Fault
1499186543630;5;3;1;DWELL;SingleFinger;TOUCH_MOVED;1;986.6666666666666;444.6666666666667;1;1023;1023;APU Feed Fault;Button:WarningAPU Feed Fault
1499186543721;5;3;1;DWELL;SingleFinger;TOUCH_MOVED;1;986.6666666666666;445.3333333333333;1;1023;1023;APU Feed Fault;Button:WarningAPU Feed Fault
1499186543729;5;3;1;DWELL;SingleFinger;TOUCH_MOVED;1;986.0;445.3333333333333;1;1023;1023;APU Feed Fault;Button:WarningAPU Feed Fault
1499186543859;5;3;1;DWELL;SingleFinger;TOUCH_MOVED;1;985.3333333333334;445.3333333333333;1;1023;1023;APU Feed Fault;Button:WarningAPU Feed Fault
1499186543865;5;3;1;DWELL;SingleFinger;TOUCH_MOVED;1;985.3333333333334;446.0;1;1023;1023;APU Feed Fault;Button:WarningAPU Feed Fault
1499186544004;5;3;1;DWELL;SingleFinger;TOUCH_MOVED;1;984.6666666666666;446.0;1;1023;1023;APU Feed Fault;Button:WarningAPU Feed Fault
1499186544292;5;3;1;DWELL;SingleFinger;TOUCH_RELEASED;1;984.6666666666666;446.0;1;1023;1023;APU Feed Fault;Button:WarningAPU Feed Fault
1499186544292;5;3;1;DWELL;SingleFinger;BUTTON_TRIGGERED;1;984.6666666666666;446.0;1;1023;1023;APU Feed Fault;Button:WarningAPU Feed Fault
1499186546813;5;3;1;DWELL;SingleFinger;TOUCH_PRESSED;1;766.6666666666666;201.33333333333334;1;1023;0;APU Feed Fault;None
1499186546862;5;3;1;DWELL;SingleFinger;TOUCH_MOVED;1;766.6666666666666;200.66666666666666;1;1023;1023;APU Feed Fault;None
1499186546875;5;3;1;DWELL;SingleFinger;TOUCH_MOVED;1;766.6666666666666;200.0;1;1023;1023;APU Feed Fault;None
1499186546876;5;3;1;DWELL;SingleFinger;TOUCH_PRESSED;2;732.0;254.0;2;1023;0;APU Feed Fault;None
1499186546889;5;3;1;DWELL;SingleFinger;TOUCH_MOVED;1;766.6666666666666;199.33333333333334;2;1023;1023;APU Feed Fault;None
1499186546901;5;3;1;DWELL;SingleFinger;TOUCH_MOVED;1;766.6666666666666;198.66666666666666;2;1023;1023;APU Feed Fault;None
1499186546922;5;3;1;DWELL;SingleFinger;TOUCH_MOVED;1;766.6666666666666;198.0;2;1023;1023;APU Feed Fault;None
1499186546929;5;3;1;DWELL;SingleFinger;TOUCH_MOVED;2;732.6666666666666;254.0;2;1023;1023;APU Feed Fault;None
1499186546941;5;3;1;DWELL;SingleFinger;TOUCH_MOVED;1;766.6666666666666;197.33333333333334;2;1023;1023;APU Feed Fault;None
1499186546941;5;3;1;DWELL;SingleFinger;TOUCH_MOVED;2;732.6666666666666;254.66666666666666;2;1023;1023;APU Feed Fault;None
1499186546960;5;3;1;DWELL;SingleFinger;TOUCH_MOVED;1;766.6666666666666;196.66666666666666;2;1023;1023;APU Feed Fault;None
1499186546986;5;3;1;DWELL;SingleFinger;TOUCH_MOVED;1;766.6666666666666;196.0;2;1023;1023;APU Feed Fault;None
1499186547006;5;3;1;DWELL;SingleFinger;TOUCH_RELEASED;2;732.6666666666666;254.66666666666666;2;1023;1023;APU Feed Fault;None
1499186547013;5;3;1;DWELL;SingleFinger;TOUCH_MOVED;1;766.6666666666666;195.33333333333334;1;1023;1023;APU Feed Fault;None
1499186547039;5;3;1;DWELL;SingleFinger;TOUCH_MOVED;1;766.6666666666666;194.66666666666666;1;1023;1023;APU Feed Fault;None
1499186547059;5;3;1;DWELL;SingleFinger;TOUCH_MOVED;1;766.6666666666666;194.0;1;1023;1023;APU Feed Fault;None
1499186547073;5;3;1;DWELL;SingleFinger;TOUCH_MOVED;1;766.0;193.33333333333334;1;1023;1023;APU Feed Fault;None
1499186547091;5;3;1;DWELL;SingleFinger;TOUCH_MOVED;1;766.0;192.66666666666666;1;1023;1023;APU Feed Fault;None
1499186547119;5;3;1;DWELL;SingleFinger;TOUCH_MOVED;1;766.0;192.0;1;1023;1023;APU Feed Fault;None
1499186547152;5;3;1;DWELL;SingleFinger;TOUCH_MOVED;1;766.0;191.33333333333334;1;1023;1023;APU Feed Fault;None
1499186547178;5;3;1;DWELL;SingleFinger;TOUCH_MOVED;1;766.0;190.66666666666666;1;1023;1023;APU Feed Fault;None
1499186547244;5;3;1;DWELL;SingleFinger;TOUCH_MOVED;1;766.0;190.0;1;1023;1023;APU Feed Fault;None
1499186547508;5;3;1;DWELL;SingleFinger;TOUCH_MOVED;1;766.0;189.33333333333334;1;1023;1023;APU Feed Fault;None
1499186547645;5;3;1;DWELL;SingleFinger;TOUCH_MOVED;1;766.0;188.66666666666666;1;1023;1023;APU Feed Fault;None
1499186547677;5;3;1;DWELL;SingleFinger;TOUCH_MOVED;1;766.0;188.0;1;1023;1023;APU Feed Fault;None
1499186547716;5;3;1;DWELL;SingleFinger;TOUCH_MOVED;1;766.0;187.33333333333334;1;1023;1023;APU Feed Fault;None
1499186547769;5;3;1;DWELL;SingleFinger;TOUCH_MOVED;1;766.0;186.66666666666666;1;1023;1023;APU Feed Fault;None
1499186547782;5;3;1;DWELL;SingleFinger;TOUCH_MOVED;1;766.6666666666666;186.66666666666666;1;1023;1023;APU Feed Fault;None
1499186547815;5;3;1;DWELL;SingleFinger;TOUCH_MOVED;1;766.6666666666666;186.0;1;1023;1023;APU Feed Fault;None
1499186547848;5;3;1;DWELL;SingleFinger;TOUCH_MOVED;1;766.0;185.33333333333334;1;1023;1023;APU Feed Fault;None
1499186547868;5;3;1;DWELL;SingleFinger;TOUCH_RELEASED;1;766.0;185.33333333333334;1;1023;1023;APU Feed Fault;None
1499186547942;5;3;1;DWELL;SingleFinger;TOUCH_PRESSED;1;768.0;184.0;1;1023;0;APU Feed Fault;Button:Back
1499186548156;5;3;1;DWELL;SingleFinger;TOUCH_MOVED;1;768.0;183.33333333333334;1;1023;1023;APU Feed Fault;Button:Back
1499186548954;5;3;1;DWELL;SingleFinger;TOUCH_MOVED;1;767.3333333333334;183.33333333333334;1;1023;1023;APU Feed Fault;Button:Back
1499186548973;5;3;1;DWELL;SingleFinger;TOUCH_RELEASED;1;767.3333333333334;183.33333333333334;1;1023;1023;APU Feed Fault;Button:Back
1499186548973;5;3;1;DWELL;SingleFinger;BUTTON_TRIGGERED;1;767.3333333333334;183.33333333333334;1;1023;1023;APU Feed Fault;Button:Back
1499186553498;5;3;1;DWELL;SingleFinger;TOUCH_PRESSED;1;768.6666666666666;191.33333333333334;1;1023;0;APU Feed Fault;None
1499186553604;5;3;1;DWELL;SingleFinger;TOUCH_MOVED;1;768.6666666666666;190.66666666666666;1;1023;1023;APU Feed Fault;None
1499186553654;5;3;1;DWELL;SingleFinger;TOUCH_MOVED;1;768.6666666666666;190.0;1;1023;1023;APU Feed Fault;None
1499186553709;5;3;1;DWELL;SingleFinger;TOUCH_MOVED;1;768.6666666666666;189.33333333333334;1;1023;1023;APU Feed Fault;None
1499186553760;5;3;1;DWELL;SingleFinger;TOUCH_MOVED;1;768.6666666666666;188.66666666666666;1;1023;1023;APU Feed Fault;None
1499186553764;5;3;1;DWELL;SingleFinger;TOUCH_MOVED;1;768.0;188.66666666666666;1;1023;1023;APU Feed Fault;None
1499186553809;5;3;1;DWELL;SingleFinger;TOUCH_MOVED;1;768.0;188.0;1;1023;1023;APU Feed Fault;None
1499186553904;5;3;1;DWELL;SingleFinger;TOUCH_MOVED;1;768.0;187.33333333333334;1;1023;1023;APU Feed Fault;None
1499186554015;5;3;1;DWELL;SingleFinger;TOUCH_MOVED;1;768.0;186.66666666666666;1;1023;1023;APU Feed Fault;None
1499186554120;5;3;1;DWELL;SingleFinger;TOUCH_MOVED;1;768.0;186.0;1;1023;1023;APU Feed Fault;None
1499186554195;5;3;1;DWELL;SingleFinger;TOUCH_RELEASED;1;768.0;186.0;1;1023;1023;APU Feed Fault;None
1499186554357;5;3;1;DWELL;SingleFinger;TOUCH_PRESSED;1;768.6666666666666;184.66666666666666;1;1023;0;APU Feed Fault;Button:Back
1499186554402;5;3;1;DWELL;SingleFinger;TOUCH_MOVED;1;768.6666666666666;184.0;1;1023;1023;APU Feed Fault;Button:Back
1499186554558;5;3;1;DWELL;SingleFinger;TOUCH_MOVED;1;768.6666666666666;183.33333333333334;1;1023;1023;APU Feed Fault;Button:Back
1499186554707;5;3;1;DWELL;SingleFinger;TOUCH_MOVED;1;768.6666666666666;182.66666666666666;1;1023;1023;APU Feed Fault;Button:Back
1499186555775;5;3;1;DWELL;SingleFinger;TOUCH_RELEASED;1;768.6666666666666;182.66666666666666;1;1023;1023;APU Feed Fault;Button:Back
1499186555775;5;3;1;DWELL;SingleFinger;BUTTON_TRIGGERED;1;768.6666666666666;182.66666666666666;1;1023;1023;APU Feed Fault;Button:Back
1499186557487;5;3;1;DWELL;SingleFinger;TOUCH_PRESSED;1;768.6666666666666;194.66666666666666;1;1023;0;APU Feed Fault;None
1499186557513;5;3;1;DWELL;SingleFinger;TOUCH_PRESSED;2;736.0;238.66666666666666;2;1023;0;APU Feed Fault;None
1499186557545;5;3;1;DWELL;SingleFinger;TOUCH_MOVED;1;768.6666666666666;194.0;2;1023;1023;APU Feed Fault;None
1499186557571;5;3;1;DWELL;SingleFinger;TOUCH_RELEASED;2;736.0;238.66666666666666;2;1023;1023;APU Feed Fault;None
1499186557606;5;3;1;DWELL;SingleFinger;TOUCH_MOVED;1;768.6666666666666;193.33333333333334;1;1023;1023;APU Feed Fault;None
1499186557636;5;3;1;DWELL;SingleFinger;TOUCH_MOVED;1;768.6666666666666;192.66666666666666;1;1023;1023;APU Feed Fault;None
1499186557642;5;3;1;DWELL;SingleFinger;TOUCH_MOVED;1;768.0;192.66666666666666;1;1023;1023;APU Feed Fault;None
1499186557662;5;3;1;DWELL;SingleFinger;TOUCH_MOVED;1;768.0;192.0;1;1023;1023;APU Feed Fault;None
1499186557686;5;3;1;DWELL;SingleFinger;TOUCH_MOVED;1;768.0;191.33333333333334;1;1023;1023;APU Feed Fault;None
1499186557722;5;3;1;DWELL;SingleFinger;TOUCH_MOVED;1;768.0;190.66666666666666;1;1023;1023;APU Feed Fault;None
1499186557757;5;3;1;DWELL;SingleFinger;TOUCH_MOVED;1;768.0;190.0;1;1023;1023;APU Feed Fault;None
1499186557792;5;3;1;DWELL;SingleFinger;TOUCH_MOVED;1;768.0;189.33333333333334;1;1023;1023;APU Feed Fault;None
1499186557837;5;3;1;DWELL;SingleFinger;TOUCH_MOVED;1;768.0;188.66666666666666;1;1023;1023;APU Feed Fault;None
1499186557887;5;3;1;DWELL;SingleFinger;TOUCH_MOVED;1;768.0;188.0;1;1023;1023;APU Feed Fault;None
1499186557967;5;3;1;DWELL;SingleFinger;TOUCH_MOVED;1;768.0;187.33333333333334;1;1023;1023;APU Feed Fault;None
1499186558078;5;3;1;DWELL;SingleFinger;TOUCH_MOVED;1;768.0;186.66666666666666;1;1023;1023;APU Feed Fault;None
1499186558184;5;3;1;DWELL;SingleFinger;TOUCH_MOVED;1;768.0;186.0;1;1023;1023;APU Feed Fault;None
1499186558329;5;3;1;DWELL;SingleFinger;TOUCH_MOVED;1;768.0;185.33333333333334;1;1023;1023;APU Feed Fault;None
1499186558454;5;3;1;DWELL;SingleFinger;TOUCH_RELEASED;1;768.0;185.33333333333334;1;1023;1023;APU Feed Fault;None
1499186558558;5;3;1;DWELL;SingleFinger;TOUCH_PRESSED;1;766.0;180.66666666666666;1;1023;0;APU Feed Fault;Button:Back
1499186558624;5;3;1;DWELL;SingleFinger;TOUCH_MOVED;1;766.6666666666666;180.66666666666666;1;1023;1023;APU Feed Fault;Button:Back
1499186558749;5;3;1;DWELL;SingleFinger;TOUCH_MOVED;1;766.6666666666666;180.0;1;1023;1023;APU Feed Fault;Button:Back
1499186558893;5;3;1;DWELL;SingleFinger;TOUCH_MOVED;1;766.6666666666666;179.33333333333334;1;1023;1023;APU Feed Fault;Button:Back
1499186559640;5;3;1;DWELL;SingleFinger;TOUCH_MOVED;1;766.6666666666666;180.0;1;1023;1023;APU Feed Fault;Button:Back
1499186559661;5;3;1;DWELL;SingleFinger;TOUCH_RELEASED;1;766.6666666666666;180.0;1;1023;1023;APU Feed Fault;Button:Back
1499186559661;5;3;1;DWELL;SingleFinger;BUTTON_TRIGGERED;1;766.6666666666666;180.0;1;1023;1023;APU Feed Fault;Button:Back
1499186565350;5;3;1;DWELL;SingleFinger;TOUCH_PRESSED;1;970.6666666666666;450.0;1;1023;0;APU Feed Fault;Button:WarningAPU Feed Fault
1499186565433;5;3;1;DWELL;SingleFinger;TOUCH_MOVED;1;970.6666666666666;449.3333333333333;1;1023;1023;APU Feed Fault;Button:WarningAPU Feed Fault
1499186565689;5;3;1;DWELL;SingleFinger;TOUCH_MOVED;1;970.0;449.3333333333333;1;1023;1023;APU Feed Fault;Button:WarningAPU Feed Fault
1499186565748;5;3;1;DWELL;SingleFinger;TOUCH_MOVED;1;970.0;448.6666666666667;1;1023;1023;APU Feed Fault;Button:WarningAPU Feed Fault
1499186565847;5;3;1;DWELL;SingleFinger;TOUCH_MOVED;1;969.3333333333334;448.6666666666667;1;1023;1023;APU Feed Fault;Button:WarningAPU Feed Fault
1499186565985;5;3;1;DWELL;SingleFinger;TOUCH_MOVED;1;968.6666666666666;448.6666666666667;1;1023;1023;APU Feed Fault;Button:WarningAPU Feed Fault
1499186566390;5;3;1;DWELL;SingleFinger;TOUCH_MOVED;1;968.6666666666666;448.0;1;1023;1023;APU Feed Fault;Button:WarningAPU Feed Fault
1499186566401;5;3;1;DWELL;SingleFinger;TOUCH_MOVED;1;969.3333333333334;448.0;1;1023;1023;APU Feed Fault;Button:WarningAPU Feed Fault
1499186566406;5;3;1;DWELL;SingleFinger;TOUCH_MOVED;1;969.3333333333334;448.6666666666667;1;1023;1023;APU Feed Fault;Button:WarningAPU Feed Fault
1499186566426;5;3;1;DWELL;SingleFinger;TOUCH_RELEASED;1;969.3333333333334;448.6666666666667;1;1023;1023;APU Feed Fault;Button:WarningAPU Feed Fault
1499186566426;5;3;1;DWELL;SingleFinger;BUTTON_TRIGGERED;1;969.3333333333334;448.6666666666667;1;1023;1023;APU Feed Fault;Button:WarningAPU Feed Fault
1499186581121;5;3;1;DWELL;SingleFinger;TOUCH_PRESSED;1;982.6666666666666;446.6666666666667;1;1023;0;APU Fire !;Button:WarningAPU Fire !
1499186581208;5;3;1;DWELL;SingleFinger;TOUCH_MOVED;1;982.0;446.6666666666667;1;1023;1023;APU Fire !;Button:WarningAPU Fire !
1499186581221;5;3;1;DWELL;SingleFinger;TOUCH_MOVED;1;982.0;446.0;1;1023;1023;APU Fire !;Button:WarningAPU Fire !
1499186581294;5;3;1;DWELL;SingleFinger;TOUCH_MOVED;1;982.0;445.3333333333333;1;1023;1023;APU Fire !;Button:WarningAPU Fire !
1499186581365;5;3;1;DWELL;SingleFinger;TOUCH_MOVED;1;982.0;444.6666666666667;1;1023;1023;APU Fire !;Button:WarningAPU Fire !
1499186581595;5;3;1;DWELL;SingleFinger;TOUCH_MOVED;1;982.0;445.3333333333333;1;1023;1023;APU Fire !;Button:WarningAPU Fire !
1499186582215;5;3;1;DWELL;SingleFinger;TOUCH_MOVED;1;982.0;444.6666666666667;1;1023;1023;APU Fire !;Button:WarningAPU Fire !
1499186582244;5;3;1;DWELL;SingleFinger;TOUCH_RELEASED;1;982.0;444.6666666666667;1;1023;1023;APU Fire !;Button:WarningAPU Fire !
1499186582244;5;3;1;DWELL;SingleFinger;BUTTON_TRIGGERED;1;982.0;444.6666666666667;1;1023;1023;APU Fire !;Button:WarningAPU Fire !
1499186586004;5;3;1;DWELL;SingleFinger;TOUCH_PRESSED;1;493.3333333333333;345.3333333333333;1;1023;0;APU Fire !;Button:Fire
1499186587802;5;3;1;DWELL;SingleFinger;TOUCH_RELEASED;1;493.3333333333333;345.3333333333333;1;1023;1023;APU Fire !;Button:Fire
1499186587802;5;3;1;DWELL;SingleFinger;BUTTON_TRIGGERED;1;493.3333333333333;345.3333333333333;1;1023;1023;APU Fire !;Button:Fire
1499186589658;5;3;1;DWELL;SingleFinger;TOUCH_PRESSED;1;497.3333333333333;331.3333333333333;1;1023;0;APU Fire !;Button:Fire
1499186589683;5;3;1;DWELL;SingleFinger;TOUCH_MOVED;1;497.3333333333333;330.6666666666667;1;1023;1023;APU Fire !;Button:Fire
1499186589951;5;3;1;DWELL;SingleFinger;TOUCH_MOVED;1;497.3333333333333;331.3333333333333;1;1023;1023;APU Fire !;Button:Fire
1499186590089;5;3;1;DWELL;SingleFinger;TOUCH_MOVED;1;497.3333333333333;332.0;1;1023;1023;APU Fire !;Button:Fire
1499186590234;5;3;1;DWELL;SingleFinger;TOUCH_MOVED;1;497.3333333333333;332.6666666666667;1;1023;1023;APU Fire !;Button:Fire
1499186590653;5;3;1;DWELL;SingleFinger;TOUCH_MOVED;1;497.3333333333333;333.3333333333333;1;1023;1023;APU Fire !;Button:Fire
1499186591289;5;3;1;DWELL;SingleFinger;TOUCH_MOVED;1;497.3333333333333;332.6666666666667;1;1023;1023;APU Fire !;Button:Fire
1499186591318;5;3;1;DWELL;SingleFinger;TOUCH_MOVED;1;497.3333333333333;332.0;1;1023;1023;APU Fire !;Button:Fire
1499186591339;5;3;1;DWELL;SingleFinger;TOUCH_RELEASED;1;497.3333333333333;332.0;1;1023;1023;APU Fire !;Button:Fire
1499186591339;5;3;1;DWELL;SingleFinger;BUTTON_TRIGGERED;1;497.3333333333333;332.0;1;1023;1023;APU Fire !;Button:Fire
1499186594660;5;3;1;DWELL;SingleFinger;TOUCH_PRESSED;1;438.6666666666667;458.6666666666667;1;1023;0;APU Fire !;Button:SQUIB
1499186595123;5;3;1;DWELL;SingleFinger;TOUCH_MOVED;1;438.6666666666667;459.3333333333333;1;1023;1023;APU Fire !;Button:SQUIB
1499186595261;5;3;1;DWELL;SingleFinger;TOUCH_MOVED;1;438.6666666666667;460.0;1;1023;1023;APU Fire !;Button:SQUIB
1499186595405;5;3;1;DWELL;SingleFinger;TOUCH_MOVED;1;438.6666666666667;460.6666666666667;1;1023;1023;APU Fire !;Button:SQUIB
1499186595693;5;3;1;DWELL;SingleFinger;TOUCH_MOVED;1;438.0;460.6666666666667;1;1023;1023;APU Fire !;Button:SQUIB
1499186595707;5;3;1;DWELL;SingleFinger;TOUCH_MOVED;1;438.0;460.0;1;1023;1023;APU Fire !;Button:SQUIB
1499186595726;5;3;1;DWELL;SingleFinger;TOUCH_RELEASED;1;438.0;460.0;1;1023;1023;APU Fire !;Button:SQUIB
1499186595727;5;3;1;DWELL;SingleFinger;BUTTON_TRIGGERED;1;438.0;460.0;1;1023;1023;APU Fire !;Button:SQUIB
1499186602222;5;3;1;DWELL;SingleFinger;TOUCH_PRESSED;1;432.0;517.3333333333334;1;1023;0;APU Fire !;None
1499186602663;5;3;1;DWELL;SingleFinger;TOUCH_RELEASED;1;432.0;517.3333333333334;1;1023;1023;APU Fire !;None
1499186602772;5;3;1;DWELL;SingleFinger;TOUCH_PRESSED;1;429.3333333333333;506.6666666666667;1;1023;0;APU Fire !;Button:DISCH
1499186603529;5;3;1;DWELL;SingleFinger;TOUCH_RELEASED;1;429.3333333333333;506.6666666666667;1;1023;1023;APU Fire !;Button:DISCH
1499186606870;5;3;1;DWELL;SingleFinger;TOUCH_PRESSED;1;768.0;175.33333333333334;1;1023;0;APU Fire !;Button:Back
1499186607137;5;3;1;DWELL;SingleFinger;TOUCH_MOVED;1;768.0;176.0;1;1023;1023;APU Fire !;Button:Back
1499186607184;5;3;1;DWELL;SingleFinger;TOUCH_MOVED;1;768.0;176.66666666666666;1;1023;1023;APU Fire !;Button:Back
1499186607210;5;3;1;DWELL;SingleFinger;TOUCH_MOVED;1;768.0;177.33333333333334;1;1023;1023;APU Fire !;Button:Back
1499186607236;5;3;1;DWELL;SingleFinger;TOUCH_MOVED;1;768.0;178.0;1;1023;1023;APU Fire !;Button:Back
1499186607268;5;3;1;DWELL;SingleFinger;TOUCH_MOVED;1;768.0;178.66666666666666;1;1023;1023;APU Fire !;Button:Back
1499186607275;5;3;1;DWELL;SingleFinger;TOUCH_MOVED;1;767.3333333333334;178.66666666666666;1;1023;1023;APU Fire !;Button:Back
1499186607302;5;3;1;DWELL;SingleFinger;TOUCH_MOVED;1;767.3333333333334;179.33333333333334;1;1023;1023;APU Fire !;Button:Back
1499186607341;5;3;1;DWELL;SingleFinger;TOUCH_MOVED;1;767.3333333333334;180.0;1;1023;1023;APU Fire !;Button:Back
1499186607393;5;3;1;DWELL;SingleFinger;TOUCH_MOVED;1;767.3333333333334;180.66666666666666;1;1023;1023;APU Fire !;Button:Back
1499186607426;5;3;1;DWELL;SingleFinger;TOUCH_MOVED;1;767.3333333333334;181.33333333333334;1;1023;1023;APU Fire !;Button:Back
1499186607465;5;3;1;DWELL;SingleFinger;TOUCH_MOVED;1;767.3333333333334;182.0;1;1023;1023;APU Fire !;Button:Back
1499186607485;5;3;1;DWELL;SingleFinger;TOUCH_MOVED;1;767.3333333333334;182.66666666666666;1;1023;1023;APU Fire !;Button:Back
1499186607512;5;3;1;DWELL;SingleFinger;TOUCH_MOVED;1;767.3333333333334;183.33333333333334;1;1023;1023;APU Fire !;Button:Back
1499186607532;5;3;1;DWELL;SingleFinger;TOUCH_MOVED;1;767.3333333333334;184.0;1;1023;1023;APU Fire !;Button:Back
1499186607565;5;3;1;DWELL;SingleFinger;TOUCH_MOVED;1;767.3333333333334;184.66666666666666;1;1023;1023;APU Fire !;Button:Back
1499186607630;5;3;1;DWELL;SingleFinger;TOUCH_MOVED;1;767.3333333333334;185.33333333333334;1;1023;1023;APU Fire !;Button:Back
1499186607912;5;3;1;DWELL;SingleFinger;TOUCH_MOVED;1;767.3333333333334;186.0;1;1023;1023;APU Fire !;Button:Back
1499186607950;5;3;1;DWELL;SingleFinger;TOUCH_MOVED;1;767.3333333333334;186.66666666666666;1;1023;1023;APU Fire !;Button:Back
1499186607997;5;3;1;DWELL;SingleFinger;TOUCH_MOVED;1;767.3333333333334;187.33333333333334;1;1023;1023;APU Fire !;Button:Back
1499186608029;5;3;1;DWELL;SingleFinger;TOUCH_PRESSED;2;766.6666666666666;180.66666666666666;2;1023;0;APU Fire !;Button:Back
1499186608050;5;3;1;DWELL;SingleFinger;TOUCH_MOVED;1;767.3333333333334;188.0;2;1023;1023;APU Fire !;Button:Back
1499186608095;5;3;1;DWELL;SingleFinger;TOUCH_RELEASED;2;766.6666666666666;180.66666666666666;2;1023;1023;APU Fire !;None
1499186608102;5;3;1;DWELL;SingleFinger;TOUCH_MOVED;1;767.3333333333334;188.66666666666666;1;1023;1023;APU Fire !;Button:Back
1499186608167;5;3;1;DWELL;SingleFinger;TOUCH_MOVED;1;767.3333333333334;189.33333333333334;1;1023;1023;APU Fire !;Button:Back
1499186608292;5;3;1;DWELL;SingleFinger;TOUCH_MOVED;1;767.3333333333334;190.0;1;1023;1023;APU Fire !;Button:Back
1499186608431;5;3;1;DWELL;SingleFinger;TOUCH_MOVED;1;767.3333333333334;190.66666666666666;1;1023;1023;APU Fire !;Button:Back
1499186608450;5;3;1;DWELL;SingleFinger;TOUCH_MOVED;1;767.3333333333334;190.0;1;1023;1023;APU Fire !;Button:Back
1499186608463;5;3;1;DWELL;SingleFinger;TOUCH_MOVED;1;767.3333333333334;190.66666666666666;1;1023;1023;APU Fire !;Button:Back
1499186608470;5;3;1;DWELL;SingleFinger;TOUCH_MOVED;1;767.3333333333334;190.0;1;1023;1023;APU Fire !;Button:Back
1499186608575;5;3;1;DWELL;SingleFinger;TOUCH_MOVED;1;767.3333333333334;189.33333333333334;1;1023;1023;APU Fire !;Button:Back
1499186608595;5;3;1;DWELL;SingleFinger;TOUCH_MOVED;1;767.3333333333334;188.66666666666666;1;1023;1023;APU Fire !;Button:Back
1499186608615;5;3;1;DWELL;SingleFinger;TOUCH_MOVED;1;767.3333333333334;188.0;1;1023;1023;APU Fire !;Button:Back
1499186608628;5;3;1;DWELL;SingleFinger;TOUCH_MOVED;1;767.3333333333334;187.33333333333334;1;1023;1023;APU Fire !;Button:Back
1499186608641;5;3;1;DWELL;SingleFinger;TOUCH_MOVED;1;767.3333333333334;186.66666666666666;1;1023;1023;APU Fire !;Button:Back
1499186608660;5;3;1;DWELL;SingleFinger;TOUCH_MOVED;1;767.3333333333334;186.0;1;1023;1023;APU Fire !;Button:Back
1499186608709;5;3;1;DWELL;SingleFinger;TOUCH_RELEASED;1;767.3333333333334;186.0;1;1023;1023;APU Fire !;Button:Back
1499186608709;5;3;1;DWELL;SingleFinger;BUTTON_TRIGGERED;1;767.3333333333334;186.0;1;1023;1023;APU Fire !;Button:Back
1499186608784;5;3;1;DWELL;SingleFinger;TOUCH_PRESSED;1;769.3333333333334;184.66666666666666;1;1023;0;APU Fire !;None
1499186609157;5;3;1;DWELL;SingleFinger;TOUCH_RELEASED;1;769.3333333333334;184.66666666666666;1;1023;1023;APU Fire !;None
1499186611239;5;3;1;DWELL;SingleFinger;TOUCH_PRESSED;1;956.6666666666666;434.0;1;1023;0;APU Fire !;Button:WarningAPU Fire !
1499186611388;5;3;1;DWELL;SingleFinger;TOUCH_MOVED;1;956.6666666666666;434.6666666666667;1;1023;1023;APU Fire !;Button:WarningAPU Fire !
1499186611421;5;3;1;DWELL;SingleFinger;TOUCH_MOVED;1;956.6666666666666;435.3333333333333;1;1023;1023;APU Fire !;Button:WarningAPU Fire !
1499186611441;5;3;1;DWELL;SingleFinger;TOUCH_MOVED;1;956.6666666666666;436.0;1;1023;1023;APU Fire !;Button:WarningAPU Fire !
1499186611467;5;3;1;DWELL;SingleFinger;TOUCH_MOVED;1;956.6666666666666;436.6666666666667;1;1023;1023;APU Fire !;Button:WarningAPU Fire !
1499186611487;5;3;1;DWELL;SingleFinger;TOUCH_MOVED;1;956.6666666666666;437.3333333333333;1;1023;1023;APU Fire !;Button:WarningAPU Fire !
1499186611514;5;3;1;DWELL;SingleFinger;TOUCH_MOVED;1;956.6666666666666;438.0;1;1023;1023;APU Fire !;Button:WarningAPU Fire !
1499186611539;5;3;1;DWELL;SingleFinger;TOUCH_MOVED;1;956.6666666666666;438.6666666666667;1;1023;1023;APU Fire !;Button:WarningAPU Fire !
1499186611560;5;3;1;DWELL;SingleFinger;TOUCH_MOVED;1;956.0;439.3333333333333;1;1023;1023;APU Fire !;Button:WarningAPU Fire !
1499186611585;5;3;1;DWELL;SingleFinger;TOUCH_MOVED;1;956.0;440.0;1;1023;1023;APU Fire !;Button:WarningAPU Fire !
1499186611586;5;3;1;DWELL;SingleFinger;TOUCH_PRESSED;2;958.6666666666666;447.3333333333333;2;1023;0;APU Fire !;Button:WarningAPU Fire !
1499186611625;5;3;1;DWELL;SingleFinger;TOUCH_MOVED;1;956.0;440.6666666666667;2;1023;1023;APU Fire !;Button:WarningAPU Fire !
1499186611631;5;3;1;DWELL;SingleFinger;TOUCH_MOVED;1;955.3333333333334;440.6666666666667;2;1023;1023;APU Fire !;Button:WarningAPU Fire !
1499186611652;5;3;1;DWELL;SingleFinger;TOUCH_RELEASED;2;958.6666666666666;447.3333333333333;2;1023;1023;APU Fire !;None
1499186611664;5;3;1;DWELL;SingleFinger;TOUCH_RELEASED;1;955.3333333333334;440.6666666666667;1;1023;1023;APU Fire !;Button:WarningAPU Fire !
1499186611672;5;3;1;DWELL;SingleFinger;TOUCH_PRESSED;1;958.6666666666666;447.3333333333333;1;1023;0;APU Fire !;Button:WarningAPU Fire !
1499186611835;5;3;1;DWELL;SingleFinger;TOUCH_PRESSED;2;950.6666666666666;447.3333333333333;2;1023;0;APU Fire !;Button:WarningAPU Fire !
1499186611993;5;3;1;DWELL;SingleFinger;TOUCH_MOVED;2;950.6666666666666;448.0;2;1023;1023;APU Fire !;None
1499186612106;5;3;1;DWELL;SingleFinger;TOUCH_RELEASED;1;958.6666666666666;447.3333333333333;2;1023;1023;APU Fire !;Button:WarningAPU Fire !
1499186612163;5;3;1;DWELL;SingleFinger;TOUCH_RELEASED;2;950.6666666666666;448.0;1;1023;1023;APU Fire !;None
1499186612185;5;3;1;DWELL;SingleFinger;TOUCH_PRESSED;1;958.0;447.3333333333333;1;1023;0;APU Fire !;Button:WarningAPU Fire !
1499186612210;5;3;1;DWELL;SingleFinger;TOUCH_MOVED;1;957.3333333333334;447.3333333333333;1;1023;1023;APU Fire !;Button:WarningAPU Fire !
1499186612242;5;3;1;DWELL;SingleFinger;TOUCH_MOVED;1;957.3333333333334;448.0;1;1023;1023;APU Fire !;Button:WarningAPU Fire !
1499186612262;5;3;1;DWELL;SingleFinger;TOUCH_MOVED;1;956.6666666666666;448.0;1;1023;1023;APU Fire !;Button:WarningAPU Fire !
1499186612329;5;3;1;DWELL;SingleFinger;TOUCH_MOVED;1;956.0;448.0;1;1023;1023;APU Fire !;Button:WarningAPU Fire !
1499186612400;5;3;1;DWELL;SingleFinger;TOUCH_MOVED;1;955.3333333333334;448.0;1;1023;1023;APU Fire !;Button:WarningAPU Fire !
1499186612454;5;3;1;DWELL;SingleFinger;TOUCH_PRESSED;2;958.6666666666666;447.3333333333333;2;1023;0;APU Fire !;Button:WarningAPU Fire !
1499186612492;5;3;1;DWELL;SingleFinger;TOUCH_RELEASED;1;955.3333333333334;448.0;2;1023;1023;APU Fire !;Button:WarningAPU Fire !
1499186612578;5;3;1;DWELL;SingleFinger;TOUCH_MOVED;2;958.6666666666666;446.6666666666667;1;1023;1023;APU Fire !;None
1499186612584;5;3;1;DWELL;SingleFinger;TOUCH_MOVED;2;959.3333333333334;446.0;1;1023;1023;APU Fire !;None
1499186612610;5;3;1;DWELL;SingleFinger;TOUCH_RELEASED;2;959.3333333333334;446.0;1;1023;1023;APU Fire !;None
1499186613553;5;3;1;DWELL;SingleFinger;TOUCH_PRESSED;1;932.6666666666666;442.0;1;1023;0;APU Fire !;Button:WarningAPU Fire !
1499186613819;5;3;1;DWELL;SingleFinger;TOUCH_MOVED;1;932.6666666666666;442.6666666666667;1;1023;1023;APU Fire !;Button:WarningAPU Fire !
1499186614211;5;3;1;DWELL;SingleFinger;TOUCH_MOVED;1;932.6666666666666;443.3333333333333;1;1023;1023;APU Fire !;Button:WarningAPU Fire !
1499186614443;5;3;1;DWELL;SingleFinger;TOUCH_RELEASED;1;932.6666666666666;443.3333333333333;1;1023;1023;APU Fire !;Button:WarningAPU Fire !
1499186614443;5;3;1;DWELL;SingleFinger;BUTTON_TRIGGERED;1;932.6666666666666;443.3333333333333;1;1023;1023;APU Fire !;Button:WarningAPU Fire !
1499186626273;5;3;0;DWELL;SingleFinger;TOUCH_PRESSED;1;924.6666666666666;451.3333333333333;1;1023;0;APU Fault - EGT Temp;Button:WarningAPU Fault - EGT Temp
1499186626553;5;3;0;DWELL;SingleFinger;TOUCH_MOVED;1;925.3333333333334;451.3333333333333;1;1023;1023;APU Fault - EGT Temp;Button:WarningAPU Fault - EGT Temp
1499186626589;5;3;0;DWELL;SingleFinger;TOUCH_MOVED;1;925.3333333333334;450.6666666666667;1;1023;1023;APU Fault - EGT Temp;Button:WarningAPU Fault - EGT Temp
1499186626638;5;3;0;DWELL;SingleFinger;TOUCH_MOVED;1;925.3333333333334;450.0;1;1023;1023;APU Fault - EGT Temp;Button:WarningAPU Fault - EGT Temp
1499186626653;5;3;0;DWELL;SingleFinger;TOUCH_MOVED;1;926.0;450.0;1;1023;1023;APU Fault - EGT Temp;Button:WarningAPU Fault - EGT Temp
1499186626708;5;3;0;DWELL;SingleFinger;TOUCH_MOVED;1;926.0;449.3333333333333;1;1023;1023;APU Fault - EGT Temp;Button:WarningAPU Fault - EGT Temp
1499186626753;5;3;0;DWELL;SingleFinger;TOUCH_MOVED;1;926.6666666666666;449.3333333333333;1;1023;1023;APU Fault - EGT Temp;Button:WarningAPU Fault - EGT Temp
1499186626808;5;3;0;DWELL;SingleFinger;TOUCH_MOVED;1;926.6666666666666;448.6666666666667;1;1023;1023;APU Fault - EGT Temp;Button:WarningAPU Fault - EGT Temp
1499186626912;5;3;0;DWELL;SingleFinger;TOUCH_MOVED;1;926.6666666666666;448.0;1;1023;1023;APU Fault - EGT Temp;Button:WarningAPU Fault - EGT Temp
1499186627012;5;3;0;DWELL;SingleFinger;TOUCH_MOVED;1;926.6666666666666;447.3333333333333;1;1023;1023;APU Fault - EGT Temp;Button:WarningAPU Fault - EGT Temp
1499186627273;5;3;0;DWELL;SingleFinger;TOUCH_MOVED;1;926.6666666666666;446.6666666666667;1;1023;1023;APU Fault - EGT Temp;Button:WarningAPU Fault - EGT Temp
1499186628092;5;3;0;DWELL;SingleFinger;TOUCH_RELEASED;1;926.6666666666666;446.6666666666667;1;1023;1023;APU Fault - EGT Temp;Button:WarningAPU Fault - EGT Temp
1499186628092;5;3;0;DWELL;SingleFinger;BUTTON_TRIGGERED;1;926.6666666666666;446.6666666666667;1;1023;1023;APU Fault - EGT Temp;Button:WarningAPU Fault - EGT Temp
1499186631792;5;3;0;DWELL;SingleFinger;TOUCH_PRESSED;1;481.3333333333333;300.6666666666667;1;1023;0;APU Fault - EGT Temp;Button:FAULT
1499186631876;5;3;0;DWELL;SingleFinger;TOUCH_MOVED;1;481.3333333333333;300.0;1;1023;1023;APU Fault - EGT Temp;Button:FAULT
1499186631972;5;3;0;DWELL;SingleFinger;TOUCH_MOVED;1;481.3333333333333;299.3333333333333;1;1023;1023;APU Fault - EGT Temp;Button:FAULT
1499186632044;5;3;0;DWELL;SingleFinger;TOUCH_MOVED;1;481.3333333333333;298.6666666666667;1;1023;1023;APU Fault - EGT Temp;Button:FAULT
1499186632109;5;3;0;DWELL;SingleFinger;TOUCH_MOVED;1;481.3333333333333;298.0;1;1023;1023;APU Fault - EGT Temp;Button:FAULT
1499186632124;5;3;0;DWELL;SingleFinger;TOUCH_MOVED;1;480.6666666666667;298.0;1;1023;1023;APU Fault - EGT Temp;Button:FAULT
1499186632208;5;3;0;DWELL;SingleFinger;TOUCH_MOVED;1;480.6666666666667;297.3333333333333;1;1023;1023;APU Fault - EGT Temp;Button:FAULT
1499186632338;5;3;0;DWELL;SingleFinger;TOUCH_MOVED;1;480.6666666666667;296.6666666666667;1;1023;1023;APU Fault - EGT Temp;Button:FAULT
1499186632477;5;3;0;DWELL;SingleFinger;TOUCH_MOVED;1;480.6666666666667;296.0;1;1023;1023;APU Fault - EGT Temp;Button:FAULT
1499186632614;5;3;0;DWELL;SingleFinger;TOUCH_MOVED;1;480.6666666666667;295.3333333333333;1;1023;1023;APU Fault - EGT Temp;Button:FAULT
1499186633424;5;3;0;DWELL;SingleFinger;TOUCH_MOVED;1;481.3333333333333;295.3333333333333;1;1023;1023;APU Fault - EGT Temp;Button:FAULT
1499186633443;5;3;0;DWELL;SingleFinger;TOUCH_RELEASED;1;481.3333333333333;295.3333333333333;1;1023;1023;APU Fault - EGT Temp;Button:FAULT
1499186633443;5;3;0;DWELL;SingleFinger;BUTTON_TRIGGERED;1;481.3333333333333;295.3333333333333;1;1023;1023;APU Fault - EGT Temp;Button:FAULT
1499186636755;5;3;0;DWELL;SingleFinger;TOUCH_PRESSED;1;768.0;188.0;1;1023;0;APU Fault - EGT Temp;Button:Back
1499186636840;5;3;0;DWELL;SingleFinger;TOUCH_MOVED;1;768.0;187.33333333333334;1;1023;1023;APU Fault - EGT Temp;Button:Back
1499186636854;5;3;0;DWELL;SingleFinger;TOUCH_MOVED;1;768.6666666666666;187.33333333333334;1;1023;1023;APU Fault - EGT Temp;Button:Back
1499186636935;5;3;0;DWELL;SingleFinger;TOUCH_MOVED;1;768.6666666666666;186.66666666666666;1;1023;1023;APU Fault - EGT Temp;Button:Back
1499186637027;5;3;0;DWELL;SingleFinger;TOUCH_MOVED;1;768.6666666666666;186.0;1;1023;1023;APU Fault - EGT Temp;Button:Back
1499186637133;5;3;0;DWELL;SingleFinger;TOUCH_MOVED;1;768.6666666666666;185.33333333333334;1;1023;1023;APU Fault - EGT Temp;Button:Back
1499186637247;5;3;0;DWELL;SingleFinger;TOUCH_MOVED;1;768.6666666666666;184.66666666666666;1;1023;1023;APU Fault - EGT Temp;Button:Back
1499186637398;5;3;0;DWELL;SingleFinger;TOUCH_MOVED;1;768.6666666666666;184.0;1;1023;1023;APU Fault - EGT Temp;Button:Back
1499186637555;5;3;0;DWELL;SingleFinger;TOUCH_MOVED;1;768.6666666666666;183.33333333333334;1;1023;1023;APU Fault - EGT Temp;Button:Back
1499186637831;5;3;0;DWELL;SingleFinger;TOUCH_RELEASED;1;768.6666666666666;183.33333333333334;1;1023;1023;APU Fault - EGT Temp;Button:Back
1499186637831;5;3;0;DWELL;SingleFinger;BUTTON_TRIGGERED;1;768.6666666666666;183.33333333333334;1;1023;1023;APU Fault - EGT Temp;Button:Back
1499186639055;5;3;0;DWELL;SingleFinger;TOUCH_PRESSED;1;967.3333333333334;442.6666666666667;1;1023;0;APU Fault - EGT Temp;Button:WarningAPU Fault - EGT Temp
1499186639342;5;3;0;DWELL;SingleFinger;TOUCH_MOVED;1;967.3333333333334;443.3333333333333;1;1023;1023;APU Fault - EGT Temp;Button:WarningAPU Fault - EGT Temp
1499186639410;5;3;0;DWELL;SingleFinger;TOUCH_MOVED;1;966.6666666666666;444.0;1;1023;1023;APU Fault - EGT Temp;Button:WarningAPU Fault - EGT Temp
1499186639497;5;3;0;DWELL;SingleFinger;TOUCH_MOVED;1;966.6666666666666;444.6666666666667;1;1023;1023;APU Fault - EGT Temp;Button:WarningAPU Fault - EGT Temp
1499186639561;5;3;0;DWELL;SingleFinger;TOUCH_MOVED;1;966.0;444.6666666666667;1;1023;1023;APU Fault - EGT Temp;Button:WarningAPU Fault - EGT Temp
1499186639628;5;3;0;DWELL;SingleFinger;TOUCH_MOVED;1;966.0;445.3333333333333;1;1023;1023;APU Fault - EGT Temp;Button:WarningAPU Fault - EGT Temp
1499186640108;5;3;0;DWELL;SingleFinger;TOUCH_RELEASED;1;966.0;445.3333333333333;1;1023;1023;APU Fault - EGT Temp;Button:WarningAPU Fault - EGT Temp
1499186640108;5;3;0;DWELL;SingleFinger;BUTTON_TRIGGERED;1;966.0;445.3333333333333;1;1023;1023;APU Fault - EGT Temp;Button:WarningAPU Fault - EGT Temp
1499186651599;5;3;0;DWELL;SingleFinger;TOUCH_PRESSED;1;934.0;450.0;1;1023;0;APU Feed Fault;Button:WarningAPU Feed Fault
1499186651669;5;3;0;DWELL;SingleFinger;TOUCH_MOVED;1;934.0;449.3333333333333;1;1023;1023;APU Feed Fault;Button:WarningAPU Feed Fault
1499186652861;5;3;0;DWELL;SingleFinger;TOUCH_MOVED;1;934.0;448.6666666666667;1;1023;1023;APU Feed Fault;Button:WarningAPU Feed Fault
1499186652898;5;3;0;DWELL;SingleFinger;TOUCH_MOVED;1;934.0;448.0;1;1023;1023;APU Feed Fault;Button:WarningAPU Feed Fault
1499186652929;5;3;0;DWELL;SingleFinger;TOUCH_RELEASED;1;934.0;448.0;1;1023;1023;APU Feed Fault;Button:WarningAPU Feed Fault
1499186652929;5;3;0;DWELL;SingleFinger;BUTTON_TRIGGERED;1;934.0;448.0;1;1023;1023;APU Feed Fault;Button:WarningAPU Feed Fault
1499186655523;5;3;0;DWELL;SingleFinger;TOUCH_PRESSED;1;470.0;262.6666666666667;1;1023;0;APU Feed Fault;Button:FAULT
1499186655645;5;3;0;DWELL;SingleFinger;TOUCH_MOVED;1;470.0;263.3333333333333;1;1023;1023;APU Feed Fault;Button:FAULT
1499186655802;5;3;0;DWELL;SingleFinger;TOUCH_MOVED;1;470.0;264.0;1;1023;1023;APU Feed Fault;Button:FAULT
1499186655933;5;3;0;DWELL;SingleFinger;TOUCH_MOVED;1;470.0;264.6666666666667;1;1023;1023;APU Feed Fault;Button:FAULT
1499186656064;5;3;0;DWELL;SingleFinger;TOUCH_MOVED;1;470.0;265.3333333333333;1;1023;1023;APU Feed Fault;Button:FAULT
1499186656208;5;3;0;DWELL;SingleFinger;TOUCH_MOVED;1;470.0;266.0;1;1023;1023;APU Feed Fault;Button:FAULT
1499186656347;5;3;0;DWELL;SingleFinger;TOUCH_MOVED;1;470.0;266.6666666666667;1;1023;1023;APU Feed Fault;Button:FAULT
1499186656491;5;3;0;DWELL;SingleFinger;TOUCH_MOVED;1;470.0;267.3333333333333;1;1023;1023;APU Feed Fault;Button:FAULT
1499186656524;5;3;0;DWELL;SingleFinger;TOUCH_MOVED;1;469.3333333333333;267.3333333333333;1;1023;1023;APU Feed Fault;Button:FAULT
1499186656642;5;3;0;DWELL;SingleFinger;TOUCH_MOVED;1;468.6666666666667;268.0;1;1023;1023;APU Feed Fault;Button:FAULT
1499186656780;5;3;0;DWELL;SingleFinger;TOUCH_MOVED;1;468.0;268.0;1;1023;1023;APU Feed Fault;Button:FAULT
1499186656916;5;3;0;DWELL;SingleFinger;TOUCH_MOVED;1;467.3333333333333;268.0;1;1023;1023;APU Feed Fault;Button:FAULT
1499186657330;5;3;0;DWELL;SingleFinger;TOUCH_MOVED;1;467.3333333333333;267.3333333333333;1;1023;1023;APU Feed Fault;Button:FAULT
1499186657383;5;3;0;DWELL;SingleFinger;TOUCH_RELEASED;1;467.3333333333333;267.3333333333333;1;1023;1023;APU Feed Fault;Button:FAULT
1499186657383;5;3;0;DWELL;SingleFinger;BUTTON_TRIGGERED;1;467.3333333333333;267.3333333333333;1;1023;1023;APU Feed Fault;Button:FAULT
1499186665977;5;3;0;DWELL;SingleFinger;TOUCH_PRESSED;1;662.0;548.6666666666666;1;1023;0;APU Feed Fault;Button:FUEL
1499186666259;5;3;0;DWELL;SingleFinger;TOUCH_MOVED;1;662.0;549.3333333333334;1;1023;1023;APU Feed Fault;Button:FUEL
1499186666337;5;3;0;DWELL;SingleFinger;TOUCH_MOVED;1;661.3333333333334;549.3333333333334;1;1023;1023;APU Feed Fault;Button:FUEL
1499186666398;5;3;0;DWELL;SingleFinger;TOUCH_MOVED;1;661.3333333333334;550.0;1;1023;1023;APU Feed Fault;Button:FUEL
1499186666482;5;3;0;DWELL;SingleFinger;TOUCH_MOVED;1;660.6666666666666;550.0;1;1023;1023;APU Feed Fault;Button:FUEL
1499186666534;5;3;0;DWELL;SingleFinger;TOUCH_MOVED;1;660.6666666666666;550.6666666666666;1;1023;1023;APU Feed Fault;Button:FUEL
1499186666752;5;3;0;DWELL;SingleFinger;TOUCH_MOVED;1;660.6666666666666;551.3333333333334;1;1023;1023;APU Feed Fault;Button:FUEL
1499186667189;5;3;0;DWELL;SingleFinger;TOUCH_MOVED;1;660.6666666666666;550.6666666666666;1;1023;1023;APU Feed Fault;Button:FUEL
1499186667195;5;3;0;DWELL;SingleFinger;TOUCH_MOVED;1;661.3333333333334;550.6666666666666;1;1023;1023;APU Feed Fault;Button:FUEL
1499186667240;5;3;0;DWELL;SingleFinger;TOUCH_RELEASED;1;661.3333333333334;550.6666666666666;1;1023;1023;APU Feed Fault;Button:FUEL
1499186667240;5;3;0;DWELL;SingleFinger;BUTTON_TRIGGERED;1;661.3333333333334;550.6666666666666;1;1023;1023;APU Feed Fault;Button:FUEL
1499186670527;5;3;0;DWELL;SingleFinger;TOUCH_PRESSED;1;766.0;186.0;1;1023;0;APU Feed Fault;Button:Back
1499186670835;5;3;0;DWELL;SingleFinger;TOUCH_MOVED;1;766.0;185.33333333333334;1;1023;1023;APU Feed Fault;Button:Back
1499186670913;5;3;0;DWELL;SingleFinger;TOUCH_MOVED;1;766.6666666666666;185.33333333333334;1;1023;1023;APU Feed Fault;Button:Back
1499186670938;5;3;0;DWELL;SingleFinger;TOUCH_MOVED;1;766.6666666666666;184.66666666666666;1;1023;1023;APU Feed Fault;Button:Back
1499186671289;5;3;0;DWELL;SingleFinger;TOUCH_MOVED;1;766.6666666666666;184.0;1;1023;1023;APU Feed Fault;Button:Back
1499186671573;5;3;0;DWELL;SingleFinger;TOUCH_RELEASED;1;766.6666666666666;184.0;1;1023;1023;APU Feed Fault;Button:Back
1499186671573;5;3;0;DWELL;SingleFinger;BUTTON_TRIGGERED;1;766.6666666666666;184.0;1;1023;1023;APU Feed Fault;Button:Back
1499186672438;5;3;0;DWELL;SingleFinger;TOUCH_PRESSED;1;970.6666666666666;450.0;1;1023;0;APU Feed Fault;Button:WarningAPU Feed Fault
1499186672475;5;3;0;DWELL;SingleFinger;TOUCH_MOVED;1;970.6666666666666;449.3333333333333;1;1023;1023;APU Feed Fault;Button:WarningAPU Feed Fault
1499186673614;5;3;0;DWELL;SingleFinger;TOUCH_MOVED;1;970.6666666666666;448.6666666666667;1;1023;1023;APU Feed Fault;Button:WarningAPU Feed Fault
1499186673639;5;3;0;DWELL;SingleFinger;TOUCH_RELEASED;1;970.6666666666666;448.6666666666667;1;1023;1023;APU Feed Fault;Button:WarningAPU Feed Fault
1499186673639;5;3;0;DWELL;SingleFinger;BUTTON_TRIGGERED;1;970.6666666666666;448.6666666666667;1;1023;1023;APU Feed Fault;Button:WarningAPU Feed Fault
1499186679461;5;3;0;DWELL;SingleFinger;TOUCH_PRESSED;1;793.3333333333334;176.66666666666666;1;1023;0;APU Feed Fault;Button:Back
1499186679498;5;3;0;DWELL;SingleFinger;TOUCH_MOVED;1;792.6666666666666;176.66666666666666;1;1023;1023;APU Feed Fault;Button:Back
1499186679523;5;3;0;DWELL;SingleFinger;TOUCH_MOVED;1;792.0;176.66666666666666;1;1023;1023;APU Feed Fault;Button:Back
1499186679546;5;3;0;DWELL;SingleFinger;TOUCH_MOVED;1;791.3333333333334;176.0;1;1023;1023;APU Feed Fault;Button:Back
1499186679577;5;3;0;DWELL;SingleFinger;TOUCH_MOVED;1;790.6666666666666;176.0;1;1023;1023;APU Feed Fault;Button:Back
1499186679603;5;3;0;DWELL;SingleFinger;TOUCH_MOVED;1;790.0;176.0;1;1023;1023;APU Feed Fault;Button:Back
1499186679636;5;3;0;DWELL;SingleFinger;TOUCH_MOVED;1;789.3333333333334;176.0;1;1023;1023;APU Feed Fault;Button:Back
1499186679669;5;3;0;DWELL;SingleFinger;TOUCH_MOVED;1;789.3333333333334;176.66666666666666;1;1023;1023;APU Feed Fault;Button:Back
1499186679675;5;3;0;DWELL;SingleFinger;TOUCH_MOVED;1;788.6666666666666;176.66666666666666;1;1023;1023;APU Feed Fault;Button:Back
1499186679728;5;3;0;DWELL;SingleFinger;TOUCH_MOVED;1;788.0;176.66666666666666;1;1023;1023;APU Feed Fault;Button:Back
1499186679773;5;3;0;DWELL;SingleFinger;TOUCH_MOVED;1;788.0;177.33333333333334;1;1023;1023;APU Feed Fault;Button:Back
1499186679780;5;3;0;DWELL;SingleFinger;TOUCH_MOVED;1;787.3333333333334;177.33333333333334;1;1023;1023;APU Feed Fault;Button:Back
1499186679839;5;3;0;DWELL;SingleFinger;TOUCH_MOVED;1;786.6666666666666;178.0;1;1023;1023;APU Feed Fault;Button:Back
1499186679878;5;3;0;DWELL;SingleFinger;TOUCH_MOVED;1;786.6666666666666;178.66666666666666;1;1023;1023;APU Feed Fault;Button:Back
1499186679911;5;3;0;DWELL;SingleFinger;TOUCH_MOVED;1;786.0;178.66666666666666;1;1023;1023;APU Feed Fault;Button:Back
1499186679918;5;3;0;DWELL;SingleFinger;TOUCH_MOVED;1;786.0;179.33333333333334;1;1023;1023;APU Feed Fault;Button:Back
1499186679970;5;3;0;DWELL;SingleFinger;TOUCH_MOVED;1;785.3333333333334;179.33333333333334;1;1023;1023;APU Feed Fault;Button:Back
1499186679977;5;3;0;DWELL;SingleFinger;TOUCH_MOVED;1;785.3333333333334;180.0;1;1023;1023;APU Feed Fault;Button:Back
1499186680049;5;3;0;DWELL;SingleFinger;TOUCH_MOVED;1;785.3333333333334;180.66666666666666;1;1023;1023;APU Feed Fault;Button:Back
1499186680114;5;3;0;DWELL;SingleFinger;TOUCH_MOVED;1;784.6666666666666;181.33333333333334;1;1023;1023;APU Feed Fault;Button:Back
1499186680245;5;3;0;DWELL;SingleFinger;TOUCH_MOVED;1;784.6666666666666;182.0;1;1023;1023;APU Feed Fault;Button:Back
1499186680258;5;3;0;DWELL;SingleFinger;TOUCH_MOVED;1;784.0;182.0;1;1023;1023;APU Feed Fault;Button:Back
1499186680376;5;3;0;DWELL;SingleFinger;TOUCH_MOVED;1;784.0;182.66666666666666;1;1023;1023;APU Feed Fault;Button:Back
1499186680514;5;3;0;DWELL;SingleFinger;TOUCH_MOVED;1;784.0;183.33333333333334;1;1023;1023;APU Feed Fault;Button:Back
1499186680711;5;3;0;DWELL;SingleFinger;TOUCH_MOVED;1;784.0;184.0;1;1023;1023;APU Feed Fault;Button:Back
1499186680861;5;3;0;DWELL;SingleFinger;TOUCH_MOVED;1;784.0;183.33333333333334;1;1023;1023;APU Feed Fault;Button:Back
1499186680891;5;3;0;DWELL;SingleFinger;TOUCH_MOVED;1;784.0;182.66666666666666;1;1023;1023;APU Feed Fault;Button:Back
1499186680901;5;3;0;DWELL;SingleFinger;TOUCH_MOVED;1;784.0;182.0;1;1023;1023;APU Feed Fault;Button:Back
1499186680906;5;3;0;DWELL;SingleFinger;TOUCH_MOVED;1;784.0;181.33333333333334;1;1023;1023;APU Feed Fault;Button:Back
1499186680927;5;3;0;DWELL;SingleFinger;TOUCH_RELEASED;1;784.0;181.33333333333334;1;1023;1023;APU Feed Fault;Button:Back
1499186680927;5;3;0;DWELL;SingleFinger;BUTTON_TRIGGERED;1;784.0;181.33333333333334;1;1023;1023;APU Feed Fault;Button:Back
1499186683137;5;3;0;DWELL;SingleFinger;TOUCH_PRESSED;1;992.6666666666666;456.0;1;1023;0;APU Feed Fault;Button:WarningAPU Feed Fault
1499186683217;5;3;0;DWELL;SingleFinger;TOUCH_MOVED;1;992.6666666666666;455.3333333333333;1;1023;1023;APU Feed Fault;Button:WarningAPU Feed Fault
1499186683251;5;3;0;DWELL;SingleFinger;TOUCH_MOVED;1;992.6666666666666;454.6666666666667;1;1023;1023;APU Feed Fault;Button:WarningAPU Feed Fault
1499186683266;5;3;0;DWELL;SingleFinger;TOUCH_MOVED;1;992.0;454.6666666666667;1;1023;1023;APU Feed Fault;Button:WarningAPU Feed Fault
1499186683277;5;3;0;DWELL;SingleFinger;TOUCH_MOVED;1;992.0;454.0;1;1023;1023;APU Feed Fault;Button:WarningAPU Feed Fault
1499186683307;5;3;0;DWELL;SingleFinger;TOUCH_MOVED;1;992.0;453.3333333333333;1;1023;1023;APU Feed Fault;Button:WarningAPU Feed Fault
1499186683351;5;3;0;DWELL;SingleFinger;TOUCH_MOVED;1;992.0;452.6666666666667;1;1023;1023;APU Feed Fault;Button:WarningAPU Feed Fault
1499186683397;5;3;0;DWELL;SingleFinger;TOUCH_MOVED;1;992.0;452.0;1;1023;1023;APU Feed Fault;Button:WarningAPU Feed Fault
1499186683438;5;3;0;DWELL;SingleFinger;TOUCH_MOVED;1;992.0;451.3333333333333;1;1023;1023;APU Feed Fault;Button:WarningAPU Feed Fault
1499186683503;5;3;0;DWELL;SingleFinger;TOUCH_MOVED;1;992.0;450.6666666666667;1;1023;1023;APU Feed Fault;Button:WarningAPU Feed Fault
1499186683568;5;3;0;DWELL;SingleFinger;TOUCH_MOVED;1;992.0;450.0;1;1023;1023;APU Feed Fault;Button:WarningAPU Feed Fault
1499186683679;5;3;0;DWELL;SingleFinger;TOUCH_MOVED;1;992.0;449.3333333333333;1;1023;1023;APU Feed Fault;Button:WarningAPU Feed Fault
1499186683752;5;3;0;DWELL;SingleFinger;TOUCH_MOVED;1;992.0;448.6666666666667;1;1023;1023;APU Feed Fault;Button:WarningAPU Feed Fault
1499186683830;5;3;0;DWELL;SingleFinger;TOUCH_MOVED;1;992.0;448.0;1;1023;1023;APU Feed Fault;Button:WarningAPU Feed Fault
1499186683916;5;3;0;DWELL;SingleFinger;TOUCH_MOVED;1;992.0;447.3333333333333;1;1023;1023;APU Feed Fault;Button:WarningAPU Feed Fault
1499186684218;5;3;0;DWELL;SingleFinger;TOUCH_RELEASED;1;992.0;447.3333333333333;1;1023;1023;APU Feed Fault;Button:WarningAPU Feed Fault
1499186684218;5;3;0;DWELL;SingleFinger;BUTTON_TRIGGERED;1;992.0;447.3333333333333;1;1023;1023;APU Feed Fault;Button:WarningAPU Feed Fault
1499186696020;5;3;0;DWELL;SingleFinger;TOUCH_PRESSED;1;1004.6666666666666;450.0;1;1023;0;APU Fire !;Button:WarningAPU Fire !
1499186696275;5;3;0;DWELL;SingleFinger;TOUCH_MOVED;1;1004.6666666666666;449.3333333333333;1;1023;1023;APU Fire !;Button:WarningAPU Fire !
1499186697315;5;3;0;DWELL;SingleFinger;TOUCH_MOVED;1;1004.6666666666666;448.6666666666667;1;1023;1023;APU Fire !;Button:WarningAPU Fire !
1499186697344;5;3;0;DWELL;SingleFinger;TOUCH_RELEASED;1;1004.6666666666666;448.6666666666667;1;1023;1023;APU Fire !;Button:WarningAPU Fire !
1499186697344;5;3;0;DWELL;SingleFinger;BUTTON_TRIGGERED;1;1004.6666666666666;448.6666666666667;1;1023;1023;APU Fire !;Button:WarningAPU Fire !
1499186698106;5;3;0;DWELL;SingleFinger;TOUCH_PRESSED;1;511.3333333333333;342.0;1;1023;0;APU Fire !;Button:Fire
1499186698438;5;3;0;DWELL;SingleFinger;TOUCH_MOVED;1;511.3333333333333;342.6666666666667;1;1023;1023;APU Fire !;Button:Fire
1499186698504;5;3;0;DWELL;SingleFinger;TOUCH_MOVED;1;511.3333333333333;343.3333333333333;1;1023;1023;APU Fire !;Button:Fire
1499186698544;5;3;0;DWELL;SingleFinger;TOUCH_MOVED;1;510.6666666666667;343.3333333333333;1;1023;1023;APU Fire !;Button:Fire
1499186698570;5;3;0;DWELL;SingleFinger;TOUCH_MOVED;1;510.6666666666667;344.0;1;1023;1023;APU Fire !;Button:Fire
1499186698634;5;3;0;DWELL;SingleFinger;TOUCH_MOVED;1;510.6666666666667;344.6666666666667;1;1023;1023;APU Fire !;Button:Fire
1499186698694;5;3;0;DWELL;SingleFinger;TOUCH_MOVED;1;510.0;344.6666666666667;1;1023;1023;APU Fire !;Button:Fire
1499186698746;5;3;0;DWELL;SingleFinger;TOUCH_MOVED;1;510.0;345.3333333333333;1;1023;1023;APU Fire !;Button:Fire
1499186698883;5;3;0;DWELL;SingleFinger;TOUCH_MOVED;1;510.0;346.0;1;1023;1023;APU Fire !;Button:Fire
1499186699021;5;3;0;DWELL;SingleFinger;TOUCH_MOVED;1;510.0;346.6666666666667;1;1023;1023;APU Fire !;Button:Fire
1499186699327;5;3;0;DWELL;SingleFinger;TOUCH_MOVED;1;510.0;346.0;1;1023;1023;APU Fire !;Button:Fire
1499186699346;5;3;0;DWELL;SingleFinger;TOUCH_MOVED;1;510.0;345.3333333333333;1;1023;1023;APU Fire !;Button:Fire
1499186699365;5;3;0;DWELL;SingleFinger;TOUCH_RELEASED;1;510.0;345.3333333333333;1;1023;1023;APU Fire !;Button:Fire
1499186699365;5;3;0;DWELL;SingleFinger;BUTTON_TRIGGERED;1;510.0;345.3333333333333;1;1023;1023;APU Fire !;Button:Fire
1499186700049;5;3;0;DWELL;SingleFinger;TOUCH_PRESSED;1;498.0;344.6666666666667;1;1023;0;APU Fire !;Button:Fire
1499186700165;5;3;0;DWELL;SingleFinger;TOUCH_MOVED;1;498.0;345.3333333333333;1;1023;1023;APU Fire !;Button:Fire
1499186700303;5;3;0;DWELL;SingleFinger;TOUCH_MOVED;1;498.0;346.0;1;1023;1023;APU Fire !;Button:Fire
1499186700441;5;3;0;DWELL;SingleFinger;TOUCH_MOVED;1;498.0;346.6666666666667;1;1023;1023;APU Fire !;Button:Fire
1499186700571;5;3;0;DWELL;SingleFinger;TOUCH_MOVED;1;498.0;347.3333333333333;1;1023;1023;APU Fire !;Button:Fire
1499186700710;5;3;0;DWELL;SingleFinger;TOUCH_MOVED;1;498.0;348.0;1;1023;1023;APU Fire !;Button:Fire
1499186700854;5;3;0;DWELL;SingleFinger;TOUCH_MOVED;1;498.0;348.6666666666667;1;1023;1023;APU Fire !;Button:Fire
1499186701260;5;3;0;DWELL;SingleFinger;TOUCH_MOVED;1;498.0;348.0;1;1023;1023;APU Fire !;Button:Fire
1499186701280;5;3;0;DWELL;SingleFinger;TOUCH_MOVED;1;498.0;347.3333333333333;1;1023;1023;APU Fire !;Button:Fire
1499186701304;5;3;0;DWELL;SingleFinger;TOUCH_RELEASED;1;498.0;347.3333333333333;1;1023;1023;APU Fire !;Button:Fire
1499186701304;5;3;0;DWELL;SingleFinger;BUTTON_TRIGGERED;1;498.0;347.3333333333333;1;1023;1023;APU Fire !;Button:Fire
1499186703434;5;3;0;DWELL;SingleFinger;TOUCH_PRESSED;1;438.0;450.0;1;1023;0;APU Fire !;Button:SQUIB
1499186703553;5;3;0;DWELL;SingleFinger;TOUCH_MOVED;1;438.0;450.6666666666667;1;1023;1023;APU Fire !;Button:SQUIB
1499186703632;5;3;0;DWELL;SingleFinger;TOUCH_MOVED;1;438.0;451.3333333333333;1;1023;1023;APU Fire !;Button:SQUIB
1499186703644;5;3;0;DWELL;SingleFinger;TOUCH_MOVED;1;438.0;452.0;1;1023;1023;APU Fire !;Button:SQUIB
1499186703657;5;3;0;DWELL;SingleFinger;TOUCH_MOVED;1;438.6666666666667;452.6666666666667;1;1023;1023;APU Fire !;Button:SQUIB
1499186703684;5;3;0;DWELL;SingleFinger;TOUCH_MOVED;1;438.6666666666667;453.3333333333333;1;1023;1023;APU Fire !;Button:SQUIB
1499186703710;5;3;0;DWELL;SingleFinger;TOUCH_MOVED;1;438.6666666666667;454.0;1;1023;1023;APU Fire !;Button:SQUIB
1499186703743;5;3;0;DWELL;SingleFinger;TOUCH_MOVED;1;438.6666666666667;454.6666666666667;1;1023;1023;APU Fire !;Button:SQUIB
1499186703782;5;3;0;DWELL;SingleFinger;TOUCH_MOVED;1;438.0;454.6666666666667;1;1023;1023;APU Fire !;Button:SQUIB
1499186703789;5;3;0;DWELL;SingleFinger;TOUCH_MOVED;1;438.0;455.3333333333333;1;1023;1023;APU Fire !;Button:SQUIB
1499186703848;5;3;0;DWELL;SingleFinger;TOUCH_MOVED;1;437.3333333333333;455.3333333333333;1;1023;1023;APU Fire !;Button:SQUIB
1499186703914;5;3;0;DWELL;SingleFinger;TOUCH_MOVED;1;436.6666666666667;455.3333333333333;1;1023;1023;APU Fire !;Button:SQUIB
1499186703919;5;3;0;DWELL;SingleFinger;TOUCH_MOVED;1;436.6666666666667;456.0;1;1023;1023;APU Fire !;Button:SQUIB
1499186703993;5;3;0;DWELL;SingleFinger;TOUCH_MOVED;1;436.0;456.0;1;1023;1023;APU Fire !;Button:SQUIB
1499186703999;5;3;0;DWELL;SingleFinger;TOUCH_MOVED;1;436.0;456.6666666666667;1;1023;1023;APU Fire !;Button:SQUIB
1499186704057;5;3;0;DWELL;SingleFinger;TOUCH_MOVED;1;436.0;457.3333333333333;1;1023;1023;APU Fire !;Button:SQUIB
1499186704070;5;3;0;DWELL;SingleFinger;TOUCH_MOVED;1;435.3333333333333;457.3333333333333;1;1023;1023;APU Fire !;Button:SQUIB
1499186704130;5;3;0;DWELL;SingleFinger;TOUCH_MOVED;1;435.3333333333333;458.0;1;1023;1023;APU Fire !;Button:SQUIB
1499186704215;5;3;0;DWELL;SingleFinger;TOUCH_MOVED;1;434.6666666666667;458.0;1;1023;1023;APU Fire !;Button:SQUIB
1499186704287;5;3;0;DWELL;SingleFinger;TOUCH_MOVED;1;434.6666666666667;458.6666666666667;1;1023;1023;APU Fire !;Button:SQUIB
1499186704400;5;3;0;DWELL;SingleFinger;TOUCH_MOVED;1;434.0;458.6666666666667;1;1023;1023;APU Fire !;Button:SQUIB
1499186704451;5;3;0;DWELL;SingleFinger;TOUCH_MOVED;1;434.0;458.0;1;1023;1023;APU Fire !;Button:SQUIB
1499186704492;5;3;0;DWELL;SingleFinger;TOUCH_RELEASED;1;434.0;458.0;1;1023;1023;APU Fire !;Button:SQUIB
1499186704493;5;3;0;DWELL;SingleFinger;BUTTON_TRIGGERED;1;434.0;458.0;1;1023;1023;APU Fire !;Button:SQUIB
1499186706704;5;3;0;DWELL;SingleFinger;TOUCH_PRESSED;1;773.3333333333334;182.66666666666666;1;1023;0;APU Fire !;Button:Back
1499186706801;5;3;0;DWELL;SingleFinger;TOUCH_MOVED;1;773.3333333333334;182.0;1;1023;1023;APU Fire !;Button:Back
1499186706893;5;3;0;DWELL;SingleFinger;TOUCH_MOVED;1;772.6666666666666;182.0;1;1023;1023;APU Fire !;Button:Back
1499186706920;5;3;0;DWELL;SingleFinger;TOUCH_MOVED;1;772.6666666666666;181.33333333333334;1;1023;1023;APU Fire !;Button:Back
1499186706958;5;3;0;DWELL;SingleFinger;TOUCH_MOVED;1;772.6666666666666;182.0;1;1023;1023;APU Fire !;Button:Back
1499186707037;5;3;0;DWELL;SingleFinger;TOUCH_MOVED;1;772.0;182.0;1;1023;1023;APU Fire !;Button:Back
1499186707089;5;3;0;DWELL;SingleFinger;TOUCH_MOVED;1;772.0;182.66666666666666;1;1023;1023;APU Fire !;Button:Back
1499186707228;5;3;0;DWELL;SingleFinger;TOUCH_MOVED;1;772.0;183.33333333333334;1;1023;1023;APU Fire !;Button:Back
1499186707837;5;3;0;DWELL;SingleFinger;TOUCH_MOVED;1;772.0;182.66666666666666;1;1023;1023;APU Fire !;Button:Back
1499186707867;5;3;0;DWELL;SingleFinger;TOUCH_MOVED;1;771.3333333333334;182.66666666666666;1;1023;1023;APU Fire !;Button:Back
1499186707874;5;3;0;DWELL;SingleFinger;TOUCH_MOVED;1;771.3333333333334;183.33333333333334;1;1023;1023;APU Fire !;Button:Back
1499186707893;5;3;0;DWELL;SingleFinger;TOUCH_RELEASED;1;771.3333333333334;183.33333333333334;1;1023;1023;APU Fire !;Button:Back
1499186707893;5;3;0;DWELL;SingleFinger;BUTTON_TRIGGERED;1;771.3333333333334;183.33333333333334;1;1023;1023;APU Fire !;Button:Back
1499186709019;5;3;0;DWELL;SingleFinger;TOUCH_PRESSED;1;1003.3333333333334;449.3333333333333;1;1023;0;APU Fire !;Button:WarningAPU Fire !
1499186710205;5;3;0;DWELL;SingleFinger;TOUCH_RELEASED;1;1003.3333333333334;449.3333333333333;1;1023;1023;APU Fire !;Button:WarningAPU Fire !
1499186710205;5;3;0;DWELL;SingleFinger;BUTTON_TRIGGERED;1;1003.3333333333334;449.3333333333333;1;1023;1023;APU Fire !;Button:WarningAPU Fire !
1499186721908;5;3;0;DWELL;SingleFinger;TOUCH_PRESSED;1;1007.3333333333334;452.6666666666667;1;1023;0;APU Fault - EGT Temp;Button:WarningAPU Fault - EGT Temp
1499186722089;5;3;0;DWELL;SingleFinger;TOUCH_MOVED;1;1007.3333333333334;452.0;1;1023;1023;APU Fault - EGT Temp;Button:WarningAPU Fault - EGT Temp
1499186722514;5;3;0;DWELL;SingleFinger;TOUCH_MOVED;1;1007.3333333333334;452.6666666666667;1;1023;1023;APU Fault - EGT Temp;Button:WarningAPU Fault - EGT Temp
1499186722940;5;3;0;DWELL;SingleFinger;TOUCH_MOVED;1;1007.3333333333334;452.0;1;1023;1023;APU Fault - EGT Temp;Button:WarningAPU Fault - EGT Temp
1499186722986;5;3;0;DWELL;SingleFinger;TOUCH_MOVED;1;1006.6666666666666;452.0;1;1023;1023;APU Fault - EGT Temp;Button:WarningAPU Fault - EGT Temp
1499186723024;5;3;0;DWELL;SingleFinger;TOUCH_MOVED;1;1006.6666666666666;451.3333333333333;1;1023;1023;APU Fault - EGT Temp;Button:WarningAPU Fault - EGT Temp
1499186723069;5;3;0;DWELL;SingleFinger;TOUCH_RELEASED;1;1006.6666666666666;451.3333333333333;1;1023;1023;APU Fault - EGT Temp;Button:WarningAPU Fault - EGT Temp
1499186723069;5;3;0;DWELL;SingleFinger;BUTTON_TRIGGERED;1;1006.6666666666666;451.3333333333333;1;1023;1023;APU Fault - EGT Temp;Button:WarningAPU Fault - EGT Temp
1499186724494;5;3;0;DWELL;SingleFinger;TOUCH_PRESSED;1;652.6666666666666;550.0;1;1023;0;APU Fault - EGT Temp;Button:FUEL
1499186724569;5;3;0;DWELL;SingleFinger;TOUCH_MOVED;1;653.3333333333334;550.0;1;1023;1023;APU Fault - EGT Temp;Button:FUEL
1499186724589;5;3;0;DWELL;SingleFinger;TOUCH_MOVED;1;653.3333333333334;550.6666666666666;1;1023;1023;APU Fault - EGT Temp;Button:FUEL
1499186725730;5;3;0;DWELL;SingleFinger;TOUCH_MOVED;1;652.6666666666666;550.6666666666666;1;1023;1023;APU Fault - EGT Temp;Button:FUEL
1499186725765;5;3;0;DWELL;SingleFinger;TOUCH_RELEASED;1;652.6666666666666;550.6666666666666;1;1023;1023;APU Fault - EGT Temp;Button:FUEL
1499186725765;5;3;0;DWELL;SingleFinger;BUTTON_TRIGGERED;1;652.6666666666666;550.6666666666666;1;1023;1023;APU Fault - EGT Temp;Button:FUEL
1499186728552;5;3;0;DWELL;SingleFinger;TOUCH_PRESSED;1;776.6666666666666;188.66666666666666;1;1023;0;APU Fault - EGT Temp;Button:Back
1499186728609;5;3;0;DWELL;SingleFinger;TOUCH_MOVED;1;776.0;188.0;1;1023;1023;APU Fault - EGT Temp;Button:Back
1499186728649;5;3;0;DWELL;SingleFinger;TOUCH_MOVED;1;776.0;187.33333333333334;1;1023;1023;APU Fault - EGT Temp;Button:Back
1499186728715;5;3;0;DWELL;SingleFinger;TOUCH_MOVED;1;776.0;186.66666666666666;1;1023;1023;APU Fault - EGT Temp;Button:Back
1499186728786;5;3;0;DWELL;SingleFinger;TOUCH_MOVED;1;776.0;186.0;1;1023;1023;APU Fault - EGT Temp;Button:Back
1499186728806;5;3;0;DWELL;SingleFinger;TOUCH_MOVED;1;775.3333333333334;186.0;1;1023;1023;APU Fault - EGT Temp;Button:Back
1499186728866;5;3;0;DWELL;SingleFinger;TOUCH_MOVED;1;775.3333333333334;185.33333333333334;1;1023;1023;APU Fault - EGT Temp;Button:Back
1499186729141;5;3;0;DWELL;SingleFinger;TOUCH_MOVED;1;775.3333333333334;184.66666666666666;1;1023;1023;APU Fault - EGT Temp;Button:Back
1499186729297;5;3;0;DWELL;SingleFinger;TOUCH_MOVED;1;775.3333333333334;184.0;1;1023;1023;APU Fault - EGT Temp;Button:Back
1499186729670;5;3;0;DWELL;SingleFinger;TOUCH_MOVED;1;775.3333333333334;183.33333333333334;1;1023;1023;APU Fault - EGT Temp;Button:Back
1499186729859;5;3;0;DWELL;SingleFinger;TOUCH_RELEASED;1;775.3333333333334;183.33333333333334;1;1023;1023;APU Fault - EGT Temp;Button:Back
1499186729860;5;3;0;DWELL;SingleFinger;BUTTON_TRIGGERED;1;775.3333333333334;183.33333333333334;1;1023;1023;APU Fault - EGT Temp;Button:Back
1499186732567;5;3;0;DWELL;SingleFinger;TOUCH_PRESSED;1;476.6666666666667;272.6666666666667;1;1023;0;APU Fault - EGT Temp;Button:FAULT
1499186732648;5;3;0;DWELL;SingleFinger;TOUCH_MOVED;1;476.6666666666667;273.3333333333333;1;1023;1023;APU Fault - EGT Temp;Button:FAULT
1499186732931;5;3;0;DWELL;SingleFinger;TOUCH_MOVED;1;476.6666666666667;274.0;1;1023;1023;APU Fault - EGT Temp;Button:FAULT
1499186733102;5;3;0;DWELL;SingleFinger;TOUCH_MOVED;1;476.6666666666667;274.6666666666667;1;1023;1023;APU Fault - EGT Temp;Button:FAULT
1499186733298;5;3;0;DWELL;SingleFinger;TOUCH_MOVED;1;476.6666666666667;275.3333333333333;1;1023;1023;APU Fault - EGT Temp;Button:FAULT
1499186734103;5;3;0;DWELL;SingleFinger;TOUCH_RELEASED;1;476.6666666666667;275.3333333333333;1;1023;1023;APU Fault - EGT Temp;Button:FAULT
1499186734103;5;3;0;DWELL;SingleFinger;BUTTON_TRIGGERED;1;476.6666666666667;275.3333333333333;1;1023;1023;APU Fault - EGT Temp;Button:FAULT
1499186737066;5;3;0;DWELL;SingleFinger;TOUCH_PRESSED;1;773.3333333333334;181.33333333333334;1;1023;0;APU Fault - EGT Temp;Button:Back
1499186737570;5;3;0;DWELL;SingleFinger;TOUCH_MOVED;1;773.3333333333334;182.0;1;1023;1023;APU Fault - EGT Temp;Button:Back
1499186737700;5;3;0;DWELL;SingleFinger;TOUCH_MOVED;1;773.3333333333334;182.66666666666666;1;1023;1023;APU Fault - EGT Temp;Button:Back
1499186737844;5;3;0;DWELL;SingleFinger;TOUCH_MOVED;1;773.3333333333334;183.33333333333334;1;1023;1023;APU Fault - EGT Temp;Button:Back
1499186738140;5;3;0;DWELL;SingleFinger;TOUCH_MOVED;1;773.3333333333334;182.66666666666666;1;1023;1023;APU Fault - EGT Temp;Button:Back
1499186738243;5;3;0;DWELL;SingleFinger;TOUCH_RELEASED;1;773.3333333333334;182.66666666666666;1;1023;1023;APU Fault - EGT Temp;Button:Back
1499186738243;5;3;0;DWELL;SingleFinger;BUTTON_TRIGGERED;1;773.3333333333334;182.66666666666666;1;1023;1023;APU Fault - EGT Temp;Button:Back
1499186739649;5;3;0;DWELL;SingleFinger;TOUCH_PRESSED;1;992.6666666666666;450.0;1;1023;0;APU Fault - EGT Temp;Button:WarningAPU Fault - EGT Temp
1499186739905;5;3;0;DWELL;SingleFinger;TOUCH_MOVED;1;992.0;450.0;1;1023;1023;APU Fault - EGT Temp;Button:WarningAPU Fault - EGT Temp
1499186740734;5;3;0;DWELL;SingleFinger;TOUCH_MOVED;1;992.0;449.3333333333333;1;1023;1023;APU Fault - EGT Temp;Button:WarningAPU Fault - EGT Temp
1499186740780;5;3;0;DWELL;SingleFinger;TOUCH_RELEASED;1;992.0;449.3333333333333;1;1023;1023;APU Fault - EGT Temp;Button:WarningAPU Fault - EGT Temp
1499186740780;5;3;0;DWELL;SingleFinger;BUTTON_TRIGGERED;1;992.0;449.3333333333333;1;1023;1023;APU Fault - EGT Temp;Button:WarningAPU Fault - EGT Temp
1499186752256;5;3;0;DWELL;SingleFinger;TOUCH_PRESSED;1;969.3333333333334;446.6666666666667;1;1023;0;APU Feed Fault;Button:WarningAPU Feed Fault
1499186752348;5;3;0;DWELL;SingleFinger;TOUCH_MOVED;1;968.6666666666666;447.3333333333333;1;1023;1023;APU Feed Fault;Button:WarningAPU Feed Fault
1499186752374;5;3;0;DWELL;SingleFinger;TOUCH_MOVED;1;968.6666666666666;448.0;1;1023;1023;APU Feed Fault;Button:WarningAPU Feed Fault
1499186752407;5;3;0;DWELL;SingleFinger;TOUCH_MOVED;1;968.6666666666666;448.6666666666667;1;1023;1023;APU Feed Fault;Button:WarningAPU Feed Fault
1499186752420;5;3;0;DWELL;SingleFinger;TOUCH_MOVED;1;968.0;448.6666666666667;1;1023;1023;APU Feed Fault;Button:WarningAPU Feed Fault
1499186752460;5;3;0;DWELL;SingleFinger;TOUCH_MOVED;1;968.0;449.3333333333333;1;1023;1023;APU Feed Fault;Button:WarningAPU Feed Fault
1499186753029;5;3;0;DWELL;SingleFinger;TOUCH_MOVED;1;967.3333333333334;449.3333333333333;1;1023;1023;APU Feed Fault;Button:WarningAPU Feed Fault
1499186753671;5;3;0;DWELL;SingleFinger;TOUCH_MOVED;1;967.3333333333334;448.6666666666667;1;1023;1023;APU Feed Fault;Button:WarningAPU Feed Fault
1499186753694;5;3;0;DWELL;SingleFinger;TOUCH_MOVED;1;967.3333333333334;448.0;1;1023;1023;APU Feed Fault;Button:WarningAPU Feed Fault
1499186753718;5;3;0;DWELL;SingleFinger;TOUCH_RELEASED;1;967.3333333333334;448.0;1;1023;1023;APU Feed Fault;Button:WarningAPU Feed Fault
1499186753718;5;3;0;DWELL;SingleFinger;BUTTON_TRIGGERED;1;967.3333333333334;448.0;1;1023;1023;APU Feed Fault;Button:WarningAPU Feed Fault
1499186756122;5;3;0;DWELL;SingleFinger;TOUCH_PRESSED;1;473.3333333333333;262.6666666666667;1;1023;0;APU Feed Fault;Button:FAULT
1499186756475;5;3;0;DWELL;SingleFinger;TOUCH_MOVED;1;473.3333333333333;263.3333333333333;1;1023;1023;APU Feed Fault;Button:FAULT
1499186756643;5;3;0;DWELL;SingleFinger;TOUCH_MOVED;1;473.3333333333333;264.0;1;1023;1023;APU Feed Fault;Button:FAULT
1499186756724;5;3;0;DWELL;SingleFinger;TOUCH_RELEASED;1;473.3333333333333;264.0;1;1023;1023;APU Feed Fault;Button:FAULT
1499186756724;5;3;0;DWELL;SingleFinger;BUTTON_TRIGGERED;1;473.3333333333333;264.0;1;1023;1023;APU Feed Fault;Button:FAULT
1499186757457;5;3;0;DWELL;SingleFinger;TOUCH_PRESSED;1;466.6666666666667;266.6666666666667;1;1023;0;APU Feed Fault;Button:FAULT
1499186757530;5;3;0;DWELL;SingleFinger;TOUCH_MOVED;1;466.6666666666667;267.3333333333333;1;1023;1023;APU Feed Fault;Button:FAULT
1499186757551;5;3;0;DWELL;SingleFinger;TOUCH_MOVED;1;466.6666666666667;268.0;1;1023;1023;APU Feed Fault;Button:FAULT
1499186757564;5;3;0;DWELL;SingleFinger;TOUCH_MOVED;1;467.3333333333333;268.0;1;1023;1023;APU Feed Fault;Button:FAULT
1499186757571;5;3;0;DWELL;SingleFinger;TOUCH_MOVED;1;467.3333333333333;268.6666666666667;1;1023;1023;APU Feed Fault;Button:FAULT
1499186757589;5;3;0;DWELL;SingleFinger;TOUCH_MOVED;1;467.3333333333333;269.3333333333333;1;1023;1023;APU Feed Fault;Button:FAULT
1499186757610;5;3;0;DWELL;SingleFinger;TOUCH_MOVED;1;467.3333333333333;270.0;1;1023;1023;APU Feed Fault;Button:FAULT
1499186757649;5;3;0;DWELL;SingleFinger;TOUCH_MOVED;1;467.3333333333333;270.6666666666667;1;1023;1023;APU Feed Fault;Button:FAULT
1499186757682;5;3;0;DWELL;SingleFinger;TOUCH_MOVED;1;466.6666666666667;270.6666666666667;1;1023;1023;APU Feed Fault;Button:FAULT
1499186757708;5;3;0;DWELL;SingleFinger;TOUCH_MOVED;1;466.6666666666667;271.3333333333333;1;1023;1023;APU Feed Fault;Button:FAULT
1499186758056;5;3;0;DWELL;SingleFinger;TOUCH_MOVED;1;467.3333333333333;271.3333333333333;1;1023;1023;APU Feed Fault;Button:FAULT
1499186758069;5;3;0;DWELL;SingleFinger;TOUCH_MOVED;1;467.3333333333333;272.0;1;1023;1023;APU Feed Fault;Button:FAULT
1499186758239;5;3;0;DWELL;SingleFinger;TOUCH_MOVED;1;468.0;272.0;1;1023;1023;APU Feed Fault;Button:FAULT
1499186758376;5;3;0;DWELL;SingleFinger;TOUCH_MOVED;1;468.6666666666667;272.0;1;1023;1023;APU Feed Fault;Button:FAULT
1499186758442;5;3;0;DWELL;SingleFinger;TOUCH_MOVED;1;469.3333333333333;272.0;1;1023;1023;APU Feed Fault;Button:FAULT
1499186758467;5;3;0;DWELL;SingleFinger;TOUCH_MOVED;1;469.3333333333333;272.6666666666667;1;1023;1023;APU Feed Fault;Button:FAULT
1499186758507;5;3;0;DWELL;SingleFinger;TOUCH_MOVED;1;470.0;272.6666666666667;1;1023;1023;APU Feed Fault;Button:FAULT
1499186758580;5;3;0;DWELL;SingleFinger;TOUCH_MOVED;1;470.6666666666667;272.6666666666667;1;1023;1023;APU Feed Fault;Button:FAULT
1499186758606;5;3;0;DWELL;SingleFinger;TOUCH_MOVED;1;470.6666666666667;273.3333333333333;1;1023;1023;APU Feed Fault;Button:FAULT
1499186758723;5;3;0;DWELL;SingleFinger;TOUCH_MOVED;1;471.3333333333333;273.3333333333333;1;1023;1023;APU Feed Fault;Button:FAULT
1499186758743;5;3;0;DWELL;SingleFinger;TOUCH_MOVED;1;471.3333333333333;274.0;1;1023;1023;APU Feed Fault;Button:FAULT
1499186758776;5;3;0;DWELL;SingleFinger;TOUCH_MOVED;1;471.3333333333333;273.3333333333333;1;1023;1023;APU Feed Fault;Button:FAULT
1499186758833;5;3;0;DWELL;SingleFinger;TOUCH_RELEASED;1;471.3333333333333;273.3333333333333;1;1023;1023;APU Feed Fault;Button:FAULT
1499186758833;5;3;0;DWELL;SingleFinger;BUTTON_TRIGGERED;1;471.3333333333333;273.3333333333333;1;1023;1023;APU Feed Fault;Button:FAULT
1499186759200;5;3;0;DWELL;SingleFinger;TOUCH_PRESSED;1;659.3333333333334;552.6666666666666;1;1023;0;APU Feed Fault;Button:FUEL
1499186759307;5;3;0;DWELL;SingleFinger;TOUCH_MOVED;1;659.3333333333334;552.0;1;1023;1023;APU Feed Fault;Button:FUEL
1499186759398;5;3;0;DWELL;SingleFinger;TOUCH_MOVED;1;659.3333333333334;551.3333333333334;1;1023;1023;APU Feed Fault;Button:FUEL
1499186759411;5;3;0;DWELL;SingleFinger;TOUCH_MOVED;1;658.6666666666666;551.3333333333334;1;1023;1023;APU Feed Fault;Button:FUEL
1499186759542;5;3;0;DWELL;SingleFinger;TOUCH_MOVED;1;658.6666666666666;550.6666666666666;1;1023;1023;APU Feed Fault;Button:FUEL
1499186759621;5;3;0;DWELL;SingleFinger;TOUCH_MOVED;1;658.0;550.6666666666666;1;1023;1023;APU Feed Fault;Button:FUEL
1499186759681;5;3;0;DWELL;SingleFinger;TOUCH_MOVED;1;658.0;550.0;1;1023;1023;APU Feed Fault;Button:FUEL
1499186759818;5;3;0;DWELL;SingleFinger;TOUCH_MOVED;1;658.0;549.3333333333334;1;1023;1023;APU Feed Fault;Button:FUEL
1499186760342;5;3;0;DWELL;SingleFinger;TOUCH_MOVED;1;658.0;550.0;1;1023;1023;APU Feed Fault;Button:FUEL
1499186760392;5;3;0;DWELL;SingleFinger;TOUCH_RELEASED;1;658.0;550.0;1;1023;1023;APU Feed Fault;Button:FUEL
1499186760392;5;3;0;DWELL;SingleFinger;BUTTON_TRIGGERED;1;658.0;550.0;1;1023;1023;APU Feed Fault;Button:FUEL
1499186769762;5;3;0;DWELL;SingleFinger;TOUCH_PRESSED;1;794.6666666666666;186.0;1;1023;0;APU Feed Fault;Button:Back
1499186769820;5;3;0;DWELL;SingleFinger;TOUCH_MOVED;1;794.0;186.0;1;1023;1023;APU Feed Fault;Button:Back
1499186769827;5;3;0;DWELL;SingleFinger;TOUCH_MOVED;1;794.0;185.33333333333334;1;1023;1023;APU Feed Fault;Button:Back
1499186769846;5;3;0;DWELL;SingleFinger;TOUCH_MOVED;1;793.3333333333334;185.33333333333334;1;1023;1023;APU Feed Fault;Button:Back
1499186769853;5;3;0;DWELL;SingleFinger;TOUCH_MOVED;1;793.3333333333334;184.66666666666666;1;1023;1023;APU Feed Fault;Button:Back
1499186769880;5;3;0;DWELL;SingleFinger;TOUCH_MOVED;1;792.6666666666666;184.66666666666666;1;1023;1023;APU Feed Fault;Button:Back
1499186769893;5;3;0;DWELL;SingleFinger;TOUCH_MOVED;1;792.6666666666666;184.0;1;1023;1023;APU Feed Fault;Button:Back
1499186769919;5;3;0;DWELL;SingleFinger;TOUCH_MOVED;1;792.0;184.0;1;1023;1023;APU Feed Fault;Button:Back
1499186769951;5;3;0;DWELL;SingleFinger;TOUCH_MOVED;1;792.0;183.33333333333334;1;1023;1023;APU Feed Fault;Button:Back
1499186769977;5;3;0;DWELL;SingleFinger;TOUCH_MOVED;1;791.3333333333334;183.33333333333334;1;1023;1023;APU Feed Fault;Button:Back
1499186770042;5;3;0;DWELL;SingleFinger;TOUCH_MOVED;1;790.6666666666666;183.33333333333334;1;1023;1023;APU Feed Fault;Button:Back
1499186770050;5;3;0;DWELL;SingleFinger;TOUCH_MOVED;1;790.6666666666666;182.66666666666666;1;1023;1023;APU Feed Fault;Button:Back
1499186770116;5;3;0;DWELL;SingleFinger;TOUCH_MOVED;1;790.0;182.66666666666666;1;1023;1023;APU Feed Fault;Button:Back
1499186770187;5;3;0;DWELL;SingleFinger;TOUCH_MOVED;1;790.0;182.0;1;1023;1023;APU Feed Fault;Button:Back
1499186770252;5;3;0;DWELL;SingleFinger;TOUCH_MOVED;1;789.3333333333334;182.0;1;1023;1023;APU Feed Fault;Button:Back
1499186770272;5;3;0;DWELL;SingleFinger;TOUCH_MOVED;1;789.3333333333334;182.66666666666666;1;1023;1023;APU Feed Fault;Button:Back
1499186770397;5;3;0;DWELL;SingleFinger;TOUCH_MOVED;1;788.6666666666666;182.66666666666666;1;1023;1023;APU Feed Fault;Button:Back
1499186770410;5;3;0;DWELL;SingleFinger;TOUCH_MOVED;1;788.6666666666666;183.33333333333334;1;1023;1023;APU Feed Fault;Button:Back
1499186770527;5;3;0;DWELL;SingleFinger;TOUCH_MOVED;1;788.0;183.33333333333334;1;1023;1023;APU Feed Fault;Button:Back
1499186770925;5;3;0;DWELL;SingleFinger;TOUCH_MOVED;1;788.0;182.66666666666666;1;1023;1023;APU Feed Fault;Button:Back
1499186770960;5;3;0;DWELL;SingleFinger;TOUCH_RELEASED;1;788.0;182.66666666666666;1;1023;1023;APU Feed Fault;Button:Back
1499186770960;5;3;0;DWELL;SingleFinger;BUTTON_TRIGGERED;1;788.0;182.66666666666666;1;1023;1023;APU Feed Fault;Button:Back
1499186772822;5;3;0;DWELL;SingleFinger;TOUCH_PRESSED;1;979.3333333333334;446.0;1;1023;0;APU Feed Fault;Button:WarningAPU Feed Fault
1499186772881;5;3;0;DWELL;SingleFinger;TOUCH_MOVED;1;979.3333333333334;445.3333333333333;1;1023;1023;APU Feed Fault;Button:WarningAPU Feed Fault
1499186773105;5;3;0;DWELL;SingleFinger;TOUCH_MOVED;1;979.3333333333334;446.0;1;1023;1023;APU Feed Fault;Button:WarningAPU Feed Fault
1499186774183;5;3;0;DWELL;SingleFinger;TOUCH_MOVED;1;979.3333333333334;445.3333333333333;1;1023;1023;APU Feed Fault;Button:WarningAPU Feed Fault
1499186774208;5;3;0;DWELL;SingleFinger;TOUCH_RELEASED;1;979.3333333333334;445.3333333333333;1;1023;1023;APU Feed Fault;Button:WarningAPU Feed Fault
1499186774208;5;3;0;DWELL;SingleFinger;BUTTON_TRIGGERED;1;979.3333333333334;445.3333333333333;1;1023;1023;APU Feed Fault;Button:WarningAPU Feed Fault
1499186774987;5;3;0;DWELL;SingleFinger;TOUCH_PRESSED;1;777.3333333333334;194.66666666666666;1;1023;0;APU Feed Fault;None
1499186775065;5;3;0;DWELL;SingleFinger;TOUCH_MOVED;1;776.6666666666666;194.66666666666666;1;1023;1023;APU Feed Fault;None
1499186775222;5;3;0;DWELL;SingleFinger;TOUCH_MOVED;1;776.6666666666666;194.0;1;1023;1023;APU Feed Fault;None
1499186775288;5;3;0;DWELL;SingleFinger;TOUCH_MOVED;1;776.6666666666666;193.33333333333334;1;1023;1023;APU Feed Fault;None
1499186775360;5;3;0;DWELL;SingleFinger;TOUCH_MOVED;1;776.6666666666666;192.66666666666666;1;1023;1023;APU Feed Fault;None
1499186775426;5;3;0;DWELL;SingleFinger;TOUCH_MOVED;1;776.6666666666666;192.0;1;1023;1023;APU Feed Fault;None
1499186775544;5;3;0;DWELL;SingleFinger;TOUCH_MOVED;1;776.6666666666666;191.33333333333334;1;1023;1023;APU Feed Fault;None
1499186775551;5;3;0;DWELL;SingleFinger;TOUCH_MOVED;1;776.0;191.33333333333334;1;1023;1023;APU Feed Fault;None
1499186775662;5;3;0;DWELL;SingleFinger;TOUCH_MOVED;1;776.0;190.66666666666666;1;1023;1023;APU Feed Fault;None
1499186775682;5;3;0;DWELL;SingleFinger;TOUCH_MOVED;1;775.3333333333334;190.66666666666666;1;1023;1023;APU Feed Fault;None
1499186775701;5;3;0;DWELL;SingleFinger;TOUCH_MOVED;1;775.3333333333334;190.0;1;1023;1023;APU Feed Fault;None
1499186775727;5;3;0;DWELL;SingleFinger;TOUCH_RELEASED;1;775.3333333333334;190.0;1;1023;1023;APU Feed Fault;None
1499186775813;5;3;0;DWELL;SingleFinger;TOUCH_PRESSED;1;768.6666666666666;179.33333333333334;1;1023;0;APU Feed Fault;Button:Back
1499186775886;5;3;0;DWELL;SingleFinger;TOUCH_MOVED;1;768.6666666666666;180.0;1;1023;1023;APU Feed Fault;Button:Back
1499186775938;5;3;0;DWELL;SingleFinger;TOUCH_MOVED;1;768.6666666666666;180.66666666666666;1;1023;1023;APU Feed Fault;Button:Back
1499186776017;5;3;0;DWELL;SingleFinger;TOUCH_MOVED;1;768.6666666666666;181.33333333333334;1;1023;1023;APU Feed Fault;Button:Back
1499186776482;5;3;0;DWELL;SingleFinger;TOUCH_MOVED;1;768.6666666666666;182.0;1;1023;1023;APU Feed Fault;Button:Back
1499186776613;5;3;0;DWELL;SingleFinger;TOUCH_MOVED;1;768.6666666666666;182.66666666666666;1;1023;1023;APU Feed Fault;Button:Back
1499186776953;5;3;0;DWELL;SingleFinger;TOUCH_RELEASED;1;768.6666666666666;182.66666666666666;1;1023;1023;APU Feed Fault;Button:Back
1499186776954;5;3;0;DWELL;SingleFinger;BUTTON_TRIGGERED;1;768.6666666666666;182.66666666666666;1;1023;1023;APU Feed Fault;Button:Back
1499186778087;5;3;0;DWELL;SingleFinger;TOUCH_PRESSED;1;957.3333333333334;440.6666666666667;1;1023;0;APU Feed Fault;Button:WarningAPU Feed Fault
1499186778214;5;3;0;DWELL;SingleFinger;TOUCH_MOVED;1;957.3333333333334;441.3333333333333;1;1023;1023;APU Feed Fault;Button:WarningAPU Feed Fault
1499186778253;5;3;0;DWELL;SingleFinger;TOUCH_MOVED;1;956.6666666666666;441.3333333333333;1;1023;1023;APU Feed Fault;Button:WarningAPU Feed Fault
1499186778261;5;3;0;DWELL;SingleFinger;TOUCH_MOVED;1;956.6666666666666;442.0;1;1023;1023;APU Feed Fault;Button:WarningAPU Feed Fault
1499186778314;5;3;0;DWELL;SingleFinger;TOUCH_MOVED;1;956.6666666666666;442.6666666666667;1;1023;1023;APU Feed Fault;Button:WarningAPU Feed Fault
1499186778398;5;3;0;DWELL;SingleFinger;TOUCH_MOVED;1;956.6666666666666;443.3333333333333;1;1023;1023;APU Feed Fault;Button:WarningAPU Feed Fault
1499186778536;5;3;0;DWELL;SingleFinger;TOUCH_MOVED;1;956.6666666666666;444.0;1;1023;1023;APU Feed Fault;Button:WarningAPU Feed Fault
1499186778673;5;3;0;DWELL;SingleFinger;TOUCH_MOVED;1;956.6666666666666;444.6666666666667;1;1023;1023;APU Feed Fault;Button:WarningAPU Feed Fault
1499186778804;5;3;0;DWELL;SingleFinger;TOUCH_MOVED;1;956.6666666666666;445.3333333333333;1;1023;1023;APU Feed Fault;Button:WarningAPU Feed Fault
1499186779039;5;3;0;DWELL;SingleFinger;TOUCH_RELEASED;1;956.6666666666666;445.3333333333333;1;1023;1023;APU Feed Fault;Button:WarningAPU Feed Fault
1499186779039;5;3;0;DWELL;SingleFinger;BUTTON_TRIGGERED;1;956.6666666666666;445.3333333333333;1;1023;1023;APU Feed Fault;Button:WarningAPU Feed Fault
1499186790748;5;3;0;DWELL;SingleFinger;TOUCH_PRESSED;1;1016.6666666666666;446.0;1;1023;0;APU Fire !;Button:WarningAPU Fire !
1499186790794;5;3;0;DWELL;SingleFinger;TOUCH_MOVED;1;1017.3333333333334;446.0;1;1023;1023;APU Fire !;Button:WarningAPU Fire !
1499186791644;5;3;0;DWELL;SingleFinger;TOUCH_MOVED;1;1016.6666666666666;446.0;1;1023;1023;APU Fire !;Button:WarningAPU Fire !
1499186791673;5;3;0;DWELL;SingleFinger;TOUCH_MOVED;1;1016.6666666666666;445.3333333333333;1;1023;1023;APU Fire !;Button:WarningAPU Fire !
1499186791694;5;3;0;DWELL;SingleFinger;TOUCH_RELEASED;1;1016.6666666666666;445.3333333333333;1;1023;1023;APU Fire !;Button:WarningAPU Fire !
1499186791694;5;3;0;DWELL;SingleFinger;BUTTON_TRIGGERED;1;1016.6666666666666;445.3333333333333;1;1023;1023;APU Fire !;Button:WarningAPU Fire !
1499186792406;5;3;0;DWELL;SingleFinger;TOUCH_PRESSED;1;502.0;334.6666666666667;1;1023;0;APU Fire !;Button:Fire
1499186792491;5;3;0;DWELL;SingleFinger;TOUCH_MOVED;1;502.0;335.3333333333333;1;1023;1023;APU Fire !;Button:Fire
1499186792543;5;3;0;DWELL;SingleFinger;TOUCH_MOVED;1;502.0;336.0;1;1023;1023;APU Fire !;Button:Fire
1499186792589;5;3;0;DWELL;SingleFinger;TOUCH_MOVED;1;501.3333333333333;336.0;1;1023;1023;APU Fire !;Button:Fire
1499186792594;5;3;0;DWELL;SingleFinger;TOUCH_MOVED;1;501.3333333333333;336.6666666666667;1;1023;1023;APU Fire !;Button:Fire
1499186792634;5;3;0;DWELL;SingleFinger;TOUCH_MOVED;1;501.3333333333333;337.3333333333333;1;1023;1023;APU Fire !;Button:Fire
1499186792660;5;3;0;DWELL;SingleFinger;TOUCH_MOVED;1;501.3333333333333;338.0;1;1023;1023;APU Fire !;Button:Fire
1499186792681;5;3;0;DWELL;SingleFinger;TOUCH_MOVED;1;501.3333333333333;338.6666666666667;1;1023;1023;APU Fire !;Button:Fire
1499186792706;5;3;0;DWELL;SingleFinger;TOUCH_MOVED;1;501.3333333333333;339.3333333333333;1;1023;1023;APU Fire !;Button:Fire
1499186792739;5;3;0;DWELL;SingleFinger;TOUCH_MOVED;1;501.3333333333333;340.0;1;1023;1023;APU Fire !;Button:Fire
1499186792765;5;3;0;DWELL;SingleFinger;TOUCH_MOVED;1;501.3333333333333;340.6666666666667;1;1023;1023;APU Fire !;Button:Fire
1499186792798;5;3;0;DWELL;SingleFinger;TOUCH_MOVED;1;501.3333333333333;341.3333333333333;1;1023;1023;APU Fire !;Button:Fire
1499186792831;5;3;0;DWELL;SingleFinger;TOUCH_MOVED;1;501.3333333333333;342.0;1;1023;1023;APU Fire !;Button:Fire
1499186792877;5;3;0;DWELL;SingleFinger;TOUCH_MOVED;1;501.3333333333333;342.6666666666667;1;1023;1023;APU Fire !;Button:Fire
1499186792923;5;3;0;DWELL;SingleFinger;TOUCH_MOVED;1;501.3333333333333;343.3333333333333;1;1023;1023;APU Fire !;Button:Fire
1499186792996;5;3;0;DWELL;SingleFinger;TOUCH_MOVED;1;501.3333333333333;344.0;1;1023;1023;APU Fire !;Button:Fire
1499186793074;5;3;0;DWELL;SingleFinger;TOUCH_MOVED;1;501.3333333333333;344.6666666666667;1;1023;1023;APU Fire !;Button:Fire
1499186793218;5;3;0;DWELL;SingleFinger;TOUCH_MOVED;1;501.3333333333333;345.3333333333333;1;1023;1023;APU Fire !;Button:Fire
1499186793356;5;3;0;DWELL;SingleFinger;TOUCH_MOVED;1;501.3333333333333;346.0;1;1023;1023;APU Fire !;Button:Fire
1499186793624;5;3;0;DWELL;SingleFinger;TOUCH_MOVED;1;501.3333333333333;346.6666666666667;1;1023;1023;APU Fire !;Button:Fire
1499186793827;5;3;0;DWELL;SingleFinger;TOUCH_MOVED;1;501.3333333333333;346.0;1;1023;1023;APU Fire !;Button:Fire
1499186793857;5;3;0;DWELL;SingleFinger;TOUCH_MOVED;1;501.3333333333333;345.3333333333333;1;1023;1023;APU Fire !;Button:Fire
1499186793862;5;3;0;DWELL;SingleFinger;TOUCH_MOVED;1;500.6666666666667;345.3333333333333;1;1023;1023;APU Fire !;Button:Fire
1499186793868;5;3;0;DWELL;SingleFinger;TOUCH_MOVED;1;500.6666666666667;344.6666666666667;1;1023;1023;APU Fire !;Button:Fire
1499186793872;5;3;0;DWELL;SingleFinger;TOUCH_MOVED;1;500.6666666666667;344.0;1;1023;1023;APU Fire !;Button:Fire
1499186793892;5;3;0;DWELL;SingleFinger;TOUCH_RELEASED;1;500.6666666666667;344.0;1;1023;1023;APU Fire !;Button:Fire
1499186793892;5;3;0;DWELL;SingleFinger;BUTTON_TRIGGERED;1;500.6666666666667;344.0;1;1023;1023;APU Fire !;Button:Fire
1499186794737;5;3;0;DWELL;SingleFinger;TOUCH_PRESSED;1;522.0;355.3333333333333;1;1023;0;APU Fire !;Button:Fire
1499186794796;5;3;0;DWELL;SingleFinger;TOUCH_MOVED;1;522.0;356.0;1;1023;1023;APU Fire !;Button:Fire
1499186794854;5;3;0;DWELL;SingleFinger;TOUCH_MOVED;1;522.0;356.6666666666667;1;1023;1023;APU Fire !;Button:Fire
1499186794888;5;3;0;DWELL;SingleFinger;TOUCH_MOVED;1;522.0;357.3333333333333;1;1023;1023;APU Fire !;Button:Fire
1499186794919;5;3;0;DWELL;SingleFinger;TOUCH_MOVED;1;522.0;358.0;1;1023;1023;APU Fire !;Button:Fire
1499186794932;5;3;0;DWELL;SingleFinger;TOUCH_MOVED;1;522.6666666666666;358.0;1;1023;1023;APU Fire !;Button:Fire
1499186794958;5;3;0;DWELL;SingleFinger;TOUCH_MOVED;1;522.6666666666666;358.6666666666667;1;1023;1023;APU Fire !;Button:Fire
1499186795019;5;3;0;DWELL;SingleFinger;TOUCH_MOVED;1;522.6666666666666;359.3333333333333;1;1023;1023;APU Fire !;Button:Fire
1499186795405;5;3;0;DWELL;SingleFinger;TOUCH_MOVED;1;522.6666666666666;360.0;1;1023;1023;APU Fire !;Button:Fire
1499186795517;5;3;0;DWELL;SingleFinger;TOUCH_MOVED;1;522.6666666666666;360.6666666666667;1;1023;1023;APU Fire !;Button:Fire
1499186795615;5;3;0;DWELL;SingleFinger;TOUCH_MOVED;1;523.3333333333334;360.6666666666667;1;1023;1023;APU Fire !;Button:Fire
1499186795647;5;3;0;DWELL;SingleFinger;TOUCH_MOVED;1;523.3333333333334;361.3333333333333;1;1023;1023;APU Fire !;Button:Fire
1499186795814;5;3;0;DWELL;SingleFinger;TOUCH_MOVED;1;523.3333333333334;360.6666666666667;1;1023;1023;APU Fire !;Button:Fire
1499186795845;5;3;0;DWELL;SingleFinger;TOUCH_RELEASED;1;523.3333333333334;360.6666666666667;1;1023;1023;APU Fire !;Button:Fire
1499186795845;5;3;0;DWELL;SingleFinger;BUTTON_TRIGGERED;1;523.3333333333334;360.6666666666667;1;1023;1023;APU Fire !;Button:Fire
1499186797707;5;3;0;DWELL;SingleFinger;TOUCH_PRESSED;1;448.6666666666667;458.0;1;1023;0;APU Fire !;Button:SQUIB
1499186797905;5;3;0;DWELL;SingleFinger;TOUCH_MOVED;1;448.0;458.0;1;1023;1023;APU Fire !;Button:SQUIB
1499186798688;5;3;0;DWELL;SingleFinger;TOUCH_MOVED;1;447.3333333333333;458.0;1;1023;1023;APU Fire !;Button:SQUIB
1499186798736;5;3;0;DWELL;SingleFinger;TOUCH_RELEASED;1;447.3333333333333;458.0;1;1023;1023;APU Fire !;Button:SQUIB
1499186798736;5;3;0;DWELL;SingleFinger;BUTTON_TRIGGERED;1;447.3333333333333;458.0;1;1023;1023;APU Fire !;Button:SQUIB
1499186800025;5;3;0;DWELL;SingleFinger;TOUCH_PRESSED;1;778.6666666666666;186.66666666666666;1;1023;0;APU Fire !;Button:Back
1499186800073;5;3;0;DWELL;SingleFinger;TOUCH_MOVED;1;778.6666666666666;186.0;1;1023;1023;APU Fire !;Button:Back
1499186800086;5;3;0;DWELL;SingleFinger;TOUCH_MOVED;1;778.0;186.0;1;1023;1023;APU Fire !;Button:Back
1499186800204;5;3;0;DWELL;SingleFinger;TOUCH_MOVED;1;778.0;185.33333333333334;1;1023;1023;APU Fire !;Button:Back
1499186800224;5;3;0;DWELL;SingleFinger;TOUCH_MOVED;1;777.3333333333334;185.33333333333334;1;1023;1023;APU Fire !;Button:Back
1499186801048;5;3;0;DWELL;SingleFinger;TOUCH_RELEASED;1;777.3333333333334;185.33333333333334;1;1023;1023;APU Fire !;Button:Back
1499186801048;5;3;0;DWELL;SingleFinger;BUTTON_TRIGGERED;1;777.3333333333334;185.33333333333334;1;1023;1023;APU Fire !;Button:Back
1499186802822;5;3;0;DWELL;SingleFinger;TOUCH_PRESSED;1;968.6666666666666;443.3333333333333;1;1023;0;APU Fire !;Button:WarningAPU Fire !
1499186802854;5;3;0;DWELL;SingleFinger;TOUCH_MOVED;1;968.6666666666666;442.6666666666667;1;1023;1023;APU Fire !;Button:WarningAPU Fire !
1499186802913;5;3;0;DWELL;SingleFinger;TOUCH_MOVED;1;968.0;442.6666666666667;1;1023;1023;APU Fire !;Button:WarningAPU Fire !
1499186802946;5;3;0;DWELL;SingleFinger;TOUCH_MOVED;1;968.0;443.3333333333333;1;1023;1023;APU Fire !;Button:WarningAPU Fire !
1499186803077;5;3;0;DWELL;SingleFinger;TOUCH_MOVED;1;967.3333333333334;443.3333333333333;1;1023;1023;APU Fire !;Button:WarningAPU Fire !
1499186803083;5;3;0;DWELL;SingleFinger;TOUCH_MOVED;1;967.3333333333334;444.0;1;1023;1023;APU Fire !;Button:WarningAPU Fire !
1499186803215;5;3;0;DWELL;SingleFinger;TOUCH_MOVED;1;966.6666666666666;444.0;1;1023;1023;APU Fire !;Button:WarningAPU Fire !
1499186803221;5;3;0;DWELL;SingleFinger;TOUCH_MOVED;1;966.6666666666666;444.6666666666667;1;1023;1023;APU Fire !;Button:WarningAPU Fire !
1499186803352;5;3;0;DWELL;SingleFinger;TOUCH_MOVED;1;966.6666666666666;445.3333333333333;1;1023;1023;APU Fire !;Button:WarningAPU Fire !
1499186803496;5;3;0;DWELL;SingleFinger;TOUCH_MOVED;1;966.6666666666666;446.0;1;1023;1023;APU Fire !;Button:WarningAPU Fire !
1499186803759;5;3;0;DWELL;SingleFinger;TOUCH_MOVED;1;966.6666666666666;445.3333333333333;1;1023;1023;APU Fire !;Button:WarningAPU Fire !
1499186803801;5;3;0;DWELL;SingleFinger;TOUCH_RELEASED;1;966.6666666666666;445.3333333333333;1;1023;1023;APU Fire !;Button:WarningAPU Fire !
1499186803801;5;3;0;DWELL;SingleFinger;BUTTON_TRIGGERED;1;966.6666666666666;445.3333333333333;1;1023;1023;APU Fire !;Button:WarningAPU Fire !
