Timestamp;Participant;Study;Method;Variant;TouchEvent;TouchId;TouchX;TouchY;TouchCount;Pressure;MaxPressure;TargetRadius;WidgetHighlighted;WidgetHovered
1499544339622;14;1;DOUBLETAP;SingleFinger;TOUCH_PRESSED;1;642.0;189.33333333333334;1;10;0;33.0;Target:0;Target:0
1499544339623;14;1;DOUBLETAP;SingleFinger;TOUCH_MOVED;1;641.3333333333334;189.33333333333334;1;10;0;33.0;Target:0;Target:0
1499544339628;14;1;DOUBLETAP;SingleFinger;TOUCH_MOVED;1;641.3333333333334;188.66666666666666;1;10;0;33.0;Target:0;Target:0
1499544339688;14;1;DOUBLETAP;SingleFinger;TOUCH_RELEASED;1;641.3333333333334;188.66666666666666;1;12;12;33.0;Target:0;Target:0
1499544339782;14;1;DOUBLETAP;SingleFinger;TOUCH_PRESSED;1;644.6666666666666;182.66666666666666;1;11;0;33.0;Target:0;Target:0
1499544339792;14;1;DOUBLETAP;SingleFinger;TOUCH_MOVED;1;645.3333333333334;182.0;1;11;11;33.0;Target:0;Target:0
1499544339807;14;1;DOUBLETAP;SingleFinger;TOUCH_MOVED;1;645.3333333333334;181.33333333333334;1;10;11;33.0;Target:0;Target:0
1499544339812;14;1;DOUBLETAP;SingleFinger;TOUCH_MOVED;1;646.0;181.33333333333334;1;11;11;33.0;Target:0;Target:0
1499544339853;14;1;DOUBLETAP;SingleFinger;TOUCH_RELEASED;1;646.0;181.33333333333334;1;11;11;33.0;Target:0;Target:0
1499544339853;14;1;DOUBLETAP;SingleFinger;BUTTON_TRIGGERED;1;646.0;181.33333333333334;1;11;11;33.0;Target:0;Target:0
1499544340874;14;1;DOUBLETAP;SingleFinger;TOUCH_PRESSED;1;586.6666666666666;531.3333333333334;1;10;0;33.0;Target:5;Target:5
1499544340939;14;1;DOUBLETAP;SingleFinger;TOUCH_MOVED;1;586.6666666666666;530.6666666666666;1;9;11;33.0;Target:5;Target:5
1499544340959;14;1;DOUBLETAP;SingleFinger;TOUCH_RELEASED;1;586.6666666666666;530.6666666666666;1;11;13;33.0;Target:5;Target:5
1499544341039;14;1;DOUBLETAP;SingleFinger;TOUCH_PRESSED;1;592.6666666666666;526.0;1;11;0;33.0;Target:5;Target:5
1499544341058;14;1;DOUBLETAP;SingleFinger;TOUCH_MOVED;1;593.3333333333334;526.0;1;10;14;33.0;Target:5;Target:5
1499544341082;14;1;DOUBLETAP;SingleFinger;TOUCH_MOVED;1;593.3333333333334;526.6666666666666;1;13;14;33.0;Target:5;Target:5
1499544341088;14;1;DOUBLETAP;SingleFinger;TOUCH_MOVED;1;594.0;526.6666666666666;1;13;14;33.0;Target:5;Target:5
1499544341107;14;1;DOUBLETAP;SingleFinger;TOUCH_RELEASED;1;594.0;526.6666666666666;1;10;14;33.0;Target:5;Target:5
1499544341107;14;1;DOUBLETAP;SingleFinger;BUTTON_TRIGGERED;1;594.0;526.6666666666666;1;10;14;33.0;Target:5;Target:5
1499544342028;14;1;DOUBLETAP;SingleFinger;TOUCH_PRESSED;1;766.0;215.33333333333334;1;11;0;33.0;Target:1;Target:1
1499544342043;14;1;DOUBLETAP;SingleFinger;TOUCH_MOVED;1;765.3333333333334;214.66666666666666;1;12;12;33.0;Target:1;Target:1
1499544342088;14;1;DOUBLETAP;SingleFinger;TOUCH_MOVED;1;765.3333333333334;214.0;1;9;12;33.0;Target:1;Target:1
1499544342121;14;1;DOUBLETAP;SingleFinger;TOUCH_RELEASED;1;765.3333333333334;214.0;1;10;13;33.0;Target:1;Target:1
1499544342195;14;1;DOUBLETAP;SingleFinger;TOUCH_PRESSED;1;764.6666666666666;212.0;1;11;0;33.0;Target:1;Target:1
1499544342256;14;1;DOUBLETAP;SingleFinger;TOUCH_MOVED;1;764.6666666666666;212.66666666666666;1;10;13;33.0;Target:1;Target:1
1499544342277;14;1;DOUBLETAP;SingleFinger;TOUCH_RELEASED;1;764.6666666666666;212.66666666666666;1;11;13;33.0;Target:1;Target:1
1499544342277;14;1;DOUBLETAP;SingleFinger;BUTTON_TRIGGERED;1;764.6666666666666;212.66666666666666;1;11;13;33.0;Target:1;Target:1
1499544342965;14;1;DOUBLETAP;SingleFinger;TOUCH_PRESSED;1;492.0;453.3333333333333;1;12;0;33.0;Target:6;Target:6
1499544343072;14;1;DOUBLETAP;SingleFinger;TOUCH_RELEASED;1;492.0;453.3333333333333;1;12;12;33.0;Target:6;Target:6
1499544343138;14;1;DOUBLETAP;SingleFinger;TOUCH_PRESSED;1;491.3333333333333;455.3333333333333;1;9;0;33.0;Target:6;Target:6
1499544343195;14;1;DOUBLETAP;SingleFinger;TOUCH_MOVED;1;492.0;456.0;1;12;12;33.0;Target:6;Target:6
1499544343216;14;1;DOUBLETAP;SingleFinger;TOUCH_RELEASED;1;492.0;456.0;1;12;12;33.0;Target:6;Target:6
1499544343217;14;1;DOUBLETAP;SingleFinger;BUTTON_TRIGGERED;1;492.0;456.0;1;12;12;33.0;Target:6;Target:6
1499544343678;14;1;DOUBLETAP;SingleFinger;TOUCH_PRESSED;1;827.3333333333334;337.3333333333333;1;11;0;33.0;Target:2;Target:2
1499544343701;14;1;DOUBLETAP;SingleFinger;TOUCH_MOVED;1;827.3333333333334;336.6666666666667;1;11;11;33.0;Target:2;Target:2
1499544343721;14;1;DOUBLETAP;SingleFinger;TOUCH_MOVED;1;827.3333333333334;336.0;1;11;11;33.0;Target:2;Target:2
1499544343744;14;1;DOUBLETAP;SingleFinger;TOUCH_MOVED;1;827.3333333333334;335.3333333333333;1;10;11;33.0;Target:2;Target:2
1499544343753;14;1;DOUBLETAP;SingleFinger;TOUCH_MOVED;1;827.3333333333334;334.6666666666667;1;13;13;33.0;Target:2;Target:2
1499544343774;14;1;DOUBLETAP;SingleFinger;TOUCH_RELEASED;1;827.3333333333334;334.6666666666667;1;11;13;33.0;Target:2;Target:2
1499544343843;14;1;DOUBLETAP;SingleFinger;TOUCH_PRESSED;1;816.6666666666666;322.0;1;10;0;33.0;Target:2;Target:2
1499544343936;14;1;DOUBLETAP;SingleFinger;TOUCH_RELEASED;1;816.6666666666666;322.0;1;10;12;33.0;Target:2;Target:2
1499544343936;14;1;DOUBLETAP;SingleFinger;BUTTON_TRIGGERED;1;816.6666666666666;322.0;1;10;12;33.0;Target:2;Target:2
1499544344336;14;1;DOUBLETAP;SingleFinger;TOUCH_PRESSED;1;476.0;320.6666666666667;1;10;0;33.0;Target:7;Target:7
1499544344409;14;1;DOUBLETAP;SingleFinger;TOUCH_RELEASED;1;476.0;320.6666666666667;1;11;13;33.0;Target:7;Target:7
1499544344481;14;1;DOUBLETAP;SingleFinger;TOUCH_PRESSED;1;471.3333333333333;326.6666666666667;1;10;0;33.0;Target:7;Target:7
1499544344543;14;1;DOUBLETAP;SingleFinger;TOUCH_MOVED;1;471.3333333333333;327.3333333333333;1;9;12;33.0;Target:7;Target:7
1499544344557;14;1;DOUBLETAP;SingleFinger;TOUCH_MOVED;1;471.3333333333333;328.0;1;11;12;33.0;Target:7;Target:7
1499544344579;14;1;DOUBLETAP;SingleFinger;TOUCH_RELEASED;1;471.3333333333333;328.0;1;11;12;33.0;Target:7;Target:7
1499544344579;14;1;DOUBLETAP;SingleFinger;BUTTON_TRIGGERED;1;471.3333333333333;328.0;1;11;12;33.0;Target:7;Target:7
1499544344956;14;1;DOUBLETAP;SingleFinger;TOUCH_PRESSED;1;802.6666666666666;418.6666666666667;1;10;0;33.0;Target:3;Target:3
1499544345043;14;1;DOUBLETAP;SingleFinger;TOUCH_RELEASED;1;802.6666666666666;418.6666666666667;1;10;13;33.0;Target:3;Target:3
1499544345138;14;1;DOUBLETAP;SingleFinger;TOUCH_PRESSED;1;798.0;427.3333333333333;1;9;0;33.0;Target:3;Target:3
1499544345159;14;1;DOUBLETAP;SingleFinger;TOUCH_MOVED;1;797.3333333333334;427.3333333333333;1;12;12;33.0;Target:3;Target:3
1499544345162;14;1;DOUBLETAP;SingleFinger;TOUCH_MOVED;1;797.3333333333334;428.0;1;12;12;33.0;Target:3;Target:3
1499544345182;14;1;DOUBLETAP;SingleFinger;TOUCH_MOVED;1;796.6666666666666;428.0;1;12;12;33.0;Target:3;Target:3
1499544345208;14;1;DOUBLETAP;SingleFinger;TOUCH_RELEASED;1;796.6666666666666;428.0;1;11;12;33.0;Target:3;Target:3
1499544345208;14;1;DOUBLETAP;SingleFinger;BUTTON_TRIGGERED;1;796.6666666666666;428.0;1;11;12;33.0;Target:3;Target:3
1499544345690;14;1;DOUBLETAP;SingleFinger;TOUCH_PRESSED;1;580.6666666666666;426.0;1;10;0;33.0;Target:8;None
1499544345694;14;1;DOUBLETAP;SingleFinger;TOUCH_PRESSED;2;523.3333333333334;228.66666666666666;2;11;0;33.0;Target:8;Target:8
1499544345719;14;1;DOUBLETAP;SingleFinger;TOUCH_MOVED;1;580.6666666666666;426.6666666666667;2;12;12;33.0;Target:8;None
1499544345735;14;1;DOUBLETAP;SingleFinger;TOUCH_MOVED;1;580.0;426.6666666666667;2;11;12;33.0;Target:8;None
1499544345741;14;1;DOUBLETAP;SingleFinger;TOUCH_MOVED;1;580.0;426.0;2;11;12;33.0;Target:8;None
1499544345756;14;1;DOUBLETAP;SingleFinger;TOUCH_MOVED;1;579.3333333333334;425.3333333333333;2;13;13;33.0;Target:8;None
1499544345761;14;1;DOUBLETAP;SingleFinger;TOUCH_RELEASED;2;523.3333333333334;228.66666666666666;2;13;13;33.0;Target:8;None
1499544345774;14;1;DOUBLETAP;SingleFinger;TOUCH_RELEASED;1;579.3333333333334;425.3333333333333;1;7;13;33.0;Target:8;None
1499544345850;14;1;DOUBLETAP;SingleFinger;TOUCH_PRESSED;1;522.0;222.66666666666666;1;11;0;33.0;Target:8;Target:8
1499544345895;14;1;DOUBLETAP;SingleFinger;TOUCH_MOVED;1;522.6666666666666;222.66666666666666;1;10;13;33.0;Target:8;Target:8
1499544345923;14;1;DOUBLETAP;SingleFinger;TOUCH_RELEASED;1;522.6666666666666;222.66666666666666;1;11;13;33.0;Target:8;Target:8
1499544346552;14;1;DOUBLETAP;SingleFinger;TOUCH_PRESSED;1;519.3333333333334;225.33333333333334;1;11;0;33.0;Target:8;Target:8
1499544346592;14;1;DOUBLETAP;SingleFinger;TOUCH_MOVED;1;519.3333333333334;224.66666666666666;1;11;11;33.0;Target:8;Target:8
1499544346596;14;1;DOUBLETAP;SingleFinger;TOUCH_MOVED;1;518.6666666666666;224.66666666666666;1;9;11;33.0;Target:8;Target:8
1499544346626;14;1;DOUBLETAP;SingleFinger;TOUCH_RELEASED;1;518.6666666666666;224.66666666666666;1;11;12;33.0;Target:8;Target:8
1499544346714;14;1;DOUBLETAP;SingleFinger;TOUCH_PRESSED;1;520.6666666666666;217.33333333333334;1;11;0;33.0;Target:8;Target:8
1499544346720;14;1;DOUBLETAP;SingleFinger;TOUCH_MOVED;1;521.3333333333334;217.33333333333334;1;11;0;33.0;Target:8;Target:8
1499544346741;14;1;DOUBLETAP;SingleFinger;TOUCH_MOVED;1;522.0;217.33333333333334;1;12;12;33.0;Target:8;Target:8
1499544346755;14;1;DOUBLETAP;SingleFinger;TOUCH_MOVED;1;522.0;218.0;1;10;13;33.0;Target:8;Target:8
1499544346761;14;1;DOUBLETAP;SingleFinger;TOUCH_MOVED;1;522.6666666666666;218.0;1;10;13;33.0;Target:8;Target:8
1499544346781;14;1;DOUBLETAP;SingleFinger;TOUCH_RELEASED;1;522.6666666666666;218.0;1;10;13;33.0;Target:8;Target:8
1499544346781;14;1;DOUBLETAP;SingleFinger;BUTTON_TRIGGERED;1;522.6666666666666;218.0;1;10;13;33.0;Target:8;Target:8
1499544347342;14;1;DOUBLETAP;SingleFinger;TOUCH_PRESSED;1;698.6666666666666;526.6666666666666;1;10;10;33.0;Target:4;Target:4
1499544347382;14;1;DOUBLETAP;SingleFinger;TOUCH_MOVED;1;698.6666666666666;527.3333333333334;1;9;11;33.0;Target:4;Target:4
1499544347411;14;1;DOUBLETAP;SingleFinger;TOUCH_RELEASED;1;698.6666666666666;527.3333333333334;1;10;12;33.0;Target:4;Target:4
1499544347503;14;1;DOUBLETAP;SingleFinger;TOUCH_PRESSED;1;690.0;535.3333333333334;1;11;0;33.0;Target:4;Target:4
1499544347551;14;1;DOUBLETAP;SingleFinger;TOUCH_MOVED;1;690.0;536.0;1;11;13;33.0;Target:4;Target:4
1499544347572;14;1;DOUBLETAP;SingleFinger;TOUCH_RELEASED;1;690.0;536.0;1;11;13;33.0;Target:4;Target:4
1499544347572;14;1;DOUBLETAP;SingleFinger;BUTTON_TRIGGERED;1;690.0;536.0;1;11;13;33.0;Target:4;Target:4
1499544348220;14;1;DOUBLETAP;SingleFinger;TOUCH_PRESSED;1;638.6666666666666;168.0;1;10;0;27.0;Target:0;Target:0
1499544348231;14;1;DOUBLETAP;SingleFinger;TOUCH_PRESSED;2;649.3333333333334;380.0;2;10;0;27.0;Target:0;None
1499544348281;14;1;DOUBLETAP;SingleFinger;TOUCH_RELEASED;2;649.3333333333334;380.0;2;12;12;27.0;Target:0;None
1499544348301;14;1;DOUBLETAP;SingleFinger;TOUCH_RELEASED;1;638.6666666666666;168.0;1;15;15;27.0;Target:0;Target:0
1499544348391;14;1;DOUBLETAP;SingleFinger;TOUCH_PRESSED;1;636.6666666666666;174.0;1;9;0;27.0;Target:0;Target:0
1499544348395;14;1;DOUBLETAP;SingleFinger;TOUCH_MOVED;1;636.6666666666666;174.66666666666666;1;10;10;27.0;Target:0;Target:0
1499544348410;14;1;DOUBLETAP;SingleFinger;TOUCH_MOVED;1;636.6666666666666;175.33333333333334;1;12;12;27.0;Target:0;Target:0
1499544348420;14;1;DOUBLETAP;SingleFinger;TOUCH_MOVED;1;637.3333333333334;176.0;1;11;12;27.0;Target:0;Target:0
1499544348430;14;1;DOUBLETAP;SingleFinger;TOUCH_MOVED;1;637.3333333333334;176.66666666666666;1;10;12;27.0;Target:0;Target:0
1499544348450;14;1;DOUBLETAP;SingleFinger;TOUCH_RELEASED;1;637.3333333333334;176.66666666666666;1;8;12;27.0;Target:0;Target:0
1499544348450;14;1;DOUBLETAP;SingleFinger;BUTTON_TRIGGERED;1;637.3333333333334;176.66666666666666;1;8;12;27.0;Target:0;Target:0
1499544349070;14;1;DOUBLETAP;SingleFinger;TOUCH_PRESSED;1;580.0;524.6666666666666;1;11;0;27.0;Target:5;Target:5
1499544349142;14;1;DOUBLETAP;SingleFinger;TOUCH_RELEASED;1;580.0;524.6666666666666;1;12;12;27.0;Target:5;Target:5
1499544349219;14;1;DOUBLETAP;SingleFinger;TOUCH_PRESSED;1;583.3333333333334;524.0;1;11;0;27.0;Target:5;Target:5
1499544349312;14;1;DOUBLETAP;SingleFinger;TOUCH_RELEASED;1;583.3333333333334;524.0;1;12;12;27.0;Target:5;Target:5
1499544349312;14;1;DOUBLETAP;SingleFinger;BUTTON_TRIGGERED;1;583.3333333333334;524.0;1;12;12;27.0;Target:5;Target:5
1499544349793;14;1;DOUBLETAP;SingleFinger;TOUCH_PRESSED;1;806.0;387.3333333333333;1;11;0;27.0;Target:1;None
1499544349806;14;1;DOUBLETAP;SingleFinger;TOUCH_PRESSED;2;757.3333333333334;221.33333333333334;2;11;0;27.0;Target:1;Target:1
1499544349826;14;1;DOUBLETAP;SingleFinger;TOUCH_MOVED;1;806.0;388.0;2;10;12;27.0;Target:1;None
1499544349839;14;1;DOUBLETAP;SingleFinger;TOUCH_MOVED;1;806.6666666666666;388.0;2;12;12;27.0;Target:1;None
1499544349845;14;1;DOUBLETAP;SingleFinger;TOUCH_MOVED;1;806.6666666666666;388.6666666666667;2;12;12;27.0;Target:1;None
1499544349878;14;1;DOUBLETAP;SingleFinger;TOUCH_RELEASED;1;806.6666666666666;388.6666666666667;2;10;12;27.0;Target:1;None
1499544349887;14;1;DOUBLETAP;SingleFinger;TOUCH_RELEASED;2;757.3333333333334;221.33333333333334;1;9;12;27.0;Target:1;None
1499544349974;14;1;DOUBLETAP;SingleFinger;TOUCH_PRESSED;1;756.6666666666666;218.66666666666666;1;12;0;27.0;Target:1;Target:1
1499544350046;14;1;DOUBLETAP;SingleFinger;TOUCH_RELEASED;1;756.6666666666666;218.66666666666666;1;11;12;27.0;Target:1;Target:1
1499544350206;14;1;DOUBLETAP;SingleFinger;TOUCH_PRESSED;1;754.0;213.33333333333334;1;10;0;27.0;Target:1;Target:1
1499544350281;14;1;DOUBLETAP;SingleFinger;TOUCH_RELEASED;1;754.0;213.33333333333334;1;11;11;27.0;Target:1;Target:1
1499544350281;14;1;DOUBLETAP;SingleFinger;BUTTON_TRIGGERED;1;754.0;213.33333333333334;1;11;11;27.0;Target:1;Target:1
1499544350837;14;1;DOUBLETAP;SingleFinger;TOUCH_PRESSED;1;492.0;436.6666666666667;1;12;0;27.0;Target:6;Target:6
1499544350910;14;1;DOUBLETAP;SingleFinger;TOUCH_RELEASED;1;492.0;436.6666666666667;1;9;18;27.0;Target:6;Target:6
1499544350985;14;1;DOUBLETAP;SingleFinger;TOUCH_PRESSED;1;487.3333333333333;452.6666666666667;1;8;0;27.0;Target:6;Target:6
1499544351054;14;1;DOUBLETAP;SingleFinger;TOUCH_MOVED;1;488.0;452.6666666666667;1;10;12;27.0;Target:6;Target:6
1499544351073;14;1;DOUBLETAP;SingleFinger;TOUCH_RELEASED;1;488.0;452.6666666666667;1;12;12;27.0;Target:6;Target:6
1499544351073;14;1;DOUBLETAP;SingleFinger;BUTTON_TRIGGERED;1;488.0;452.6666666666667;1;12;12;27.0;Target:6;Target:6
1499544351543;14;1;DOUBLETAP;SingleFinger;TOUCH_PRESSED;1;810.6666666666666;308.6666666666667;1;9;0;27.0;Target:2;Target:2
1499544351568;14;1;DOUBLETAP;SingleFinger;TOUCH_PRESSED;2;811.3333333333334;504.0;2;10;0;27.0;Target:2;None
1499544351582;14;1;DOUBLETAP;SingleFinger;TOUCH_MOVED;1;810.6666666666666;308.0;2;10;10;27.0;Target:2;Target:2
1499544351623;14;1;DOUBLETAP;SingleFinger;TOUCH_RELEASED;2;811.3333333333334;504.0;2;8;11;27.0;Target:2;None
1499544351644;14;1;DOUBLETAP;SingleFinger;TOUCH_RELEASED;1;810.6666666666666;308.0;1;10;11;27.0;Target:2;Target:2
1499544351727;14;1;DOUBLETAP;SingleFinger;TOUCH_PRESSED;1;811.3333333333334;310.0;1;9;0;27.0;Target:2;Target:2
1499544351736;14;1;DOUBLETAP;SingleFinger;TOUCH_MOVED;1;812.0;310.0;1;11;11;27.0;Target:2;Target:2
1499544351748;14;1;DOUBLETAP;SingleFinger;TOUCH_MOVED;1;812.0;310.6666666666667;1;11;11;27.0;Target:2;Target:2
1499544351768;14;1;DOUBLETAP;SingleFinger;TOUCH_MOVED;1;812.0;311.3333333333333;1;12;12;27.0;Target:2;Target:2
1499544351778;14;1;DOUBLETAP;SingleFinger;TOUCH_MOVED;1;812.0;312.0;1;11;12;27.0;Target:2;Target:2
1499544351798;14;1;DOUBLETAP;SingleFinger;TOUCH_RELEASED;1;812.0;312.0;1;12;12;27.0;Target:2;Target:2
1499544351798;14;1;DOUBLETAP;SingleFinger;BUTTON_TRIGGERED;1;812.0;312.0;1;12;12;27.0;Target:2;Target:2
1499544352402;14;1;DOUBLETAP;SingleFinger;TOUCH_PRESSED;1;476.6666666666667;327.3333333333333;1;12;0;27.0;Target:7;Target:7
1499544352478;14;1;DOUBLETAP;SingleFinger;TOUCH_RELEASED;1;476.6666666666667;327.3333333333333;1;12;12;27.0;Target:7;Target:7
1499544352551;14;1;DOUBLETAP;SingleFinger;TOUCH_PRESSED;1;477.3333333333333;328.6666666666667;1;7;0;27.0;Target:7;Target:7
1499544352611;14;1;DOUBLETAP;SingleFinger;TOUCH_MOVED;1;478.0;328.6666666666667;1;10;12;27.0;Target:7;Target:7
1499544352642;14;1;DOUBLETAP;SingleFinger;TOUCH_RELEASED;1;478.0;328.6666666666667;1;11;14;27.0;Target:7;Target:7
1499544352642;14;1;DOUBLETAP;SingleFinger;BUTTON_TRIGGERED;1;478.0;328.6666666666667;1;11;14;27.0;Target:7;Target:7
1499544353134;14;1;DOUBLETAP;SingleFinger;TOUCH_PRESSED;1;809.3333333333334;450.6666666666667;1;11;0;27.0;Target:3;Target:3
1499544353220;14;1;DOUBLETAP;SingleFinger;TOUCH_RELEASED;1;809.3333333333334;450.6666666666667;1;11;12;27.0;Target:3;Target:3
1499544353314;14;1;DOUBLETAP;SingleFinger;TOUCH_PRESSED;1;802.6666666666666;459.3333333333333;1;11;0;27.0;Target:3;Target:3
1499544353318;14;1;DOUBLETAP;SingleFinger;TOUCH_MOVED;1;802.0;459.3333333333333;1;11;0;27.0;Target:3;Target:3
1499544353323;14;1;DOUBLETAP;SingleFinger;TOUCH_MOVED;1;801.3333333333334;459.3333333333333;1;11;11;27.0;Target:3;Target:3
1499544353329;14;1;DOUBLETAP;SingleFinger;TOUCH_MOVED;1;801.3333333333334;460.0;1;11;11;27.0;Target:3;Target:3
1499544353334;14;1;DOUBLETAP;SingleFinger;TOUCH_MOVED;1;800.6666666666666;460.0;1;11;11;27.0;Target:3;Target:3
1499544353339;14;1;DOUBLETAP;SingleFinger;TOUCH_MOVED;1;800.0;460.0;1;11;11;27.0;Target:3;Target:3
1499544353344;14;1;DOUBLETAP;SingleFinger;TOUCH_MOVED;1;800.0;460.6666666666667;1;10;11;27.0;Target:3;Target:3
1499544353354;14;1;DOUBLETAP;SingleFinger;TOUCH_MOVED;1;799.3333333333334;461.3333333333333;1;11;11;27.0;Target:3;Target:3
1499544353359;14;1;DOUBLETAP;SingleFinger;TOUCH_MOVED;1;798.6666666666666;461.3333333333333;1;11;11;27.0;Target:3;Target:3
1499544353379;14;1;DOUBLETAP;SingleFinger;TOUCH_RELEASED;1;798.6666666666666;461.3333333333333;1;12;12;27.0;Target:3;Target:3
1499544353379;14;1;DOUBLETAP;SingleFinger;BUTTON_TRIGGERED;1;798.6666666666666;461.3333333333333;1;12;12;27.0;Target:3;Target:3
1499544354018;14;1;DOUBLETAP;SingleFinger;TOUCH_PRESSED;1;530.6666666666666;191.33333333333334;1;11;0;27.0;Target:8;None
1499544354052;14;1;DOUBLETAP;SingleFinger;TOUCH_MOVED;1;530.6666666666666;190.66666666666666;1;12;12;27.0;Target:8;None
1499544354097;14;1;DOUBLETAP;SingleFinger;TOUCH_RELEASED;1;530.6666666666666;190.66666666666666;1;10;12;27.0;Target:8;None
1499544354176;14;1;DOUBLETAP;SingleFinger;TOUCH_PRESSED;1;530.6666666666666;193.33333333333334;1;10;0;27.0;Target:8;None
1499544354181;14;1;DOUBLETAP;SingleFinger;TOUCH_MOVED;1;530.6666666666666;194.0;1;12;12;27.0;Target:8;None
1499544354189;14;1;DOUBLETAP;SingleFinger;TOUCH_MOVED;1;530.6666666666666;194.66666666666666;1;12;12;27.0;Target:8;None
1499544354202;14;1;DOUBLETAP;SingleFinger;TOUCH_MOVED;1;530.0;195.33333333333334;1;10;12;27.0;Target:8;None
1499544354209;14;1;DOUBLETAP;SingleFinger;TOUCH_MOVED;1;530.6666666666666;196.0;1;10;12;27.0;Target:8;None
1499544354214;14;1;DOUBLETAP;SingleFinger;TOUCH_MOVED;1;530.6666666666666;196.66666666666666;1;14;14;27.0;Target:8;None
1499544354219;14;1;DOUBLETAP;SingleFinger;TOUCH_MOVED;1;530.6666666666666;197.33333333333334;1;14;14;27.0;Target:8;None
1499544354239;14;1;DOUBLETAP;SingleFinger;TOUCH_RELEASED;1;530.6666666666666;197.33333333333334;1;9;14;27.0;Target:8;None
1499544354471;14;1;DOUBLETAP;SingleFinger;TOUCH_PRESSED;1;514.6666666666666;240.0;1;11;0;27.0;Target:8;Target:8
1499544354485;14;1;DOUBLETAP;SingleFinger;TOUCH_MOVED;1;514.6666666666666;239.33333333333334;1;12;12;27.0;Target:8;Target:8
1499544354525;14;1;DOUBLETAP;SingleFinger;TOUCH_MOVED;1;515.3333333333334;239.33333333333334;1;12;13;27.0;Target:8;Target:8
1499544354545;14;1;DOUBLETAP;SingleFinger;TOUCH_RELEASED;1;515.3333333333334;239.33333333333334;1;10;13;27.0;Target:8;Target:8
1499544354617;14;1;DOUBLETAP;SingleFinger;TOUCH_PRESSED;1;517.3333333333334;228.0;1;12;0;27.0;Target:8;Target:8
1499544354712;14;1;DOUBLETAP;SingleFinger;TOUCH_RELEASED;1;517.3333333333334;228.0;1;11;12;27.0;Target:8;Target:8
1499544354712;14;1;DOUBLETAP;SingleFinger;BUTTON_TRIGGERED;1;517.3333333333334;228.0;1;11;12;27.0;Target:8;Target:8
1499544355298;14;1;DOUBLETAP;SingleFinger;TOUCH_PRESSED;1;712.6666666666666;521.3333333333334;1;12;0;27.0;Target:4;Target:4
1499544355370;14;1;DOUBLETAP;SingleFinger;TOUCH_RELEASED;1;712.6666666666666;521.3333333333334;1;7;13;27.0;Target:4;Target:4
1499544355451;14;1;DOUBLETAP;SingleFinger;TOUCH_PRESSED;1;679.3333333333334;536.0;1;12;0;27.0;Target:4;Target:4
1499544355525;14;1;DOUBLETAP;SingleFinger;TOUCH_RELEASED;1;679.3333333333334;536.0;1;11;13;27.0;Target:4;Target:4
1499544355525;14;1;DOUBLETAP;SingleFinger;BUTTON_TRIGGERED;1;679.3333333333334;536.0;1;11;13;27.0;Target:4;Target:4
1499544356228;14;1;DOUBLETAP;SingleFinger;TOUCH_PRESSED;1;642.0;168.0;1;11;0;20.0;Target:0;Target:0
1499544356261;14;1;DOUBLETAP;SingleFinger;TOUCH_MOVED;1;642.0;167.33333333333334;1;11;11;20.0;Target:0;Target:0
1499544356322;14;1;DOUBLETAP;SingleFinger;TOUCH_RELEASED;1;642.0;167.33333333333334;1;11;12;20.0;Target:0;Target:0
1499544356419;14;1;DOUBLETAP;SingleFinger;TOUCH_PRESSED;1;638.0;171.33333333333334;1;11;0;20.0;Target:0;Target:0
1499544356425;14;1;DOUBLETAP;SingleFinger;TOUCH_MOVED;1;638.0;172.0;1;10;10;20.0;Target:0;Target:0
1499544356432;14;1;DOUBLETAP;SingleFinger;TOUCH_MOVED;1;637.3333333333334;172.66666666666666;1;9;10;20.0;Target:0;Target:0
1499544356442;14;1;DOUBLETAP;SingleFinger;TOUCH_MOVED;1;637.3333333333334;173.33333333333334;1;10;10;20.0;Target:0;Target:0
1499544356446;14;1;DOUBLETAP;SingleFinger;TOUCH_MOVED;1;637.3333333333334;174.0;1;10;10;20.0;Target:0;Target:0
1499544356452;14;1;DOUBLETAP;SingleFinger;TOUCH_MOVED;1;636.6666666666666;174.66666666666666;1;10;10;20.0;Target:0;Target:0
1499544356472;14;1;DOUBLETAP;SingleFinger;TOUCH_RELEASED;1;636.6666666666666;174.66666666666666;1;12;12;20.0;Target:0;Target:0
1499544356472;14;1;DOUBLETAP;SingleFinger;BUTTON_TRIGGERED;1;636.6666666666666;174.66666666666666;1;12;12;20.0;Target:0;Target:0
1499544357145;14;1;DOUBLETAP;SingleFinger;TOUCH_PRESSED;1;577.3333333333334;528.0;1;12;0;20.0;Target:5;Target:5
1499544357229;14;1;DOUBLETAP;SingleFinger;TOUCH_RELEASED;1;577.3333333333334;528.0;1;11;11;20.0;Target:5;Target:5
1499544357323;14;1;DOUBLETAP;SingleFinger;TOUCH_PRESSED;1;576.0;530.0;1;11;0;20.0;Target:5;Target:5
1499544357327;14;1;DOUBLETAP;SingleFinger;TOUCH_MOVED;1;576.0;530.6666666666666;1;11;0;20.0;Target:5;Target:5
1499544357333;14;1;DOUBLETAP;SingleFinger;TOUCH_MOVED;1;575.3333333333334;530.6666666666666;1;12;12;20.0;Target:5;Target:5
1499544357337;14;1;DOUBLETAP;SingleFinger;TOUCH_MOVED;1;575.3333333333334;531.3333333333334;1;12;12;20.0;Target:5;Target:5
1499544357353;14;1;DOUBLETAP;SingleFinger;TOUCH_MOVED;1;575.3333333333334;532.0;1;10;12;20.0;Target:5;Target:5
1499544357363;14;1;DOUBLETAP;SingleFinger;TOUCH_MOVED;1;575.3333333333334;532.6666666666666;1;11;12;20.0;Target:5;Target:5
1499544357382;14;1;DOUBLETAP;SingleFinger;TOUCH_RELEASED;1;575.3333333333334;532.6666666666666;1;10;12;20.0;Target:5;Target:5
1499544357382;14;1;DOUBLETAP;SingleFinger;BUTTON_TRIGGERED;1;575.3333333333334;532.6666666666666;1;10;12;20.0;Target:5;Target:5
1499544357934;14;1;DOUBLETAP;SingleFinger;TOUCH_PRESSED;1;748.0;202.0;1;11;0;20.0;Target:1;None
1499544358017;14;1;DOUBLETAP;SingleFinger;TOUCH_RELEASED;1;748.0;202.0;1;12;12;20.0;Target:1;None
1499544358109;14;1;DOUBLETAP;SingleFinger;TOUCH_PRESSED;1;746.6666666666666;204.0;1;12;0;20.0;Target:1;None
1499544358112;14;1;DOUBLETAP;SingleFinger;TOUCH_MOVED;1;747.3333333333334;204.0;1;11;11;20.0;Target:1;None
1499544358119;14;1;DOUBLETAP;SingleFinger;TOUCH_MOVED;1;747.3333333333334;204.66666666666666;1;11;11;20.0;Target:1;None
1499544358129;14;1;DOUBLETAP;SingleFinger;TOUCH_MOVED;1;747.3333333333334;205.33333333333334;1;10;11;20.0;Target:1;None
1499544358133;14;1;DOUBLETAP;SingleFinger;TOUCH_MOVED;1;748.0;206.0;1;12;12;20.0;Target:1;None
1499544358142;14;1;DOUBLETAP;SingleFinger;TOUCH_MOVED;1;748.0;206.66666666666666;1;10;12;20.0;Target:1;None
1499544358149;14;1;DOUBLETAP;SingleFinger;TOUCH_MOVED;1;747.3333333333334;207.33333333333334;1;10;12;20.0;Target:1;None
1499544358168;14;1;DOUBLETAP;SingleFinger;TOUCH_RELEASED;1;747.3333333333334;207.33333333333334;1;12;12;20.0;Target:1;None
1499544358439;14;1;DOUBLETAP;SingleFinger;TOUCH_PRESSED;1;762.6666666666666;222.0;1;12;0;20.0;Target:1;Target:1
1499544358490;14;1;DOUBLETAP;SingleFinger;TOUCH_MOVED;1;762.6666666666666;222.66666666666666;1;11;11;20.0;Target:1;Target:1
1499544358509;14;1;DOUBLETAP;SingleFinger;TOUCH_RELEASED;1;762.6666666666666;222.66666666666666;1;13;13;20.0;Target:1;Target:1
1499544358579;14;1;DOUBLETAP;SingleFinger;TOUCH_PRESSED;1;755.3333333333334;219.33333333333334;1;11;0;20.0;Target:1;Target:1
1499544358664;14;1;DOUBLETAP;SingleFinger;TOUCH_RELEASED;1;755.3333333333334;219.33333333333334;1;9;12;20.0;Target:1;Target:1
1499544358664;14;1;DOUBLETAP;SingleFinger;BUTTON_TRIGGERED;1;755.3333333333334;219.33333333333334;1;9;12;20.0;Target:1;Target:1
1499544359175;14;1;DOUBLETAP;SingleFinger;TOUCH_PRESSED;1;480.0;454.0;1;10;0;20.0;Target:6;Target:6
1499544359264;14;1;DOUBLETAP;SingleFinger;TOUCH_RELEASED;1;480.0;454.0;1;10;12;20.0;Target:6;Target:6
1499544359359;14;1;DOUBLETAP;SingleFinger;TOUCH_PRESSED;1;490.0;452.6666666666667;1;12;0;20.0;Target:6;Target:6
1499544359372;14;1;DOUBLETAP;SingleFinger;TOUCH_MOVED;1;490.6666666666667;452.6666666666667;1;11;11;20.0;Target:6;Target:6
1499544359378;14;1;DOUBLETAP;SingleFinger;TOUCH_MOVED;1;490.6666666666667;452.0;1;11;11;20.0;Target:6;Target:6
1499544359407;14;1;DOUBLETAP;SingleFinger;TOUCH_RELEASED;1;490.6666666666667;452.0;1;9;11;20.0;Target:6;Target:6
1499544359407;14;1;DOUBLETAP;SingleFinger;BUTTON_TRIGGERED;1;490.6666666666667;452.0;1;9;11;20.0;Target:6;Target:6
1499544359890;14;1;DOUBLETAP;SingleFinger;TOUCH_PRESSED;1;816.6666666666666;326.6666666666667;1;10;0;20.0;Target:2;Target:2
1499544359970;14;1;DOUBLETAP;SingleFinger;TOUCH_RELEASED;1;816.6666666666666;326.6666666666667;1;12;12;20.0;Target:2;Target:2
1499544360074;14;1;DOUBLETAP;SingleFinger;TOUCH_PRESSED;1;812.6666666666666;328.6666666666667;1;10;0;20.0;Target:2;Target:2
1499544360100;14;1;DOUBLETAP;SingleFinger;TOUCH_MOVED;1;812.0;328.6666666666667;1;12;12;20.0;Target:2;Target:2
1499544360120;14;1;DOUBLETAP;SingleFinger;TOUCH_RELEASED;1;812.0;328.6666666666667;1;10;12;20.0;Target:2;Target:2
1499544360120;14;1;DOUBLETAP;SingleFinger;BUTTON_TRIGGERED;1;812.0;328.6666666666667;1;10;12;20.0;Target:2;Target:2
1499544360648;14;1;DOUBLETAP;SingleFinger;TOUCH_PRESSED;1;487.3333333333333;316.6666666666667;1;11;0;20.0;Target:7;None
1499544360700;14;1;DOUBLETAP;SingleFinger;TOUCH_MOVED;1;487.3333333333333;317.3333333333333;1;12;13;20.0;Target:7;None
1499544360721;14;1;DOUBLETAP;SingleFinger;TOUCH_RELEASED;1;487.3333333333333;317.3333333333333;1;10;13;20.0;Target:7;None
1499544360806;14;1;DOUBLETAP;SingleFinger;TOUCH_PRESSED;1;462.0;338.6666666666667;1;11;0;20.0;Target:7;Target:7
1499544360898;14;1;DOUBLETAP;SingleFinger;TOUCH_RELEASED;1;462.0;338.6666666666667;1;10;13;20.0;Target:7;Target:7
1499544361818;14;1;DOUBLETAP;SingleFinger;TOUCH_PRESSED;1;460.6666666666667;347.3333333333333;1;11;0;20.0;Target:7;Target:7
1499544361850;14;1;DOUBLETAP;SingleFinger;TOUCH_MOVED;1;460.6666666666667;346.6666666666667;1;11;12;20.0;Target:7;Target:7
1499544361879;14;1;DOUBLETAP;SingleFinger;TOUCH_MOVED;1;460.6666666666667;346.0;1;10;12;20.0;Target:7;Target:7
1499544361900;14;1;DOUBLETAP;SingleFinger;TOUCH_RELEASED;1;460.6666666666667;346.0;1;10;12;20.0;Target:7;Target:7
1499544361968;14;1;DOUBLETAP;SingleFinger;TOUCH_PRESSED;1;460.6666666666667;338.6666666666667;1;11;0;20.0;Target:7;Target:7
1499544362064;14;1;DOUBLETAP;SingleFinger;TOUCH_RELEASED;1;460.6666666666667;338.6666666666667;1;11;14;20.0;Target:7;Target:7
1499544362065;14;1;DOUBLETAP;SingleFinger;BUTTON_TRIGGERED;1;460.6666666666667;338.6666666666667;1;11;14;20.0;Target:7;Target:7
1499544362649;14;1;DOUBLETAP;SingleFinger;TOUCH_PRESSED;1;790.0;460.0;1;10;0;20.0;Target:3;Target:3
1499544362740;14;1;DOUBLETAP;SingleFinger;TOUCH_RELEASED;1;790.0;460.0;1;12;12;20.0;Target:3;Target:3
1499544362900;14;1;DOUBLETAP;SingleFinger;TOUCH_PRESSED;1;800.0;453.3333333333333;1;9;0;20.0;Target:3;Target:3
1499544362971;14;1;DOUBLETAP;SingleFinger;TOUCH_MOVED;1;800.0;454.0;1;9;12;20.0;Target:3;Target:3
1499544362992;14;1;DOUBLETAP;SingleFinger;TOUCH_RELEASED;1;800.0;454.0;1;11;12;20.0;Target:3;Target:3
1499544362992;14;1;DOUBLETAP;SingleFinger;BUTTON_TRIGGERED;1;800.0;454.0;1;11;12;20.0;Target:3;Target:3
1499544363625;14;1;DOUBLETAP;SingleFinger;TOUCH_PRESSED;1;526.0;225.33333333333334;1;10;0;20.0;Target:8;Target:8
1499544363699;14;1;DOUBLETAP;SingleFinger;TOUCH_RELEASED;1;526.0;225.33333333333334;1;11;12;20.0;Target:8;Target:8
1499544363769;14;1;DOUBLETAP;SingleFinger;TOUCH_PRESSED;1;523.3333333333334;216.66666666666666;1;10;0;20.0;Target:8;Target:8
1499544363825;14;1;DOUBLETAP;SingleFinger;TOUCH_MOVED;1;522.6666666666666;217.33333333333334;1;10;12;20.0;Target:8;Target:8
1499544363830;14;1;DOUBLETAP;SingleFinger;TOUCH_MOVED;1;522.6666666666666;218.0;1;11;12;20.0;Target:8;Target:8
1499544363850;14;1;DOUBLETAP;SingleFinger;TOUCH_RELEASED;1;522.6666666666666;218.0;1;11;12;20.0;Target:8;Target:8
1499544363850;14;1;DOUBLETAP;SingleFinger;BUTTON_TRIGGERED;1;522.6666666666666;218.0;1;11;12;20.0;Target:8;Target:8
1499544364356;14;1;DOUBLETAP;SingleFinger;TOUCH_PRESSED;1;688.0;516.6666666666666;1;10;0;20.0;Target:4;Target:4
1499544364420;14;1;DOUBLETAP;SingleFinger;TOUCH_MOVED;1;688.0;517.3333333333334;1;12;12;20.0;Target:4;Target:4
1499544364425;14;1;DOUBLETAP;SingleFinger;TOUCH_MOVED;1;687.3333333333334;517.3333333333334;1;12;12;20.0;Target:4;Target:4
1499544364450;14;1;DOUBLETAP;SingleFinger;TOUCH_RELEASED;1;687.3333333333334;517.3333333333334;1;10;13;20.0;Target:4;Target:4
1499544364531;14;1;DOUBLETAP;SingleFinger;TOUCH_PRESSED;1;696.0;518.6666666666666;1;10;0;20.0;Target:4;Target:4
1499544364608;14;1;DOUBLETAP;SingleFinger;TOUCH_MOVED;1;695.3333333333334;518.6666666666666;1;8;11;20.0;Target:4;Target:4
1499544364630;14;1;DOUBLETAP;SingleFinger;TOUCH_RELEASED;1;695.3333333333334;518.6666666666666;1;11;11;20.0;Target:4;Target:4
1499544364630;14;1;DOUBLETAP;SingleFinger;BUTTON_TRIGGERED;1;695.3333333333334;518.6666666666666;1;11;11;20.0;Target:4;Target:4
