Timestamp;Participant;Study;Method;Variant;TouchEvent;TouchId;TouchX;TouchY;TouchCount;Pressure;MaxPressure;TargetRadius;WidgetHighlighted;WidgetHovered
1499551789248;10;1;DWELL;SingleFinger;TOUCH_PRESSED;1;643.3333333333334;192.66666666666666;1;10;0;33.0;Target:0;Target:0
1499551789333;10;1;DWELL;SingleFinger;TOUCH_MOVED;1;642.6666666666666;192.66666666666666;1;9;13;33.0;Target:0;Target:0
1499551789379;10;1;DWELL;SingleFinger;TOUCH_MOVED;1;642.6666666666666;192.0;1;11;13;33.0;Target:0;Target:0
1499551789516;10;1;DWELL;SingleFinger;TOUCH_MOVED;1;642.6666666666666;191.33333333333334;1;11;14;33.0;Target:0;Target:0
1499551789600;10;1;DWELL;SingleFinger;TOUCH_MOVED;1;642.0;191.33333333333334;1;10;14;33.0;Target:0;Target:0
1499551789758;10;1;DWELL;SingleFinger;TOUCH_MOVED;1;642.0;190.66666666666666;1;10;14;33.0;Target:0;Target:0
1499551790320;10;1;DWELL;SingleFinger;TOUCH_MOVED;1;642.0;190.0;1;11;14;33.0;Target:0;Target:0
1499551790340;10;1;DWELL;SingleFinger;TOUCH_RELEASED;1;642.0;190.0;1;11;14;33.0;Target:0;Target:0
1499551790341;10;1;DWELL;SingleFinger;BUTTON_TRIGGERED;1;642.0;190.0;1;11;14;33.0;Target:0;Target:0
1499551791396;10;1;DWELL;SingleFinger;TOUCH_PRESSED;1;581.3333333333334;518.6666666666666;1;11;0;33.0;Target:5;Target:5
1499551791476;10;1;DWELL;SingleFinger;TOUCH_MOVED;1;581.3333333333334;519.3333333333334;1;10;12;33.0;Target:5;Target:5
1499551791527;10;1;DWELL;SingleFinger;TOUCH_MOVED;1;580.6666666666666;519.3333333333334;1;10;12;33.0;Target:5;Target:5
1499551791632;10;1;DWELL;SingleFinger;TOUCH_MOVED;1;580.6666666666666;520.0;1;11;12;33.0;Target:5;Target:5
1499551792012;10;1;DWELL;SingleFinger;TOUCH_MOVED;1;580.6666666666666;520.6666666666666;1;12;15;33.0;Target:5;Target:5
1499551792463;10;1;DWELL;SingleFinger;TOUCH_RELEASED;1;580.6666666666666;520.6666666666666;1;11;15;33.0;Target:5;Target:5
1499551792463;10;1;DWELL;SingleFinger;BUTTON_TRIGGERED;1;580.6666666666666;520.6666666666666;1;11;15;33.0;Target:5;Target:5
1499551793334;10;1;DWELL;SingleFinger;TOUCH_PRESSED;1;760.0;228.66666666666666;1;11;0;33.0;Target:1;Target:1
1499551793386;10;1;DWELL;SingleFinger;TOUCH_MOVED;1;759.3333333333334;228.66666666666666;1;11;13;33.0;Target:1;Target:1
1499551793537;10;1;DWELL;SingleFinger;TOUCH_MOVED;1;758.6666666666666;228.66666666666666;1;13;13;33.0;Target:1;Target:1
1499551794002;10;1;DWELL;SingleFinger;TOUCH_MOVED;1;758.0;228.66666666666666;1;10;15;33.0;Target:1;Target:1
1499551794210;10;1;DWELL;SingleFinger;TOUCH_RELEASED;1;758.0;228.66666666666666;1;11;18;33.0;Target:1;Target:1
1499551794211;10;1;DWELL;SingleFinger;BUTTON_TRIGGERED;1;758.0;228.66666666666666;1;11;18;33.0;Target:1;Target:1
1499551795066;10;1;DWELL;SingleFinger;TOUCH_PRESSED;1;488.6666666666667;443.3333333333333;1;10;0;33.0;Target:6;Target:6
1499551795142;10;1;DWELL;SingleFinger;TOUCH_MOVED;1;488.6666666666667;444.0;1;11;13;33.0;Target:6;Target:6
1499551795279;10;1;DWELL;SingleFinger;TOUCH_MOVED;1;488.6666666666667;444.6666666666667;1;11;14;33.0;Target:6;Target:6
1499551795921;10;1;DWELL;SingleFinger;TOUCH_RELEASED;1;488.6666666666667;444.6666666666667;1;10;14;33.0;Target:6;Target:6
1499551795921;10;1;DWELL;SingleFinger;BUTTON_TRIGGERED;1;488.6666666666667;444.6666666666667;1;10;14;33.0;Target:6;Target:6
1499551796510;10;1;DWELL;SingleFinger;TOUCH_PRESSED;1;820.0;331.3333333333333;1;11;0;33.0;Target:2;Target:2
1499551796665;10;1;DWELL;SingleFinger;TOUCH_MOVED;1;820.0;332.0;1;12;14;33.0;Target:2;Target:2
1499551797124;10;1;DWELL;SingleFinger;TOUCH_MOVED;1;819.3333333333334;332.0;1;10;15;33.0;Target:2;Target:2
1499551797618;10;1;DWELL;SingleFinger;TOUCH_RELEASED;1;819.3333333333334;332.0;1;11;15;33.0;Target:2;Target:2
1499551797619;10;1;DWELL;SingleFinger;BUTTON_TRIGGERED;1;819.3333333333334;332.0;1;10;15;33.0;Target:2;Target:2
1499551798440;10;1;DWELL;SingleFinger;TOUCH_PRESSED;1;469.3333333333333;328.6666666666667;1;11;0;33.0;Target:7;Target:7
1499551798521;10;1;DWELL;SingleFinger;TOUCH_MOVED;1;469.3333333333333;329.3333333333333;1;11;11;33.0;Target:7;Target:7
1499551798652;10;1;DWELL;SingleFinger;TOUCH_MOVED;1;469.3333333333333;330.0;1;10;14;33.0;Target:7;Target:7
1499551799346;10;1;DWELL;SingleFinger;TOUCH_RELEASED;1;469.3333333333333;330.0;1;10;14;33.0;Target:7;Target:7
1499551799346;10;1;DWELL;SingleFinger;BUTTON_TRIGGERED;1;469.3333333333333;330.0;1;10;14;33.0;Target:7;Target:7
1499551799985;10;1;DWELL;SingleFinger;TOUCH_PRESSED;1;791.3333333333334;446.6666666666667;1;12;0;33.0;Target:3;Target:3
1499551801006;10;1;DWELL;SingleFinger;TOUCH_RELEASED;1;791.3333333333334;446.6666666666667;1;11;13;33.0;Target:3;Target:3
1499551801006;10;1;DWELL;SingleFinger;BUTTON_TRIGGERED;1;791.3333333333334;446.6666666666667;1;11;13;33.0;Target:3;Target:3
1499551801660;10;1;DWELL;SingleFinger;TOUCH_PRESSED;1;537.3333333333334;222.66666666666666;1;11;0;33.0;Target:8;Target:8
1499551802504;10;1;DWELL;SingleFinger;TOUCH_RELEASED;1;537.3333333333334;222.66666666666666;1;10;14;33.0;Target:8;Target:8
1499551802505;10;1;DWELL;SingleFinger;BUTTON_TRIGGERED;1;537.3333333333334;222.66666666666666;1;10;14;33.0;Target:8;Target:8
1499551803350;10;1;DWELL;SingleFinger;TOUCH_PRESSED;1;707.3333333333334;522.0;1;9;0;33.0;Target:4;Target:4
1499551804272;10;1;DWELL;SingleFinger;TOUCH_RELEASED;1;707.3333333333334;522.0;1;10;15;33.0;Target:4;Target:4
1499551804272;10;1;DWELL;SingleFinger;BUTTON_TRIGGERED;1;707.3333333333334;522.0;1;10;15;33.0;Target:4;Target:4
1499551805004;10;1;DWELL;SingleFinger;TOUCH_PRESSED;1;647.3333333333334;166.66666666666666;1;14;0;27.0;Target:0;Target:0
1499551805043;10;1;DWELL;SingleFinger;TOUCH_MOVED;1;647.3333333333334;167.33333333333334;1;10;11;27.0;Target:0;Target:0
1499551805181;10;1;DWELL;SingleFinger;TOUCH_MOVED;1;647.3333333333334;168.0;1;12;13;27.0;Target:0;Target:0
1499551805312;10;1;DWELL;SingleFinger;TOUCH_MOVED;1;647.3333333333334;168.66666666666666;1;12;13;27.0;Target:0;Target:0
1499551805640;10;1;DWELL;SingleFinger;TOUCH_MOVED;1;647.3333333333334;169.33333333333334;1;11;15;27.0;Target:0;Target:0
1499551805900;10;1;DWELL;SingleFinger;TOUCH_RELEASED;1;647.3333333333334;169.33333333333334;1;10;15;27.0;Target:0;Target:0
1499551805900;10;1;DWELL;SingleFinger;BUTTON_TRIGGERED;1;647.3333333333334;169.33333333333334;1;10;15;27.0;Target:0;Target:0
1499551806687;10;1;DWELL;SingleFinger;TOUCH_PRESSED;1;574.0;531.3333333333334;1;11;0;27.0;Target:5;Target:5
1499551807579;10;1;DWELL;SingleFinger;TOUCH_RELEASED;1;574.0;531.3333333333334;1;12;14;27.0;Target:5;Target:5
1499551807579;10;1;DWELL;SingleFinger;BUTTON_TRIGGERED;1;574.0;531.3333333333334;1;12;14;27.0;Target:5;Target:5
1499551808300;10;1;DWELL;SingleFinger;TOUCH_PRESSED;1;751.3333333333334;228.66666666666666;1;11;0;27.0;Target:1;Target:1
1499551809247;10;1;DWELL;SingleFinger;TOUCH_RELEASED;1;751.3333333333334;228.66666666666666;1;12;16;27.0;Target:1;Target:1
1499551809247;10;1;DWELL;SingleFinger;BUTTON_TRIGGERED;1;751.3333333333334;228.66666666666666;1;12;16;27.0;Target:1;Target:1
1499551810070;10;1;DWELL;SingleFinger;TOUCH_PRESSED;1;487.3333333333333;442.6666666666667;1;10;0;27.0;Target:6;Target:6
1499551810135;10;1;DWELL;SingleFinger;TOUCH_MOVED;1;487.3333333333333;443.3333333333333;1;11;12;27.0;Target:6;Target:6
1499551810271;10;1;DWELL;SingleFinger;TOUCH_MOVED;1;487.3333333333333;444.0;1;12;13;27.0;Target:6;Target:6
1499551810410;10;1;DWELL;SingleFinger;TOUCH_MOVED;1;487.3333333333333;444.6666666666667;1;10;13;27.0;Target:6;Target:6
1499551810652;10;1;DWELL;SingleFinger;TOUCH_MOVED;1;487.3333333333333;445.3333333333333;1;11;13;27.0;Target:6;Target:6
1499551811009;10;1;DWELL;SingleFinger;TOUCH_RELEASED;1;487.3333333333333;445.3333333333333;1;12;13;27.0;Target:6;Target:6
1499551811009;10;1;DWELL;SingleFinger;BUTTON_TRIGGERED;1;487.3333333333333;445.3333333333333;1;12;13;27.0;Target:6;Target:6
1499551811669;10;1;DWELL;SingleFinger;TOUCH_PRESSED;1;821.3333333333334;330.6666666666667;1;11;0;27.0;Target:2;Target:2
1499551812731;10;1;DWELL;SingleFinger;TOUCH_RELEASED;1;821.3333333333334;330.6666666666667;1;11;15;27.0;Target:2;Target:2
1499551812731;10;1;DWELL;SingleFinger;BUTTON_TRIGGERED;1;821.3333333333334;330.6666666666667;1;11;15;27.0;Target:2;Target:2
1499551813333;10;1;DWELL;SingleFinger;TOUCH_PRESSED;1;470.6666666666667;320.6666666666667;1;12;0;27.0;Target:7;Target:7
1499551813398;10;1;DWELL;SingleFinger;TOUCH_MOVED;1;470.6666666666667;321.3333333333333;1;11;13;27.0;Target:7;Target:7
1499551813529;10;1;DWELL;SingleFinger;TOUCH_MOVED;1;470.6666666666667;322.0;1;11;15;27.0;Target:7;Target:7
1499551813667;10;1;DWELL;SingleFinger;TOUCH_MOVED;1;470.6666666666667;322.6666666666667;1;10;15;27.0;Target:7;Target:7
1499551814209;10;1;DWELL;SingleFinger;TOUCH_RELEASED;1;470.6666666666667;322.6666666666667;1;12;15;27.0;Target:7;Target:7
1499551814209;10;1;DWELL;SingleFinger;BUTTON_TRIGGERED;1;470.6666666666667;322.6666666666667;1;12;15;27.0;Target:7;Target:7
1499551814831;10;1;DWELL;SingleFinger;TOUCH_PRESSED;1;788.6666666666666;456.0;1;13;0;27.0;Target:3;Target:3
1499551814923;10;1;DWELL;SingleFinger;TOUCH_MOVED;1;789.3333333333334;456.0;1;9;13;27.0;Target:3;Target:3
1499551815752;10;1;DWELL;SingleFinger;TOUCH_RELEASED;1;789.3333333333334;456.0;1;11;15;27.0;Target:3;Target:3
1499551815752;10;1;DWELL;SingleFinger;BUTTON_TRIGGERED;1;789.3333333333334;456.0;1;11;15;27.0;Target:3;Target:3
1499551816489;10;1;DWELL;SingleFinger;TOUCH_PRESSED;1;533.3333333333334;223.33333333333334;1;10;0;27.0;Target:8;Target:8
1499551816817;10;1;DWELL;SingleFinger;TOUCH_MOVED;1;532.6666666666666;223.33333333333334;1;11;15;27.0;Target:8;Target:8
1499551816954;10;1;DWELL;SingleFinger;TOUCH_MOVED;1;532.0;223.33333333333334;1;11;15;27.0;Target:8;Target:8
1499551817085;10;1;DWELL;SingleFinger;TOUCH_MOVED;1;531.3333333333334;223.33333333333334;1;11;15;27.0;Target:8;Target:8
1499551817295;10;1;DWELL;SingleFinger;TOUCH_MOVED;1;530.6666666666666;223.33333333333334;1;11;15;27.0;Target:8;Target:8
1499551817347;10;1;DWELL;SingleFinger;TOUCH_MOVED;1;530.6666666666666;222.66666666666666;1;10;15;27.0;Target:8;Target:8
1499551817362;10;1;DWELL;SingleFinger;TOUCH_MOVED;1;531.3333333333334;222.66666666666666;1;11;15;27.0;Target:8;Target:8
1499551817382;10;1;DWELL;SingleFinger;TOUCH_RELEASED;1;531.3333333333334;222.66666666666666;1;11;15;27.0;Target:8;Target:8
1499551817383;10;1;DWELL;SingleFinger;BUTTON_TRIGGERED;1;531.3333333333334;222.66666666666666;1;11;15;27.0;Target:8;Target:8
1499551818267;10;1;DWELL;SingleFinger;TOUCH_PRESSED;1;704.0;532.0;1;13;0;27.0;Target:4;Target:4
1499551819177;10;1;DWELL;SingleFinger;TOUCH_MOVED;1;704.0;531.3333333333334;1;12;13;27.0;Target:4;Target:4
1499551819197;10;1;DWELL;SingleFinger;TOUCH_RELEASED;1;704.0;531.3333333333334;1;10;13;27.0;Target:4;Target:4
1499551819197;10;1;DWELL;SingleFinger;BUTTON_TRIGGERED;1;704.0;531.3333333333334;1;10;13;27.0;Target:4;Target:4
1499551819955;10;1;DWELL;SingleFinger;TOUCH_PRESSED;1;638.0;167.33333333333334;1;11;0;20.0;Target:0;Target:0
1499551820008;10;1;DWELL;SingleFinger;TOUCH_MOVED;1;638.0;168.0;1;10;12;20.0;Target:0;Target:0
1499551820141;10;1;DWELL;SingleFinger;TOUCH_MOVED;1;638.0;168.66666666666666;1;9;12;20.0;Target:0;Target:0
1499551820285;10;1;DWELL;SingleFinger;TOUCH_MOVED;1;638.0;169.33333333333334;1;10;12;20.0;Target:0;Target:0
1499551820495;10;1;DWELL;SingleFinger;TOUCH_MOVED;1;638.0;170.0;1;11;14;20.0;Target:0;Target:0
1499551820871;10;1;DWELL;SingleFinger;TOUCH_RELEASED;1;638.0;170.0;1;11;14;20.0;Target:0;Target:0
1499551820871;10;1;DWELL;SingleFinger;BUTTON_TRIGGERED;1;638.0;170.0;1;11;14;20.0;Target:0;Target:0
1499551821721;10;1;DWELL;SingleFinger;TOUCH_PRESSED;1;582.0;526.6666666666666;1;12;0;20.0;Target:5;Target:5
1499551822059;10;1;DWELL;SingleFinger;TOUCH_MOVED;1;581.3333333333334;526.6666666666666;1;9;12;20.0;Target:5;Target:5
1499551822203;10;1;DWELL;SingleFinger;TOUCH_MOVED;1;580.6666666666666;526.6666666666666;1;11;13;20.0;Target:5;Target:5
1499551822410;10;1;DWELL;SingleFinger;TOUCH_MOVED;1;580.0;526.6666666666666;1;10;13;20.0;Target:5;Target:5
1499551822894;10;1;DWELL;SingleFinger;TOUCH_RELEASED;1;580.0;526.6666666666666;1;10;13;20.0;Target:5;Target:5
1499551822894;10;1;DWELL;SingleFinger;BUTTON_TRIGGERED;1;580.0;526.6666666666666;1;10;13;20.0;Target:5;Target:5
1499551823765;10;1;DWELL;SingleFinger;TOUCH_PRESSED;1;770.6666666666666;224.0;1;11;0;20.0;Target:1;Target:1
1499551823863;10;1;DWELL;SingleFinger;TOUCH_PRESSED;2;875.3333333333334;162.0;2;9;0;20.0;Target:1;None
1499551823927;10;1;DWELL;SingleFinger;TOUCH_RELEASED;2;875.3333333333334;162.0;2;14;14;20.0;Target:1;None
1499551824110;10;1;DWELL;SingleFinger;TOUCH_MOVED;1;770.6666666666666;223.33333333333334;1;10;14;20.0;Target:1;Target:1
1499551824130;10;1;DWELL;SingleFinger;TOUCH_MOVED;1;770.0;223.33333333333334;1;10;14;20.0;Target:1;Target:1
1499551824246;10;1;DWELL;SingleFinger;TOUCH_MOVED;1;769.3333333333334;222.66666666666666;1;10;14;20.0;Target:1;Target:1
1499551824301;10;1;DWELL;SingleFinger;TOUCH_MOVED;1;769.3333333333334;222.0;1;9;14;20.0;Target:1;Target:1
1499551824311;10;1;DWELL;SingleFinger;TOUCH_MOVED;1;768.6666666666666;222.0;1;11;14;20.0;Target:1;Target:1
1499551824373;10;1;DWELL;SingleFinger;TOUCH_MOVED;1;768.6666666666666;221.33333333333334;1;12;15;20.0;Target:1;Target:1
1499551824392;10;1;DWELL;SingleFinger;TOUCH_MOVED;1;768.0;221.33333333333334;1;10;15;20.0;Target:1;Target:1
1499551824463;10;1;DWELL;SingleFinger;TOUCH_MOVED;1;767.3333333333334;221.33333333333334;1;10;15;20.0;Target:1;Target:1
1499551824490;10;1;DWELL;SingleFinger;TOUCH_MOVED;1;767.3333333333334;220.66666666666666;1;11;15;20.0;Target:1;Target:1
1499551824568;10;1;DWELL;SingleFinger;TOUCH_MOVED;1;766.6666666666666;220.66666666666666;1;10;15;20.0;Target:1;Target:1
1499551824634;10;1;DWELL;SingleFinger;TOUCH_MOVED;1;766.6666666666666;220.0;1;12;15;20.0;Target:1;Target:1
1499551824713;10;1;DWELL;SingleFinger;TOUCH_MOVED;1;766.0;220.0;1;12;15;20.0;Target:1;Target:1
1499551824742;10;1;DWELL;SingleFinger;TOUCH_MOVED;1;766.0;219.33333333333334;1;9;15;20.0;Target:1;Target:1
1499551824782;10;1;DWELL;SingleFinger;TOUCH_RELEASED;1;766.0;219.33333333333334;1;12;15;20.0;Target:1;Target:1
1499551824783;10;1;DWELL;SingleFinger;BUTTON_TRIGGERED;1;766.0;219.33333333333334;1;12;15;20.0;Target:1;Target:1
1499551825588;10;1;DWELL;SingleFinger;TOUCH_PRESSED;1;493.3333333333333;448.0;1;12;0;20.0;Target:6;Target:6
1499551825942;10;1;DWELL;SingleFinger;TOUCH_MOVED;1;492.6666666666667;448.0;1;13;13;20.0;Target:6;Target:6
1499551826079;10;1;DWELL;SingleFinger;TOUCH_MOVED;1;492.0;448.0;1;11;13;20.0;Target:6;Target:6
1499551826224;10;1;DWELL;SingleFinger;TOUCH_MOVED;1;491.3333333333333;448.0;1;11;13;20.0;Target:6;Target:6
1499551826361;10;1;DWELL;SingleFinger;TOUCH_MOVED;1;490.6666666666667;448.0;1;9;13;20.0;Target:6;Target:6
1499551826479;10;1;DWELL;SingleFinger;TOUCH_MOVED;1;490.0;447.3333333333333;1;11;13;20.0;Target:6;Target:6
1499551826538;10;1;DWELL;SingleFinger;TOUCH_MOVED;1;490.0;446.6666666666667;1;12;13;20.0;Target:6;Target:6
1499551826545;10;1;DWELL;SingleFinger;TOUCH_MOVED;1;489.3333333333333;446.6666666666667;1;12;13;20.0;Target:6;Target:6
1499551826576;10;1;DWELL;SingleFinger;TOUCH_MOVED;1;489.3333333333333;446.0;1;11;14;20.0;Target:6;Target:6
1499551826630;10;1;DWELL;SingleFinger;TOUCH_RELEASED;1;489.3333333333333;446.0;1;14;14;20.0;Target:6;Target:6
1499551826630;10;1;DWELL;SingleFinger;BUTTON_TRIGGERED;1;489.3333333333333;446.0;1;14;14;20.0;Target:6;Target:6
1499551827300;10;1;DWELL;SingleFinger;TOUCH_PRESSED;1;809.3333333333334;336.6666666666667;1;11;0;20.0;Target:2;Target:2
1499551827387;10;1;DWELL;SingleFinger;TOUCH_MOVED;1;809.3333333333334;336.0;1;10;12;20.0;Target:2;Target:2
1499551827525;10;1;DWELL;SingleFinger;TOUCH_MOVED;1;809.3333333333334;335.3333333333333;1;12;12;20.0;Target:2;Target:2
1499551827663;10;1;DWELL;SingleFinger;TOUCH_MOVED;1;809.3333333333334;334.6666666666667;1;11;14;20.0;Target:2;Target:2
1499551827748;10;1;DWELL;SingleFinger;TOUCH_MOVED;1;809.3333333333334;334.0;1;10;14;20.0;Target:2;Target:2
1499551827794;10;1;DWELL;SingleFinger;TOUCH_MOVED;1;809.3333333333334;333.3333333333333;1;11;14;20.0;Target:2;Target:2
1499551827859;10;1;DWELL;SingleFinger;TOUCH_MOVED;1;809.3333333333334;332.6666666666667;1;8;14;20.0;Target:2;Target:2
1499551827925;10;1;DWELL;SingleFinger;TOUCH_MOVED;1;809.3333333333334;332.0;1;15;15;20.0;Target:2;Target:2
1499551828003;10;1;DWELL;SingleFinger;TOUCH_MOVED;1;809.3333333333334;331.3333333333333;1;12;15;20.0;Target:2;Target:2
1499551828141;10;1;DWELL;SingleFinger;TOUCH_MOVED;1;809.3333333333334;330.6666666666667;1;9;15;20.0;Target:2;Target:2
1499551828198;10;1;DWELL;SingleFinger;TOUCH_RELEASED;1;809.3333333333334;330.6666666666667;1;11;15;20.0;Target:2;Target:2
1499551828198;10;1;DWELL;SingleFinger;BUTTON_TRIGGERED;1;809.3333333333334;330.6666666666667;1;11;15;20.0;Target:2;Target:2
1499551828977;10;1;DWELL;SingleFinger;TOUCH_PRESSED;1;456.6666666666667;327.3333333333333;1;11;11;20.0;Target:7;Target:7
1499551829798;10;1;DWELL;SingleFinger;TOUCH_MOVED;1;457.3333333333333;326.6666666666667;1;12;31;20.0;Target:7;Target:7
1499551829818;10;1;DWELL;SingleFinger;TOUCH_RELEASED;1;457.3333333333333;326.6666666666667;1;10;31;20.0;Target:7;Target:7
1499551829818;10;1;DWELL;SingleFinger;BUTTON_TRIGGERED;1;457.3333333333333;326.6666666666667;1;10;31;20.0;Target:7;Target:7
1499551830405;10;1;DWELL;SingleFinger;TOUCH_PRESSED;1;796.6666666666666;439.3333333333333;1;11;0;20.0;Target:3;Target:3
1499551830516;10;1;DWELL;SingleFinger;TOUCH_MOVED;1;796.6666666666666;440.0;1;11;14;20.0;Target:3;Target:3
1499551830568;10;1;DWELL;SingleFinger;TOUCH_MOVED;1;796.6666666666666;440.6666666666667;1;10;14;20.0;Target:3;Target:3
1499551830627;10;1;DWELL;SingleFinger;TOUCH_MOVED;1;796.6666666666666;441.3333333333333;1;12;14;20.0;Target:3;Target:3
1499551830628;10;1;DWELL;SingleFinger;TOUCH_PRESSED;2;907.3333333333334;389.3333333333333;2;11;0;20.0;Target:3;None
1499551830700;10;1;DWELL;SingleFinger;TOUCH_MOVED;1;796.6666666666666;442.0;2;10;14;20.0;Target:3;Target:3
1499551830708;10;1;DWELL;SingleFinger;TOUCH_RELEASED;2;907.3333333333334;389.3333333333333;2;12;12;20.0;Target:3;None
1499551830765;10;1;DWELL;SingleFinger;TOUCH_MOVED;1;796.6666666666666;442.6666666666667;1;10;14;20.0;Target:3;Target:3
1499551830765;10;1;DWELL;SingleFinger;TOUCH_PRESSED;3;908.0;390.0;2;10;0;20.0;Target:3;None
1499551830884;10;1;DWELL;SingleFinger;TOUCH_MOVED;1;796.6666666666666;443.3333333333333;2;10;14;20.0;Target:3;Target:3
1499551830996;10;1;DWELL;SingleFinger;TOUCH_RELEASED;3;908.0;390.0;2;9;13;20.0;Target:3;None
1499551831022;10;1;DWELL;SingleFinger;TOUCH_MOVED;1;796.6666666666666;444.0;1;11;14;20.0;Target:3;Target:3
1499551831160;10;1;DWELL;SingleFinger;TOUCH_MOVED;1;796.6666666666666;444.6666666666667;1;11;15;20.0;Target:3;Target:3
1499551831291;10;1;DWELL;SingleFinger;TOUCH_MOVED;1;796.6666666666666;445.3333333333333;1;12;15;20.0;Target:3;Target:3
1499551831416;10;1;DWELL;SingleFinger;TOUCH_MOVED;1;796.6666666666666;444.6666666666667;1;12;15;20.0;Target:3;Target:3
1499551831467;10;1;DWELL;SingleFinger;TOUCH_RELEASED;1;796.6666666666666;444.6666666666667;1;10;15;20.0;Target:3;Target:3
1499551831467;10;1;DWELL;SingleFinger;BUTTON_TRIGGERED;1;796.6666666666666;444.6666666666667;1;10;15;20.0;Target:3;Target:3
1499551832337;10;1;DWELL;SingleFinger;TOUCH_PRESSED;1;532.6666666666666;226.0;1;11;0;20.0;Target:8;Target:8
1499551832447;10;1;DWELL;SingleFinger;TOUCH_MOVED;1;532.0;226.0;1;12;12;20.0;Target:8;Target:8
1499551832598;10;1;DWELL;SingleFinger;TOUCH_MOVED;1;531.3333333333334;226.0;1;12;12;20.0;Target:8;Target:8
1499551832722;10;1;DWELL;SingleFinger;TOUCH_MOVED;1;531.3333333333334;225.33333333333334;1;9;12;20.0;Target:8;Target:8
1499551832761;10;1;DWELL;SingleFinger;TOUCH_MOVED;1;530.6666666666666;225.33333333333334;1;10;12;20.0;Target:8;Target:8
1499551832873;10;1;DWELL;SingleFinger;TOUCH_MOVED;1;530.6666666666666;224.66666666666666;1;10;12;20.0;Target:8;Target:8
1499551833056;10;1;DWELL;SingleFinger;TOUCH_MOVED;1;530.6666666666666;224.0;1;13;13;20.0;Target:8;Target:8
1499551833135;10;1;DWELL;SingleFinger;TOUCH_RELEASED;1;530.6666666666666;224.0;1;10;13;20.0;Target:8;Target:8
1499551833135;10;1;DWELL;SingleFinger;BUTTON_TRIGGERED;1;530.6666666666666;224.0;1;10;13;20.0;Target:8;Target:8
1499551833953;10;1;DWELL;SingleFinger;TOUCH_PRESSED;1;698.6666666666666;519.3333333333334;1;11;0;20.0;Target:4;Target:4
1499551834568;10;1;DWELL;SingleFinger;TOUCH_MOVED;1;698.6666666666666;520.0;1;10;14;20.0;Target:4;Target:4
1499551834634;10;1;DWELL;SingleFinger;TOUCH_MOVED;1;698.6666666666666;520.6666666666666;1;11;14;20.0;Target:4;Target:4
1499551834679;10;1;DWELL;SingleFinger;TOUCH_MOVED;1;698.6666666666666;521.3333333333334;1;12;14;20.0;Target:4;Target:4
1499551834692;10;1;DWELL;SingleFinger;TOUCH_MOVED;1;699.3333333333334;521.3333333333334;1;11;14;20.0;Target:4;Target:4
1499551834738;10;1;DWELL;SingleFinger;TOUCH_MOVED;1;699.3333333333334;522.0;1;13;14;20.0;Target:4;Target:4
1499551834804;10;1;DWELL;SingleFinger;TOUCH_MOVED;1;699.3333333333334;522.6666666666666;1;12;14;20.0;Target:4;Target:4
1499551835006;10;1;DWELL;SingleFinger;TOUCH_RELEASED;1;699.3333333333334;522.6666666666666;1;9;14;20.0;Target:4;Target:4
1499551835006;10;1;DWELL;SingleFinger;BUTTON_TRIGGERED;1;699.3333333333334;522.6666666666666;1;9;14;20.0;Target:4;Target:4
