Timestamp;Participant;Study;Method;Variant;TouchEvent;TouchId;TouchX;TouchY;TouchCount;Pressure;MaxPressure;TargetRadius;WidgetHighlighted;WidgetHovered
1499716702444;25;1;DWELL;SingleFinger;TOUCH_PRESSED;1;640.6666666666666;182.0;1;16;0;33.0;Target:0;Target:0
1499716702514;25;1;DWELL;SingleFinger;TOUCH_MOVED;1;640.6666666666666;181.33333333333334;1;18;19;33.0;Target:0;Target:0
1499716702570;25;1;DWELL;SingleFinger;TOUCH_MOVED;1;640.6666666666666;180.66666666666666;1;17;19;33.0;Target:0;Target:0
1499716702644;25;1;DWELL;SingleFinger;TOUCH_MOVED;1;640.6666666666666;180.0;1;19;20;33.0;Target:0;Target:0
1499716703289;25;1;DWELL;SingleFinger;TOUCH_RELEASED;1;640.6666666666666;180.0;1;16;20;33.0;Target:0;Target:0
1499716703290;25;1;DWELL;SingleFinger;BUTTON_TRIGGERED;1;640.6666666666666;180.0;1;16;20;33.0;Target:0;Target:0
1499716703924;25;1;DWELL;SingleFinger;TOUCH_PRESSED;1;594.6666666666666;537.3333333333334;1;18;0;33.0;Target:5;Target:5
1499716704658;25;1;DWELL;SingleFinger;TOUCH_RELEASED;1;594.6666666666666;537.3333333333334;1;17;24;33.0;Target:5;Target:5
1499716704659;25;1;DWELL;SingleFinger;BUTTON_TRIGGERED;1;594.6666666666666;537.3333333333334;1;17;24;33.0;Target:5;Target:5
1499716705292;25;1;DWELL;SingleFinger;TOUCH_PRESSED;1;766.0;214.66666666666666;1;17;0;33.0;Target:1;Target:1
1499716706074;25;1;DWELL;SingleFinger;TOUCH_RELEASED;1;766.0;214.66666666666666;1;18;21;33.0;Target:1;Target:1
1499716706075;25;1;DWELL;SingleFinger;BUTTON_TRIGGERED;1;766.0;214.66666666666666;1;18;21;33.0;Target:1;Target:1
1499716706668;25;1;DWELL;SingleFinger;TOUCH_PRESSED;1;500.0;458.0;1;17;0;33.0;Target:6;Target:6
1499716706718;25;1;DWELL;SingleFinger;TOUCH_MOVED;1;499.3333333333333;458.0;1;17;18;33.0;Target:6;Target:6
1499716706861;25;1;DWELL;SingleFinger;TOUCH_MOVED;1;498.6666666666667;458.0;1;19;23;33.0;Target:6;Target:6
1499716707072;25;1;DWELL;SingleFinger;TOUCH_MOVED;1;498.0;458.0;1;18;23;33.0;Target:6;Target:6
1499716707112;25;1;DWELL;SingleFinger;TOUCH_MOVED;1;498.0;457.3333333333333;1;17;23;33.0;Target:6;Target:6
1499716707219;25;1;DWELL;SingleFinger;TOUCH_MOVED;1;497.3333333333333;457.3333333333333;1;13;23;33.0;Target:6;Target:6
1499716707363;25;1;DWELL;SingleFinger;TOUCH_MOVED;1;496.6666666666667;457.3333333333333;1;15;23;33.0;Target:6;Target:6
1499716707449;25;1;DWELL;SingleFinger;TOUCH_RELEASED;1;496.6666666666667;457.3333333333333;1;18;23;33.0;Target:6;Target:6
1499716707449;25;1;DWELL;SingleFinger;BUTTON_TRIGGERED;1;496.6666666666667;457.3333333333333;1;18;23;33.0;Target:6;Target:6
1499716708070;25;1;DWELL;SingleFinger;TOUCH_PRESSED;1;813.3333333333334;335.3333333333333;1;18;0;33.0;Target:2;Target:2
1499716708109;25;1;DWELL;SingleFinger;TOUCH_MOVED;1;813.3333333333334;334.6666666666667;1;17;18;33.0;Target:2;Target:2
1499716708558;25;1;DWELL;SingleFinger;TOUCH_MOVED;1;813.3333333333334;334.0;1;18;23;33.0;Target:2;Target:2
1499716708889;25;1;DWELL;SingleFinger;TOUCH_RELEASED;1;813.3333333333334;334.0;1;18;23;33.0;Target:2;Target:2
1499716708890;25;1;DWELL;SingleFinger;BUTTON_TRIGGERED;1;813.3333333333334;334.0;1;18;23;33.0;Target:2;Target:2
1499716709562;25;1;DWELL;SingleFinger;TOUCH_PRESSED;1;460.6666666666667;342.0;1;15;0;33.0;Target:7;Target:7
1499716709615;25;1;DWELL;SingleFinger;TOUCH_MOVED;1;460.0;342.0;1;19;19;33.0;Target:7;Target:7
1499716709621;25;1;DWELL;SingleFinger;TOUCH_MOVED;1;460.0;341.3333333333333;1;16;19;33.0;Target:7;Target:7
1499716709724;25;1;DWELL;SingleFinger;TOUCH_MOVED;1;459.3333333333333;341.3333333333333;1;18;20;33.0;Target:7;Target:7
1499716709923;25;1;DWELL;SingleFinger;TOUCH_MOVED;1;459.3333333333333;340.6666666666667;1;17;20;33.0;Target:7;Target:7
1499716710231;25;1;DWELL;SingleFinger;TOUCH_MOVED;1;458.6666666666667;340.6666666666667;1;18;21;33.0;Target:7;Target:7
1499716710350;25;1;DWELL;SingleFinger;TOUCH_MOVED;1;458.6666666666667;341.3333333333333;1;21;21;33.0;Target:7;Target:7
1499716710375;25;1;DWELL;SingleFinger;TOUCH_RELEASED;1;458.6666666666667;341.3333333333333;1;17;21;33.0;Target:7;Target:7
1499716710375;25;1;DWELL;SingleFinger;BUTTON_TRIGGERED;1;458.6666666666667;341.3333333333333;1;17;21;33.0;Target:7;Target:7
1499716710910;25;1;DWELL;SingleFinger;TOUCH_PRESSED;1;792.6666666666666;441.3333333333333;1;17;0;33.0;Target:3;Target:3
1499716710959;25;1;DWELL;SingleFinger;TOUCH_MOVED;1;793.3333333333334;441.3333333333333;1;21;21;33.0;Target:3;Target:3
1499716710979;25;1;DWELL;SingleFinger;TOUCH_MOVED;1;793.3333333333334;440.6666666666667;1;19;21;33.0;Target:3;Target:3
1499716711673;25;1;DWELL;SingleFinger;TOUCH_RELEASED;1;793.3333333333334;440.6666666666667;1;17;22;33.0;Target:3;Target:3
1499716711673;25;1;DWELL;SingleFinger;BUTTON_TRIGGERED;1;793.3333333333334;440.6666666666667;1;17;22;33.0;Target:3;Target:3
1499716712287;25;1;DWELL;SingleFinger;TOUCH_PRESSED;1;529.3333333333334;224.0;1;20;0;33.0;Target:8;Target:8
1499716712316;25;1;DWELL;SingleFinger;TOUCH_MOVED;1;529.3333333333334;223.33333333333334;1;16;18;33.0;Target:8;Target:8
1499716712352;25;1;DWELL;SingleFinger;TOUCH_MOVED;1;528.6666666666666;223.33333333333334;1;18;19;33.0;Target:8;Target:8
1499716712372;25;1;DWELL;SingleFinger;TOUCH_MOVED;1;528.6666666666666;222.66666666666666;1;18;19;33.0;Target:8;Target:8
1499716712462;25;1;DWELL;SingleFinger;TOUCH_MOVED;1;528.6666666666666;222.0;1;16;19;33.0;Target:8;Target:8
1499716713022;25;1;DWELL;SingleFinger;TOUCH_RELEASED;1;528.6666666666666;222.0;1;18;22;33.0;Target:8;Target:8
1499716713022;25;1;DWELL;SingleFinger;BUTTON_TRIGGERED;1;528.6666666666666;222.0;1;18;22;33.0;Target:8;Target:8
1499716713572;25;1;DWELL;SingleFinger;TOUCH_PRESSED;1;717.3333333333334;532.0;1;16;0;33.0;Target:4;Target:4
1499716714432;25;1;DWELL;SingleFinger;TOUCH_RELEASED;1;717.3333333333334;532.0;1;17;21;33.0;Target:4;Target:4
1499716714433;25;1;DWELL;SingleFinger;BUTTON_TRIGGERED;1;717.3333333333334;532.0;1;17;21;33.0;Target:4;Target:4
1499716714923;25;1;DWELL;SingleFinger;TOUCH_PRESSED;1;640.6666666666666;172.66666666666666;1;18;0;27.0;Target:0;Target:0
1499716714937;25;1;DWELL;SingleFinger;TOUCH_MOVED;1;640.0;172.66666666666666;1;19;19;27.0;Target:0;Target:0
1499716714972;25;1;DWELL;SingleFinger;TOUCH_MOVED;1;640.0;172.0;1;17;19;27.0;Target:0;Target:0
1499716715022;25;1;DWELL;SingleFinger;TOUCH_MOVED;1;640.0;171.33333333333334;1;14;19;27.0;Target:0;Target:0
1499716715037;25;1;DWELL;SingleFinger;TOUCH_MOVED;1;639.3333333333334;171.33333333333334;1;16;19;27.0;Target:0;Target:0
1499716715118;25;1;DWELL;SingleFinger;TOUCH_MOVED;1;639.3333333333334;170.66666666666666;1;15;19;27.0;Target:0;Target:0
1499716715218;25;1;DWELL;SingleFinger;TOUCH_MOVED;1;639.3333333333334;170.0;1;14;19;27.0;Target:0;Target:0
1499716715702;25;1;DWELL;SingleFinger;TOUCH_MOVED;1;639.3333333333334;170.66666666666666;1;17;19;27.0;Target:0;Target:0
1499716715722;25;1;DWELL;SingleFinger;TOUCH_MOVED;1;639.3333333333334;171.33333333333334;1;18;19;27.0;Target:0;Target:0
1499716715726;25;1;DWELL;SingleFinger;TOUCH_MOVED;1;639.3333333333334;172.0;1;18;19;27.0;Target:0;Target:0
1499716715732;25;1;DWELL;SingleFinger;TOUCH_MOVED;1;640.0;172.66666666666666;1;16;19;27.0;Target:0;Target:0
1499716715737;25;1;DWELL;SingleFinger;TOUCH_MOVED;1;640.0;173.33333333333334;1;16;19;27.0;Target:0;Target:0
1499716715742;25;1;DWELL;SingleFinger;TOUCH_MOVED;1;640.0;174.66666666666666;1;16;19;27.0;Target:0;Target:0
1499716715747;25;1;DWELL;SingleFinger;TOUCH_MOVED;1;640.0;176.0;1;16;19;27.0;Target:0;Target:0
1499716715752;25;1;DWELL;SingleFinger;TOUCH_MOVED;1;639.3333333333334;178.0;1;16;19;27.0;Target:0;Target:0
1499716715756;25;1;DWELL;SingleFinger;TOUCH_MOVED;1;639.3333333333334;180.0;1;16;19;27.0;Target:0;Target:0
1499716715763;25;1;DWELL;SingleFinger;TOUCH_MOVED;1;639.3333333333334;182.66666666666666;1;16;19;27.0;Target:0;Target:0
1499716715767;25;1;DWELL;SingleFinger;TOUCH_MOVED;1;638.6666666666666;185.33333333333334;1;16;19;27.0;Target:0;Target:0
1499716715773;25;1;DWELL;SingleFinger;TOUCH_MOVED;1;638.6666666666666;188.66666666666666;1;17;19;27.0;Target:0;Target:0
1499716715793;25;1;DWELL;SingleFinger;TOUCH_RELEASED;1;638.6666666666666;188.66666666666666;1;17;20;27.0;Target:0;Target:0
1499716715793;25;1;DWELL;SingleFinger;BUTTON_TRIGGERED;1;638.6666666666666;188.66666666666666;1;17;20;27.0;Target:0;Target:0
1499716716224;25;1;DWELL;SingleFinger;TOUCH_PRESSED;1;581.3333333333334;526.0;1;19;0;27.0;Target:5;Target:5
1499716716993;25;1;DWELL;SingleFinger;TOUCH_MOVED;1;582.0;526.0;1;17;20;27.0;Target:5;Target:5
1499716717014;25;1;DWELL;SingleFinger;TOUCH_RELEASED;1;582.0;526.0;1;20;20;27.0;Target:5;Target:5
1499716717014;25;1;DWELL;SingleFinger;BUTTON_TRIGGERED;1;582.0;526.0;1;20;20;27.0;Target:5;Target:5
1499716717338;25;1;DWELL;SingleFinger;TOUCH_PRESSED;1;765.3333333333334;201.33333333333334;1;15;0;27.0;Target:1;Target:1
1499716717402;25;1;DWELL;SingleFinger;TOUCH_MOVED;1;765.3333333333334;200.66666666666666;1;17;19;27.0;Target:1;Target:1
1499716717642;25;1;DWELL;SingleFinger;TOUCH_MOVED;1;765.3333333333334;201.33333333333334;1;17;19;27.0;Target:1;Target:1
1499716717727;25;1;DWELL;SingleFinger;TOUCH_MOVED;1;765.3333333333334;202.0;1;18;21;27.0;Target:1;Target:1
1499716717796;25;1;DWELL;SingleFinger;TOUCH_MOVED;1;764.6666666666666;202.0;1;16;21;27.0;Target:1;Target:1
1499716717803;25;1;DWELL;SingleFinger;TOUCH_MOVED;1;764.6666666666666;202.66666666666666;1;17;21;27.0;Target:1;Target:1
1499716717849;25;1;DWELL;SingleFinger;TOUCH_MOVED;1;764.6666666666666;203.33333333333334;1;18;21;27.0;Target:1;Target:1
1499716717888;25;1;DWELL;SingleFinger;TOUCH_MOVED;1;764.6666666666666;204.0;1;17;21;27.0;Target:1;Target:1
1499716717947;25;1;DWELL;SingleFinger;TOUCH_MOVED;1;764.0;204.66666666666666;1;17;21;27.0;Target:1;Target:1
1499716718014;25;1;DWELL;SingleFinger;TOUCH_MOVED;1;764.0;205.33333333333334;1;17;21;27.0;Target:1;Target:1
1499716718117;25;1;DWELL;SingleFinger;TOUCH_RELEASED;1;764.0;205.33333333333334;1;17;21;27.0;Target:1;Target:1
1499716718118;25;1;DWELL;SingleFinger;BUTTON_TRIGGERED;1;764.0;205.33333333333334;1;17;21;27.0;Target:1;Target:1
1499716718603;25;1;DWELL;SingleFinger;TOUCH_PRESSED;1;494.0;457.3333333333333;1;15;0;27.0;Target:6;Target:6
1499716719349;25;1;DWELL;SingleFinger;TOUCH_RELEASED;1;494.0;457.3333333333333;1;17;27;27.0;Target:6;Target:6
1499716719349;25;1;DWELL;SingleFinger;BUTTON_TRIGGERED;1;494.0;457.3333333333333;1;17;27;27.0;Target:6;Target:6
1499716719664;25;1;DWELL;SingleFinger;TOUCH_PRESSED;1;806.0;326.6666666666667;1;17;0;27.0;Target:2;Target:2
1499716719767;25;1;DWELL;SingleFinger;TOUCH_MOVED;1;806.6666666666666;326.6666666666667;1;22;22;27.0;Target:2;Target:2
1499716719918;25;1;DWELL;SingleFinger;TOUCH_MOVED;1;807.3333333333334;326.6666666666667;1;16;22;27.0;Target:2;Target:2
1499716720055;25;1;DWELL;SingleFinger;TOUCH_MOVED;1;808.0;326.6666666666667;1;14;22;27.0;Target:2;Target:2
1499716720418;25;1;DWELL;SingleFinger;TOUCH_RELEASED;1;808.0;326.6666666666667;1;15;22;27.0;Target:2;Target:2
1499716720418;25;1;DWELL;SingleFinger;BUTTON_TRIGGERED;1;808.0;326.6666666666667;1;15;22;27.0;Target:2;Target:2
1499716720963;25;1;DWELL;SingleFinger;TOUCH_PRESSED;1;452.6666666666667;327.3333333333333;1;18;0;27.0;Target:7;Target:7
1499716720987;25;1;DWELL;SingleFinger;TOUCH_MOVED;1;452.0;327.3333333333333;1;17;17;27.0;Target:7;Target:7
1499716721610;25;1;DWELL;SingleFinger;TOUCH_MOVED;1;452.6666666666667;327.3333333333333;1;19;22;27.0;Target:7;Target:7
1499716721635;25;1;DWELL;SingleFinger;TOUCH_RELEASED;1;452.6666666666667;327.3333333333333;1;18;22;27.0;Target:7;Target:7
1499716721636;25;1;DWELL;SingleFinger;BUTTON_TRIGGERED;1;452.6666666666667;327.3333333333333;1;18;22;27.0;Target:7;Target:7
1499716722054;25;1;DWELL;SingleFinger;TOUCH_PRESSED;1;795.3333333333334;450.0;1;16;0;27.0;Target:3;Target:3
1499716722727;25;1;DWELL;SingleFinger;TOUCH_MOVED;1;795.3333333333334;449.3333333333333;1;19;27;27.0;Target:3;Target:3
1499716722757;25;1;DWELL;SingleFinger;TOUCH_MOVED;1;794.6666666666666;449.3333333333333;1;17;27;27.0;Target:3;Target:3
1499716722777;25;1;DWELL;SingleFinger;TOUCH_RELEASED;1;794.6666666666666;449.3333333333333;1;17;27;27.0;Target:3;Target:3
1499716722777;25;1;DWELL;SingleFinger;BUTTON_TRIGGERED;1;794.6666666666666;449.3333333333333;1;17;27;27.0;Target:3;Target:3
1499716723112;25;1;DWELL;SingleFinger;TOUCH_PRESSED;1;522.6666666666666;222.0;1;17;0;27.0;Target:8;Target:8
1499716723121;25;1;DWELL;SingleFinger;TOUCH_MOVED;1;522.6666666666666;221.33333333333334;1;18;18;27.0;Target:8;Target:8
1499716723772;25;1;DWELL;SingleFinger;TOUCH_MOVED;1;523.3333333333334;221.33333333333334;1;18;22;27.0;Target:8;Target:8
1499716723782;25;1;DWELL;SingleFinger;TOUCH_MOVED;1;524.0;222.0;1;18;22;27.0;Target:8;Target:8
1499716723792;25;1;DWELL;SingleFinger;TOUCH_MOVED;1;524.6666666666666;222.0;1;17;22;27.0;Target:8;Target:8
1499716723797;25;1;DWELL;SingleFinger;TOUCH_MOVED;1;524.6666666666666;222.66666666666666;1;15;22;27.0;Target:8;Target:8
1499716723817;25;1;DWELL;SingleFinger;TOUCH_RELEASED;1;524.6666666666666;222.66666666666666;1;17;22;27.0;Target:8;Target:8
1499716723817;25;1;DWELL;SingleFinger;BUTTON_TRIGGERED;1;524.6666666666666;222.66666666666666;1;17;22;27.0;Target:8;Target:8
1499716724245;25;1;DWELL;SingleFinger;TOUCH_PRESSED;1;714.6666666666666;510.6666666666667;1;14;0;27.0;Target:4;Target:4
1499716724506;25;1;DWELL;SingleFinger;TOUCH_MOVED;1;714.0;510.6666666666667;1;17;21;27.0;Target:4;Target:4
1499716724557;25;1;DWELL;SingleFinger;TOUCH_MOVED;1;714.0;511.3333333333333;1;18;21;27.0;Target:4;Target:4
1499716724643;25;1;DWELL;SingleFinger;TOUCH_MOVED;1;713.3333333333334;511.3333333333333;1;15;21;27.0;Target:4;Target:4
1499716724688;25;1;DWELL;SingleFinger;TOUCH_MOVED;1;713.3333333333334;512.0;1;17;21;27.0;Target:4;Target:4
1499716724787;25;1;DWELL;SingleFinger;TOUCH_MOVED;1;713.3333333333334;512.6666666666666;1;17;21;27.0;Target:4;Target:4
1499716724839;25;1;DWELL;SingleFinger;TOUCH_MOVED;1;712.6666666666666;512.6666666666666;1;17;21;27.0;Target:4;Target:4
1499716724852;25;1;DWELL;SingleFinger;TOUCH_MOVED;1;712.6666666666666;513.3333333333334;1;19;21;27.0;Target:4;Target:4
1499716724915;25;1;DWELL;SingleFinger;TOUCH_RELEASED;1;712.6666666666666;513.3333333333334;1;16;21;27.0;Target:4;Target:4
1499716724915;25;1;DWELL;SingleFinger;BUTTON_TRIGGERED;1;712.6666666666666;513.3333333333334;1;16;21;27.0;Target:4;Target:4
1499716726051;25;1;DWELL;SingleFinger;TOUCH_PRESSED;1;641.3333333333334;172.0;1;18;0;20.0;Target:0;Target:0
1499716726124;25;1;DWELL;SingleFinger;TOUCH_MOVED;1;641.3333333333334;172.66666666666666;1;18;19;20.0;Target:0;Target:0
1499716726130;25;1;DWELL;SingleFinger;TOUCH_MOVED;1;640.6666666666666;172.66666666666666;1;18;19;20.0;Target:0;Target:0
1499716726209;25;1;DWELL;SingleFinger;TOUCH_MOVED;1;640.6666666666666;173.33333333333334;1;13;22;20.0;Target:0;Target:0
1499716726261;25;1;DWELL;SingleFinger;TOUCH_MOVED;1;640.6666666666666;174.0;1;17;22;20.0;Target:0;Target:0
1499716726328;25;1;DWELL;SingleFinger;TOUCH_MOVED;1;640.6666666666666;174.66666666666666;1;17;22;20.0;Target:0;Target:0
1499716726399;25;1;DWELL;SingleFinger;TOUCH_MOVED;1;640.6666666666666;175.33333333333334;1;16;22;20.0;Target:0;Target:0
1499716726537;25;1;DWELL;SingleFinger;TOUCH_MOVED;1;640.6666666666666;176.0;1;19;22;20.0;Target:0;Target:0
1499716726681;25;1;DWELL;SingleFinger;TOUCH_MOVED;1;640.6666666666666;176.66666666666666;1;16;24;20.0;Target:0;Target:0
1499716726783;25;1;DWELL;SingleFinger;TOUCH_RELEASED;1;640.6666666666666;176.66666666666666;1;17;24;20.0;Target:0;Target:0
1499716726784;25;1;DWELL;SingleFinger;BUTTON_TRIGGERED;1;640.6666666666666;176.66666666666666;1;17;24;20.0;Target:0;Target:0
1499716727211;25;1;DWELL;SingleFinger;TOUCH_PRESSED;1;580.6666666666666;536.0;1;17;0;20.0;Target:5;Target:5
1499716727838;25;1;DWELL;SingleFinger;TOUCH_MOVED;1;580.6666666666666;535.3333333333334;1;15;23;20.0;Target:5;Target:5
1499716727848;25;1;DWELL;SingleFinger;TOUCH_MOVED;1;581.3333333333334;534.6666666666666;1;17;23;20.0;Target:5;Target:5
1499716727868;25;1;DWELL;SingleFinger;TOUCH_RELEASED;1;581.3333333333334;534.6666666666666;1;16;23;20.0;Target:5;Target:5
1499716727868;25;1;DWELL;SingleFinger;BUTTON_TRIGGERED;1;581.3333333333334;534.6666666666666;1;16;23;20.0;Target:5;Target:5
1499716728208;25;1;DWELL;SingleFinger;TOUCH_PRESSED;1;762.6666666666666;223.33333333333334;1;16;0;20.0;Target:1;Target:1
1499716728912;25;1;DWELL;SingleFinger;TOUCH_RELEASED;1;762.6666666666666;223.33333333333334;1;15;21;20.0;Target:1;Target:1
1499716728912;25;1;DWELL;SingleFinger;BUTTON_TRIGGERED;1;762.6666666666666;223.33333333333334;1;15;21;20.0;Target:1;Target:1
1499716729340;25;1;DWELL;SingleFinger;TOUCH_PRESSED;1;498.0;453.3333333333333;1;16;0;20.0;Target:6;Target:6
1499716729623;25;1;DWELL;SingleFinger;TOUCH_MOVED;1;497.3333333333333;453.3333333333333;1;18;19;20.0;Target:6;Target:6
1499716729723;25;1;DWELL;SingleFinger;TOUCH_MOVED;1;496.6666666666667;453.3333333333333;1;18;20;20.0;Target:6;Target:6
1499716729829;25;1;DWELL;SingleFinger;TOUCH_MOVED;1;496.0;453.3333333333333;1;17;20;20.0;Target:6;Target:6
1499716730024;25;1;DWELL;SingleFinger;TOUCH_RELEASED;1;496.0;453.3333333333333;1;18;20;20.0;Target:6;Target:6
1499716730024;25;1;DWELL;SingleFinger;BUTTON_TRIGGERED;1;496.0;453.3333333333333;1;18;20;20.0;Target:6;Target:6
1499716730377;25;1;DWELL;SingleFinger;TOUCH_PRESSED;1;810.6666666666666;330.0;1;18;0;20.0;Target:2;Target:2
1499716730467;25;1;DWELL;SingleFinger;TOUCH_MOVED;1;810.6666666666666;329.3333333333333;1;18;19;20.0;Target:2;Target:2
1499716730618;25;1;DWELL;SingleFinger;TOUCH_MOVED;1;811.3333333333334;328.6666666666667;1;18;20;20.0;Target:2;Target:2
1499716730746;25;1;DWELL;SingleFinger;TOUCH_MOVED;1;812.0;328.6666666666667;1;18;20;20.0;Target:2;Target:2
1499716730882;25;1;DWELL;SingleFinger;TOUCH_MOVED;1;812.6666666666666;328.6666666666667;1;18;20;20.0;Target:2;Target:2
1499716731086;25;1;DWELL;SingleFinger;TOUCH_RELEASED;1;812.6666666666666;328.6666666666667;1;16;21;20.0;Target:2;Target:2
1499716731086;25;1;DWELL;SingleFinger;BUTTON_TRIGGERED;1;812.6666666666666;328.6666666666667;1;16;21;20.0;Target:2;Target:2
1499716731425;25;1;DWELL;SingleFinger;TOUCH_PRESSED;1;469.3333333333333;326.6666666666667;1;17;0;20.0;Target:7;Target:7
1499716731588;25;1;DWELL;SingleFinger;TOUCH_MOVED;1;469.3333333333333;326.0;1;17;20;20.0;Target:7;Target:7
1499716731732;25;1;DWELL;SingleFinger;TOUCH_MOVED;1;468.6666666666667;326.0;1;18;20;20.0;Target:7;Target:7
1499716731863;25;1;DWELL;SingleFinger;TOUCH_MOVED;1;468.0;326.0;1;18;21;20.0;Target:7;Target:7
1499716732008;25;1;DWELL;SingleFinger;TOUCH_MOVED;1;467.3333333333333;326.0;1;13;21;20.0;Target:7;Target:7
1499716732093;25;1;DWELL;SingleFinger;TOUCH_RELEASED;1;467.3333333333333;326.0;1;17;21;20.0;Target:7;Target:7
1499716732093;25;1;DWELL;SingleFinger;BUTTON_TRIGGERED;1;467.3333333333333;326.0;1;17;21;20.0;Target:7;Target:7
1499716732526;25;1;DWELL;SingleFinger;TOUCH_PRESSED;1;800.0;456.6666666666667;1;18;0;20.0;Target:3;Target:3
1499716733187;25;1;DWELL;SingleFinger;TOUCH_RELEASED;1;800.0;456.6666666666667;1;20;20;20.0;Target:3;Target:3
1499716733187;25;1;DWELL;SingleFinger;BUTTON_TRIGGERED;1;800.0;456.6666666666667;1;20;20;20.0;Target:3;Target:3
1499716733561;25;1;DWELL;SingleFinger;TOUCH_PRESSED;1;529.3333333333334;225.33333333333334;1;11;0;20.0;Target:8;Target:8
1499716733595;25;1;DWELL;SingleFinger;TOUCH_MOVED;1;528.6666666666666;225.33333333333334;1;14;17;20.0;Target:8;Target:8
1499716733635;25;1;DWELL;SingleFinger;TOUCH_MOVED;1;528.6666666666666;224.66666666666666;1;18;18;20.0;Target:8;Target:8
1499716733856;25;1;DWELL;SingleFinger;TOUCH_MOVED;1;528.6666666666666;224.0;1;16;19;20.0;Target:8;Target:8
1499716734201;25;1;DWELL;SingleFinger;TOUCH_RELEASED;1;528.6666666666666;224.0;1;18;20;20.0;Target:8;Target:8
1499716734201;25;1;DWELL;SingleFinger;BUTTON_TRIGGERED;1;528.6666666666666;224.0;1;18;20;20.0;Target:8;Target:8
1499716734747;25;1;DWELL;SingleFinger;TOUCH_PRESSED;1;713.3333333333334;531.3333333333334;1;14;0;20.0;Target:4;Target:4
1499716735484;25;1;DWELL;SingleFinger;TOUCH_RELEASED;1;713.3333333333334;531.3333333333334;1;16;20;20.0;Target:4;Target:4
1499716735484;25;1;DWELL;SingleFinger;BUTTON_TRIGGERED;1;713.3333333333334;531.3333333333334;1;16;20;20.0;Target:4;Target:4
