Timestamp;Participant;Study;Method;Variant;TouchEvent;TouchId;TouchX;TouchY;TouchCount;Pressure;MaxPressure;TargetRadius;WidgetHighlighted;WidgetHovered
1499716176743;25;1;FSR;SingleFinger;TOUCH_PRESSED;1;648.6666666666666;156.66666666666666;1;648;0;33.0;Target:0;Target:0
1499716176749;25;1;FSR;SingleFinger;TOUCH_MOVED;1;648.6666666666666;157.33333333333334;1;697;697;33.0;Target:0;Target:0
1499716176759;25;1;FSR;SingleFinger;BUTTON_TRIGGERED;1;648.6666666666666;156.66666666666666;1;726;697;33.0;Target:0;Target:0
1499716176774;25;1;FSR;SingleFinger;TOUCH_MOVED;1;649.3333333333334;158.0;1;757;757;33.0;Target:5;Target:0
1499716176779;25;1;FSR;SingleFinger;TOUCH_MOVED;1;649.3333333333334;158.66666666666666;1;762;762;33.0;Target:5;Target:0
1499716176793;25;1;FSR;SingleFinger;TOUCH_MOVED;1;649.3333333333334;159.33333333333334;1;779;779;33.0;Target:5;Target:0
1499716176806;25;1;FSR;SingleFinger;TOUCH_MOVED;1;649.3333333333334;160.0;1;792;792;33.0;Target:5;Target:0
1499716176813;25;1;FSR;SingleFinger;TOUCH_PRESSED;2;643.3333333333334;178.0;2;794;0;33.0;Target:5;Target:0
1499716176814;25;1;FSR;SingleFinger;TOUCH_PRESSED;3;652.6666666666666;192.66666666666666;3;794;0;33.0;Target:5;Target:0
1499716176818;25;1;FSR;SingleFinger;TOUCH_PRESSED;4;685.3333333333334;524.0;4;818;0;33.0;Target:5;Target:4
1499716176837;25;1;FSR;SingleFinger;TOUCH_RELEASED;1;649.3333333333334;160.0;4;837;837;33.0;Target:5;Target:0
1499716176873;25;1;FSR;SingleFinger;TOUCH_MOVED;2;642.6666666666666;177.33333333333334;3;860;860;33.0;Target:5;Target:0
1499716176878;25;1;FSR;SingleFinger;TOUCH_RELEASED;3;652.6666666666666;192.66666666666666;3;860;860;33.0;Target:5;None
1499716176884;25;1;FSR;SingleFinger;TOUCH_RELEASED;4;685.3333333333334;524.0;2;867;867;33.0;Target:5;None
1499716176910;25;1;FSR;SingleFinger;TOUCH_MOVED;2;642.6666666666666;176.66666666666666;1;868;877;33.0;Target:5;Target:0
1499716176918;25;1;FSR;SingleFinger;TOUCH_MOVED;2;642.0;176.66666666666666;1;873;877;33.0;Target:5;Target:0
1499716176956;25;1;FSR;SingleFinger;TOUCH_MOVED;2;642.0;176.0;1;827;877;33.0;Target:5;Target:0
1499716176976;25;1;FSR;SingleFinger;TOUCH_MOVED;2;641.3333333333334;176.0;1;760;877;33.0;Target:5;Target:0
1499716177008;25;1;FSR;SingleFinger;TOUCH_MOVED;2;641.3333333333334;175.33333333333334;1;243;877;33.0;Target:5;Target:0
1499716177012;25;1;FSR;SingleFinger;TOUCH_MOVED;2;641.3333333333334;176.0;1;37;877;33.0;Target:5;Target:0
1499716177032;25;1;FSR;SingleFinger;TOUCH_RELEASED;2;641.3333333333334;176.0;1;26;877;33.0;Target:5;None
1499716177727;25;1;FSR;SingleFinger;TOUCH_PRESSED;1;573.3333333333334;482.0;1;486;0;33.0;Target:5;None
1499716177760;25;1;FSR;SingleFinger;TOUCH_MOVED;1;573.3333333333334;482.6666666666667;1;761;761;33.0;Target:5;None
1499716177766;25;1;FSR;SingleFinger;TOUCH_MOVED;1;573.3333333333334;483.3333333333333;1;761;761;33.0;Target:5;None
1499716177773;25;1;FSR;SingleFinger;TOUCH_MOVED;1;572.6666666666666;484.6666666666667;1;755;761;33.0;Target:5;None
1499716177778;25;1;FSR;SingleFinger;TOUCH_MOVED;1;572.6666666666666;485.3333333333333;1;769;769;33.0;Target:5;None
1499716177785;25;1;FSR;SingleFinger;TOUCH_MOVED;1;572.6666666666666;486.6666666666667;1;769;769;33.0;Target:5;None
1499716177792;25;1;FSR;SingleFinger;TOUCH_MOVED;1;572.6666666666666;488.0;1;758;769;33.0;Target:5;None
1499716177798;25;1;FSR;SingleFinger;TOUCH_MOVED;1;572.6666666666666;488.6666666666667;1;766;769;33.0;Target:5;None
1499716177806;25;1;FSR;SingleFinger;TOUCH_MOVED;1;572.6666666666666;490.0;1;766;769;33.0;Target:5;None
1499716177812;25;1;FSR;SingleFinger;TOUCH_MOVED;1;572.0;490.6666666666667;1;754;769;33.0;Target:5;None
1499716177819;25;1;FSR;SingleFinger;TOUCH_MOVED;1;572.0;492.0;1;761;769;33.0;Target:5;None
1499716177826;25;1;FSR;SingleFinger;TOUCH_MOVED;1;572.0;492.6666666666667;1;761;769;33.0;Target:5;None
1499716177833;25;1;FSR;SingleFinger;TOUCH_MOVED;1;572.0;493.3333333333333;1;747;769;33.0;Target:5;None
1499716177838;25;1;FSR;SingleFinger;TOUCH_MOVED;1;572.0;494.0;1;762;769;33.0;Target:5;None
1499716177845;25;1;FSR;SingleFinger;TOUCH_MOVED;1;572.0;495.3333333333333;1;762;769;33.0;Target:5;None
1499716177846;25;1;FSR;SingleFinger;TOUCH_PRESSED;2;572.0;528.0;2;762;0;33.0;Target:5;Target:5
1499716177871;25;1;FSR;SingleFinger;TOUCH_MOVED;1;571.3333333333334;497.3333333333333;2;769;769;33.0;Target:5;Target:5
1499716177878;25;1;FSR;SingleFinger;TOUCH_MOVED;1;571.3333333333334;498.6666666666667;2;785;785;33.0;Target:5;Target:5
1499716177884;25;1;FSR;SingleFinger;TOUCH_MOVED;1;571.3333333333334;500.6666666666667;2;785;785;33.0;Target:5;Target:5
1499716177891;25;1;FSR;SingleFinger;TOUCH_MOVED;1;571.3333333333334;502.0;2;790;790;33.0;Target:5;Target:5
1499716177898;25;1;FSR;SingleFinger;TOUCH_MOVED;1;571.3333333333334;503.3333333333333;2;796;796;33.0;Target:5;Target:5
1499716177904;25;1;FSR;SingleFinger;TOUCH_MOVED;1;570.6666666666666;504.0;2;796;796;33.0;Target:5;Target:5
1499716177911;25;1;FSR;SingleFinger;TOUCH_RELEASED;2;572.0;528.0;2;790;796;33.0;Target:5;None
1499716177917;25;1;FSR;SingleFinger;TOUCH_MOVED;1;570.0;504.0;1;790;796;33.0;Target:5;Target:5
1499716177923;25;1;FSR;SingleFinger;TOUCH_MOVED;1;570.0;504.6666666666667;1;796;796;33.0;Target:5;Target:5
1499716177943;25;1;FSR;SingleFinger;TOUCH_MOVED;1;569.3333333333334;505.3333333333333;1;777;796;33.0;Target:5;Target:5
1499716177970;25;1;FSR;SingleFinger;TOUCH_MOVED;1;568.6666666666666;505.3333333333333;1;451;796;33.0;Target:5;Target:5
1499716177981;25;1;FSR;SingleFinger;TOUCH_MOVED;1;568.6666666666666;504.6666666666667;1;133;796;33.0;Target:5;Target:5
1499716178007;25;1;FSR;SingleFinger;TOUCH_RELEASED;1;568.6666666666666;504.6666666666667;1;24;796;33.0;Target:5;None
1499716178414;25;1;FSR;SingleFinger;TOUCH_PRESSED;1;593.3333333333334;536.6666666666666;1;384;0;33.0;Target:5;Target:5
1499716178448;25;1;FSR;SingleFinger;BUTTON_TRIGGERED;1;593.3333333333334;536.6666666666666;1;712;0;33.0;Target:5;Target:5
1499716178467;25;1;FSR;SingleFinger;TOUCH_MOVED;1;592.6666666666666;536.6666666666666;1;743;743;33.0;Target:1;Target:5
1499716178505;25;1;FSR;SingleFinger;TOUCH_MOVED;1;592.0;536.6666666666666;1;836;836;33.0;Target:1;Target:5
1499716178512;25;1;FSR;SingleFinger;TOUCH_PRESSED;2;585.3333333333334;551.3333333333334;2;841;0;33.0;Target:1;Target:5
1499716178526;25;1;FSR;SingleFinger;TOUCH_MOVED;1;592.0;537.3333333333334;2;857;857;33.0;Target:1;Target:5
1499716178552;25;1;FSR;SingleFinger;TOUCH_MOVED;1;591.3333333333334;537.3333333333334;2;863;868;33.0;Target:1;Target:5
1499716178565;25;1;FSR;SingleFinger;TOUCH_MOVED;1;590.6666666666666;537.3333333333334;2;878;878;33.0;Target:1;Target:5
1499716178577;25;1;FSR;SingleFinger;TOUCH_RELEASED;2;585.3333333333334;551.3333333333334;2;873;878;33.0;Target:1;None
1499716178584;25;1;FSR;SingleFinger;TOUCH_MOVED;1;590.0;537.3333333333334;1;885;885;33.0;Target:1;Target:5
1499716178597;25;1;FSR;SingleFinger;TOUCH_MOVED;1;589.3333333333334;537.3333333333334;1;875;885;33.0;Target:1;Target:5
1499716178631;25;1;FSR;SingleFinger;TOUCH_MOVED;1;588.6666666666666;537.3333333333334;1;773;885;33.0;Target:1;Target:5
1499716178650;25;1;FSR;SingleFinger;TOUCH_MOVED;1;588.6666666666666;536.6666666666666;1;494;885;33.0;Target:1;Target:5
1499716178664;25;1;FSR;SingleFinger;TOUCH_MOVED;1;588.6666666666666;536.0;1;274;885;33.0;Target:1;Target:5
1499716178667;25;1;FSR;SingleFinger;TOUCH_MOVED;1;588.0;536.0;1;274;885;33.0;Target:1;Target:5
1499716178693;25;1;FSR;SingleFinger;TOUCH_RELEASED;1;588.0;536.0;1;22;885;33.0;Target:1;Target:5
1499716180715;25;1;FSR;SingleFinger;TOUCH_PRESSED;1;759.3333333333334;197.33333333333334;1;610;0;33.0;Target:1;Target:1
1499716180740;25;1;FSR;SingleFinger;TOUCH_MOVED;1;759.3333333333334;198.0;1;713;713;33.0;Target:1;Target:1
1499716180740;25;1;FSR;SingleFinger;BUTTON_TRIGGERED;1;759.3333333333334;197.33333333333334;1;713;713;33.0;Target:1;Target:1
1499716180746;25;1;FSR;SingleFinger;TOUCH_MOVED;1;758.6666666666666;198.0;1;713;713;33.0;Target:6;Target:1
1499716180746;25;1;FSR;SingleFinger;TOUCH_PRESSED;2;753.3333333333334;234.0;2;713;0;33.0;Target:6;Target:1
1499716180755;25;1;FSR;SingleFinger;TOUCH_MOVED;1;758.6666666666666;198.66666666666666;2;706;713;33.0;Target:6;Target:1
1499716180760;25;1;FSR;SingleFinger;TOUCH_MOVED;1;758.6666666666666;199.33333333333334;2;729;729;33.0;Target:6;Target:1
1499716180760;25;1;FSR;SingleFinger;TOUCH_PRESSED;3;812.0;317.3333333333333;3;729;0;33.0;Target:6;Target:2
1499716180767;25;1;FSR;SingleFinger;TOUCH_MOVED;1;758.6666666666666;200.0;3;729;729;33.0;Target:6;Target:1
1499716180767;25;1;FSR;SingleFinger;TOUCH_PRESSED;4;636.6666666666666;171.33333333333334;4;729;0;33.0;Target:6;Target:0
1499716180774;25;1;FSR;SingleFinger;TOUCH_MOVED;1;758.0;200.0;4;722;729;33.0;Target:6;Target:1
1499716180775;25;1;FSR;SingleFinger;TOUCH_PRESSED;5;818.0;293.3333333333333;5;722;0;33.0;Target:6;None
1499716180780;25;1;FSR;SingleFinger;TOUCH_MOVED;1;758.0;200.66666666666666;5;725;729;33.0;Target:6;Target:1
1499716180793;25;1;FSR;SingleFinger;TOUCH_MOVED;1;757.3333333333334;201.33333333333334;5;718;729;33.0;Target:6;Target:1
1499716180793;25;1;FSR;SingleFinger;TOUCH_MOVED;2;753.3333333333334;234.66666666666666;5;718;729;33.0;Target:6;Target:1
1499716180793;25;1;FSR;SingleFinger;TOUCH_MOVED;3;812.0;318.0;5;718;725;33.0;Target:6;Target:2
1499716180800;25;1;FSR;SingleFinger;TOUCH_MOVED;1;757.3333333333334;202.0;5;737;737;33.0;Target:6;Target:1
1499716180801;25;1;FSR;SingleFinger;TOUCH_PRESSED;6;649.3333333333334;438.0;6;737;0;33.0;Target:6;None
1499716180811;25;1;FSR;SingleFinger;TOUCH_MOVED;1;756.6666666666666;202.66666666666666;6;753;753;33.0;Target:6;Target:1
1499716180820;25;1;FSR;SingleFinger;TOUCH_RELEASED;3;812.0;318.0;6;766;766;33.0;Target:6;None
1499716180828;25;1;FSR;SingleFinger;TOUCH_MOVED;1;756.0;203.33333333333334;5;766;766;33.0;Target:6;Target:1
1499716180828;25;1;FSR;SingleFinger;TOUCH_MOVED;2;753.3333333333334;235.33333333333334;5;766;766;33.0;Target:6;Target:1
1499716180828;25;1;FSR;SingleFinger;TOUCH_RELEASED;4;636.6666666666666;171.33333333333334;5;766;766;33.0;Target:6;None
1499716180835;25;1;FSR;SingleFinger;TOUCH_MOVED;5;817.3333333333334;293.3333333333333;4;773;773;33.0;Target:6;None
1499716180840;25;1;FSR;SingleFinger;TOUCH_MOVED;1;756.0;204.0;4;793;793;33.0;Target:6;Target:1
1499716180840;25;1;FSR;SingleFinger;TOUCH_MOVED;2;752.6666666666666;235.33333333333334;4;793;793;33.0;Target:6;Target:1
1499716180847;25;1;FSR;SingleFinger;TOUCH_MOVED;1;755.3333333333334;204.0;4;793;793;33.0;Target:6;Target:1
1499716180860;25;1;FSR;SingleFinger;TOUCH_MOVED;5;816.6666666666666;293.3333333333333;4;819;819;33.0;Target:6;None
1499716180861;25;1;FSR;SingleFinger;TOUCH_MOVED;5;816.0;293.3333333333333;4;819;819;33.0;Target:6;None
1499716180861;25;1;FSR;SingleFinger;TOUCH_RELEASED;6;649.3333333333334;438.0;4;819;819;33.0;Target:6;None
1499716180887;25;1;FSR;SingleFinger;TOUCH_RELEASED;5;816.0;293.3333333333333;3;805;819;33.0;Target:6;None
1499716180906;25;1;FSR;SingleFinger;TOUCH_RELEASED;2;752.6666666666666;235.33333333333334;2;499;819;33.0;Target:6;None
1499716180940;25;1;FSR;SingleFinger;TOUCH_RELEASED;1;755.3333333333334;204.0;1;22;819;33.0;Target:6;Target:1
1499716181827;25;1;FSR;SingleFinger;TOUCH_PRESSED;1;495.3333333333333;450.6666666666667;1;667;0;33.0;Target:6;Target:6
1499716181829;25;1;FSR;SingleFinger;BUTTON_TRIGGERED;1;495.3333333333333;450.6666666666667;1;733;0;33.0;Target:6;Target:6
1499716181860;25;1;FSR;SingleFinger;TOUCH_MOVED;1;495.3333333333333;451.3333333333333;1;752;752;33.0;Target:2;Target:6
1499716181872;25;1;FSR;SingleFinger;TOUCH_MOVED;1;495.3333333333333;452.0;1;787;787;33.0;Target:2;Target:6
1499716181879;25;1;FSR;SingleFinger;TOUCH_MOVED;1;494.6666666666667;452.0;1;787;787;33.0;Target:2;Target:6
1499716181898;25;1;FSR;SingleFinger;TOUCH_MOVED;1;494.6666666666667;452.6666666666667;1;836;836;33.0;Target:2;Target:6
1499716181937;25;1;FSR;SingleFinger;TOUCH_MOVED;1;494.0;452.6666666666667;1;873;874;33.0;Target:2;Target:6
1499716181970;25;1;FSR;SingleFinger;TOUCH_MOVED;1;493.3333333333333;452.6666666666667;1;504;874;33.0;Target:2;Target:6
1499716181976;25;1;FSR;SingleFinger;TOUCH_MOVED;1;493.3333333333333;452.0;1;504;874;33.0;Target:2;Target:6
1499716182016;25;1;FSR;SingleFinger;TOUCH_RELEASED;1;493.3333333333333;452.0;1;23;874;33.0;Target:2;Target:6
1499716182562;25;1;FSR;SingleFinger;TOUCH_PRESSED;1;825.3333333333334;312.0;1;758;0;33.0;Target:2;Target:2
1499716182568;25;1;FSR;SingleFinger;TOUCH_MOVED;1;824.6666666666666;312.0;1;758;0;33.0;Target:2;Target:2
1499716182608;25;1;FSR;SingleFinger;TOUCH_MOVED;1;824.0;312.6666666666667;1;828;828;33.0;Target:2;Target:2
1499716182634;25;1;FSR;SingleFinger;TOUCH_MOVED;1;823.3333333333334;312.6666666666667;1;844;852;33.0;Target:2;Target:2
1499716182641;25;1;FSR;SingleFinger;TOUCH_MOVED;1;823.3333333333334;313.3333333333333;1;862;862;33.0;Target:2;Target:2
1499716182647;25;1;FSR;SingleFinger;TOUCH_MOVED;1;822.6666666666666;313.3333333333333;1;862;862;33.0;Target:2;Target:2
1499716182666;25;1;FSR;SingleFinger;TOUCH_MOVED;1;822.0;314.0;1;860;862;33.0;Target:2;Target:2
1499716182692;25;1;FSR;SingleFinger;TOUCH_MOVED;1;821.3333333333334;314.0;1;838;862;33.0;Target:2;Target:2
1499716182713;25;1;FSR;SingleFinger;TOUCH_MOVED;1;821.3333333333334;314.6666666666667;1;811;862;33.0;Target:2;Target:2
1499716182764;25;1;FSR;SingleFinger;TOUCH_MOVED;1;821.3333333333334;315.3333333333333;1;37;862;33.0;Target:2;Target:2
1499716182785;25;1;FSR;SingleFinger;TOUCH_RELEASED;1;821.3333333333334;315.3333333333333;1;28;862;33.0;Target:2;Target:2
1499716183453;25;1;FSR;SingleFinger;TOUCH_PRESSED;1;828.6666666666666;314.0;1;639;0;33.0;Target:2;Target:2
1499716183461;25;1;FSR;SingleFinger;BUTTON_TRIGGERED;1;828.6666666666666;314.0;1;749;0;33.0;Target:2;Target:2
1499716183492;25;1;FSR;SingleFinger;TOUCH_MOVED;1;828.0;314.0;1;843;843;33.0;Target:7;Target:2
1499716183510;25;1;FSR;SingleFinger;TOUCH_MOVED;1;827.3333333333334;314.6666666666667;1;846;846;33.0;Target:7;Target:2
1499716183530;25;1;FSR;SingleFinger;TOUCH_MOVED;1;826.6666666666666;314.6666666666667;1;865;867;33.0;Target:7;Target:2
1499716183556;25;1;FSR;SingleFinger;TOUCH_MOVED;1;826.0;314.6666666666667;1;891;891;33.0;Target:7;Target:2
1499716183569;25;1;FSR;SingleFinger;TOUCH_MOVED;1;826.0;315.3333333333333;1;887;891;33.0;Target:7;Target:2
1499716183583;25;1;FSR;SingleFinger;TOUCH_MOVED;1;825.3333333333334;315.3333333333333;1;881;891;33.0;Target:7;Target:2
1499716183603;25;1;FSR;SingleFinger;TOUCH_MOVED;1;825.3333333333334;314.6666666666667;1;831;891;33.0;Target:7;Target:2
1499716183623;25;1;FSR;SingleFinger;TOUCH_MOVED;1;824.6666666666666;314.6666666666667;1;679;891;33.0;Target:7;Target:2
1499716183660;25;1;FSR;SingleFinger;TOUCH_MOVED;1;824.6666666666666;314.0;1;70;891;33.0;Target:7;Target:2
1499716183680;25;1;FSR;SingleFinger;TOUCH_RELEASED;1;824.6666666666666;314.0;1;26;891;33.0;Target:7;Target:2
1499716184705;25;1;FSR;SingleFinger;TOUCH_PRESSED;1;462.0;342.6666666666667;1;604;0;33.0;Target:7;Target:7
1499716184721;25;1;FSR;SingleFinger;BUTTON_TRIGGERED;1;462.0;342.6666666666667;1;701;0;33.0;Target:7;Target:7
1499716184744;25;1;FSR;SingleFinger;TOUCH_MOVED;1;462.0;342.0;1;741;741;33.0;Target:3;Target:7
1499716184757;25;1;FSR;SingleFinger;TOUCH_MOVED;1;462.0;341.3333333333333;1;765;765;33.0;Target:3;Target:7
1499716184764;25;1;FSR;SingleFinger;TOUCH_MOVED;1;462.0;340.6666666666667;1;777;777;33.0;Target:3;Target:7
1499716184770;25;1;FSR;SingleFinger;TOUCH_MOVED;1;462.0;340.0;1;777;777;33.0;Target:3;Target:7
1499716184776;25;1;FSR;SingleFinger;TOUCH_MOVED;1;461.3333333333333;338.6666666666667;1;777;777;33.0;Target:3;Target:7
1499716184784;25;1;FSR;SingleFinger;TOUCH_MOVED;1;461.3333333333333;337.3333333333333;1;792;792;33.0;Target:3;Target:7
1499716184789;25;1;FSR;SingleFinger;TOUCH_MOVED;1;460.0;336.0;1;792;792;33.0;Target:3;Target:7
1499716184796;25;1;FSR;SingleFinger;TOUCH_MOVED;1;459.3333333333333;335.3333333333333;1;792;792;33.0;Target:3;Target:7
1499716184802;25;1;FSR;SingleFinger;TOUCH_MOVED;1;459.3333333333333;334.6666666666667;1;804;804;33.0;Target:3;Target:7
1499716184810;25;1;FSR;SingleFinger;TOUCH_MOVED;1;458.6666666666667;333.3333333333333;1;804;804;33.0;Target:3;Target:7
1499716184816;25;1;FSR;SingleFinger;TOUCH_MOVED;1;458.0;332.6666666666667;1;787;804;33.0;Target:3;Target:7
1499716184823;25;1;FSR;SingleFinger;TOUCH_MOVED;1;457.3333333333333;332.0;1;773;804;33.0;Target:3;Target:7
1499716184829;25;1;FSR;SingleFinger;TOUCH_MOVED;1;456.6666666666667;330.6666666666667;1;773;804;33.0;Target:3;Target:7
1499716184836;25;1;FSR;SingleFinger;TOUCH_MOVED;1;456.0;329.3333333333333;1;709;804;33.0;Target:3;Target:7
1499716184842;25;1;FSR;SingleFinger;TOUCH_MOVED;1;455.3333333333333;328.6666666666667;1;601;804;33.0;Target:3;Target:7
1499716184849;25;1;FSR;SingleFinger;TOUCH_MOVED;1;454.6666666666667;326.6666666666667;1;601;804;33.0;Target:3;Target:7
1499716184856;25;1;FSR;SingleFinger;TOUCH_MOVED;1;453.3333333333333;325.3333333333333;1;435;804;33.0;Target:3;Target:7
1499716184862;25;1;FSR;SingleFinger;TOUCH_MOVED;1;452.6666666666667;323.3333333333333;1;108;804;33.0;Target:3;Target:7
1499716184869;25;1;FSR;SingleFinger;TOUCH_MOVED;1;451.3333333333333;321.3333333333333;1;108;804;33.0;Target:3;Target:7
1499716184874;25;1;FSR;SingleFinger;TOUCH_MOVED;1;450.0;319.3333333333333;1;10;804;33.0;Target:3;Target:7
1499716184900;25;1;FSR;SingleFinger;TOUCH_RELEASED;1;450.0;319.3333333333333;1;22;804;33.0;Target:3;Target:7
1499716185820;25;1;FSR;SingleFinger;TOUCH_PRESSED;1;803.3333333333334;441.3333333333333;1;699;0;33.0;Target:3;Target:3
1499716185822;25;1;FSR;SingleFinger;BUTTON_TRIGGERED;1;803.3333333333334;441.3333333333333;1;773;0;33.0;Target:3;Target:3
1499716185859;25;1;FSR;SingleFinger;TOUCH_MOVED;1;802.6666666666666;441.3333333333333;1;813;813;33.0;Target:8;Target:3
1499716185873;25;1;FSR;SingleFinger;TOUCH_MOVED;1;802.6666666666666;442.0;1;830;830;33.0;Target:8;Target:3
1499716185892;25;1;FSR;SingleFinger;TOUCH_MOVED;1;802.0;442.0;1;821;830;33.0;Target:8;Target:3
1499716185898;25;1;FSR;SingleFinger;TOUCH_MOVED;1;802.0;442.6666666666667;1;834;834;33.0;Target:8;Target:3
1499716185932;25;1;FSR;SingleFinger;TOUCH_MOVED;1;801.3333333333334;442.6666666666667;1;822;834;33.0;Target:8;Target:3
1499716185998;25;1;FSR;SingleFinger;TOUCH_MOVED;1;802.0;442.6666666666667;1;31;834;33.0;Target:8;Target:3
1499716186017;25;1;FSR;SingleFinger;TOUCH_RELEASED;1;802.0;442.6666666666667;1;24;834;33.0;Target:8;Target:3
1499716186544;25;1;FSR;SingleFinger;TOUCH_PRESSED;1;510.6666666666667;205.33333333333334;1;721;0;33.0;Target:8;Target:8
1499716186564;25;1;FSR;SingleFinger;TOUCH_MOVED;1;510.6666666666667;206.0;1;755;755;33.0;Target:8;Target:8
1499716186571;25;1;FSR;SingleFinger;TOUCH_MOVED;1;510.6666666666667;206.66666666666666;1;755;755;33.0;Target:8;Target:8
1499716186577;25;1;FSR;SingleFinger;TOUCH_MOVED;1;510.6666666666667;207.33333333333334;1;756;756;33.0;Target:8;Target:8
1499716186583;25;1;FSR;SingleFinger;TOUCH_MOVED;1;510.6666666666667;209.33333333333334;1;781;781;33.0;Target:8;Target:8
1499716186590;25;1;FSR;SingleFinger;TOUCH_MOVED;1;510.6666666666667;210.66666666666666;1;781;781;33.0;Target:8;Target:8
1499716186597;25;1;FSR;SingleFinger;TOUCH_MOVED;1;510.6666666666667;212.66666666666666;1;775;781;33.0;Target:8;Target:8
1499716186604;25;1;FSR;SingleFinger;TOUCH_MOVED;1;510.0;216.0;1;796;796;33.0;Target:8;Target:8
1499716186617;25;1;FSR;SingleFinger;TOUCH_MOVED;1;510.0;218.66666666666666;1;784;796;33.0;Target:8;Target:8
1499716186622;25;1;FSR;SingleFinger;TOUCH_MOVED;1;510.0;220.0;1;802;802;33.0;Target:8;Target:8
1499716186630;25;1;FSR;SingleFinger;TOUCH_MOVED;1;510.0;222.0;1;802;802;33.0;Target:8;Target:8
1499716186636;25;1;FSR;SingleFinger;TOUCH_MOVED;1;510.0;224.0;1;796;802;33.0;Target:8;Target:8
1499716186643;25;1;FSR;SingleFinger;TOUCH_MOVED;1;510.0;225.33333333333334;1;817;817;33.0;Target:8;Target:8
1499716186649;25;1;FSR;SingleFinger;TOUCH_MOVED;1;510.0;227.33333333333334;1;817;817;33.0;Target:8;Target:8
1499716186656;25;1;FSR;SingleFinger;TOUCH_MOVED;1;510.0;228.0;1;812;817;33.0;Target:8;Target:8
1499716186662;25;1;FSR;SingleFinger;TOUCH_MOVED;1;510.0;229.33333333333334;1;825;825;33.0;Target:8;Target:8
1499716186669;25;1;FSR;SingleFinger;TOUCH_MOVED;1;510.0;230.66666666666666;1;825;825;33.0;Target:8;Target:8
1499716186676;25;1;FSR;SingleFinger;TOUCH_MOVED;1;510.0;231.33333333333334;1;814;825;33.0;Target:8;Target:8
1499716186682;25;1;FSR;SingleFinger;TOUCH_MOVED;1;510.0;232.0;1;814;825;33.0;Target:8;Target:8
1499716186689;25;1;FSR;SingleFinger;TOUCH_MOVED;1;509.3333333333333;232.66666666666666;1;814;825;33.0;Target:8;Target:8
1499716186766;25;1;FSR;SingleFinger;TOUCH_RELEASED;1;509.3333333333333;232.66666666666666;1;26;825;33.0;Target:8;Target:8
1499716187981;25;1;FSR;SingleFinger;TOUCH_PRESSED;1;540.6666666666666;212.0;1;489;0;33.0;Target:8;Target:8
1499716187994;25;1;FSR;SingleFinger;BUTTON_TRIGGERED;1;540.6666666666666;212.0;1;703;0;33.0;Target:8;Target:8
1499716188006;25;1;FSR;SingleFinger;TOUCH_MOVED;1;540.0;212.0;1;735;735;33.0;Target:4;Target:8
1499716188019;25;1;FSR;SingleFinger;TOUCH_MOVED;1;539.3333333333334;212.0;1;777;777;33.0;Target:4;Target:8
1499716188026;25;1;FSR;SingleFinger;TOUCH_MOVED;1;538.6666666666666;212.0;1;781;781;33.0;Target:4;Target:8
1499716188039;25;1;FSR;SingleFinger;TOUCH_MOVED;1;538.0;212.0;1;800;800;33.0;Target:4;Target:8
1499716188046;25;1;FSR;SingleFinger;TOUCH_MOVED;1;537.3333333333334;212.0;1;797;800;33.0;Target:4;Target:8
1499716188059;25;1;FSR;SingleFinger;TOUCH_MOVED;1;536.6666666666666;212.0;1;812;812;33.0;Target:4;Target:8
1499716188066;25;1;FSR;SingleFinger;TOUCH_MOVED;1;536.0;212.0;1;805;812;33.0;Target:4;Target:8
1499716188080;25;1;FSR;SingleFinger;TOUCH_MOVED;1;535.3333333333334;212.0;1;822;822;33.0;Target:4;Target:8
1499716188092;25;1;FSR;SingleFinger;TOUCH_MOVED;1;534.6666666666666;212.0;1;813;822;33.0;Target:4;Target:8
1499716188112;25;1;FSR;SingleFinger;TOUCH_MOVED;1;534.0;212.0;1;800;822;33.0;Target:4;Target:8
1499716188132;25;1;FSR;SingleFinger;TOUCH_MOVED;1;533.3333333333334;212.0;1;708;822;33.0;Target:4;Target:8
1499716188138;25;1;FSR;SingleFinger;TOUCH_MOVED;1;533.3333333333334;211.33333333333334;1;517;822;33.0;Target:4;Target:8
1499716188148;25;1;FSR;SingleFinger;TOUCH_MOVED;1;533.3333333333334;210.66666666666666;1;251;822;33.0;Target:4;Target:8
1499716188180;25;1;FSR;SingleFinger;TOUCH_RELEASED;1;533.3333333333334;210.66666666666666;1;20;822;33.0;Target:4;Target:8
1499716189052;25;1;FSR;SingleFinger;TOUCH_PRESSED;1;706.6666666666666;554.0;1;618;0;33.0;Target:4;Target:4
1499716189064;25;1;FSR;SingleFinger;BUTTON_TRIGGERED;1;706.6666666666666;554.0;1;743;0;33.0;Target:4;Target:4
1499716189070;25;1;FSR;SingleFinger;TOUCH_MOVED;1;706.6666666666666;553.3333333333334;1;743;743;27.0;Target:0;Target:4
1499716189089;25;1;FSR;SingleFinger;TOUCH_MOVED;1;706.6666666666666;552.6666666666666;1;784;784;27.0;Target:0;Target:4
1499716189102;25;1;FSR;SingleFinger;TOUCH_MOVED;1;706.0;552.0;1;792;792;27.0;Target:0;Target:4
1499716189122;25;1;FSR;SingleFinger;TOUCH_MOVED;1;706.0;551.3333333333334;1;856;856;27.0;Target:0;Target:4
1499716189136;25;1;FSR;SingleFinger;TOUCH_MOVED;1;706.0;550.6666666666666;1;858;858;27.0;Target:0;Target:4
1499716189149;25;1;FSR;SingleFinger;TOUCH_MOVED;1;706.0;550.0;1;870;870;27.0;Target:0;Target:4
1499716189156;25;1;FSR;SingleFinger;TOUCH_MOVED;1;705.3333333333334;550.0;1;859;870;27.0;Target:0;Target:4
1499716189168;25;1;FSR;SingleFinger;TOUCH_MOVED;1;705.3333333333334;549.3333333333334;1;849;870;27.0;Target:0;Target:4
1499716189181;25;1;FSR;SingleFinger;TOUCH_MOVED;1;705.3333333333334;548.6666666666666;1;801;870;27.0;Target:0;Target:4
1499716189188;25;1;FSR;SingleFinger;TOUCH_MOVED;1;704.6666666666666;548.6666666666666;1;689;870;27.0;Target:0;Target:4
1499716189195;25;1;FSR;SingleFinger;TOUCH_MOVED;1;704.6666666666666;548.0;1;551;870;27.0;Target:0;Target:4
1499716189208;25;1;FSR;SingleFinger;TOUCH_MOVED;1;704.0;547.3333333333334;1;393;870;27.0;Target:0;Target:4
1499716189214;25;1;FSR;SingleFinger;TOUCH_MOVED;1;704.0;546.6666666666666;1;68;870;27.0;Target:0;Target:4
1499716189220;25;1;FSR;SingleFinger;TOUCH_MOVED;1;703.3333333333334;546.0;1;68;870;27.0;Target:0;Target:4
1499716189243;25;1;FSR;SingleFinger;TOUCH_RELEASED;1;703.3333333333334;546.0;1;11;870;27.0;Target:0;Target:4
1499716190228;25;1;FSR;SingleFinger;TOUCH_PRESSED;1;652.6666666666666;210.66666666666666;1;680;0;27.0;Target:0;None
1499716190267;25;1;FSR;SingleFinger;TOUCH_MOVED;1;652.6666666666666;210.0;1;759;766;27.0;Target:0;None
1499716190288;25;1;FSR;SingleFinger;TOUCH_MOVED;1;652.6666666666666;209.33333333333334;1;741;766;27.0;Target:0;None
1499716190294;25;1;FSR;SingleFinger;TOUCH_MOVED;1;652.0;208.66666666666666;1;724;766;27.0;Target:0;None
1499716190301;25;1;FSR;SingleFinger;TOUCH_MOVED;1;652.0;207.33333333333334;1;724;766;27.0;Target:0;None
1499716190307;25;1;FSR;SingleFinger;TOUCH_MOVED;1;651.3333333333334;206.0;1;687;766;27.0;Target:0;None
1499716190314;25;1;FSR;SingleFinger;TOUCH_MOVED;1;650.6666666666666;204.0;1;692;766;27.0;Target:0;Target:0
1499716190320;25;1;FSR;SingleFinger;TOUCH_MOVED;1;650.0;202.66666666666666;1;692;766;27.0;Target:0;Target:0
1499716190326;25;1;FSR;SingleFinger;TOUCH_MOVED;1;649.3333333333334;200.0;1;651;766;27.0;Target:0;Target:0
1499716190333;25;1;FSR;SingleFinger;TOUCH_MOVED;1;648.6666666666666;198.0;1;651;766;27.0;Target:0;Target:0
1499716190338;25;1;FSR;SingleFinger;TOUCH_MOVED;1;648.0;196.0;1;596;766;27.0;Target:0;Target:0
1499716190345;25;1;FSR;SingleFinger;TOUCH_MOVED;1;647.3333333333334;193.33333333333334;1;483;766;27.0;Target:0;Target:0
1499716190351;25;1;FSR;SingleFinger;TOUCH_MOVED;1;646.6666666666666;190.66666666666666;1;483;766;27.0;Target:0;Target:0
1499716190358;25;1;FSR;SingleFinger;TOUCH_MOVED;1;645.3333333333334;188.0;1;294;766;27.0;Target:0;Target:0
1499716190365;25;1;FSR;SingleFinger;TOUCH_MOVED;1;644.0;185.33333333333334;1;55;766;27.0;Target:0;Target:0
1499716190368;25;1;FSR;SingleFinger;TOUCH_MOVED;1;642.6666666666666;182.0;1;55;766;27.0;Target:0;Target:0
1499716190389;25;1;FSR;SingleFinger;TOUCH_RELEASED;1;642.6666666666666;182.0;1;11;766;27.0;Target:0;None
1499716190849;25;1;FSR;SingleFinger;TOUCH_PRESSED;1;638.6666666666666;170.0;1;703;0;27.0;Target:0;Target:0
1499716190914;25;1;FSR;SingleFinger;TOUCH_PRESSED;2;626.6666666666666;179.33333333333334;2;817;0;27.0;Target:0;Target:0
1499716190914;25;1;FSR;SingleFinger;TOUCH_PRESSED;3;636.0;200.66666666666666;3;817;0;27.0;Target:0;Target:0
1499716190920;25;1;FSR;SingleFinger;TOUCH_MOVED;3;636.0;200.0;3;817;0;27.0;Target:0;Target:0
1499716190920;25;1;FSR;SingleFinger;TOUCH_PRESSED;4;748.0;204.66666666666666;4;817;0;27.0;Target:0;Target:1
1499716190927;25;1;FSR;SingleFinger;TOUCH_MOVED;1;638.6666666666666;170.66666666666666;4;808;817;27.0;Target:0;Target:0
1499716190932;25;1;FSR;SingleFinger;TOUCH_MOVED;3;636.0;198.66666666666666;4;808;808;27.0;Target:0;Target:0
1499716190980;25;1;FSR;SingleFinger;TOUCH_RELEASED;3;636.0;198.66666666666666;4;724;820;27.0;Target:0;None
1499716190987;25;1;FSR;SingleFinger;TOUCH_MOVED;1;638.6666666666666;170.0;3;560;820;27.0;Target:0;Target:0
1499716190987;25;1;FSR;SingleFinger;TOUCH_RELEASED;2;626.6666666666666;179.33333333333334;3;560;820;27.0;Target:0;None
1499716190993;25;1;FSR;SingleFinger;TOUCH_RELEASED;4;748.0;204.66666666666666;2;560;820;27.0;Target:0;None
1499716191030;25;1;FSR;SingleFinger;TOUCH_RELEASED;1;638.6666666666666;170.0;1;30;820;27.0;Target:0;Target:0
1499716191942;25;1;FSR;SingleFinger;TOUCH_PRESSED;1;647.3333333333334;130.0;1;572;0;27.0;Target:0;None
1499716191973;25;1;FSR;SingleFinger;TOUCH_MOVED;1;646.6666666666666;130.0;1;765;765;27.0;Target:0;None
1499716192000;25;1;FSR;SingleFinger;TOUCH_MOVED;1;646.0;130.0;1;794;796;27.0;Target:0;None
1499716192013;25;1;FSR;SingleFinger;TOUCH_MOVED;1;646.0;130.66666666666666;1;811;811;27.0;Target:0;None
1499716192026;25;1;FSR;SingleFinger;TOUCH_MOVED;1;645.3333333333334;130.66666666666666;1;819;819;27.0;Target:0;None
1499716192026;25;1;FSR;SingleFinger;TOUCH_PRESSED;2;640.0;160.0;2;819;0;27.0;Target:0;Target:0
1499716192038;25;1;FSR;SingleFinger;TOUCH_MOVED;1;645.3333333333334;131.33333333333334;2;805;819;27.0;Target:0;None
1499716192059;25;1;FSR;SingleFinger;TOUCH_MOVED;1;644.6666666666666;131.33333333333334;2;802;819;27.0;Target:0;None
1499716192065;25;1;FSR;SingleFinger;TOUCH_MOVED;1;644.6666666666666;132.0;2;809;819;27.0;Target:0;None
1499716192091;25;1;FSR;SingleFinger;TOUCH_RELEASED;2;640.0;160.0;2;802;818;27.0;Target:0;None
1499716192098;25;1;FSR;SingleFinger;TOUCH_MOVED;1;644.6666666666666;132.66666666666666;1;789;819;27.0;Target:0;None
1499716192104;25;1;FSR;SingleFinger;TOUCH_MOVED;1;644.0;132.66666666666666;1;789;819;27.0;Target:0;None
1499716192125;25;1;FSR;SingleFinger;TOUCH_MOVED;1;644.0;133.33333333333334;1;787;819;27.0;Target:0;None
1499716192130;25;1;FSR;SingleFinger;TOUCH_MOVED;1;643.3333333333334;134.0;1;793;819;27.0;Target:0;None
1499716192143;25;1;FSR;SingleFinger;TOUCH_MOVED;1;643.3333333333334;134.66666666666666;1;778;819;27.0;Target:0;None
1499716192150;25;1;FSR;SingleFinger;TOUCH_MOVED;1;643.3333333333334;135.33333333333334;1;778;819;27.0;Target:0;None
1499716192164;25;1;FSR;SingleFinger;TOUCH_MOVED;1;643.3333333333334;136.0;1;757;819;27.0;Target:0;None
1499716192171;25;1;FSR;SingleFinger;TOUCH_MOVED;1;642.6666666666666;136.0;1;745;819;27.0;Target:0;None
1499716192184;25;1;FSR;SingleFinger;TOUCH_MOVED;1;642.6666666666666;136.66666666666666;1;693;819;27.0;Target:0;None
1499716192204;25;1;FSR;SingleFinger;TOUCH_MOVED;1;642.6666666666666;137.33333333333334;1;406;819;27.0;Target:0;None
1499716192237;25;1;FSR;SingleFinger;TOUCH_RELEASED;1;642.6666666666666;137.33333333333334;1;28;819;27.0;Target:0;None
1499716192338;25;1;FSR;SingleFinger;TOUCH_PRESSED;1;636.6666666666666;192.0;1;247;0;27.0;Target:0;Target:0
1499716192360;25;1;FSR;SingleFinger;TOUCH_MOVED;1;636.6666666666666;191.33333333333334;1;526;526;27.0;Target:0;Target:0
1499716192373;25;1;FSR;SingleFinger;TOUCH_MOVED;1;637.3333333333334;191.33333333333334;1;536;536;27.0;Target:0;Target:0
1499716192380;25;1;FSR;SingleFinger;TOUCH_MOVED;1;637.3333333333334;190.66666666666666;1;544;544;27.0;Target:0;Target:0
1499716192385;25;1;FSR;SingleFinger;TOUCH_MOVED;1;637.3333333333334;190.0;1;574;574;27.0;Target:0;Target:0
1499716192392;25;1;FSR;SingleFinger;TOUCH_MOVED;1;638.0;188.66666666666666;1;574;574;27.0;Target:0;Target:0
1499716192398;25;1;FSR;SingleFinger;TOUCH_MOVED;1;638.6666666666666;186.66666666666666;1;602;602;27.0;Target:0;Target:0
1499716192406;25;1;FSR;SingleFinger;TOUCH_MOVED;1;639.3333333333334;184.0;1;665;665;27.0;Target:0;Target:0
1499716192412;25;1;FSR;SingleFinger;TOUCH_MOVED;1;640.0;181.33333333333334;1;665;665;27.0;Target:0;Target:0
1499716192415;25;1;FSR;SingleFinger;BUTTON_TRIGGERED;1;636.6666666666666;192.0;1;716;665;27.0;Target:0;Target:0
1499716192419;25;1;FSR;SingleFinger;TOUCH_MOVED;1;640.0;179.33333333333334;1;716;716;27.0;Target:5;Target:0
1499716192425;25;1;FSR;SingleFinger;TOUCH_MOVED;1;640.0;177.33333333333334;1;794;794;27.0;Target:5;Target:0
1499716192431;25;1;FSR;SingleFinger;TOUCH_MOVED;1;640.6666666666666;176.0;1;794;794;27.0;Target:5;Target:0
1499716192438;25;1;FSR;SingleFinger;TOUCH_MOVED;1;640.6666666666666;174.0;1;823;823;27.0;Target:5;Target:0
1499716192445;25;1;FSR;SingleFinger;TOUCH_MOVED;1;640.6666666666666;173.33333333333334;1;823;823;27.0;Target:5;Target:0
1499716192450;25;1;FSR;SingleFinger;TOUCH_MOVED;1;640.6666666666666;172.0;1;862;862;27.0;Target:5;Target:0
1499716192458;25;1;FSR;SingleFinger;TOUCH_MOVED;1;640.6666666666666;171.33333333333334;1;865;865;27.0;Target:5;Target:0
1499716192464;25;1;FSR;SingleFinger;TOUCH_MOVED;1;640.0;170.0;1;865;865;27.0;Target:5;Target:0
1499716192470;25;1;FSR;SingleFinger;TOUCH_MOVED;1;640.0;169.33333333333334;1;883;883;27.0;Target:5;Target:0
1499716192478;25;1;FSR;SingleFinger;TOUCH_MOVED;1;640.0;168.66666666666666;1;882;883;27.0;Target:5;Target:0
1499716192484;25;1;FSR;SingleFinger;TOUCH_MOVED;1;640.0;168.0;1;882;883;27.0;Target:5;Target:0
1499716192490;25;1;FSR;SingleFinger;TOUCH_MOVED;1;640.0;167.33333333333334;1;898;898;27.0;Target:5;Target:0
1499716192498;25;1;FSR;SingleFinger;TOUCH_MOVED;1;640.0;166.66666666666666;1;885;898;27.0;Target:5;Target:0
1499716192504;25;1;FSR;SingleFinger;TOUCH_MOVED;1;640.0;166.0;1;885;898;27.0;Target:5;Target:0
1499716192511;25;1;FSR;SingleFinger;TOUCH_MOVED;1;640.0;165.33333333333334;1;897;898;27.0;Target:5;Target:0
1499716192517;25;1;FSR;SingleFinger;TOUCH_MOVED;1;639.3333333333334;164.66666666666666;1;895;898;27.0;Target:5;Target:0
1499716192524;25;1;FSR;SingleFinger;TOUCH_MOVED;1;639.3333333333334;164.0;1;895;898;27.0;Target:5;Target:0
1499716192536;25;1;FSR;SingleFinger;TOUCH_MOVED;1;639.3333333333334;163.33333333333334;1;881;898;27.0;Target:5;Target:0
1499716192543;25;1;FSR;SingleFinger;TOUCH_MOVED;1;639.3333333333334;162.66666666666666;1;881;898;27.0;Target:5;Target:0
1499716192556;25;1;FSR;SingleFinger;TOUCH_MOVED;1;639.3333333333334;162.0;1;829;898;27.0;Target:5;Target:0
1499716192563;25;1;FSR;SingleFinger;TOUCH_MOVED;1;638.6666666666666;162.0;1;829;898;27.0;Target:5;Target:0
1499716192569;25;1;FSR;SingleFinger;TOUCH_MOVED;1;638.6666666666666;161.33333333333334;1;771;898;27.0;Target:5;Target:0
1499716192609;25;1;FSR;SingleFinger;TOUCH_MOVED;1;638.6666666666666;162.0;1;633;898;27.0;Target:5;Target:0
1499716192615;25;1;FSR;SingleFinger;TOUCH_MOVED;1;638.6666666666666;164.0;1;606;898;27.0;Target:5;Target:0
1499716192622;25;1;FSR;SingleFinger;TOUCH_MOVED;1;638.6666666666666;167.33333333333334;1;606;898;27.0;Target:5;Target:0
1499716192629;25;1;FSR;SingleFinger;TOUCH_MOVED;1;640.0;172.0;1;497;898;27.0;Target:5;Target:0
1499716192635;25;1;FSR;SingleFinger;TOUCH_MOVED;1;642.0;180.0;1;256;898;27.0;Target:5;Target:0
1499716192642;25;1;FSR;SingleFinger;TOUCH_MOVED;1;644.6666666666666;190.0;1;256;898;27.0;Target:5;Target:0
1499716192648;25;1;FSR;SingleFinger;TOUCH_MOVED;1;648.0;200.66666666666666;1;70;898;27.0;Target:5;Target:0
1499716192653;25;1;FSR;SingleFinger;TOUCH_MOVED;1;651.3333333333334;212.66666666666666;1;70;898;27.0;Target:5;None
1499716192659;25;1;FSR;SingleFinger;TOUCH_MOVED;1;654.6666666666666;225.33333333333334;1;23;898;27.0;Target:5;None
1499716192678;25;1;FSR;SingleFinger;TOUCH_RELEASED;1;654.6666666666666;225.33333333333334;1;27;898;27.0;Target:5;None
1499716193288;25;1;FSR;SingleFinger;TOUCH_PRESSED;1;592.0;518.0;1;619;0;27.0;Target:5;Target:5
1499716193295;25;1;FSR;SingleFinger;BUTTON_TRIGGERED;1;592.0;518.0;1;738;0;27.0;Target:5;Target:5
1499716193312;25;1;FSR;SingleFinger;TOUCH_MOVED;1;592.0;517.3333333333334;1;800;800;27.0;Target:1;Target:5
1499716193386;25;1;FSR;SingleFinger;TOUCH_PRESSED;2;578.6666666666666;521.3333333333334;2;865;0;27.0;Target:1;Target:5
1499716193392;25;1;FSR;SingleFinger;TOUCH_MOVED;1;591.3333333333334;517.3333333333334;2;865;865;27.0;Target:1;Target:5
1499716193437;25;1;FSR;SingleFinger;TOUCH_RELEASED;1;591.3333333333334;517.3333333333334;2;843;867;27.0;Target:1;Target:5
1499716193542;25;1;FSR;SingleFinger;TOUCH_RELEASED;2;578.6666666666666;521.3333333333334;1;21;867;27.0;Target:1;None
1499716194370;25;1;FSR;SingleFinger;TOUCH_PRESSED;1;765.3333333333334;164.0;1;755;0;27.0;Target:1;None
1499716194395;25;1;FSR;SingleFinger;TOUCH_PRESSED;2;750.6666666666666;163.33333333333334;2;821;0;27.0;Target:1;None
1499716194435;25;1;FSR;SingleFinger;TOUCH_RELEASED;1;765.3333333333334;164.0;2;827;839;27.0;Target:1;None
1499716194442;25;1;FSR;SingleFinger;TOUCH_MOVED;2;750.6666666666666;164.0;1;833;839;27.0;Target:1;None
1499716194474;25;1;FSR;SingleFinger;TOUCH_MOVED;2;750.6666666666666;164.66666666666666;1;790;839;27.0;Target:1;None
1499716194500;25;1;FSR;SingleFinger;TOUCH_MOVED;2;750.6666666666666;165.33333333333334;1;748;839;27.0;Target:1;None
1499716194513;25;1;FSR;SingleFinger;TOUCH_MOVED;2;751.3333333333334;166.0;1;737;839;27.0;Target:1;None
1499716194520;25;1;FSR;SingleFinger;TOUCH_MOVED;2;751.3333333333334;166.66666666666666;1;714;839;27.0;Target:1;None
1499716194527;25;1;FSR;SingleFinger;TOUCH_MOVED;2;751.3333333333334;167.33333333333334;1;693;839;27.0;Target:1;None
1499716194533;25;1;FSR;SingleFinger;TOUCH_MOVED;2;752.0;168.66666666666666;1;693;839;27.0;Target:1;None
1499716194540;25;1;FSR;SingleFinger;TOUCH_MOVED;2;753.3333333333334;170.66666666666666;1;649;839;27.0;Target:1;None
1499716194547;25;1;FSR;SingleFinger;TOUCH_MOVED;2;754.0;172.66666666666666;1;595;839;27.0;Target:1;None
1499716194553;25;1;FSR;SingleFinger;TOUCH_MOVED;2;754.6666666666666;175.33333333333334;1;595;839;27.0;Target:1;None
1499716194561;25;1;FSR;SingleFinger;TOUCH_MOVED;2;755.3333333333334;177.33333333333334;1;429;839;27.0;Target:1;None
1499716194567;25;1;FSR;SingleFinger;TOUCH_MOVED;2;756.0;180.0;1;120;839;27.0;Target:1;None
1499716194573;25;1;FSR;SingleFinger;TOUCH_MOVED;2;756.6666666666666;183.33333333333334;1;120;839;27.0;Target:1;None
1499716194579;25;1;FSR;SingleFinger;TOUCH_MOVED;2;756.6666666666666;187.33333333333334;1;26;839;27.0;Target:1;None
1499716194599;25;1;FSR;SingleFinger;TOUCH_RELEASED;2;756.6666666666666;187.33333333333334;1;25;839;27.0;Target:1;None
1499716195249;25;1;FSR;SingleFinger;TOUCH_PRESSED;1;746.6666666666666;180.66666666666666;1;555;0;27.0;Target:1;None
1499716195266;25;1;FSR;SingleFinger;TOUCH_MOVED;1;747.3333333333334;181.33333333333334;1;691;691;27.0;Target:1;None
1499716195273;25;1;FSR;SingleFinger;TOUCH_MOVED;1;746.6666666666666;182.66666666666666;1;691;691;27.0;Target:1;None
1499716195279;25;1;FSR;SingleFinger;TOUCH_MOVED;1;747.3333333333334;184.66666666666666;1;693;693;27.0;Target:1;None
1499716195285;25;1;FSR;SingleFinger;TOUCH_MOVED;1;746.6666666666666;187.33333333333334;1;693;693;27.0;Target:1;None
1499716195292;25;1;FSR;SingleFinger;TOUCH_MOVED;1;747.3333333333334;190.66666666666666;1;715;715;27.0;Target:1;None
1499716195298;25;1;FSR;SingleFinger;TOUCH_MOVED;1;747.3333333333334;194.66666666666666;1;715;715;27.0;Target:1;None
1499716195306;25;1;FSR;SingleFinger;TOUCH_MOVED;1;747.3333333333334;200.0;1;715;715;27.0;Target:1;Target:1
1499716195311;25;1;FSR;SingleFinger;TOUCH_MOVED;1;748.0;204.0;1;742;742;27.0;Target:1;Target:1
1499716195318;25;1;FSR;SingleFinger;TOUCH_MOVED;1;748.0;209.33333333333334;1;745;745;27.0;Target:1;Target:1
1499716195318;25;1;FSR;SingleFinger;TOUCH_PRESSED;2;750.6666666666666;274.6666666666667;2;745;0;27.0;Target:1;None
1499716195326;25;1;FSR;SingleFinger;TOUCH_MOVED;1;748.6666666666666;215.33333333333334;2;745;745;27.0;Target:1;Target:1
1499716195332;25;1;FSR;SingleFinger;TOUCH_MOVED;1;749.3333333333334;220.0;2;763;763;27.0;Target:1;Target:1
1499716195338;25;1;FSR;SingleFinger;TOUCH_MOVED;1;750.0;226.0;2;760;763;27.0;Target:1;Target:1
1499716195345;25;1;FSR;SingleFinger;TOUCH_MOVED;1;750.0;230.66666666666666;2;760;763;27.0;Target:1;Target:1
1499716195352;25;1;FSR;SingleFinger;TOUCH_MOVED;1;750.6666666666666;235.33333333333334;2;773;773;27.0;Target:1;Target:1
1499716195359;25;1;FSR;SingleFinger;TOUCH_MOVED;1;750.6666666666666;239.33333333333334;2;770;773;27.0;Target:1;Target:1
1499716195365;25;1;FSR;SingleFinger;TOUCH_MOVED;1;751.3333333333334;246.66666666666666;2;770;773;27.0;Target:1;Target:1
1499716195377;25;1;FSR;SingleFinger;TOUCH_MOVED;2;750.6666666666666;275.3333333333333;2;804;804;27.0;Target:1;None
1499716195384;25;1;FSR;SingleFinger;TOUCH_RELEASED;2;750.6666666666666;275.3333333333333;2;804;804;27.0;Target:1;None
1499716195394;25;1;FSR;SingleFinger;TOUCH_RELEASED;1;751.3333333333334;246.66666666666666;1;804;804;27.0;Target:1;None
1499716195411;25;1;FSR;SingleFinger;TOUCH_PRESSED;1;750.6666666666666;275.3333333333333;1;820;0;27.0;Target:1;None
1499716195445;25;1;FSR;SingleFinger;TOUCH_MOVED;1;750.6666666666666;274.6666666666667;1;830;832;27.0;Target:1;None
1499716195457;25;1;FSR;SingleFinger;TOUCH_MOVED;1;750.6666666666666;274.0;1;779;832;27.0;Target:1;None
1499716195470;25;1;FSR;SingleFinger;TOUCH_MOVED;1;751.3333333333334;273.3333333333333;1;698;832;27.0;Target:1;None
1499716195482;25;1;FSR;SingleFinger;TOUCH_MOVED;1;751.3333333333334;272.6666666666667;1;517;832;27.0;Target:1;None
1499716195489;25;1;FSR;SingleFinger;TOUCH_MOVED;1;751.3333333333334;272.0;1;263;832;27.0;Target:1;None
1499716195495;25;1;FSR;SingleFinger;TOUCH_MOVED;1;751.3333333333334;271.3333333333333;1;263;832;27.0;Target:1;None
1499716195505;25;1;FSR;SingleFinger;TOUCH_MOVED;1;752.0;270.6666666666667;1;62;832;27.0;Target:1;None
1499716195524;25;1;FSR;SingleFinger;TOUCH_RELEASED;1;752.0;270.6666666666667;1;22;832;27.0;Target:1;None
1499716195772;25;1;FSR;SingleFinger;TOUCH_PRESSED;1;755.3333333333334;230.66666666666666;1;705;0;27.0;Target:1;Target:1
1499716195850;25;1;FSR;SingleFinger;TOUCH_MOVED;1;754.6666666666666;230.66666666666666;1;843;853;27.0;Target:1;Target:1
1499716195857;25;1;FSR;SingleFinger;TOUCH_MOVED;1;754.6666666666666;231.33333333333334;1;860;860;27.0;Target:1;Target:1
1499716195858;25;1;FSR;SingleFinger;TOUCH_PRESSED;2;750.0;258.6666666666667;2;860;0;27.0;Target:1;None
1499716195923;25;1;FSR;SingleFinger;TOUCH_RELEASED;2;750.0;258.6666666666667;2;855;866;27.0;Target:1;None
1499716195953;25;1;FSR;SingleFinger;TOUCH_MOVED;1;754.6666666666666;230.66666666666666;1;373;866;27.0;Target:1;Target:1
1499716195984;25;1;FSR;SingleFinger;TOUCH_RELEASED;1;754.6666666666666;230.66666666666666;1;22;866;27.0;Target:1;Target:1
1499716196423;25;1;FSR;SingleFinger;TOUCH_PRESSED;1;755.3333333333334;236.66666666666666;1;614;0;27.0;Target:1;Target:1
1499716196426;25;1;FSR;SingleFinger;BUTTON_TRIGGERED;1;755.3333333333334;236.66666666666666;1;710;0;27.0;Target:1;Target:1
1499716196474;25;1;FSR;SingleFinger;TOUCH_MOVED;1;755.3333333333334;236.0;1;821;821;27.0;Target:6;Target:1
1499716196501;25;1;FSR;SingleFinger;TOUCH_MOVED;1;755.3333333333334;235.33333333333334;1;866;872;27.0;Target:6;Target:1
1499716196507;25;1;FSR;SingleFinger;TOUCH_MOVED;1;754.6666666666666;235.33333333333334;1;885;885;27.0;Target:6;Target:1
1499716196533;25;1;FSR;SingleFinger;TOUCH_MOVED;1;754.6666666666666;234.66666666666666;1;893;893;27.0;Target:6;Target:1
1499716196541;25;1;FSR;SingleFinger;TOUCH_MOVED;1;754.0;234.66666666666666;1;879;893;27.0;Target:6;Target:1
1499716196547;25;1;FSR;SingleFinger;TOUCH_MOVED;1;754.0;234.0;1;895;895;27.0;Target:6;Target:1
1499716196560;25;1;FSR;SingleFinger;TOUCH_MOVED;1;753.3333333333334;233.33333333333334;1;876;895;27.0;Target:6;Target:1
1499716196573;25;1;FSR;SingleFinger;TOUCH_MOVED;1;753.3333333333334;232.66666666666666;1;885;895;27.0;Target:6;Target:1
1499716196580;25;1;FSR;SingleFinger;TOUCH_MOVED;1;752.6666666666666;232.66666666666666;1;863;895;27.0;Target:6;Target:1
1499716196593;25;1;FSR;SingleFinger;TOUCH_MOVED;1;752.6666666666666;232.0;1;841;895;27.0;Target:6;Target:1
1499716196607;25;1;FSR;SingleFinger;TOUCH_MOVED;1;752.0;231.33333333333334;1;668;895;27.0;Target:6;Target:1
1499716196620;25;1;FSR;SingleFinger;TOUCH_MOVED;1;752.0;230.66666666666666;1;465;895;27.0;Target:6;Target:1
1499716196631;25;1;FSR;SingleFinger;TOUCH_MOVED;1;751.3333333333334;230.0;1;289;895;27.0;Target:6;Target:1
1499716196641;25;1;FSR;SingleFinger;TOUCH_MOVED;1;751.3333333333334;229.33333333333334;1;145;895;27.0;Target:6;Target:1
1499716196666;25;1;FSR;SingleFinger;TOUCH_RELEASED;1;751.3333333333334;229.33333333333334;1;22;895;27.0;Target:6;Target:1
1499716197182;25;1;FSR;SingleFinger;TOUCH_PRESSED;1;493.3333333333333;428.6666666666667;1;679;0;27.0;Target:6;Target:6
1499716197188;25;1;FSR;SingleFinger;BUTTON_TRIGGERED;1;493.3333333333333;428.6666666666667;1;776;0;27.0;Target:6;Target:6
1499716197194;25;1;FSR;SingleFinger;TOUCH_MOVED;1;493.3333333333333;429.3333333333333;1;776;776;27.0;Target:2;Target:6
1499716197208;25;1;FSR;SingleFinger;TOUCH_MOVED;1;493.3333333333333;430.0;1;793;793;27.0;Target:2;Target:6
1499716197213;25;1;FSR;SingleFinger;TOUCH_MOVED;1;493.3333333333333;430.6666666666667;1;793;793;27.0;Target:2;Target:6
1499716197221;25;1;FSR;SingleFinger;TOUCH_MOVED;1;493.3333333333333;431.3333333333333;1;798;798;27.0;Target:2;Target:6
1499716197226;25;1;FSR;SingleFinger;TOUCH_MOVED;1;492.6666666666667;432.0;1;798;798;27.0;Target:2;Target:6
1499716197226;25;1;FSR;SingleFinger;TOUCH_PRESSED;2;491.3333333333333;468.0;2;798;0;27.0;Target:2;Target:6
1499716197233;25;1;FSR;SingleFinger;TOUCH_MOVED;1;492.0;432.6666666666667;2;822;822;27.0;Target:2;Target:6
1499716197246;25;1;FSR;SingleFinger;TOUCH_MOVED;1;492.0;433.3333333333333;2;822;822;27.0;Target:2;Target:6
1499716197254;25;1;FSR;SingleFinger;TOUCH_MOVED;1;491.3333333333333;434.0;2;844;844;27.0;Target:2;Target:6
1499716197260;25;1;FSR;SingleFinger;TOUCH_MOVED;1;491.3333333333333;434.6666666666667;2;837;844;27.0;Target:2;Target:6
1499716197266;25;1;FSR;SingleFinger;TOUCH_MOVED;1;490.6666666666667;435.3333333333333;2;837;844;27.0;Target:2;Target:6
1499716197280;25;1;FSR;SingleFinger;TOUCH_MOVED;1;490.0;436.0;2;846;850;27.0;Target:2;Target:6
1499716197293;25;1;FSR;SingleFinger;TOUCH_MOVED;1;489.3333333333333;436.6666666666667;2;858;858;27.0;Target:2;Target:6
1499716197300;25;1;FSR;SingleFinger;TOUCH_MOVED;1;488.6666666666667;437.3333333333333;2;854;858;27.0;Target:2;Target:6
1499716197300;25;1;FSR;SingleFinger;TOUCH_RELEASED;2;491.3333333333333;468.0;2;854;858;27.0;Target:2;None
1499716197313;25;1;FSR;SingleFinger;TOUCH_MOVED;1;488.0;437.3333333333333;1;861;861;27.0;Target:2;Target:6
1499716197320;25;1;FSR;SingleFinger;TOUCH_MOVED;1;487.3333333333333;437.3333333333333;1;819;861;27.0;Target:2;Target:6
1499716197340;25;1;FSR;SingleFinger;TOUCH_MOVED;1;486.6666666666667;437.3333333333333;1;513;861;27.0;Target:2;Target:6
1499716197356;25;1;FSR;SingleFinger;TOUCH_MOVED;1;486.0;436.6666666666667;1;257;861;27.0;Target:2;Target:6
1499716197377;25;1;FSR;SingleFinger;TOUCH_RELEASED;1;486.0;436.6666666666667;1;28;861;27.0;Target:2;Target:6
1499716198062;25;1;FSR;SingleFinger;TOUCH_PRESSED;1;824.0;294.6666666666667;1;700;0;27.0;Target:2;None
1499716198081;25;1;FSR;SingleFinger;TOUCH_MOVED;1;824.0;295.3333333333333;1;777;777;27.0;Target:2;None
1499716198087;25;1;FSR;SingleFinger;TOUCH_MOVED;1;824.0;296.0;1;799;799;27.0;Target:2;None
1499716198094;25;1;FSR;SingleFinger;TOUCH_MOVED;1;823.3333333333334;296.0;1;799;799;27.0;Target:2;None
1499716198100;25;1;FSR;SingleFinger;TOUCH_MOVED;1;823.3333333333334;296.6666666666667;1;800;800;27.0;Target:2;None
1499716198107;25;1;FSR;SingleFinger;TOUCH_MOVED;1;823.3333333333334;297.3333333333333;1;800;800;27.0;Target:2;None
1499716198113;25;1;FSR;SingleFinger;TOUCH_MOVED;1;823.3333333333334;298.0;1;820;820;27.0;Target:2;None
1499716198120;25;1;FSR;SingleFinger;TOUCH_MOVED;1;822.6666666666666;298.0;1;817;820;27.0;Target:2;None
1499716198127;25;1;FSR;SingleFinger;TOUCH_MOVED;1;822.6666666666666;298.6666666666667;1;817;820;27.0;Target:2;None
1499716198133;25;1;FSR;SingleFinger;TOUCH_MOVED;1;822.0;299.3333333333333;1;834;834;27.0;Target:2;None
1499716198139;25;1;FSR;SingleFinger;TOUCH_MOVED;1;822.0;300.6666666666667;1;827;834;27.0;Target:2;None
1499716198146;25;1;FSR;SingleFinger;TOUCH_MOVED;1;822.0;301.3333333333333;1;827;834;27.0;Target:2;None
1499716198154;25;1;FSR;SingleFinger;TOUCH_MOVED;1;821.3333333333334;301.3333333333333;1;839;839;27.0;Target:2;None
1499716198160;25;1;FSR;SingleFinger;TOUCH_MOVED;1;821.3333333333334;302.0;1;836;839;27.0;Target:2;None
1499716198173;25;1;FSR;SingleFinger;TOUCH_MOVED;1;821.3333333333334;302.6666666666667;1;841;841;27.0;Target:2;Target:2
1499716198186;25;1;FSR;SingleFinger;TOUCH_MOVED;1;820.6666666666666;302.6666666666667;1;831;841;27.0;Target:2;Target:2
1499716198193;25;1;FSR;SingleFinger;TOUCH_MOVED;1;820.6666666666666;303.3333333333333;1;833;841;27.0;Target:2;Target:2
1499716198225;25;1;FSR;SingleFinger;TOUCH_MOVED;1;820.6666666666666;304.0;1;768;841;27.0;Target:2;Target:2
1499716198232;25;1;FSR;SingleFinger;TOUCH_MOVED;1;820.0;304.0;1;695;841;27.0;Target:2;Target:2
1499716198283;25;1;FSR;SingleFinger;TOUCH_RELEASED;1;820.0;304.0;1;26;841;27.0;Target:2;None
1499716198635;25;1;FSR;SingleFinger;TOUCH_PRESSED;1;806.0;300.0;1;238;0;27.0;Target:2;None
1499716198673;25;1;FSR;SingleFinger;TOUCH_MOVED;1;806.0;300.6666666666667;1;743;743;27.0;Target:2;None
1499716198679;25;1;FSR;SingleFinger;TOUCH_MOVED;1;805.3333333333334;301.3333333333333;1;769;769;27.0;Target:2;None
1499716198685;25;1;FSR;SingleFinger;TOUCH_MOVED;1;805.3333333333334;302.6666666666667;1;769;769;27.0;Target:2;None
1499716198693;25;1;FSR;SingleFinger;TOUCH_MOVED;1;805.3333333333334;304.0;1;770;770;27.0;Target:2;None
1499716198699;25;1;FSR;SingleFinger;TOUCH_MOVED;1;805.3333333333334;304.6666666666667;1;802;802;27.0;Target:2;Target:2
1499716198705;25;1;FSR;SingleFinger;TOUCH_MOVED;1;805.3333333333334;306.0;1;802;802;27.0;Target:2;Target:2
1499716198711;25;1;FSR;SingleFinger;TOUCH_MOVED;1;805.3333333333334;306.6666666666667;1;803;803;27.0;Target:2;Target:2
1499716198719;25;1;FSR;SingleFinger;TOUCH_MOVED;1;804.6666666666666;307.3333333333333;1;830;830;27.0;Target:2;Target:2
1499716198725;25;1;FSR;SingleFinger;TOUCH_MOVED;1;804.6666666666666;308.6666666666667;1;830;830;27.0;Target:2;Target:2
1499716198732;25;1;FSR;SingleFinger;TOUCH_MOVED;1;804.6666666666666;309.3333333333333;1;824;830;27.0;Target:2;Target:2
1499716198737;25;1;FSR;SingleFinger;TOUCH_MOVED;1;804.6666666666666;310.0;1;840;840;27.0;Target:2;Target:2
1499716198737;25;1;FSR;SingleFinger;TOUCH_PRESSED;2;808.6666666666666;355.3333333333333;2;840;0;27.0;Target:2;None
1499716198744;25;1;FSR;SingleFinger;TOUCH_MOVED;1;804.6666666666666;310.6666666666667;2;840;840;27.0;Target:2;Target:2
1499716198752;25;1;FSR;SingleFinger;TOUCH_MOVED;1;804.6666666666666;311.3333333333333;2;836;840;27.0;Target:2;Target:2
1499716198759;25;1;FSR;SingleFinger;TOUCH_MOVED;1;804.6666666666666;312.6666666666667;2;859;859;27.0;Target:2;Target:2
1499716198765;25;1;FSR;SingleFinger;TOUCH_MOVED;1;804.6666666666666;313.3333333333333;2;859;859;27.0;Target:2;Target:2
1499716198772;25;1;FSR;SingleFinger;TOUCH_MOVED;1;804.6666666666666;314.0;2;852;859;27.0;Target:2;Target:2
1499716198778;25;1;FSR;SingleFinger;TOUCH_MOVED;1;804.0;315.3333333333333;2;852;859;27.0;Target:2;Target:2
1499716198791;25;1;FSR;SingleFinger;TOUCH_MOVED;1;804.0;316.0;2;862;872;27.0;Target:2;Target:2
1499716198803;25;1;FSR;SingleFinger;TOUCH_RELEASED;2;808.6666666666666;355.3333333333333;2;882;882;27.0;Target:2;None
1499716198812;25;1;FSR;SingleFinger;TOUCH_MOVED;1;804.0;316.6666666666667;1;880;882;27.0;Target:2;Target:2
1499716198863;25;1;FSR;SingleFinger;TOUCH_MOVED;1;804.0;316.0;1;431;890;27.0;Target:2;Target:2
1499716198881;25;1;FSR;SingleFinger;TOUCH_MOVED;1;804.0;315.3333333333333;1;9;890;27.0;Target:2;Target:2
1499716198901;25;1;FSR;SingleFinger;TOUCH_RELEASED;1;804.0;315.3333333333333;1;24;890;27.0;Target:2;None
1499716199492;25;1;FSR;SingleFinger;TOUCH_PRESSED;1;818.0;300.6666666666667;1;764;0;27.0;Target:2;None
1499716199531;25;1;FSR;SingleFinger;TOUCH_MOVED;1;818.0;301.3333333333333;1;821;837;27.0;Target:2;None
1499716199531;25;1;FSR;SingleFinger;TOUCH_PRESSED;2;804.0;310.6666666666667;2;821;0;27.0;Target:2;Target:2
1499716199551;25;1;FSR;SingleFinger;TOUCH_MOVED;1;817.3333333333334;301.3333333333333;2;828;838;27.0;Target:2;None
1499716199557;25;1;FSR;SingleFinger;TOUCH_MOVED;1;817.3333333333334;302.0;2;828;838;27.0;Target:2;Target:2
1499716199578;25;1;FSR;SingleFinger;TOUCH_RELEASED;1;817.3333333333334;302.0;2;815;838;27.0;Target:2;None
1499716199585;25;1;FSR;SingleFinger;TOUCH_MOVED;2;804.0;311.3333333333333;1;821;838;27.0;Target:2;Target:2
1499716199586;25;1;FSR;SingleFinger;TOUCH_PRESSED;3;810.0;339.3333333333333;2;821;0;27.0;Target:2;Target:2
1499716199591;25;1;FSR;SingleFinger;TOUCH_MOVED;3;810.0;338.0;2;807;807;27.0;Target:2;Target:2
1499716199591;25;1;FSR;SingleFinger;TOUCH_PRESSED;4;638.6666666666666;164.0;3;807;0;27.0;Target:2;Target:0
1499716199597;25;1;FSR;SingleFinger;TOUCH_MOVED;2;804.0;312.6666666666667;3;807;838;27.0;Target:2;Target:2
1499716199597;25;1;FSR;SingleFinger;TOUCH_MOVED;3;809.3333333333334;337.3333333333333;3;807;807;27.0;Target:2;Target:2
1499716199604;25;1;FSR;SingleFinger;TOUCH_MOVED;2;804.6666666666666;314.0;3;818;838;27.0;Target:2;Target:2
1499716199605;25;1;FSR;SingleFinger;TOUCH_MOVED;3;809.3333333333334;336.6666666666667;3;818;818;27.0;Target:2;Target:2
1499716199610;25;1;FSR;SingleFinger;TOUCH_MOVED;2;804.6666666666666;315.3333333333333;3;811;838;27.0;Target:2;Target:2
1499716199610;25;1;FSR;SingleFinger;TOUCH_MOVED;3;808.6666666666666;335.3333333333333;3;811;818;27.0;Target:2;Target:2
1499716199617;25;1;FSR;SingleFinger;TOUCH_PRESSED;5;817.3333333333334;303.3333333333333;4;811;0;27.0;Target:2;Target:2
1499716199623;25;1;FSR;SingleFinger;TOUCH_MOVED;5;816.6666666666666;304.0;4;814;814;27.0;Target:2;Target:2
1499716199630;25;1;FSR;SingleFinger;TOUCH_RELEASED;2;804.6666666666666;315.3333333333333;4;800;838;27.0;Target:2;None
1499716199649;25;1;FSR;SingleFinger;TOUCH_RELEASED;3;808.6666666666666;335.3333333333333;3;753;818;27.0;Target:2;None
1499716199667;25;1;FSR;SingleFinger;TOUCH_RELEASED;4;638.6666666666666;164.0;2;583;818;27.0;Target:2;None
1499716199705;25;1;FSR;SingleFinger;TOUCH_RELEASED;5;816.6666666666666;304.0;1;23;814;27.0;Target:2;None
1499716200753;25;1;FSR;SingleFinger;TOUCH_PRESSED;1;818.0;352.0;1;582;0;27.0;Target:2;Target:2
1499716200779;25;1;FSR;SingleFinger;TOUCH_MOVED;1;817.3333333333334;352.0;1;725;725;27.0;Target:2;Target:2
1499716200779;25;1;FSR;SingleFinger;BUTTON_TRIGGERED;1;818.0;352.0;1;725;725;27.0;Target:2;Target:2
1499716200785;25;1;FSR;SingleFinger;TOUCH_MOVED;1;817.3333333333334;351.3333333333333;1;725;725;27.0;Target:7;Target:2
1499716200799;25;1;FSR;SingleFinger;TOUCH_MOVED;1;817.3333333333334;350.6666666666667;1;759;759;27.0;Target:7;Target:2
1499716200818;25;1;FSR;SingleFinger;TOUCH_MOVED;1;817.3333333333334;350.0;1;835;835;27.0;Target:7;Target:2
1499716200838;25;1;FSR;SingleFinger;TOUCH_PRESSED;2;799.3333333333334;350.0;2;855;0;27.0;Target:7;None
1499716200844;25;1;FSR;SingleFinger;TOUCH_MOVED;1;816.6666666666666;350.0;2;872;872;27.0;Target:7;Target:2
1499716200872;25;1;FSR;SingleFinger;TOUCH_MOVED;1;816.6666666666666;349.3333333333333;2;877;882;27.0;Target:7;Target:2
1499716200911;25;1;FSR;SingleFinger;TOUCH_MOVED;1;816.6666666666666;348.6666666666667;2;775;888;27.0;Target:7;Target:2
1499716200911;25;1;FSR;SingleFinger;TOUCH_RELEASED;2;799.3333333333334;350.0;2;775;888;27.0;Target:7;None
1499716200934;25;1;FSR;SingleFinger;TOUCH_MOVED;1;816.6666666666666;348.0;1;390;888;27.0;Target:7;Target:2
1499716200936;25;1;FSR;SingleFinger;TOUCH_MOVED;1;816.0;347.3333333333333;1;390;888;27.0;Target:7;Target:2
1499716200972;25;1;FSR;SingleFinger;TOUCH_RELEASED;1;816.0;347.3333333333333;1;22;888;27.0;Target:7;Target:2
1499716201520;25;1;FSR;SingleFinger;TOUCH_PRESSED;1;464.6666666666667;336.6666666666667;1;813;0;27.0;Target:7;Target:7
1499716201547;25;1;FSR;SingleFinger;TOUCH_MOVED;1;464.6666666666667;337.3333333333333;1;827;827;27.0;Target:7;Target:7
1499716201552;25;1;FSR;SingleFinger;TOUCH_MOVED;1;464.0;337.3333333333333;1;813;827;27.0;Target:7;Target:7
1499716201592;25;1;FSR;SingleFinger;TOUCH_MOVED;1;464.0;338.0;1;845;846;27.0;Target:7;Target:7
1499716201688;25;1;FSR;SingleFinger;TOUCH_MOVED;1;463.3333333333333;338.0;1;372;868;27.0;Target:7;Target:7
1499716201718;25;1;FSR;SingleFinger;TOUCH_RELEASED;1;463.3333333333333;338.0;1;19;868;27.0;Target:7;Target:7
1499716202686;25;1;FSR;SingleFinger;TOUCH_PRESSED;1;465.3333333333333;328.6666666666667;1;504;0;27.0;Target:7;Target:7
1499716202699;25;1;FSR;SingleFinger;BUTTON_TRIGGERED;1;465.3333333333333;328.6666666666667;1;730;0;27.0;Target:7;Target:7
1499716202784;25;1;FSR;SingleFinger;TOUCH_MOVED;1;464.6666666666667;328.6666666666667;1;848;849;27.0;Target:3;Target:7
1499716202797;25;1;FSR;SingleFinger;TOUCH_MOVED;1;464.6666666666667;328.0;1;863;863;27.0;Target:3;Target:7
1499716202828;25;1;FSR;SingleFinger;TOUCH_MOVED;1;464.0;328.0;1;804;863;27.0;Target:3;Target:7
1499716202856;25;1;FSR;SingleFinger;TOUCH_MOVED;1;464.0;327.3333333333333;1;289;863;27.0;Target:3;Target:7
1499716202862;25;1;FSR;SingleFinger;TOUCH_MOVED;1;463.3333333333333;327.3333333333333;1;38;863;27.0;Target:3;Target:7
1499716202887;25;1;FSR;SingleFinger;TOUCH_RELEASED;1;463.3333333333333;327.3333333333333;1;22;863;27.0;Target:3;Target:7
1499716203877;25;1;FSR;SingleFinger;TOUCH_PRESSED;1;810.6666666666666;442.6666666666667;1;607;0;27.0;Target:3;Target:3
1499716203880;25;1;FSR;SingleFinger;BUTTON_TRIGGERED;1;810.6666666666666;442.6666666666667;1;724;0;27.0;Target:3;Target:3
1499716203888;25;1;FSR;SingleFinger;TOUCH_MOVED;1;810.6666666666666;442.0;1;724;724;27.0;Target:8;Target:3
1499716203915;25;1;FSR;SingleFinger;TOUCH_MOVED;1;810.0;441.3333333333333;1;822;822;27.0;Target:8;Target:3
1499716203935;25;1;FSR;SingleFinger;TOUCH_MOVED;1;809.3333333333334;440.6666666666667;1;833;839;27.0;Target:8;Target:3
1499716203947;25;1;FSR;SingleFinger;TOUCH_MOVED;1;808.6666666666666;440.6666666666667;1;853;853;27.0;Target:8;Target:3
1499716203954;25;1;FSR;SingleFinger;TOUCH_MOVED;1;808.6666666666666;440.0;1;850;853;27.0;Target:8;Target:3
1499716203960;25;1;FSR;SingleFinger;TOUCH_MOVED;1;808.0;440.0;1;866;866;27.0;Target:8;Target:3
1499716203981;25;1;FSR;SingleFinger;TOUCH_MOVED;1;807.3333333333334;439.3333333333333;1;875;875;27.0;Target:8;Target:3
1499716204014;25;1;FSR;SingleFinger;TOUCH_MOVED;1;807.3333333333334;438.6666666666667;1;803;875;27.0;Target:8;Target:3
1499716204021;25;1;FSR;SingleFinger;TOUCH_MOVED;1;806.6666666666666;438.6666666666667;1;705;875;27.0;Target:8;Target:3
1499716204043;25;1;FSR;SingleFinger;TOUCH_MOVED;1;806.6666666666666;439.3333333333333;1;307;875;27.0;Target:8;Target:3
1499716204058;25;1;FSR;SingleFinger;TOUCH_MOVED;1;806.6666666666666;440.0;1;66;875;27.0;Target:8;Target:3
1499716204078;25;1;FSR;SingleFinger;TOUCH_RELEASED;1;806.6666666666666;440.0;1;22;875;27.0;Target:8;Target:3
1499716204627;25;1;FSR;SingleFinger;TOUCH_PRESSED;1;512.6666666666666;211.33333333333334;1;732;0;27.0;Target:8;Target:8
1499716204653;25;1;FSR;SingleFinger;TOUCH_MOVED;1;512.6666666666666;212.0;1;771;771;27.0;Target:8;Target:8
1499716204658;25;1;FSR;SingleFinger;TOUCH_MOVED;1;512.6666666666666;212.66666666666666;1;771;771;27.0;Target:8;Target:8
1499716204672;25;1;FSR;SingleFinger;TOUCH_MOVED;1;512.6666666666666;213.33333333333334;1;808;808;27.0;Target:8;Target:8
1499716204679;25;1;FSR;SingleFinger;TOUCH_MOVED;1;512.6666666666666;214.66666666666666;1;808;808;27.0;Target:8;Target:8
1499716204679;25;1;FSR;SingleFinger;TOUCH_PRESSED;2;522.0;250.66666666666666;2;808;0;27.0;Target:8;None
1499716204686;25;1;FSR;SingleFinger;TOUCH_MOVED;1;512.6666666666666;215.33333333333334;2;814;814;27.0;Target:8;Target:8
1499716204691;25;1;FSR;SingleFinger;TOUCH_MOVED;1;512.0;216.0;2;830;830;27.0;Target:8;Target:8
1499716204698;25;1;FSR;SingleFinger;TOUCH_MOVED;1;512.0;216.66666666666666;2;830;830;27.0;Target:8;Target:8
1499716204706;25;1;FSR;SingleFinger;TOUCH_MOVED;1;512.0;218.0;2;827;830;27.0;Target:8;Target:8
1499716204712;25;1;FSR;SingleFinger;TOUCH_MOVED;1;512.0;218.66666666666666;2;847;847;27.0;Target:8;Target:8
1499716204719;25;1;FSR;SingleFinger;TOUCH_MOVED;1;511.3333333333333;219.33333333333334;2;847;847;27.0;Target:8;Target:8
1499716204725;25;1;FSR;SingleFinger;TOUCH_MOVED;1;511.3333333333333;220.0;2;839;847;27.0;Target:8;Target:8
1499716204732;25;1;FSR;SingleFinger;TOUCH_MOVED;1;511.3333333333333;220.66666666666666;2;858;858;27.0;Target:8;Target:8
1499716204745;25;1;FSR;SingleFinger;TOUCH_RELEASED;2;522.0;250.66666666666666;2;853;858;27.0;Target:8;None
1499716204778;25;1;FSR;SingleFinger;TOUCH_MOVED;1;511.3333333333333;220.0;1;604;859;27.0;Target:8;Target:8
1499716204795;25;1;FSR;SingleFinger;TOUCH_MOVED;1;510.6666666666667;219.33333333333334;1;49;859;27.0;Target:8;Target:8
1499716204816;25;1;FSR;SingleFinger;TOUCH_RELEASED;1;510.6666666666667;219.33333333333334;1;27;859;27.0;Target:8;Target:8
1499716205549;25;1;FSR;SingleFinger;TOUCH_PRESSED;1;528.6666666666666;212.0;1;702;0;27.0;Target:8;Target:8
1499716205581;25;1;FSR;SingleFinger;TOUCH_MOVED;1;528.6666666666666;211.33333333333334;1;836;836;27.0;Target:8;Target:8
1499716205588;25;1;FSR;SingleFinger;TOUCH_MOVED;1;528.6666666666666;210.66666666666666;1;836;836;27.0;Target:8;Target:8
1499716205601;25;1;FSR;SingleFinger;TOUCH_MOVED;1;528.0;210.0;1;838;838;27.0;Target:8;Target:8
1499716205607;25;1;FSR;SingleFinger;TOUCH_MOVED;1;528.0;209.33333333333334;1;866;866;27.0;Target:8;Target:8
1499716205620;25;1;FSR;SingleFinger;TOUCH_MOVED;1;528.0;208.66666666666666;1;863;866;27.0;Target:8;Target:8
1499716205627;25;1;FSR;SingleFinger;TOUCH_MOVED;1;528.0;208.0;1;879;879;27.0;Target:8;Target:8
1499716205634;25;1;FSR;SingleFinger;TOUCH_MOVED;1;527.3333333333334;208.0;1;871;879;27.0;Target:8;Target:8
1499716205641;25;1;FSR;SingleFinger;TOUCH_MOVED;1;527.3333333333334;207.33333333333334;1;871;879;27.0;Target:8;Target:8
1499716205653;25;1;FSR;SingleFinger;TOUCH_MOVED;1;527.3333333333334;206.66666666666666;1;867;885;27.0;Target:8;Target:8
1499716205674;25;1;FSR;SingleFinger;TOUCH_MOVED;1;526.6666666666666;206.0;1;826;885;27.0;Target:8;Target:8
1499716205687;25;1;FSR;SingleFinger;TOUCH_MOVED;1;526.6666666666666;205.33333333333334;1;790;885;27.0;Target:8;Target:8
1499716205748;25;1;FSR;SingleFinger;TOUCH_RELEASED;1;526.6666666666666;205.33333333333334;1;24;885;27.0;Target:8;Target:8
1499716206624;25;1;FSR;SingleFinger;TOUCH_PRESSED;1;529.3333333333334;229.33333333333334;1;821;0;27.0;Target:8;Target:8
1499716206676;25;1;FSR;SingleFinger;TOUCH_MOVED;1;528.6666666666666;230.0;1;847;852;27.0;Target:8;Target:8
1499716206775;25;1;FSR;SingleFinger;TOUCH_MOVED;1;528.6666666666666;230.66666666666666;1;149;869;27.0;Target:8;Target:8
1499716206804;25;1;FSR;SingleFinger;TOUCH_RELEASED;1;528.6666666666666;230.66666666666666;1;22;869;27.0;Target:8;Target:8
1499716207468;25;1;FSR;SingleFinger;TOUCH_PRESSED;1;522.6666666666666;202.0;1;685;0;27.0;Target:8;Target:8
1499716207470;25;1;FSR;SingleFinger;BUTTON_TRIGGERED;1;522.6666666666666;202.0;1;809;0;27.0;Target:8;Target:8
1499716207500;25;1;FSR;SingleFinger;TOUCH_MOVED;1;522.6666666666666;202.66666666666666;1;797;814;27.0;Target:4;Target:8
1499716207521;25;1;FSR;SingleFinger;TOUCH_MOVED;1;522.6666666666666;203.33333333333334;1;818;818;27.0;Target:4;Target:8
1499716207539;25;1;FSR;SingleFinger;TOUCH_MOVED;1;522.6666666666666;204.0;1;834;834;27.0;Target:4;Target:8
1499716207539;25;1;FSR;SingleFinger;TOUCH_PRESSED;2;523.3333333333334;240.66666666666666;2;834;0;27.0;Target:4;Target:8
1499716207566;25;1;FSR;SingleFinger;TOUCH_MOVED;1;522.6666666666666;204.66666666666666;2;832;839;27.0;Target:4;Target:8
1499716207593;25;1;FSR;SingleFinger;TOUCH_MOVED;1;522.6666666666666;205.33333333333334;2;840;843;27.0;Target:4;Target:8
1499716207619;25;1;FSR;SingleFinger;TOUCH_MOVED;2;523.3333333333334;240.0;2;837;843;27.0;Target:4;Target:8
1499716207626;25;1;FSR;SingleFinger;TOUCH_MOVED;1;522.6666666666666;206.0;2;819;843;27.0;Target:4;Target:8
1499716207626;25;1;FSR;SingleFinger;TOUCH_MOVED;2;522.6666666666666;238.66666666666666;2;819;843;27.0;Target:4;Target:8
1499716207639;25;1;FSR;SingleFinger;TOUCH_MOVED;2;522.0;238.0;2;826;843;27.0;Target:4;Target:8
1499716207645;25;1;FSR;SingleFinger;TOUCH_MOVED;2;522.0;237.33333333333334;2;809;843;27.0;Target:4;Target:8
1499716207652;25;1;FSR;SingleFinger;TOUCH_MOVED;2;521.3333333333334;236.0;2;802;843;27.0;Target:4;Target:8
1499716207665;25;1;FSR;SingleFinger;TOUCH_MOVED;1;522.6666666666666;206.66666666666666;2;771;843;27.0;Target:4;Target:8
1499716207665;25;1;FSR;SingleFinger;TOUCH_RELEASED;2;521.3333333333334;236.0;2;771;843;27.0;Target:4;None
1499716207698;25;1;FSR;SingleFinger;TOUCH_MOVED;1;523.3333333333334;206.66666666666666;1;514;843;27.0;Target:4;Target:8
1499716207720;25;1;FSR;SingleFinger;TOUCH_MOVED;1;524.0;206.0;1;57;843;27.0;Target:4;Target:8
1499716207741;25;1;FSR;SingleFinger;TOUCH_RELEASED;1;524.0;206.0;1;23;843;27.0;Target:4;Target:8
1499716208445;25;1;FSR;SingleFinger;TOUCH_PRESSED;1;718.0;504.6666666666667;1;732;0;27.0;Target:4;None
1499716208457;25;1;FSR;SingleFinger;TOUCH_MOVED;1;717.3333333333334;504.6666666666667;1;824;824;27.0;Target:4;None
1499716208471;25;1;FSR;SingleFinger;TOUCH_MOVED;1;716.6666666666666;504.0;1;839;839;27.0;Target:4;None
1499716208478;25;1;FSR;SingleFinger;TOUCH_MOVED;1;716.0;504.0;1;851;851;27.0;Target:4;None
1499716208484;25;1;FSR;SingleFinger;TOUCH_MOVED;1;715.3333333333334;504.0;1;858;858;27.0;Target:4;None
1499716208490;25;1;FSR;SingleFinger;TOUCH_MOVED;1;714.6666666666666;504.0;1;858;858;27.0;Target:4;None
1499716208497;25;1;FSR;SingleFinger;TOUCH_MOVED;1;713.3333333333334;504.0;1;860;860;27.0;Target:4;None
1499716208503;25;1;FSR;SingleFinger;TOUCH_MOVED;1;712.0;504.0;1;871;871;27.0;Target:4;None
1499716208510;25;1;FSR;SingleFinger;TOUCH_MOVED;1;710.6666666666666;504.0;1;871;871;27.0;Target:4;Target:4
1499716208517;25;1;FSR;SingleFinger;TOUCH_MOVED;1;710.0;504.0;1;863;871;27.0;Target:4;Target:4
1499716208524;25;1;FSR;SingleFinger;TOUCH_MOVED;1;709.3333333333334;504.0;1;875;875;27.0;Target:4;Target:4
1499716208529;25;1;FSR;SingleFinger;TOUCH_MOVED;1;708.6666666666666;504.0;1;875;875;27.0;Target:4;Target:4
1499716208530;25;1;FSR;SingleFinger;TOUCH_PRESSED;2;700.6666666666666;526.6666666666666;2;875;0;27.0;Target:4;Target:4
1499716208537;25;1;FSR;SingleFinger;TOUCH_MOVED;1;708.0;504.6666666666667;2;866;875;27.0;Target:4;Target:4
1499716208543;25;1;FSR;SingleFinger;TOUCH_MOVED;1;707.3333333333334;504.6666666666667;2;876;876;27.0;Target:4;Target:4
1499716208550;25;1;FSR;SingleFinger;TOUCH_MOVED;1;706.6666666666666;504.6666666666667;2;876;876;27.0;Target:4;Target:4
1499716208556;25;1;FSR;SingleFinger;TOUCH_MOVED;1;706.0;504.6666666666667;2;854;876;27.0;Target:4;Target:4
1499716208556;25;1;FSR;SingleFinger;TOUCH_PRESSED;3;700.0;506.0;3;854;0;27.0;Target:4;Target:4
1499716208562;25;1;FSR;SingleFinger;TOUCH_MOVED;1;705.3333333333334;504.6666666666667;3;853;876;27.0;Target:4;Target:4
1499716208562;25;1;FSR;SingleFinger;TOUCH_PRESSED;4;819.3333333333334;310.0;4;853;0;27.0;Target:4;Target:2
1499716208575;25;1;FSR;SingleFinger;TOUCH_MOVED;1;704.6666666666666;504.6666666666667;4;841;876;27.0;Target:4;Target:4
1499716208595;25;1;FSR;SingleFinger;TOUCH_RELEASED;2;700.6666666666666;526.6666666666666;4;795;876;27.0;Target:4;None
1499716208607;25;1;FSR;SingleFinger;TOUCH_RELEASED;1;704.6666666666666;504.6666666666667;3;738;876;27.0;Target:4;None
1499716208615;25;1;FSR;SingleFinger;TOUCH_MOVED;3;700.6666666666666;506.0;2;565;853;27.0;Target:4;Target:4
1499716208627;25;1;FSR;SingleFinger;TOUCH_MOVED;3;700.6666666666666;506.6666666666667;2;316;853;27.0;Target:4;Target:4
1499716208627;25;1;FSR;SingleFinger;TOUCH_RELEASED;4;819.3333333333334;310.0;2;316;841;27.0;Target:4;None
1499716208652;25;1;FSR;SingleFinger;TOUCH_RELEASED;3;700.6666666666666;506.6666666666667;1;25;853;27.0;Target:4;None
1499716208970;25;1;FSR;SingleFinger;TOUCH_PRESSED;1;714.0;530.0;1;720;0;27.0;Target:4;Target:4
1499716208990;25;1;FSR;SingleFinger;TOUCH_PRESSED;2;720.6666666666666;537.3333333333334;2;821;0;27.0;Target:4;Target:4
1499716209003;25;1;FSR;SingleFinger;TOUCH_MOVED;1;713.3333333333334;530.6666666666666;2;820;821;27.0;Target:4;Target:4
1499716209022;25;1;FSR;SingleFinger;TOUCH_MOVED;1;712.6666666666666;531.3333333333334;2;832;832;27.0;Target:4;Target:4
1499716209043;25;1;FSR;SingleFinger;TOUCH_MOVED;1;712.0;531.3333333333334;2;849;849;27.0;Target:4;Target:4
1499716209062;25;1;FSR;SingleFinger;TOUCH_MOVED;2;720.6666666666666;536.6666666666666;2;835;849;27.0;Target:4;Target:4
1499716209068;25;1;FSR;SingleFinger;TOUCH_RELEASED;1;712.0;531.3333333333334;2;836;849;27.0;Target:4;Target:4
1499716209084;25;1;FSR;SingleFinger;TOUCH_MOVED;2;720.0;536.6666666666666;1;793;849;27.0;Target:4;Target:4
1499716209101;25;1;FSR;SingleFinger;TOUCH_MOVED;2;719.3333333333334;536.6666666666666;1;740;849;27.0;Target:4;Target:4
1499716209127;25;1;FSR;SingleFinger;TOUCH_RELEASED;2;719.3333333333334;536.6666666666666;1;321;849;27.0;Target:4;None
1499716209588;25;1;FSR;SingleFinger;TOUCH_PRESSED;1;700.6666666666666;525.3333333333334;1;479;0;27.0;Target:4;Target:4
1499716209593;25;1;FSR;SingleFinger;BUTTON_TRIGGERED;1;700.6666666666666;525.3333333333334;1;734;0;27.0;Target:4;Target:4
1499716209626;25;1;FSR;SingleFinger;TOUCH_MOVED;1;700.6666666666666;526.0;1;803;803;20.0;Target:0;Target:4
1499716209639;25;1;FSR;SingleFinger;TOUCH_MOVED;1;700.6666666666666;526.6666666666666;1;831;831;20.0;Target:0;Target:4
1499716209653;25;1;FSR;SingleFinger;TOUCH_PRESSED;2;691.3333333333334;538.6666666666666;2;841;0;20.0;Target:0;Target:4
1499716209658;25;1;FSR;SingleFinger;TOUCH_MOVED;1;700.6666666666666;527.3333333333334;2;867;867;20.0;Target:0;Target:4
1499716209672;25;1;FSR;SingleFinger;TOUCH_MOVED;1;701.3333333333334;528.0;2;867;867;20.0;Target:0;Target:4
1499716209691;25;1;FSR;SingleFinger;TOUCH_MOVED;1;701.3333333333334;528.6666666666666;2;883;888;20.0;Target:0;Target:4
1499716209725;25;1;FSR;SingleFinger;TOUCH_RELEASED;1;701.3333333333334;528.6666666666666;2;885;904;20.0;Target:0;Target:4
1499716209732;25;1;FSR;SingleFinger;TOUCH_MOVED;2;691.3333333333334;538.0;1;885;904;20.0;Target:0;Target:4
1499716209757;25;1;FSR;SingleFinger;TOUCH_MOVED;2;691.3333333333334;537.3333333333334;1;700;904;20.0;Target:0;Target:4
1499716209764;25;1;FSR;SingleFinger;TOUCH_MOVED;2;691.3333333333334;536.6666666666666;1;537;904;20.0;Target:0;Target:4
1499716209777;25;1;FSR;SingleFinger;TOUCH_MOVED;2;692.0;536.0;1;341;904;20.0;Target:0;Target:4
1499716209783;25;1;FSR;SingleFinger;TOUCH_MOVED;2;692.0;535.3333333333334;1;99;904;20.0;Target:0;Target:4
1499716209790;25;1;FSR;SingleFinger;TOUCH_MOVED;2;692.0;534.6666666666666;1;99;904;20.0;Target:0;Target:4
1499716209815;25;1;FSR;SingleFinger;TOUCH_RELEASED;2;692.0;534.6666666666666;1;25;904;20.0;Target:0;None
1499716210451;25;1;FSR;SingleFinger;TOUCH_PRESSED;1;632.0;170.0;1;591;0;20.0;Target:0;Target:0
1499716210464;25;1;FSR;SingleFinger;BUTTON_TRIGGERED;1;632.0;170.0;1;745;0;20.0;Target:0;Target:0
1499716210477;25;1;FSR;SingleFinger;TOUCH_PRESSED;2;626.6666666666666;179.33333333333334;2;750;0;20.0;Target:5;Target:0
1499716210482;25;1;FSR;SingleFinger;TOUCH_MOVED;1;632.0;170.66666666666666;2;750;750;20.0;Target:5;Target:0
1499716210490;25;1;FSR;SingleFinger;TOUCH_MOVED;1;632.6666666666666;170.66666666666666;2;778;778;20.0;Target:5;Target:0
1499716210504;25;1;FSR;SingleFinger;TOUCH_MOVED;1;632.6666666666666;171.33333333333334;2;816;816;20.0;Target:5;Target:0
1499716210509;25;1;FSR;SingleFinger;TOUCH_MOVED;2;627.3333333333334;180.66666666666666;2;816;816;20.0;Target:5;Target:0
1499716210522;25;1;FSR;SingleFinger;TOUCH_MOVED;1;633.3333333333334;172.0;2;823;823;20.0;Target:5;Target:0
1499716210535;25;1;FSR;SingleFinger;TOUCH_MOVED;2;626.6666666666666;180.66666666666666;2;855;855;20.0;Target:5;Target:0
1499716210549;25;1;FSR;SingleFinger;TOUCH_MOVED;1;633.3333333333334;172.66666666666666;2;876;876;20.0;Target:5;Target:0
1499716210583;25;1;FSR;SingleFinger;TOUCH_RELEASED;2;626.6666666666666;180.66666666666666;2;860;882;20.0;Target:5;None
1499716210604;25;1;FSR;SingleFinger;TOUCH_MOVED;1;633.3333333333334;172.0;1;784;882;20.0;Target:5;Target:0
1499716210647;25;1;FSR;SingleFinger;TOUCH_MOVED;1;633.3333333333334;171.33333333333334;1;162;882;20.0;Target:5;Target:0
1499716210677;25;1;FSR;SingleFinger;TOUCH_RELEASED;1;633.3333333333334;171.33333333333334;1;28;882;20.0;Target:5;Target:0
1499716211322;25;1;FSR;SingleFinger;TOUCH_PRESSED;1;587.3333333333334;508.0;1;511;0;20.0;Target:5;None
1499716211346;25;1;FSR;SingleFinger;TOUCH_MOVED;1;587.3333333333334;508.6666666666667;1;796;796;20.0;Target:5;None
1499716211353;25;1;FSR;SingleFinger;TOUCH_MOVED;1;586.6666666666666;508.6666666666667;1;816;816;20.0;Target:5;None
1499716211360;25;1;FSR;SingleFinger;TOUCH_MOVED;1;586.0;509.3333333333333;1;816;816;20.0;Target:5;None
1499716211373;25;1;FSR;SingleFinger;TOUCH_MOVED;1;585.3333333333334;510.0;1;841;841;20.0;Target:5;None
1499716211381;25;1;FSR;SingleFinger;TOUCH_MOVED;1;584.6666666666666;510.0;1;841;841;20.0;Target:5;None
1499716211386;25;1;FSR;SingleFinger;TOUCH_MOVED;1;584.0;510.6666666666667;1;838;841;20.0;Target:5;Target:5
1499716211393;25;1;FSR;SingleFinger;TOUCH_MOVED;1;584.0;511.3333333333333;1;855;855;20.0;Target:5;Target:5
1499716211400;25;1;FSR;SingleFinger;TOUCH_MOVED;1;583.3333333333334;511.3333333333333;1;855;855;20.0;Target:5;Target:5
1499716211406;25;1;FSR;SingleFinger;TOUCH_MOVED;1;582.6666666666666;512.0;1;843;855;20.0;Target:5;Target:5
1499716211419;25;1;FSR;SingleFinger;TOUCH_MOVED;1;582.0;512.6666666666666;1;850;855;20.0;Target:5;Target:5
1499716211433;25;1;FSR;SingleFinger;TOUCH_MOVED;1;581.3333333333334;512.6666666666666;1;834;855;20.0;Target:5;Target:5
1499716211439;25;1;FSR;SingleFinger;TOUCH_MOVED;1;581.3333333333334;513.3333333333334;1;844;855;20.0;Target:5;Target:5
1499716211445;25;1;FSR;SingleFinger;TOUCH_MOVED;1;580.6666666666666;513.3333333333334;1;817;855;20.0;Target:5;Target:5
1499716211452;25;1;FSR;SingleFinger;TOUCH_MOVED;1;580.6666666666666;514.0;1;817;855;20.0;Target:5;Target:5
1499716211465;25;1;FSR;SingleFinger;TOUCH_MOVED;1;580.0;514.0;1;811;855;20.0;Target:5;Target:5
1499716211485;25;1;FSR;SingleFinger;TOUCH_MOVED;1;579.3333333333334;514.0;1;739;855;20.0;Target:5;Target:5
1499716211509;25;1;FSR;SingleFinger;TOUCH_MOVED;1;578.6666666666666;514.0;1;370;855;20.0;Target:5;Target:5
1499716211523;25;1;FSR;SingleFinger;TOUCH_MOVED;1;578.6666666666666;513.3333333333334;1;131;855;20.0;Target:5;Target:5
1499716211544;25;1;FSR;SingleFinger;TOUCH_RELEASED;1;578.6666666666666;513.3333333333334;1;29;855;20.0;Target:5;None
1499716211879;25;1;FSR;SingleFinger;TOUCH_PRESSED;1;574.0;536.0;1;604;0;20.0;Target:5;Target:5
1499716211884;25;1;FSR;SingleFinger;BUTTON_TRIGGERED;1;574.0;536.0;1;755;0;20.0;Target:5;Target:5
1499716211952;25;1;FSR;SingleFinger;TOUCH_PRESSED;2;562.6666666666666;546.0;2;833;0;20.0;Target:1;None
1499716211952;25;1;FSR;SingleFinger;TOUCH_PRESSED;3;572.0;566.0;3;833;0;20.0;Target:1;None
1499716211957;25;1;FSR;SingleFinger;TOUCH_MOVED;3;572.0;565.3333333333334;3;831;831;20.0;Target:1;None
1499716211958;25;1;FSR;SingleFinger;TOUCH_PRESSED;4;704.0;512.0;4;831;0;20.0;Target:1;Target:4
1499716211964;25;1;FSR;SingleFinger;TOUCH_MOVED;3;572.0;564.0;4;848;848;20.0;Target:1;None
1499716211971;25;1;FSR;SingleFinger;TOUCH_MOVED;1;574.0;536.6666666666666;4;848;848;20.0;Target:1;Target:5
1499716211971;25;1;FSR;SingleFinger;TOUCH_MOVED;3;572.0;562.6666666666666;4;848;848;20.0;Target:1;None
1499716211978;25;1;FSR;SingleFinger;TOUCH_MOVED;1;573.3333333333334;538.0;4;842;848;20.0;Target:1;Target:5
1499716211978;25;1;FSR;SingleFinger;TOUCH_MOVED;3;572.0;562.0;4;842;848;20.0;Target:1;None
1499716211984;25;1;FSR;SingleFinger;TOUCH_MOVED;1;573.3333333333334;538.6666666666666;4;856;856;20.0;Target:1;Target:5
1499716211997;25;1;FSR;SingleFinger;TOUCH_RELEASED;1;573.3333333333334;538.6666666666666;4;840;856;20.0;Target:1;Target:5
1499716212034;25;1;FSR;SingleFinger;TOUCH_MOVED;2;562.6666666666666;545.3333333333334;3;659;856;20.0;Target:1;None
1499716212034;25;1;FSR;SingleFinger;TOUCH_RELEASED;3;572.0;562.0;3;447;856;20.0;Target:1;None
1499716212049;25;1;FSR;SingleFinger;TOUCH_RELEASED;4;704.0;512.0;2;286;856;20.0;Target:1;None
1499716212055;25;1;FSR;SingleFinger;TOUCH_MOVED;2;562.6666666666666;544.6666666666666;1;28;856;20.0;Target:1;None
1499716212057;25;1;FSR;SingleFinger;TOUCH_MOVED;2;562.6666666666666;543.3333333333334;1;28;856;20.0;Target:1;None
1499716212076;25;1;FSR;SingleFinger;TOUCH_RELEASED;2;562.6666666666666;543.3333333333334;1;30;856;20.0;Target:1;None
1499716212646;25;1;FSR;SingleFinger;TOUCH_PRESSED;1;762.0;196.66666666666666;1;725;0;20.0;Target:1;None
1499716212679;25;1;FSR;SingleFinger;TOUCH_MOVED;1;761.3333333333334;196.66666666666666;1;803;803;20.0;Target:1;None
1499716212692;25;1;FSR;SingleFinger;TOUCH_MOVED;1;761.3333333333334;197.33333333333334;1;829;829;20.0;Target:1;None
1499716212705;25;1;FSR;SingleFinger;TOUCH_MOVED;1;760.6666666666666;197.33333333333334;1;847;847;20.0;Target:1;None
1499716212718;25;1;FSR;SingleFinger;TOUCH_MOVED;1;760.6666666666666;198.0;1;843;847;20.0;Target:1;None
1499716212738;25;1;FSR;SingleFinger;TOUCH_MOVED;1;760.0;198.0;1;849;857;20.0;Target:1;None
1499716212756;25;1;FSR;SingleFinger;TOUCH_MOVED;1;760.0;198.66666666666666;1;837;861;20.0;Target:1;None
1499716212796;25;1;FSR;SingleFinger;TOUCH_MOVED;1;759.3333333333334;198.66666666666666;1;693;861;20.0;Target:1;None
1499716212834;25;1;FSR;SingleFinger;TOUCH_MOVED;1;760.0;198.66666666666666;1;79;861;20.0;Target:1;None
1499716212854;25;1;FSR;SingleFinger;TOUCH_RELEASED;1;760.0;198.66666666666666;1;29;861;20.0;Target:1;None
1499716213067;25;1;FSR;SingleFinger;TOUCH_PRESSED;1;756.6666666666666;198.66666666666666;1;501;0;20.0;Target:1;None
1499716213105;25;1;FSR;SingleFinger;TOUCH_MOVED;1;756.0;198.66666666666666;1;858;858;20.0;Target:1;None
1499716213158;25;1;FSR;SingleFinger;TOUCH_MOVED;1;755.3333333333334;199.33333333333334;1;861;868;20.0;Target:1;None
1499716213223;25;1;FSR;SingleFinger;TOUCH_MOVED;1;754.6666666666666;199.33333333333334;1;808;870;20.0;Target:1;None
1499716213269;25;1;FSR;SingleFinger;TOUCH_MOVED;1;754.6666666666666;200.0;1;276;870;20.0;Target:1;None
1499716213275;25;1;FSR;SingleFinger;TOUCH_MOVED;1;755.3333333333334;200.66666666666666;1;135;870;20.0;Target:1;None
1499716213282;25;1;FSR;SingleFinger;TOUCH_MOVED;1;755.3333333333334;201.33333333333334;1;135;870;20.0;Target:1;None
1499716213287;25;1;FSR;SingleFinger;TOUCH_MOVED;1;756.0;204.0;1;50;870;20.0;Target:1;Target:1
1499716213292;25;1;FSR;SingleFinger;TOUCH_MOVED;1;756.6666666666666;206.0;1;50;870;20.0;Target:1;Target:1
1499716213297;25;1;FSR;SingleFinger;TOUCH_MOVED;1;758.0;210.0;1;34;870;20.0;Target:1;Target:1
1499716213318;25;1;FSR;SingleFinger;TOUCH_RELEASED;1;758.0;210.0;1;28;870;20.0;Target:1;None
1499716213780;25;1;FSR;SingleFinger;TOUCH_PRESSED;1;754.0;197.33333333333334;1;734;0;20.0;Target:1;None
1499716213805;25;1;FSR;SingleFinger;TOUCH_MOVED;1;753.3333333333334;197.33333333333334;1;852;852;20.0;Target:1;None
1499716213819;25;1;FSR;SingleFinger;TOUCH_MOVED;1;753.3333333333334;198.0;1;840;852;20.0;Target:1;None
1499716213832;25;1;FSR;SingleFinger;TOUCH_MOVED;1;753.3333333333334;198.66666666666666;1;853;853;20.0;Target:1;None
1499716213846;25;1;FSR;SingleFinger;TOUCH_MOVED;1;753.3333333333334;199.33333333333334;1;844;853;20.0;Target:1;None
1499716213858;25;1;FSR;SingleFinger;TOUCH_MOVED;1;752.6666666666666;200.0;1;816;853;20.0;Target:1;None
1499716213872;25;1;FSR;SingleFinger;TOUCH_MOVED;1;752.6666666666666;200.66666666666666;1;814;853;20.0;Target:1;None
1499716213885;25;1;FSR;SingleFinger;TOUCH_MOVED;1;752.6666666666666;201.33333333333334;1;790;853;20.0;Target:1;None
1499716213898;25;1;FSR;SingleFinger;TOUCH_MOVED;1;752.6666666666666;202.0;1;775;853;20.0;Target:1;None
1499716213911;25;1;FSR;SingleFinger;TOUCH_MOVED;1;752.6666666666666;202.66666666666666;1;781;853;20.0;Target:1;Target:1
1499716213917;25;1;FSR;SingleFinger;TOUCH_MOVED;1;752.6666666666666;203.33333333333334;1;756;853;20.0;Target:1;Target:1
1499716213924;25;1;FSR;SingleFinger;TOUCH_MOVED;1;752.6666666666666;204.0;1;756;853;20.0;Target:1;Target:1
1499716213931;25;1;FSR;SingleFinger;TOUCH_MOVED;1;752.6666666666666;204.66666666666666;1;740;853;20.0;Target:1;Target:1
1499716213938;25;1;FSR;SingleFinger;TOUCH_MOVED;1;752.6666666666666;205.33333333333334;1;654;853;20.0;Target:1;Target:1
1499716213945;25;1;FSR;SingleFinger;TOUCH_MOVED;1;752.6666666666666;206.66666666666666;1;654;853;20.0;Target:1;Target:1
1499716213951;25;1;FSR;SingleFinger;TOUCH_MOVED;1;752.6666666666666;207.33333333333334;1;511;853;20.0;Target:1;Target:1
1499716213957;25;1;FSR;SingleFinger;TOUCH_MOVED;1;752.6666666666666;208.66666666666666;1;229;853;20.0;Target:1;Target:1
1499716213962;25;1;FSR;SingleFinger;TOUCH_MOVED;1;753.3333333333334;209.33333333333334;1;229;853;20.0;Target:1;Target:1
1499716213967;25;1;FSR;SingleFinger;TOUCH_MOVED;1;753.3333333333334;210.66666666666666;1;38;853;20.0;Target:1;Target:1
1499716213972;25;1;FSR;SingleFinger;TOUCH_MOVED;1;753.3333333333334;211.33333333333334;1;38;853;20.0;Target:1;Target:1
1499716213994;25;1;FSR;SingleFinger;TOUCH_RELEASED;1;753.3333333333334;211.33333333333334;1;28;853;20.0;Target:1;None
1499716214694;25;1;FSR;SingleFinger;TOUCH_PRESSED;1;749.3333333333334;236.0;1;261;0;20.0;Target:1;Target:1
1499716214711;25;1;FSR;SingleFinger;TOUCH_MOVED;1;749.3333333333334;235.33333333333334;1;565;565;20.0;Target:1;Target:1
1499716214737;25;1;FSR;SingleFinger;TOUCH_MOVED;1;749.3333333333334;234.66666666666666;1;655;655;20.0;Target:1;Target:1
1499716214744;25;1;FSR;SingleFinger;TOUCH_MOVED;1;748.6666666666666;234.0;1;655;655;20.0;Target:1;Target:1
1499716214755;25;1;FSR;SingleFinger;BUTTON_TRIGGERED;1;749.3333333333334;236.0;1;740;655;20.0;Target:1;Target:1
1499716214757;25;1;FSR;SingleFinger;TOUCH_MOVED;1;748.6666666666666;233.33333333333334;1;740;740;20.0;Target:6;Target:1
1499716214763;25;1;FSR;SingleFinger;TOUCH_MOVED;1;748.6666666666666;232.66666666666666;1;740;740;20.0;Target:6;Target:1
1499716214770;25;1;FSR;SingleFinger;TOUCH_MOVED;1;748.0;232.0;1;761;761;20.0;Target:6;Target:1
1499716214783;25;1;FSR;SingleFinger;TOUCH_MOVED;1;748.0;231.33333333333334;1;798;798;20.0;Target:6;Target:1
1499716214796;25;1;FSR;SingleFinger;TOUCH_MOVED;1;747.3333333333334;230.66666666666666;1;820;820;20.0;Target:6;Target:1
1499716214809;25;1;FSR;SingleFinger;TOUCH_MOVED;1;746.6666666666666;230.0;1;804;820;20.0;Target:6;Target:1
1499716214829;25;1;FSR;SingleFinger;TOUCH_MOVED;1;746.6666666666666;229.33333333333334;1;732;820;20.0;Target:6;Target:1
1499716214834;25;1;FSR;SingleFinger;TOUCH_MOVED;1;746.0;229.33333333333334;1;732;820;20.0;Target:6;Target:1
1499716214847;25;1;FSR;SingleFinger;TOUCH_MOVED;1;746.0;228.66666666666666;1;532;820;20.0;Target:6;Target:1
1499716214855;25;1;FSR;SingleFinger;TOUCH_MOVED;1;745.3333333333334;228.66666666666666;1;418;820;20.0;Target:6;Target:1
1499716214861;25;1;FSR;SingleFinger;TOUCH_MOVED;1;745.3333333333334;228.0;1;418;820;20.0;Target:6;Target:1
1499716214871;25;1;FSR;SingleFinger;TOUCH_MOVED;1;745.3333333333334;227.33333333333334;1;299;820;20.0;Target:6;Target:1
1499716214881;25;1;FSR;SingleFinger;TOUCH_MOVED;1;745.3333333333334;226.66666666666666;1;156;820;20.0;Target:6;Target:1
1499716214917;25;1;FSR;SingleFinger;TOUCH_RELEASED;1;745.3333333333334;226.66666666666666;1;27;820;20.0;Target:6;Target:1
1499716216141;25;1;FSR;SingleFinger;TOUCH_PRESSED;1;479.3333333333333;425.3333333333333;1;699;0;20.0;Target:6;None
1499716216205;25;1;FSR;SingleFinger;TOUCH_MOVED;1;479.3333333333333;426.0;1;878;881;20.0;Target:6;None
1499716216258;25;1;FSR;SingleFinger;TOUCH_MOVED;1;479.3333333333333;426.6666666666667;1;869;888;20.0;Target:6;None
1499716216352;25;1;FSR;SingleFinger;TOUCH_RELEASED;1;479.3333333333333;426.6666666666667;1;10;888;20.0;Target:6;None
1499716217231;25;1;FSR;SingleFinger;TOUCH_PRESSED;1;495.3333333333333;456.0;1;351;0;20.0;Target:6;Target:6
1499716217277;25;1;FSR;SingleFinger;TOUCH_MOVED;1;494.6666666666667;455.3333333333333;1;471;471;20.0;Target:6;Target:6
1499716217317;25;1;FSR;SingleFinger;BUTTON_TRIGGERED;1;495.3333333333333;456.0;1;781;471;20.0;Target:6;Target:6
1499716217322;25;1;FSR;SingleFinger;TOUCH_MOVED;1;494.0;455.3333333333333;1;781;781;20.0;Target:2;Target:6
1499716217408;25;1;FSR;SingleFinger;TOUCH_MOVED;1;493.3333333333333;455.3333333333333;1;836;877;20.0;Target:2;Target:6
1499716217421;25;1;FSR;SingleFinger;TOUCH_MOVED;1;492.6666666666667;455.3333333333333;1;790;877;20.0;Target:2;Target:6
1499716217441;25;1;FSR;SingleFinger;TOUCH_MOVED;1;492.0;455.3333333333333;1;565;877;20.0;Target:2;Target:6
1499716217454;25;1;FSR;SingleFinger;TOUCH_MOVED;1;492.0;454.6666666666667;1;423;877;20.0;Target:2;Target:6
1499716217484;25;1;FSR;SingleFinger;TOUCH_MOVED;1;491.3333333333333;454.6666666666667;1;25;877;20.0;Target:2;Target:6
1499716217503;25;1;FSR;SingleFinger;TOUCH_RELEASED;1;491.3333333333333;454.6666666666667;1;13;877;20.0;Target:2;Target:6
1499716218104;25;1;FSR;SingleFinger;TOUCH_PRESSED;1;836.0;339.3333333333333;1;436;0;20.0;Target:2;None
1499716218155;25;1;FSR;SingleFinger;TOUCH_MOVED;1;835.3333333333334;339.3333333333333;1;851;851;20.0;Target:2;None
1499716218161;25;1;FSR;SingleFinger;TOUCH_MOVED;1;835.3333333333334;340.0;1;841;851;20.0;Target:2;None
1499716218182;25;1;FSR;SingleFinger;TOUCH_MOVED;1;834.6666666666666;340.6666666666667;1;821;851;20.0;Target:2;None
1499716218195;25;1;FSR;SingleFinger;TOUCH_MOVED;1;834.6666666666666;341.3333333333333;1;821;851;20.0;Target:2;None
1499716218208;25;1;FSR;SingleFinger;TOUCH_MOVED;1;834.0;341.3333333333333;1;792;851;20.0;Target:2;None
1499716218214;25;1;FSR;SingleFinger;TOUCH_MOVED;1;834.0;342.0;1;792;851;20.0;Target:2;None
1499716218234;25;1;FSR;SingleFinger;TOUCH_MOVED;1;833.3333333333334;342.0;1;681;851;20.0;Target:2;None
1499716218266;25;1;FSR;SingleFinger;TOUCH_MOVED;1;832.6666666666666;342.0;1;321;851;20.0;Target:2;None
1499716218300;25;1;FSR;SingleFinger;TOUCH_RELEASED;1;832.6666666666666;342.0;1;11;851;20.0;Target:2;None
1499716218896;25;1;FSR;SingleFinger;TOUCH_PRESSED;1;820.0;326.6666666666667;1;462;0;20.0;Target:2;Target:2
1499716218907;25;1;FSR;SingleFinger;BUTTON_TRIGGERED;1;820.0;326.6666666666667;1;794;0;20.0;Target:2;Target:2
1499716218924;25;1;FSR;SingleFinger;TOUCH_MOVED;1;820.0;327.3333333333333;1;872;872;20.0;Target:7;Target:2
1499716218962;25;1;FSR;SingleFinger;TOUCH_MOVED;1;820.0;328.0;1;902;902;20.0;Target:7;Target:2
1499716219009;25;1;FSR;SingleFinger;TOUCH_MOVED;1;820.0;328.6666666666667;1;773;902;20.0;Target:7;Target:2
1499716219083;25;1;FSR;SingleFinger;TOUCH_RELEASED;1;820.0;328.6666666666667;1;12;902;20.0;Target:7;Target:2
1499716220272;25;1;FSR;SingleFinger;TOUCH_PRESSED;1;468.6666666666667;354.6666666666667;1;366;0;20.0;Target:7;None
1499716220305;25;1;FSR;SingleFinger;TOUCH_MOVED;1;468.6666666666667;354.0;1;341;396;20.0;Target:7;None
1499716220312;25;1;FSR;SingleFinger;TOUCH_MOVED;1;468.0;354.0;1;289;396;20.0;Target:7;None
1499716220318;25;1;FSR;SingleFinger;TOUCH_MOVED;1;468.0;353.3333333333333;1;269;396;20.0;Target:7;None
1499716220323;25;1;FSR;SingleFinger;TOUCH_MOVED;1;468.0;352.6666666666667;1;269;396;20.0;Target:7;None
1499716220329;25;1;FSR;SingleFinger;TOUCH_MOVED;1;467.3333333333333;351.3333333333333;1;242;396;20.0;Target:7;None
1499716220333;25;1;FSR;SingleFinger;TOUCH_MOVED;1;467.3333333333333;350.6666666666667;1;242;396;20.0;Target:7;None
1499716220339;25;1;FSR;SingleFinger;TOUCH_MOVED;1;466.6666666666667;349.3333333333333;1;219;396;20.0;Target:7;None
1499716220345;25;1;FSR;SingleFinger;TOUCH_MOVED;1;466.6666666666667;348.0;1;219;396;20.0;Target:7;Target:7
1499716220352;25;1;FSR;SingleFinger;TOUCH_MOVED;1;466.0;347.3333333333333;1;240;396;20.0;Target:7;Target:7
1499716220358;25;1;FSR;SingleFinger;TOUCH_MOVED;1;466.0;346.0;1;240;396;20.0;Target:7;Target:7
1499716220365;25;1;FSR;SingleFinger;TOUCH_MOVED;1;466.0;345.3333333333333;1;262;396;20.0;Target:7;Target:7
1499716220370;25;1;FSR;SingleFinger;TOUCH_MOVED;1;465.3333333333333;344.6666666666667;1;272;396;20.0;Target:7;Target:7
1499716220378;25;1;FSR;SingleFinger;TOUCH_MOVED;1;465.3333333333333;343.3333333333333;1;272;396;20.0;Target:7;Target:7
1499716220383;25;1;FSR;SingleFinger;TOUCH_MOVED;1;465.3333333333333;342.6666666666667;1;355;396;20.0;Target:7;Target:7
1499716220396;25;1;FSR;SingleFinger;TOUCH_MOVED;1;464.6666666666667;342.0;1;445;445;20.0;Target:7;Target:7
1499716220402;25;1;FSR;SingleFinger;TOUCH_MOVED;1;464.6666666666667;341.3333333333333;1;553;553;20.0;Target:7;Target:7
1499716220415;25;1;FSR;SingleFinger;TOUCH_MOVED;1;464.0;340.6666666666667;1;604;604;20.0;Target:7;Target:7
1499716220421;25;1;FSR;SingleFinger;TOUCH_MOVED;1;464.0;340.0;1;566;604;20.0;Target:7;Target:7
1499716220434;25;1;FSR;SingleFinger;TOUCH_MOVED;1;463.3333333333333;340.0;1;481;604;20.0;Target:7;Target:7
1499716220442;25;1;FSR;SingleFinger;TOUCH_MOVED;1;463.3333333333333;339.3333333333333;1;332;604;20.0;Target:7;Target:7
1499716220458;25;1;FSR;SingleFinger;TOUCH_MOVED;1;463.3333333333333;338.6666666666667;1;214;604;20.0;Target:7;Target:7
1499716220462;25;1;FSR;SingleFinger;TOUCH_MOVED;1;462.6666666666667;338.6666666666667;1;158;604;20.0;Target:7;Target:7
1499716220497;25;1;FSR;SingleFinger;TOUCH_MOVED;1;462.6666666666667;339.3333333333333;1;55;604;20.0;Target:7;Target:7
1499716220517;25;1;FSR;SingleFinger;TOUCH_RELEASED;1;462.6666666666667;339.3333333333333;1;12;604;20.0;Target:7;None
1499716221191;25;1;FSR;SingleFinger;TOUCH_PRESSED;1;463.3333333333333;324.6666666666667;1;558;0;20.0;Target:7;Target:7
1499716221198;25;1;FSR;SingleFinger;BUTTON_TRIGGERED;1;463.3333333333333;324.6666666666667;1;774;0;20.0;Target:7;Target:7
1499716221223;25;1;FSR;SingleFinger;TOUCH_MOVED;1;463.3333333333333;325.3333333333333;1;859;859;20.0;Target:3;Target:7
1499716221263;25;1;FSR;SingleFinger;TOUCH_MOVED;1;463.3333333333333;326.0;1;812;859;20.0;Target:3;Target:7
1499716221276;25;1;FSR;SingleFinger;TOUCH_MOVED;1;463.3333333333333;326.6666666666667;1;762;859;20.0;Target:3;Target:7
1499716221283;25;1;FSR;SingleFinger;TOUCH_MOVED;1;463.3333333333333;327.3333333333333;1;656;859;20.0;Target:3;Target:7
1499716221288;25;1;FSR;SingleFinger;TOUCH_MOVED;1;463.3333333333333;328.0;1;508;859;20.0;Target:3;Target:7
1499716221293;25;1;FSR;SingleFinger;TOUCH_MOVED;1;463.3333333333333;328.6666666666667;1;508;859;20.0;Target:3;Target:7
1499716221298;25;1;FSR;SingleFinger;TOUCH_MOVED;1;463.3333333333333;329.3333333333333;1;402;859;20.0;Target:3;Target:7
1499716221303;25;1;FSR;SingleFinger;TOUCH_MOVED;1;464.0;330.6666666666667;1;402;859;20.0;Target:3;Target:7
1499716221308;25;1;FSR;SingleFinger;TOUCH_MOVED;1;464.0;332.0;1;374;859;20.0;Target:3;Target:7
1499716221314;25;1;FSR;SingleFinger;TOUCH_MOVED;1;464.0;333.3333333333333;1;374;859;20.0;Target:3;Target:7
1499716221319;25;1;FSR;SingleFinger;TOUCH_MOVED;1;464.0;334.6666666666667;1;274;859;20.0;Target:3;Target:7
1499716221325;25;1;FSR;SingleFinger;TOUCH_MOVED;1;464.0;336.6666666666667;1;274;859;20.0;Target:3;Target:7
1499716221329;25;1;FSR;SingleFinger;TOUCH_MOVED;1;464.0;339.3333333333333;1;153;859;20.0;Target:3;Target:7
1499716221335;25;1;FSR;SingleFinger;TOUCH_MOVED;1;464.6666666666667;342.0;1;153;859;20.0;Target:3;Target:7
1499716221339;25;1;FSR;SingleFinger;TOUCH_MOVED;1;464.6666666666667;344.6666666666667;1;37;859;20.0;Target:3;Target:7
1499716221345;25;1;FSR;SingleFinger;TOUCH_MOVED;1;465.3333333333333;348.6666666666667;1;37;859;20.0;Target:3;None
1499716221366;25;1;FSR;SingleFinger;TOUCH_RELEASED;1;465.3333333333333;348.6666666666667;1;11;859;20.0;Target:3;None
1499716222234;25;1;FSR;SingleFinger;TOUCH_PRESSED;1;798.6666666666666;460.0;1;476;0;20.0;Target:3;Target:3
1499716222258;25;1;FSR;SingleFinger;BUTTON_TRIGGERED;1;798.6666666666666;460.0;1;745;0;20.0;Target:3;Target:3
1499716222382;25;1;FSR;SingleFinger;TOUCH_MOVED;1;798.6666666666666;460.6666666666667;1;10;779;20.0;Target:8;Target:3
1499716222402;25;1;FSR;SingleFinger;TOUCH_RELEASED;1;798.6666666666666;460.6666666666667;1;9;779;20.0;Target:8;Target:3
1499716223066;25;1;FSR;SingleFinger;TOUCH_PRESSED;1;530.0;250.66666666666666;1;435;0;20.0;Target:8;None
1499716223124;25;1;FSR;SingleFinger;TOUCH_MOVED;1;530.0;250.0;1;382;402;20.0;Target:8;None
1499716223136;25;1;FSR;SingleFinger;TOUCH_MOVED;1;529.3333333333334;250.0;1;367;402;20.0;Target:8;None
1499716223163;25;1;FSR;SingleFinger;TOUCH_MOVED;1;529.3333333333334;249.33333333333334;1;250;402;20.0;Target:8;None
1499716223191;25;1;FSR;SingleFinger;TOUCH_MOVED;1;529.3333333333334;248.66666666666666;1;114;402;20.0;Target:8;None
1499716223207;25;1;FSR;SingleFinger;TOUCH_MOVED;1;529.3333333333334;248.0;1;67;402;20.0;Target:8;None
1499716223232;25;1;FSR;SingleFinger;TOUCH_RELEASED;1;529.3333333333334;248.0;1;11;402;20.0;Target:8;None
1499716223389;25;1;FSR;SingleFinger;TOUCH_PRESSED;1;528.0;254.66666666666666;1;388;0;20.0;Target:8;None
1499716223404;25;1;FSR;SingleFinger;TOUCH_MOVED;1;527.3333333333334;254.66666666666666;1;387;387;20.0;Target:8;None
1499716223448;25;1;FSR;SingleFinger;TOUCH_MOVED;1;527.3333333333334;254.0;1;354;387;20.0;Target:8;None
1499716223539;25;1;FSR;SingleFinger;TOUCH_RELEASED;1;527.3333333333334;254.0;1;11;387;20.0;Target:8;None
1499716224484;25;1;FSR;SingleFinger;TOUCH_PRESSED;1;532.0;196.0;1;407;0;20.0;Target:8;None
1499716224541;25;1;FSR;SingleFinger;TOUCH_MOVED;1;532.0;196.66666666666666;1;643;643;20.0;Target:8;None
1499716224547;25;1;FSR;SingleFinger;TOUCH_MOVED;1;532.0;197.33333333333334;1;643;643;20.0;Target:8;None
1499716224554;25;1;FSR;SingleFinger;TOUCH_MOVED;1;532.0;198.0;1;718;718;20.0;Target:8;None
1499716224560;25;1;FSR;SingleFinger;TOUCH_MOVED;1;532.6666666666666;198.66666666666666;1;791;791;20.0;Target:8;None
1499716224566;25;1;FSR;SingleFinger;TOUCH_MOVED;1;532.6666666666666;199.33333333333334;1;791;791;20.0;Target:8;None
1499716224572;25;1;FSR;SingleFinger;TOUCH_MOVED;1;532.6666666666666;200.66666666666666;1;815;815;20.0;Target:8;None
1499716224579;25;1;FSR;SingleFinger;TOUCH_MOVED;1;532.6666666666666;201.33333333333334;1;846;846;20.0;Target:8;None
1499716224586;25;1;FSR;SingleFinger;TOUCH_MOVED;1;532.6666666666666;202.66666666666666;1;846;846;20.0;Target:8;None
1499716224593;25;1;FSR;SingleFinger;TOUCH_MOVED;1;532.0;204.0;1;839;846;20.0;Target:8;Target:8
1499716224600;25;1;FSR;SingleFinger;TOUCH_MOVED;1;532.0;205.33333333333334;1;839;846;20.0;Target:8;Target:8
1499716224606;25;1;FSR;SingleFinger;TOUCH_MOVED;1;532.0;206.66666666666666;1;849;849;20.0;Target:8;Target:8
1499716224612;25;1;FSR;SingleFinger;TOUCH_MOVED;1;532.0;207.33333333333334;1;825;849;20.0;Target:8;Target:8
1499716224620;25;1;FSR;SingleFinger;TOUCH_MOVED;1;531.3333333333334;208.66666666666666;1;796;849;20.0;Target:8;Target:8
1499716224625;25;1;FSR;SingleFinger;TOUCH_MOVED;1;531.3333333333334;209.33333333333334;1;796;849;20.0;Target:8;Target:8
1499716224633;25;1;FSR;SingleFinger;TOUCH_MOVED;1;531.3333333333334;210.0;1;729;849;20.0;Target:8;Target:8
1499716224639;25;1;FSR;SingleFinger;TOUCH_MOVED;1;531.3333333333334;210.66666666666666;1;729;849;20.0;Target:8;Target:8
1499716224652;25;1;FSR;SingleFinger;TOUCH_MOVED;1;531.3333333333334;211.33333333333334;1;509;849;20.0;Target:8;Target:8
1499716224659;25;1;FSR;SingleFinger;TOUCH_MOVED;1;530.6666666666666;211.33333333333334;1;509;849;20.0;Target:8;Target:8
1499716224707;25;1;FSR;SingleFinger;TOUCH_RELEASED;1;530.6666666666666;211.33333333333334;1;14;849;20.0;Target:8;None
1499716225631;25;1;FSR;SingleFinger;TOUCH_PRESSED;1;533.3333333333334;229.33333333333334;1;473;0;20.0;Target:8;Target:8
1499716225637;25;1;FSR;SingleFinger;TOUCH_MOVED;1;532.6666666666666;229.33333333333334;1;473;0;20.0;Target:8;Target:8
1499716225640;25;1;FSR;SingleFinger;BUTTON_TRIGGERED;1;533.3333333333334;229.33333333333334;1;719;0;20.0;Target:8;Target:8
1499716225660;25;1;FSR;SingleFinger;TOUCH_MOVED;1;532.6666666666666;230.0;1;850;850;20.0;Target:4;Target:8
1499716225711;25;1;FSR;SingleFinger;TOUCH_MOVED;1;532.0;230.0;1;513;850;20.0;Target:4;Target:8
1499716225797;25;1;FSR;SingleFinger;TOUCH_RELEASED;1;532.0;230.0;1;11;850;20.0;Target:4;Target:8
1499716226692;25;1;FSR;SingleFinger;TOUCH_PRESSED;1;715.3333333333334;507.3333333333333;1;322;0;20.0;Target:4;None
1499716226730;25;1;FSR;SingleFinger;TOUCH_MOVED;1;714.6666666666666;507.3333333333333;1;523;523;20.0;Target:4;None
1499716226762;25;1;FSR;SingleFinger;TOUCH_MOVED;1;714.0;507.3333333333333;1;852;852;20.0;Target:4;None
1499716226768;25;1;FSR;SingleFinger;TOUCH_MOVED;1;714.0;508.0;1;852;852;20.0;Target:4;None
1499716226788;25;1;FSR;SingleFinger;TOUCH_MOVED;1;713.3333333333334;508.0;1;810;852;20.0;Target:4;None
1499716226807;25;1;FSR;SingleFinger;TOUCH_MOVED;1;713.3333333333334;508.6666666666667;1;483;852;20.0;Target:4;None
1499716226836;25;1;FSR;SingleFinger;TOUCH_MOVED;1;712.6666666666666;509.3333333333333;1;164;852;20.0;Target:4;None
1499716226846;25;1;FSR;SingleFinger;TOUCH_MOVED;1;712.6666666666666;510.0;1;54;852;20.0;Target:4;None
1499716226852;25;1;FSR;SingleFinger;TOUCH_MOVED;1;713.3333333333334;510.6666666666667;1;11;852;20.0;Target:4;None
1499716226872;25;1;FSR;SingleFinger;TOUCH_RELEASED;1;713.3333333333334;510.6666666666667;1;13;852;20.0;Target:4;None
1499716227064;25;1;FSR;SingleFinger;TOUCH_PRESSED;1;702.6666666666666;544.0;1;389;0;20.0;Target:4;Target:4
1499716227091;25;1;FSR;SingleFinger;BUTTON_TRIGGERED;1;702.6666666666666;544.0;1;742;0;20.0;Target:4;Target:4
1499716227194;25;1;FSR;SingleFinger;TOUCH_MOVED;1;702.6666666666666;544.6666666666666;1;34;742;20.0;None;Target:4
1499716227222;25;1;FSR;SingleFinger;TOUCH_RELEASED;1;702.6666666666666;544.6666666666666;1;11;742;20.0;None;Target:4
