Timestamp;Participant;Study;Method;Variant;TouchEvent;TouchId;TouchX;TouchY;TouchCount;Pressure;MaxPressure;TargetRadius;WidgetHighlighted;WaitingButtonPress;WidgetHovered
1499716081961;25;2;FSR;AnyNumberFinger;TOUCH_PRESSED;1;635.3333333333334;176.0;1;525;0;27.0;Target:0;0;Target:0
1499716081988;25;2;FSR;AnyNumberFinger;BUTTON_TRIGGERED;1;635.3333333333334;176.0;1;708;0;27.0;Target:0;0;Target:0
1499716082008;25;2;FSR;AnyNumberFinger;TOUCH_MOVED;1;634.6666666666666;176.0;1;778;778;27.0;Target:7;1;Target:0
1499716082054;25;2;FSR;AnyNumberFinger;TOUCH_MOVED;1;634.0;176.66666666666666;1;841;841;27.0;Target:7;1;Target:0
1499716082086;25;2;FSR;AnyNumberFinger;TOUCH_MOVED;1;633.3333333333334;176.66666666666666;1;852;852;27.0;Target:7;1;Target:0
1499716082119;25;2;FSR;AnyNumberFinger;TOUCH_MOVED;1;632.6666666666666;177.33333333333334;1;838;852;27.0;Target:7;1;Target:0
1499716082197;25;2;FSR;AnyNumberFinger;TOUCH_MOVED;1;632.6666666666666;176.66666666666666;1;146;852;27.0;Target:7;1;Target:0
1499716082226;25;2;FSR;AnyNumberFinger;TOUCH_RELEASED;1;632.6666666666666;176.66666666666666;1;20;852;27.0;Target:7;1;Target:0
1499716084232;25;2;FSR;AnyNumberFinger;TOUCH_PRESSED;1;598.0;526.6666666666666;1;444;0;27.0;Target:7;0;Target:7
1499716084266;25;2;FSR;AnyNumberFinger;BUTTON_TRIGGERED;1;598.0;526.6666666666666;1;719;0;27.0;Target:7;0;Target:7
1499716084270;25;2;FSR;AnyNumberFinger;TOUCH_MOVED;1;597.3333333333334;526.6666666666666;1;719;719;27.0;Target:1;1;Target:7
1499716084283;25;2;FSR;AnyNumberFinger;TOUCH_MOVED;1;597.3333333333334;527.3333333333334;1;733;733;27.0;Target:1;1;Target:7
1499716084295;25;2;FSR;AnyNumberFinger;TOUCH_MOVED;1;596.6666666666666;528.0;1;753;753;27.0;Target:1;1;Target:7
1499716084314;25;2;FSR;AnyNumberFinger;TOUCH_MOVED;1;596.6666666666666;528.6666666666666;1;776;776;27.0;Target:1;1;Target:7
1499716084321;25;2;FSR;AnyNumberFinger;TOUCH_MOVED;1;596.0;528.6666666666666;1;777;777;27.0;Target:1;1;Target:7
1499716084334;25;2;FSR;AnyNumberFinger;TOUCH_MOVED;1;596.0;529.3333333333334;1;799;799;27.0;Target:1;1;Target:7
1499716084343;25;2;FSR;AnyNumberFinger;TOUCH_MOVED;1;595.3333333333334;529.3333333333334;1;791;799;27.0;Target:1;1;Target:7
1499716084355;25;2;FSR;AnyNumberFinger;TOUCH_MOVED;1;595.3333333333334;530.0;1;807;807;27.0;Target:1;1;Target:7
1499716084374;25;2;FSR;AnyNumberFinger;TOUCH_MOVED;1;594.6666666666666;530.0;1;809;809;27.0;Target:1;1;Target:7
1499716084380;25;2;FSR;AnyNumberFinger;TOUCH_MOVED;1;594.6666666666666;530.6666666666666;1;797;809;27.0;Target:1;1;Target:7
1499716084413;25;2;FSR;AnyNumberFinger;TOUCH_MOVED;1;594.0;530.6666666666666;1;797;809;27.0;Target:1;1;Target:7
1499716084476;25;2;FSR;AnyNumberFinger;TOUCH_RELEASED;1;594.0;530.6666666666666;1;24;809;27.0;Target:1;1;Target:7
1499716086004;25;2;FSR;AnyNumberFinger;TOUCH_PRESSED;1;728.6666666666666;192.66666666666666;1;379;0;27.0;Target:1;0;Target:1
1499716086022;25;2;FSR;AnyNumberFinger;TOUCH_MOVED;1;728.0;192.66666666666666;1;591;591;27.0;Target:1;0;Target:1
1499716086027;25;2;FSR;AnyNumberFinger;TOUCH_MOVED;1;728.0;192.0;1;673;673;27.0;Target:1;0;Target:1
1499716086038;25;2;FSR;AnyNumberFinger;BUTTON_TRIGGERED;1;728.6666666666666;192.66666666666666;1;710;673;27.0;Target:1;0;Target:1
1499716086059;25;2;FSR;AnyNumberFinger;TOUCH_MOVED;1;727.3333333333334;192.0;1;755;755;27.0;Target:8;1;Target:1
1499716086079;25;2;FSR;AnyNumberFinger;TOUCH_MOVED;1;727.3333333333334;191.33333333333334;1;773;773;27.0;Target:8;1;Target:1
1499716086085;25;2;FSR;AnyNumberFinger;TOUCH_MOVED;1;726.6666666666666;191.33333333333334;1;773;773;27.0;Target:8;1;Target:1
1499716086105;25;2;FSR;AnyNumberFinger;TOUCH_MOVED;1;726.0;191.33333333333334;1;784;784;27.0;Target:8;1;Target:1
1499716086125;25;2;FSR;AnyNumberFinger;TOUCH_MOVED;1;725.3333333333334;191.33333333333334;1;781;784;27.0;Target:8;1;Target:1
1499716086145;25;2;FSR;AnyNumberFinger;TOUCH_MOVED;1;724.6666666666666;190.66666666666666;1;770;784;27.0;Target:8;1;Target:1
1499716086195;25;2;FSR;AnyNumberFinger;TOUCH_MOVED;1;724.6666666666666;190.0;1;42;784;27.0;Target:8;1;Target:1
1499716086215;25;2;FSR;AnyNumberFinger;TOUCH_RELEASED;1;724.6666666666666;190.0;1;20;784;27.0;Target:8;1;Target:1
1499716087741;25;2;FSR;AnyNumberFinger;TOUCH_PRESSED;1;512.6666666666666;482.6666666666667;1;531;0;27.0;Target:8;0;Target:8
1499716087768;25;2;FSR;AnyNumberFinger;BUTTON_TRIGGERED;1;512.6666666666666;482.6666666666667;1;716;0;27.0;Target:8;0;Target:8
1499716087800;25;2;FSR;AnyNumberFinger;TOUCH_MOVED;1;512.0;482.6666666666667;1;772;772;27.0;Target:2;1;Target:8
1499716087819;25;2;FSR;AnyNumberFinger;TOUCH_MOVED;1;512.0;483.3333333333333;1;801;801;27.0;Target:2;1;Target:8
1499716087839;25;2;FSR;AnyNumberFinger;TOUCH_MOVED;1;511.3333333333333;484.0;1;813;813;27.0;Target:2;1;Target:8
1499716087845;25;2;FSR;AnyNumberFinger;TOUCH_MOVED;1;511.3333333333333;484.6666666666667;1;813;813;27.0;Target:2;1;Target:8
1499716087866;25;2;FSR;AnyNumberFinger;TOUCH_MOVED;1;511.3333333333333;485.3333333333333;1;817;817;27.0;Target:2;1;Target:8
1499716087871;25;2;FSR;AnyNumberFinger;TOUCH_MOVED;1;510.6666666666667;485.3333333333333;1;806;817;27.0;Target:2;1;Target:8
1499716087878;25;2;FSR;AnyNumberFinger;TOUCH_MOVED;1;510.6666666666667;486.0;1;818;818;27.0;Target:2;1;Target:8
1499716087904;25;2;FSR;AnyNumberFinger;TOUCH_MOVED;1;510.6666666666667;486.6666666666667;1;814;818;27.0;Target:2;1;Target:8
1499716087917;25;2;FSR;AnyNumberFinger;TOUCH_MOVED;1;510.0;486.6666666666667;1;803;818;27.0;Target:2;1;Target:8
1499716087931;25;2;FSR;AnyNumberFinger;TOUCH_MOVED;1;510.0;486.0;1;757;818;27.0;Target:2;1;Target:8
1499716087987;25;2;FSR;AnyNumberFinger;TOUCH_RELEASED;1;510.0;486.0;1;22;818;27.0;Target:2;1;Target:8
1499716089407;25;2;FSR;AnyNumberFinger;TOUCH_PRESSED;1;784.6666666666666;255.33333333333334;1;388;0;27.0;Target:2;0;Target:2
1499716089429;25;2;FSR;AnyNumberFinger;BUTTON_TRIGGERED;1;784.6666666666666;255.33333333333334;1;701;0;27.0;Target:2;0;Target:2
1499716089484;25;2;FSR;AnyNumberFinger;TOUCH_MOVED;1;784.0;255.33333333333334;1;800;800;27.0;Target:9;1;Target:2
1499716089600;25;2;FSR;AnyNumberFinger;TOUCH_RELEASED;1;784.0;255.33333333333334;1;17;832;27.0;Target:9;1;Target:2
1499716091128;25;2;FSR;AnyNumberFinger;TOUCH_PRESSED;1;465.3333333333333;418.6666666666667;1;383;0;27.0;Target:9;0;Target:9
1499716091170;25;2;FSR;AnyNumberFinger;BUTTON_TRIGGERED;1;465.3333333333333;418.6666666666667;1;731;0;27.0;Target:9;0;Target:9
1499716091197;25;2;FSR;AnyNumberFinger;TOUCH_MOVED;1;464.6666666666667;418.6666666666667;1;769;769;27.0;Target:3;1;Target:9
1499716091204;25;2;FSR;AnyNumberFinger;TOUCH_MOVED;1;464.6666666666667;419.3333333333333;1;771;771;27.0;Target:3;1;Target:9
1499716091217;25;2;FSR;AnyNumberFinger;TOUCH_MOVED;1;464.6666666666667;420.0;1;789;789;27.0;Target:3;1;Target:9
1499716091223;25;2;FSR;AnyNumberFinger;TOUCH_MOVED;1;464.0;420.0;1;784;789;27.0;Target:3;1;Target:9
1499716091262;25;2;FSR;AnyNumberFinger;TOUCH_MOVED;1;463.3333333333333;420.0;1;767;792;27.0;Target:3;1;Target:9
1499716091276;25;2;FSR;AnyNumberFinger;TOUCH_MOVED;1;463.3333333333333;419.3333333333333;1;739;792;27.0;Target:3;1;Target:9
1499716091296;25;2;FSR;AnyNumberFinger;TOUCH_MOVED;1;463.3333333333333;418.6666666666667;1;333;792;27.0;Target:3;1;Target:9
1499716091328;25;2;FSR;AnyNumberFinger;TOUCH_RELEASED;1;463.3333333333333;418.6666666666667;1;23;792;27.0;Target:3;1;Target:9
1499716092743;25;2;FSR;AnyNumberFinger;TOUCH_PRESSED;1;817.3333333333334;328.0;1;518;0;27.0;Target:3;0;Target:3
1499716092770;25;2;FSR;AnyNumberFinger;BUTTON_TRIGGERED;1;817.3333333333334;328.0;1;701;0;27.0;Target:3;0;Target:3
1499716092800;25;2;FSR;AnyNumberFinger;TOUCH_MOVED;1;816.6666666666666;328.6666666666667;1;772;772;27.0;Target:10;1;Target:3
1499716092820;25;2;FSR;AnyNumberFinger;TOUCH_PRESSED;2;810.6666666666666;363.3333333333333;2;793;0;27.0;Target:10;1;Target:3
1499716092834;25;2;FSR;AnyNumberFinger;TOUCH_MOVED;1;816.6666666666666;329.3333333333333;2;788;793;27.0;Target:10;1;Target:3
1499716092860;25;2;FSR;AnyNumberFinger;TOUCH_MOVED;1;816.0;329.3333333333333;2;799;800;27.0;Target:10;1;Target:3
1499716092879;25;2;FSR;AnyNumberFinger;TOUCH_MOVED;1;816.0;330.0;2;786;800;27.0;Target:10;1;Target:3
1499716092886;25;2;FSR;AnyNumberFinger;TOUCH_RELEASED;2;810.6666666666666;363.3333333333333;2;789;800;27.0;Target:10;1;None
1499716092912;25;2;FSR;AnyNumberFinger;TOUCH_MOVED;1;816.0;329.3333333333333;1;485;800;27.0;Target:10;1;Target:3
1499716092951;25;2;FSR;AnyNumberFinger;TOUCH_RELEASED;1;816.0;329.3333333333333;1;20;800;27.0;Target:10;1;Target:3
1499716094412;25;2;FSR;AnyNumberFinger;TOUCH_PRESSED;1;460.0;326.0;1;561;0;27.0;Target:10;0;Target:10
1499716094441;25;2;FSR;AnyNumberFinger;BUTTON_TRIGGERED;1;460.0;326.0;1;713;0;27.0;Target:10;0;Target:10
1499716094459;25;2;FSR;AnyNumberFinger;TOUCH_PRESSED;2;458.6666666666667;348.0;2;741;0;27.0;Target:4;1;Target:10
1499716094477;25;2;FSR;AnyNumberFinger;TOUCH_MOVED;1;459.3333333333333;326.0;2;770;770;27.0;Target:4;1;Target:10
1499716094490;25;2;FSR;AnyNumberFinger;TOUCH_MOVED;1;459.3333333333333;326.6666666666667;2;775;775;27.0;Target:4;1;Target:10
1499716094502;25;2;FSR;AnyNumberFinger;TOUCH_MOVED;2;458.6666666666667;348.6666666666667;2;781;787;27.0;Target:4;1;Target:10
1499716094516;25;2;FSR;AnyNumberFinger;TOUCH_MOVED;1;458.6666666666667;327.3333333333333;2;789;789;27.0;Target:4;1;Target:10
1499716094536;25;2;FSR;AnyNumberFinger;TOUCH_MOVED;1;458.0;327.3333333333333;2;779;789;27.0;Target:4;1;Target:10
1499716094549;25;2;FSR;AnyNumberFinger;TOUCH_MOVED;1;458.0;328.0;2;770;789;27.0;Target:4;1;Target:10
1499716094556;25;2;FSR;AnyNumberFinger;TOUCH_MOVED;1;457.3333333333333;328.0;2;758;789;27.0;Target:4;1;Target:10
1499716094569;25;2;FSR;AnyNumberFinger;TOUCH_RELEASED;2;458.6666666666667;348.6666666666667;2;738;789;27.0;Target:4;1;None
1499716094575;25;2;FSR;AnyNumberFinger;TOUCH_MOVED;1;457.3333333333333;327.3333333333333;1;647;789;27.0;Target:4;1;Target:10
1499716094620;25;2;FSR;AnyNumberFinger;TOUCH_RELEASED;1;457.3333333333333;327.3333333333333;1;21;789;27.0;Target:4;1;Target:10
1499716095962;25;2;FSR;AnyNumberFinger;TOUCH_PRESSED;1;800.6666666666666;414.6666666666667;1;599;0;27.0;Target:4;0;Target:4
1499716095982;25;2;FSR;AnyNumberFinger;BUTTON_TRIGGERED;1;800.6666666666666;414.6666666666667;1;719;0;27.0;Target:4;0;Target:4
1499716096002;25;2;FSR;AnyNumberFinger;TOUCH_MOVED;1;800.6666666666666;415.3333333333333;1;740;740;27.0;Target:11;1;Target:4
1499716096014;25;2;FSR;AnyNumberFinger;TOUCH_MOVED;1;800.0;415.3333333333333;1;774;774;27.0;Target:11;1;Target:4
1499716096023;25;2;FSR;AnyNumberFinger;TOUCH_PRESSED;2;876.0;522.0;2;791;0;27.0;Target:11;1;None
1499716096027;25;2;FSR;AnyNumberFinger;TOUCH_MOVED;1;800.0;416.0;2;791;791;27.0;Target:11;1;Target:4
1499716096054;25;2;FSR;AnyNumberFinger;TOUCH_MOVED;1;800.0;416.6666666666667;2;804;804;27.0;Target:11;1;Target:4
1499716096086;25;2;FSR;AnyNumberFinger;TOUCH_RELEASED;2;876.0;522.0;2;795;809;27.0;Target:11;1;None
1499716096169;25;2;FSR;AnyNumberFinger;TOUCH_RELEASED;1;800.0;416.6666666666667;1;20;809;27.0;Target:11;1;Target:4
1499716097543;25;2;FSR;AnyNumberFinger;TOUCH_PRESSED;1;504.0;262.0;1;570;0;27.0;Target:11;0;Target:11
1499716097572;25;2;FSR;AnyNumberFinger;BUTTON_TRIGGERED;1;504.0;262.0;1;723;0;27.0;Target:11;0;Target:11
1499716097586;25;2;FSR;AnyNumberFinger;TOUCH_MOVED;1;504.0;261.3333333333333;1;738;738;27.0;Target:5;1;Target:11
1499716097599;25;2;FSR;AnyNumberFinger;TOUCH_MOVED;1;503.3333333333333;261.3333333333333;1;774;774;27.0;Target:5;1;Target:11
1499716097606;25;2;FSR;AnyNumberFinger;TOUCH_MOVED;1;503.3333333333333;260.6666666666667;1;786;786;27.0;Target:5;1;Target:11
1499716097613;25;2;FSR;AnyNumberFinger;TOUCH_MOVED;1;503.3333333333333;260.0;1;813;813;27.0;Target:5;1;Target:11
1499716097619;25;2;FSR;AnyNumberFinger;TOUCH_MOVED;1;502.6666666666667;260.0;1;813;813;27.0;Target:5;1;Target:11
1499716097626;25;2;FSR;AnyNumberFinger;TOUCH_MOVED;1;502.6666666666667;259.3333333333333;1;811;813;27.0;Target:5;1;Target:11
1499716097639;25;2;FSR;AnyNumberFinger;TOUCH_MOVED;1;502.0;259.3333333333333;1;828;828;27.0;Target:5;1;Target:11
1499716097659;25;2;FSR;AnyNumberFinger;TOUCH_MOVED;1;502.0;258.6666666666667;1;827;828;27.0;Target:5;1;Target:11
1499716097672;25;2;FSR;AnyNumberFinger;TOUCH_MOVED;1;501.3333333333333;258.6666666666667;1;805;828;27.0;Target:5;1;Target:11
1499716097698;25;2;FSR;AnyNumberFinger;TOUCH_MOVED;1;501.3333333333333;258.0;1;715;828;27.0;Target:5;1;Target:11
1499716097704;25;2;FSR;AnyNumberFinger;TOUCH_MOVED;1;500.6666666666667;258.0;1;557;828;27.0;Target:5;1;Target:11
1499716097730;25;2;FSR;AnyNumberFinger;TOUCH_MOVED;1;500.6666666666667;257.3333333333333;1;101;828;27.0;Target:5;1;Target:11
1499716097735;25;2;FSR;AnyNumberFinger;TOUCH_MOVED;1;500.6666666666667;258.0;1;11;828;27.0;Target:5;1;Target:11
1499716097756;25;2;FSR;AnyNumberFinger;TOUCH_RELEASED;1;500.6666666666667;258.0;1;21;828;27.0;Target:5;1;Target:11
1499716099062;25;2;FSR;AnyNumberFinger;TOUCH_PRESSED;1;745.3333333333334;485.3333333333333;1;234;0;27.0;Target:5;0;Target:5
1499716099073;25;2;FSR;AnyNumberFinger;BUTTON_TRIGGERED;1;745.3333333333334;485.3333333333333;1;701;0;27.0;Target:5;0;Target:5
1499716099113;25;2;FSR;AnyNumberFinger;TOUCH_PRESSED;2;739.3333333333334;489.3333333333333;2;804;0;27.0;Target:12;1;Target:5
1499716099127;25;2;FSR;AnyNumberFinger;TOUCH_MOVED;1;745.3333333333334;486.0;2;800;804;27.0;Target:12;1;Target:5
1499716099127;25;2;FSR;AnyNumberFinger;TOUCH_MOVED;2;739.3333333333334;490.0;2;800;800;27.0;Target:12;1;Target:5
1499716099147;25;2;FSR;AnyNumberFinger;TOUCH_MOVED;1;746.0;486.0;2;811;818;27.0;Target:12;1;Target:5
1499716099160;25;2;FSR;AnyNumberFinger;TOUCH_MOVED;2;738.6666666666666;490.0;2;830;830;27.0;Target:12;1;Target:5
1499716099167;25;2;FSR;AnyNumberFinger;TOUCH_MOVED;2;738.6666666666666;490.6666666666667;2;823;830;27.0;Target:12;1;Target:5
1499716099173;25;2;FSR;AnyNumberFinger;TOUCH_MOVED;1;746.0;486.6666666666667;2;835;835;27.0;Target:12;1;Target:5
1499716099186;25;2;FSR;AnyNumberFinger;TOUCH_RELEASED;1;746.0;486.6666666666667;2;826;835;27.0;Target:12;1;Target:5
1499716099225;25;2;FSR;AnyNumberFinger;TOUCH_MOVED;2;739.3333333333334;490.0;1;374;835;27.0;Target:12;1;Target:5
1499716099263;25;2;FSR;AnyNumberFinger;TOUCH_RELEASED;2;739.3333333333334;490.0;1;20;835;27.0;Target:12;1;None
1499716100502;25;2;FSR;AnyNumberFinger;TOUCH_PRESSED;1;556.6666666666666;197.33333333333334;1;453;0;27.0;Target:12;0;Target:12
1499716100554;25;2;FSR;AnyNumberFinger;TOUCH_MOVED;1;556.0;196.66666666666666;1;671;700;27.0;Target:12;0;Target:12
1499716100573;25;2;FSR;AnyNumberFinger;TOUCH_MOVED;1;556.0;196.0;1;475;700;27.0;Target:12;0;Target:12
1499716100586;25;2;FSR;AnyNumberFinger;TOUCH_MOVED;1;556.0;195.33333333333334;1;276;700;27.0;Target:12;0;Target:12
1499716100602;25;2;FSR;AnyNumberFinger;TOUCH_MOVED;1;555.3333333333334;195.33333333333334;1;114;700;27.0;Target:12;0;Target:12
1499716100627;25;2;FSR;AnyNumberFinger;TOUCH_RELEASED;1;555.3333333333334;195.33333333333334;1;13;700;27.0;Target:12;0;Target:12
1499716101631;25;2;FSR;AnyNumberFinger;TOUCH_PRESSED;1;558.0;194.66666666666666;1;564;0;27.0;Target:12;0;Target:12
1499716101633;25;2;FSR;AnyNumberFinger;BUTTON_TRIGGERED;1;558.0;194.66666666666666;1;705;0;27.0;Target:12;0;Target:12
1499716101703;25;2;FSR;AnyNumberFinger;TOUCH_PRESSED;2;546.0;203.33333333333334;2;814;0;27.0;Target:6;1;Target:12
1499716101708;25;2;FSR;AnyNumberFinger;TOUCH_MOVED;1;558.0;195.33333333333334;2;810;814;27.0;Target:6;1;Target:12
1499716101715;25;2;FSR;AnyNumberFinger;TOUCH_PRESSED;3;555.3333333333334;218.0;3;823;0;27.0;Target:6;1;Target:12
1499716101720;25;2;FSR;AnyNumberFinger;TOUCH_MOVED;1;557.3333333333334;195.33333333333334;3;823;823;27.0;Target:6;1;Target:12
1499716101720;25;2;FSR;AnyNumberFinger;TOUCH_PRESSED;4;1242.6666666666667;420.6666666666667;4;823;0;27.0;Target:6;1;None
1499716101760;25;2;FSR;AnyNumberFinger;TOUCH_MOVED;1;556.6666666666666;195.33333333333334;4;774;826;27.0;Target:6;1;Target:12
1499716101767;25;2;FSR;AnyNumberFinger;TOUCH_RELEASED;2;546.0;203.33333333333334;4;635;826;27.0;Target:6;1;None
1499716101780;25;2;FSR;AnyNumberFinger;TOUCH_RELEASED;3;555.3333333333334;218.0;3;379;826;27.0;Target:6;1;None
1499716101786;25;2;FSR;AnyNumberFinger;TOUCH_MOVED;1;556.6666666666666;194.66666666666666;2;113;826;27.0;Target:6;1;Target:12
1499716101786;25;2;FSR;AnyNumberFinger;TOUCH_RELEASED;4;1242.6666666666667;420.6666666666667;2;113;826;27.0;Target:6;1;None
1499716101811;25;2;FSR;AnyNumberFinger;TOUCH_RELEASED;1;556.6666666666666;194.66666666666666;1;20;826;27.0;Target:6;1;Target:12
1499716103075;25;2;FSR;AnyNumberFinger;TOUCH_PRESSED;1;693.3333333333334;518.0;1;505;0;27.0;Target:6;0;Target:6
1499716103088;25;2;FSR;AnyNumberFinger;TOUCH_PRESSED;2;794.6666666666666;620.0;2;607;0;27.0;Target:6;0;None
1499716103088;25;2;FSR;AnyNumberFinger;TOUCH_PRESSED;3;794.0;658.0;3;607;0;27.0;Target:6;0;None
1499716103092;25;2;FSR;AnyNumberFinger;TOUCH_MOVED;3;794.6666666666666;656.6666666666666;3;607;0;27.0;Target:6;0;None
1499716103092;25;2;FSR;AnyNumberFinger;TOUCH_PRESSED;4;552.6666666666666;192.66666666666666;4;607;0;27.0;Target:6;0;Target:12
1499716103099;25;2;FSR;AnyNumberFinger;TOUCH_MOVED;3;794.6666666666666;654.6666666666666;4;662;662;27.0;Target:6;0;None
1499716103100;25;2;FSR;AnyNumberFinger;TOUCH_PRESSED;5;794.6666666666666;662.6666666666666;5;662;0;27.0;Target:6;0;None
1499716103113;25;2;FSR;AnyNumberFinger;TOUCH_MOVED;2;794.6666666666666;620.6666666666666;5;696;696;27.0;Target:6;0;None
1499716103114;25;2;FSR;AnyNumberFinger;BUTTON_TRIGGERED;4;552.6666666666666;192.66666666666666;4;712;696;27.0;Target:6;0;Target:12
1499716103140;25;2;FSR;AnyNumberFinger;TOUCH_MOVED;1;693.3333333333334;518.6666666666666;5;756;756;27.0;Target:6;0;Target:6
1499716103140;25;2;FSR;AnyNumberFinger;TOUCH_MOVED;2;794.0;620.6666666666666;5;756;756;27.0;Target:6;0;None
1499716103145;25;2;FSR;AnyNumberFinger;TOUCH_MOVED;1;692.6666666666666;518.6666666666666;5;776;776;27.0;Target:6;0;Target:6
1499716103153;25;2;FSR;AnyNumberFinger;TOUCH_MOVED;2;793.3333333333334;621.3333333333334;5;776;776;27.0;Target:6;0;None
1499716103153;25;2;FSR;AnyNumberFinger;TOUCH_RELEASED;3;794.6666666666666;654.6666666666666;5;776;776;27.0;Target:6;0;None
1499716103159;25;2;FSR;AnyNumberFinger;TOUCH_MOVED;2;793.3333333333334;622.0;4;778;778;27.0;Target:6;0;None
1499716103159;25;2;FSR;AnyNumberFinger;TOUCH_RELEASED;4;552.6666666666666;192.66666666666666;4;778;778;27.0;Target:6;0;Target:12
1499716103165;25;2;FSR;AnyNumberFinger;TOUCH_MOVED;2;792.6666666666666;622.0;3;795;795;27.0;Target:6;0;None
1499716103165;25;2;FSR;AnyNumberFinger;TOUCH_RELEASED;5;794.6666666666666;662.6666666666666;3;795;795;27.0;Target:6;0;None
1499716103172;25;2;FSR;AnyNumberFinger;TOUCH_MOVED;2;792.0;622.6666666666666;2;795;795;27.0;Target:6;0;None
1499716103179;25;2;FSR;AnyNumberFinger;TOUCH_MOVED;2;790.6666666666666;623.3333333333334;2;785;795;27.0;Target:6;0;None
1499716103185;25;2;FSR;AnyNumberFinger;TOUCH_MOVED;1;692.0;518.6666666666666;2;800;800;27.0;Target:6;0;Target:6
1499716103198;25;2;FSR;AnyNumberFinger;TOUCH_MOVED;1;692.0;519.3333333333334;2;786;800;27.0;Target:6;0;Target:6
1499716103206;25;2;FSR;AnyNumberFinger;TOUCH_MOVED;1;691.3333333333334;519.3333333333334;2;798;800;27.0;Target:6;0;Target:6
1499716103206;25;2;FSR;AnyNumberFinger;TOUCH_RELEASED;2;790.6666666666666;623.3333333333334;2;798;800;27.0;Target:6;0;None
1499716103238;25;2;FSR;AnyNumberFinger;TOUCH_MOVED;1;690.6666666666666;519.3333333333334;1;742;800;27.0;Target:6;0;Target:6
1499716103271;25;2;FSR;AnyNumberFinger;TOUCH_MOVED;1;690.0;518.6666666666666;1;226;800;27.0;Target:6;0;Target:6
1499716103298;25;2;FSR;AnyNumberFinger;TOUCH_RELEASED;1;690.0;518.6666666666666;1;24;800;27.0;Target:6;0;Target:6
1499716104128;25;2;FSR;AnyNumberFinger;TOUCH_PRESSED;1;676.6666666666666;526.0;1;592;0;27.0;Target:6;0;Target:6
1499716104135;25;2;FSR;AnyNumberFinger;BUTTON_TRIGGERED;1;676.6666666666666;526.0;1;719;0;27.0;Target:6;0;Target:6
1499716104177;25;2;FSR;AnyNumberFinger;TOUCH_MOVED;1;676.0;526.0;1;775;778;27.0;None;1;Target:6
1499716104184;25;2;FSR;AnyNumberFinger;TOUCH_MOVED;1;676.0;526.6666666666666;1;775;778;27.0;None;1;Target:6
1499716104197;25;2;FSR;AnyNumberFinger;TOUCH_MOVED;1;676.0;527.3333333333334;1;780;787;27.0;None;1;Target:6
1499716104216;25;2;FSR;AnyNumberFinger;TOUCH_MOVED;1;676.0;528.0;1;794;794;27.0;None;1;Target:6
1499716104320;25;2;FSR;AnyNumberFinger;TOUCH_RELEASED;1;676.0;528.0;1;19;794;27.0;None;1;Target:6
