Timestamp;Participant;Study;Method;Variant;TouchEvent;TouchId;TouchX;TouchY;TouchCount;Pressure;MaxPressure;TargetRadius;WidgetHighlighted;WaitingButtonPress;WidgetHovered
1499195230105;6;2;DOUBLETAP;AnyNumberFinger;TOUCH_PRESSED;1;904.6666666666666;194.66666666666666;1;11;0;27.0;Target:0;0;None
1499195230113;6;2;DOUBLETAP;AnyNumberFinger;TOUCH_PRESSED;2;840.0;126.66666666666667;2;11;0;27.0;Target:0;0;None
1499195230115;6;2;DOUBLETAP;AnyNumberFinger;TOUCH_PRESSED;3;777.3333333333334;111.33333333333333;3;11;0;27.0;Target:0;0;None
1499195230141;6;2;DOUBLETAP;AnyNumberFinger;TOUCH_PRESSED;4;660.6666666666666;343.3333333333333;4;11;0;27.0;Target:0;0;None
1499195230154;6;2;DOUBLETAP;AnyNumberFinger;TOUCH_MOVED;1;904.6666666666666;194.0;4;12;12;27.0;Target:0;0;None
1499195230196;6;2;DOUBLETAP;AnyNumberFinger;TOUCH_MOVED;3;776.6666666666666;111.33333333333333;4;11;12;27.0;Target:0;0;None
1499195230203;6;2;DOUBLETAP;AnyNumberFinger;TOUCH_MOVED;2;839.3333333333334;126.66666666666667;4;11;12;27.0;Target:0;0;None
1499195230207;6;2;DOUBLETAP;AnyNumberFinger;TOUCH_MOVED;3;776.6666666666666;112.0;4;11;12;27.0;Target:0;0;None
1499195230228;6;2;DOUBLETAP;AnyNumberFinger;TOUCH_MOVED;1;904.0;194.0;4;12;12;27.0;Target:0;0;None
1499195230238;6;2;DOUBLETAP;AnyNumberFinger;TOUCH_MOVED;3;776.6666666666666;112.66666666666667;4;9;12;27.0;Target:0;0;None
1499195230249;6;2;DOUBLETAP;AnyNumberFinger;TOUCH_MOVED;3;776.0;112.66666666666667;4;12;12;27.0;Target:0;0;None
1499195230270;6;2;DOUBLETAP;AnyNumberFinger;TOUCH_MOVED;3;776.0;113.33333333333333;4;9;12;27.0;Target:0;0;None
1499195230275;6;2;DOUBLETAP;AnyNumberFinger;TOUCH_MOVED;2;839.3333333333334;127.33333333333333;4;9;12;27.0;Target:0;0;None
1499195230301;6;2;DOUBLETAP;AnyNumberFinger;TOUCH_MOVED;1;904.0;194.66666666666666;4;12;12;27.0;Target:0;0;None
1499195230307;6;2;DOUBLETAP;AnyNumberFinger;TOUCH_MOVED;3;776.0;114.0;4;12;12;27.0;Target:0;0;None
1499195230312;6;2;DOUBLETAP;AnyNumberFinger;TOUCH_MOVED;2;838.6666666666666;127.33333333333333;4;9;12;27.0;Target:0;0;None
1499195230312;6;2;DOUBLETAP;AnyNumberFinger;TOUCH_MOVED;3;775.3333333333334;114.0;4;9;12;27.0;Target:0;0;None
1499195230338;6;2;DOUBLETAP;AnyNumberFinger;TOUCH_MOVED;1;903.3333333333334;194.66666666666666;4;13;13;27.0;Target:0;0;None
1499195230338;6;2;DOUBLETAP;AnyNumberFinger;TOUCH_MOVED;4;660.6666666666666;344.0;4;13;13;27.0;Target:0;0;None
1499195230343;6;2;DOUBLETAP;AnyNumberFinger;TOUCH_MOVED;3;775.3333333333334;114.66666666666667;4;9;13;27.0;Target:0;0;None
1499195230386;6;2;DOUBLETAP;AnyNumberFinger;TOUCH_MOVED;2;838.6666666666666;128.0;4;11;13;27.0;Target:0;0;None
1499195230399;6;2;DOUBLETAP;AnyNumberFinger;TOUCH_PRESSED;5;648.0;181.33333333333334;5;12;0;27.0;Target:0;0;Target:0
1499195230407;6;2;DOUBLETAP;AnyNumberFinger;TOUCH_MOVED;1;903.3333333333334;195.33333333333334;5;10;13;27.0;Target:0;0;None
1499195230417;6;2;DOUBLETAP;AnyNumberFinger;TOUCH_MOVED;3;775.3333333333334;115.33333333333333;5;9;13;27.0;Target:0;0;None
1499195230428;6;2;DOUBLETAP;AnyNumberFinger;TOUCH_MOVED;3;774.6666666666666;115.33333333333333;5;11;13;27.0;Target:0;0;None
1499195230448;6;2;DOUBLETAP;AnyNumberFinger;TOUCH_MOVED;1;902.6666666666666;195.33333333333334;5;11;13;27.0;Target:0;0;None
1499195230487;6;2;DOUBLETAP;AnyNumberFinger;TOUCH_MOVED;1;902.6666666666666;196.0;5;13;13;27.0;Target:0;0;None
1499195230533;6;2;DOUBLETAP;AnyNumberFinger;TOUCH_MOVED;3;774.6666666666666;116.0;5;11;13;27.0;Target:0;0;None
1499195230533;6;2;DOUBLETAP;AnyNumberFinger;TOUCH_RELEASED;5;648.0;181.33333333333334;5;11;13;27.0;Target:0;0;Target:0
1499195230544;6;2;DOUBLETAP;AnyNumberFinger;TOUCH_MOVED;4;660.6666666666666;344.6666666666667;4;11;13;27.0;Target:0;0;None
1499195230554;6;2;DOUBLETAP;AnyNumberFinger;TOUCH_MOVED;1;902.0;196.0;4;13;13;27.0;Target:0;0;None
1499195230596;6;2;DOUBLETAP;AnyNumberFinger;TOUCH_MOVED;1;902.0;196.66666666666666;4;12;13;27.0;Target:0;0;None
1499195230606;6;2;DOUBLETAP;AnyNumberFinger;TOUCH_MOVED;2;838.6666666666666;128.66666666666666;4;10;13;27.0;Target:0;0;None
1499195230638;6;2;DOUBLETAP;AnyNumberFinger;TOUCH_MOVED;4;660.6666666666666;345.3333333333333;4;11;13;27.0;Target:0;0;None
1499195230659;6;2;DOUBLETAP;AnyNumberFinger;TOUCH_MOVED;4;661.3333333333334;345.3333333333333;4;12;13;27.0;Target:0;0;None
1499195230664;6;2;DOUBLETAP;AnyNumberFinger;TOUCH_MOVED;4;661.3333333333334;346.0;4;11;13;27.0;Target:0;0;None
1499195230680;6;2;DOUBLETAP;AnyNumberFinger;TOUCH_MOVED;4;661.3333333333334;346.6666666666667;4;10;13;27.0;Target:0;0;None
1499195230686;6;2;DOUBLETAP;AnyNumberFinger;TOUCH_MOVED;4;662.0;346.6666666666667;4;10;13;27.0;Target:0;0;None
1499195230692;6;2;DOUBLETAP;AnyNumberFinger;TOUCH_MOVED;3;774.6666666666666;116.66666666666667;4;11;13;27.0;Target:0;0;None
1499195230712;6;2;DOUBLETAP;AnyNumberFinger;TOUCH_RELEASED;4;662.0;346.6666666666667;4;11;13;27.0;Target:0;0;None
1499195230718;6;2;DOUBLETAP;AnyNumberFinger;TOUCH_MOVED;1;902.0;197.33333333333334;3;11;13;27.0;Target:0;0;None
1499195230738;6;2;DOUBLETAP;AnyNumberFinger;TOUCH_MOVED;1;902.6666666666666;198.0;3;10;13;27.0;Target:0;0;None
1499195230743;6;2;DOUBLETAP;AnyNumberFinger;TOUCH_MOVED;1;902.6666666666666;198.66666666666666;3;12;13;27.0;Target:0;0;None
1499195230743;6;2;DOUBLETAP;AnyNumberFinger;TOUCH_RELEASED;3;774.6666666666666;116.66666666666667;3;12;13;27.0;Target:0;0;None
1499195230753;6;2;DOUBLETAP;AnyNumberFinger;TOUCH_RELEASED;2;838.6666666666666;128.66666666666666;2;11;13;27.0;Target:0;0;None
1499195230761;6;2;DOUBLETAP;AnyNumberFinger;TOUCH_RELEASED;1;902.6666666666666;198.66666666666666;1;12;13;27.0;Target:0;0;None
1499195231474;6;2;DOUBLETAP;AnyNumberFinger;TOUCH_PRESSED;1;878.0;180.66666666666666;1;10;0;27.0;Target:0;0;None
1499195231475;6;2;DOUBLETAP;AnyNumberFinger;TOUCH_PRESSED;2;812.0;114.0;2;10;0;27.0;Target:0;0;None
1499195231486;6;2;DOUBLETAP;AnyNumberFinger;TOUCH_PRESSED;3;747.3333333333334;106.66666666666667;3;9;0;27.0;Target:0;0;None
1499195231498;6;2;DOUBLETAP;AnyNumberFinger;TOUCH_PRESSED;4;660.6666666666666;368.0;4;10;0;27.0;Target:0;0;None
1499195231546;6;2;DOUBLETAP;AnyNumberFinger;TOUCH_MOVED;1;878.0;181.33333333333334;4;10;12;27.0;Target:0;0;None
1499195231548;6;2;DOUBLETAP;AnyNumberFinger;TOUCH_MOVED;2;812.0;114.66666666666667;4;10;12;27.0;Target:0;0;None
1499195231551;6;2;DOUBLETAP;AnyNumberFinger;TOUCH_MOVED;4;661.3333333333334;368.0;4;13;13;27.0;Target:0;0;None
1499195231561;6;2;DOUBLETAP;AnyNumberFinger;TOUCH_MOVED;3;747.3333333333334;107.33333333333333;4;11;13;27.0;Target:0;0;None
1499195231568;6;2;DOUBLETAP;AnyNumberFinger;TOUCH_MOVED;1;878.0;182.0;4;11;13;27.0;Target:0;0;None
1499195231568;6;2;DOUBLETAP;AnyNumberFinger;TOUCH_MOVED;4;661.3333333333334;368.6666666666667;4;11;13;27.0;Target:0;0;None
1499195231588;6;2;DOUBLETAP;AnyNumberFinger;TOUCH_MOVED;1;878.0;182.66666666666666;4;11;13;27.0;Target:0;0;None
1499195231604;6;2;DOUBLETAP;AnyNumberFinger;TOUCH_MOVED;2;812.0;115.33333333333333;4;11;14;27.0;Target:0;0;None
1499195231610;6;2;DOUBLETAP;AnyNumberFinger;TOUCH_MOVED;1;878.0;183.33333333333334;4;11;14;27.0;Target:0;0;None
1499195231641;6;2;DOUBLETAP;AnyNumberFinger;TOUCH_MOVED;1;878.0;184.0;4;11;14;27.0;Target:0;0;None
1499195231666;6;2;DOUBLETAP;AnyNumberFinger;TOUCH_MOVED;1;878.0;184.66666666666666;4;11;14;27.0;Target:0;0;None
1499195231667;6;2;DOUBLETAP;AnyNumberFinger;TOUCH_MOVED;3;747.3333333333334;108.0;4;11;14;27.0;Target:0;0;None
1499195231667;6;2;DOUBLETAP;AnyNumberFinger;TOUCH_MOVED;4;662.0;368.6666666666667;4;11;14;27.0;Target:0;0;None
1499195231673;6;2;DOUBLETAP;AnyNumberFinger;TOUCH_MOVED;4;662.0;369.3333333333333;4;11;14;27.0;Target:0;0;None
1499195231678;6;2;DOUBLETAP;AnyNumberFinger;TOUCH_PRESSED;5;641.3333333333334;182.66666666666666;5;11;0;27.0;Target:0;0;Target:0
1499195231699;6;2;DOUBLETAP;AnyNumberFinger;TOUCH_MOVED;1;878.0;185.33333333333334;5;11;14;27.0;Target:0;0;None
1499195231710;6;2;DOUBLETAP;AnyNumberFinger;TOUCH_MOVED;2;812.0;116.0;5;11;14;27.0;Target:0;0;None
1499195231763;6;2;DOUBLETAP;AnyNumberFinger;TOUCH_MOVED;1;878.0;186.0;5;12;14;27.0;Target:0;0;None
1499195231763;6;2;DOUBLETAP;AnyNumberFinger;TOUCH_MOVED;5;641.3333333333334;182.0;5;12;12;27.0;Target:0;0;Target:0
1499195231837;6;2;DOUBLETAP;AnyNumberFinger;TOUCH_MOVED;5;641.3333333333334;181.33333333333334;5;11;14;27.0;Target:0;0;Target:0
1499195231875;6;2;DOUBLETAP;AnyNumberFinger;TOUCH_MOVED;1;878.0;186.66666666666666;5;12;14;27.0;Target:0;0;None
1499195231907;6;2;DOUBLETAP;AnyNumberFinger;TOUCH_RELEASED;5;641.3333333333334;181.33333333333334;5;11;14;27.0;Target:0;0;Target:0
1499195232267;6;2;DOUBLETAP;AnyNumberFinger;TOUCH_MOVED;1;878.0;187.33333333333334;4;8;14;27.0;Target:0;0;None
1499195232294;6;2;DOUBLETAP;AnyNumberFinger;TOUCH_MOVED;2;812.0;116.66666666666667;4;12;14;27.0;Target:0;0;None
1499195232383;6;2;DOUBLETAP;AnyNumberFinger;TOUCH_MOVED;1;878.0;188.0;4;10;14;27.0;Target:0;0;None
1499195232479;6;2;DOUBLETAP;AnyNumberFinger;TOUCH_MOVED;4;662.0;370.0;4;11;14;27.0;Target:0;0;None
1499195232495;6;2;DOUBLETAP;AnyNumberFinger;TOUCH_MOVED;1;878.0;188.66666666666666;4;12;14;27.0;Target:0;0;None
1499195232591;6;2;DOUBLETAP;AnyNumberFinger;TOUCH_PRESSED;6;641.3333333333334;176.66666666666666;5;11;0;27.0;Target:0;0;Target:0
1499195232597;6;2;DOUBLETAP;AnyNumberFinger;TOUCH_MOVED;1;878.6666666666666;188.66666666666666;5;12;14;27.0;Target:0;0;None
1499195232607;6;2;DOUBLETAP;AnyNumberFinger;TOUCH_MOVED;1;878.6666666666666;189.33333333333334;5;9;14;27.0;Target:0;0;None
1499195232755;6;2;DOUBLETAP;AnyNumberFinger;TOUCH_MOVED;3;747.3333333333334;107.33333333333333;5;14;14;27.0;Target:0;0;None
1499195232759;6;2;DOUBLETAP;AnyNumberFinger;TOUCH_MOVED;6;640.6666666666666;176.66666666666666;5;14;14;27.0;Target:0;0;Target:0
1499195232766;6;2;DOUBLETAP;AnyNumberFinger;TOUCH_MOVED;6;640.6666666666666;176.0;5;13;14;27.0;Target:0;0;Target:0
1499195232797;6;2;DOUBLETAP;AnyNumberFinger;TOUCH_MOVED;1;878.6666666666666;188.66666666666666;5;10;14;27.0;Target:0;0;None
1499195232812;6;2;DOUBLETAP;AnyNumberFinger;TOUCH_MOVED;2;811.3333333333334;116.66666666666667;5;12;14;27.0;Target:0;0;None
1499195232823;6;2;DOUBLETAP;AnyNumberFinger;TOUCH_RELEASED;6;640.6666666666666;176.0;5;11;14;27.0;Target:0;0;Target:0
1499195232834;6;2;DOUBLETAP;AnyNumberFinger;TOUCH_RELEASED;2;811.3333333333334;116.66666666666667;4;12;14;27.0;Target:0;0;None
1499195232844;6;2;DOUBLETAP;AnyNumberFinger;TOUCH_RELEASED;3;747.3333333333334;107.33333333333333;3;13;14;27.0;Target:0;0;None
1499195232849;6;2;DOUBLETAP;AnyNumberFinger;TOUCH_RELEASED;1;878.6666666666666;188.66666666666666;2;13;14;27.0;Target:0;0;None
1499195232856;6;2;DOUBLETAP;AnyNumberFinger;TOUCH_RELEASED;4;662.0;370.0;1;11;14;27.0;Target:0;0;None
1499195233252;6;2;DOUBLETAP;AnyNumberFinger;TOUCH_PRESSED;1;645.3333333333334;174.0;1;9;0;27.0;Target:0;0;Target:0
1499195233302;6;2;DOUBLETAP;AnyNumberFinger;TOUCH_MOVED;1;645.3333333333334;174.66666666666666;1;12;12;27.0;Target:0;0;Target:0
1499195233368;6;2;DOUBLETAP;AnyNumberFinger;TOUCH_MOVED;1;645.3333333333334;175.33333333333334;1;13;13;27.0;Target:0;0;Target:0
1499195233426;6;2;DOUBLETAP;AnyNumberFinger;TOUCH_MOVED;1;645.3333333333334;176.0;1;11;13;27.0;Target:0;0;Target:0
1499195233491;6;2;DOUBLETAP;AnyNumberFinger;TOUCH_MOVED;1;645.3333333333334;175.33333333333334;1;11;15;27.0;Target:0;0;Target:0
1499195233516;6;2;DOUBLETAP;AnyNumberFinger;TOUCH_RELEASED;1;645.3333333333334;175.33333333333334;1;12;15;27.0;Target:0;0;Target:0
1499195233900;6;2;DOUBLETAP;AnyNumberFinger;TOUCH_PRESSED;1;637.3333333333334;166.66666666666666;1;10;0;27.0;Target:0;0;Target:0
1499195233957;6;2;DOUBLETAP;AnyNumberFinger;TOUCH_MOVED;1;637.3333333333334;167.33333333333334;1;12;12;27.0;Target:0;0;Target:0
1499195233983;6;2;DOUBLETAP;AnyNumberFinger;TOUCH_MOVED;1;637.3333333333334;168.0;1;10;12;27.0;Target:0;0;Target:0
1499195234003;6;2;DOUBLETAP;AnyNumberFinger;TOUCH_MOVED;1;637.3333333333334;168.66666666666666;1;10;12;27.0;Target:0;0;Target:0
1499195234022;6;2;DOUBLETAP;AnyNumberFinger;TOUCH_MOVED;1;637.3333333333334;169.33333333333334;1;12;13;27.0;Target:0;0;Target:0
1499195234029;6;2;DOUBLETAP;AnyNumberFinger;TOUCH_MOVED;1;638.0;169.33333333333334;1;12;13;27.0;Target:0;0;Target:0
1499195234042;6;2;DOUBLETAP;AnyNumberFinger;TOUCH_MOVED;1;638.0;170.0;1;11;13;27.0;Target:0;0;Target:0
1499195234069;6;2;DOUBLETAP;AnyNumberFinger;TOUCH_MOVED;1;638.0;170.66666666666666;1;11;13;27.0;Target:0;0;Target:0
1499195234094;6;2;DOUBLETAP;AnyNumberFinger;TOUCH_MOVED;1;638.0;171.33333333333334;1;10;13;27.0;Target:0;0;Target:0
1499195234128;6;2;DOUBLETAP;AnyNumberFinger;TOUCH_MOVED;1;638.0;172.0;1;10;13;27.0;Target:0;0;Target:0
1499195234239;6;2;DOUBLETAP;AnyNumberFinger;TOUCH_RELEASED;1;638.0;172.0;1;12;14;27.0;Target:0;0;Target:0
1499195234729;6;2;DOUBLETAP;AnyNumberFinger;TOUCH_PRESSED;1;642.0;186.66666666666666;1;10;0;27.0;Target:0;0;Target:0
1499195234810;6;2;DOUBLETAP;AnyNumberFinger;TOUCH_RELEASED;1;642.0;186.66666666666666;1;10;12;27.0;Target:0;0;Target:0
1499195234899;6;2;DOUBLETAP;AnyNumberFinger;TOUCH_PRESSED;1;642.6666666666666;187.33333333333334;1;8;0;27.0;Target:0;0;Target:0
1499195234919;6;2;DOUBLETAP;AnyNumberFinger;TOUCH_MOVED;1;642.6666666666666;188.0;1;11;11;27.0;Target:0;0;Target:0
1499195234940;6;2;DOUBLETAP;AnyNumberFinger;TOUCH_RELEASED;1;642.6666666666666;188.0;1;11;11;27.0;Target:0;0;Target:0
1499195234940;6;2;DOUBLETAP;AnyNumberFinger;BUTTON_TRIGGERED;1;642.6666666666666;188.0;1;11;11;27.0;Target:0;0;Target:0
1499195235009;6;2;DOUBLETAP;AnyNumberFinger;TOUCH_PRESSED;1;645.3333333333334;195.33333333333334;1;11;0;27.0;Target:7;1;Target:0
1499195235053;6;2;DOUBLETAP;AnyNumberFinger;TOUCH_RELEASED;1;645.3333333333334;195.33333333333334;1;10;12;27.0;Target:7;1;None
1499195238557;6;2;DOUBLETAP;AnyNumberFinger;TOUCH_PRESSED;1;842.6666666666666;540.0;1;10;0;27.0;Target:7;0;None
1499195238563;6;2;DOUBLETAP;AnyNumberFinger;TOUCH_PRESSED;2;635.3333333333334;719.3333333333334;2;10;0;27.0;Target:7;0;None
1499195238568;6;2;DOUBLETAP;AnyNumberFinger;TOUCH_PRESSED;3;764.6666666666666;488.6666666666667;3;10;0;27.0;Target:7;0;Target:5
1499195238595;6;2;DOUBLETAP;AnyNumberFinger;TOUCH_PRESSED;4;696.0;486.6666666666667;4;11;0;27.0;Target:7;0;None
1499195238657;6;2;DOUBLETAP;AnyNumberFinger;TOUCH_MOVED;2;636.0;719.3333333333334;4;11;11;27.0;Target:7;0;None
1499195238673;6;2;DOUBLETAP;AnyNumberFinger;TOUCH_MOVED;4;696.0;487.3333333333333;4;15;15;27.0;Target:7;0;None
1499195238700;6;2;DOUBLETAP;AnyNumberFinger;TOUCH_PRESSED;5;591.3333333333334;532.0;5;8;0;27.0;Target:7;0;Target:7
1499195238799;6;2;DOUBLETAP;AnyNumberFinger;TOUCH_MOVED;1;842.6666666666666;540.6666666666666;5;11;15;27.0;Target:7;0;None
1499195238800;6;2;DOUBLETAP;AnyNumberFinger;TOUCH_MOVED;4;695.3333333333334;487.3333333333333;5;11;15;27.0;Target:7;0;None
1499195238879;6;2;DOUBLETAP;AnyNumberFinger;TOUCH_RELEASED;5;591.3333333333334;532.0;5;10;14;27.0;Target:7;0;Target:7
1499195238909;6;2;DOUBLETAP;AnyNumberFinger;TOUCH_RELEASED;4;695.3333333333334;487.3333333333333;4;12;15;27.0;Target:7;0;None
1499195238962;6;2;DOUBLETAP;AnyNumberFinger;TOUCH_RELEASED;2;636.0;719.3333333333334;3;11;15;27.0;Target:7;0;None
1499195239000;6;2;DOUBLETAP;AnyNumberFinger;TOUCH_MOVED;1;842.6666666666666;541.3333333333334;2;11;15;27.0;Target:7;0;None
1499195239015;6;2;DOUBLETAP;AnyNumberFinger;TOUCH_RELEASED;3;764.6666666666666;488.6666666666667;2;12;15;27.0;Target:7;0;Target:5
1499195239030;6;2;DOUBLETAP;AnyNumberFinger;TOUCH_MOVED;1;843.3333333333334;542.0;1;9;15;27.0;Target:7;0;None
1499195239040;6;2;DOUBLETAP;AnyNumberFinger;TOUCH_MOVED;1;843.3333333333334;542.6666666666666;1;11;15;27.0;Target:7;0;None
1499195239055;6;2;DOUBLETAP;AnyNumberFinger;TOUCH_MOVED;1;843.3333333333334;543.3333333333334;1;13;15;27.0;Target:7;0;None
1499195239061;6;2;DOUBLETAP;AnyNumberFinger;TOUCH_MOVED;1;844.0;544.0;1;12;15;27.0;Target:7;0;None
1499195239071;6;2;DOUBLETAP;AnyNumberFinger;TOUCH_MOVED;1;844.6666666666666;544.6666666666666;1;13;15;27.0;Target:7;0;None
1499195239096;6;2;DOUBLETAP;AnyNumberFinger;TOUCH_RELEASED;1;844.6666666666666;544.6666666666666;1;11;15;27.0;Target:7;0;None
1499195239687;6;2;DOUBLETAP;AnyNumberFinger;TOUCH_PRESSED;1;852.0;531.3333333333334;1;11;0;27.0;Target:7;0;None
1499195239687;6;2;DOUBLETAP;AnyNumberFinger;TOUCH_PRESSED;2;780.6666666666666;472.6666666666667;2;11;0;27.0;Target:7;0;None
1499195239687;6;2;DOUBLETAP;AnyNumberFinger;TOUCH_PRESSED;3;635.3333333333334;719.3333333333334;3;11;0;27.0;Target:7;0;None
1499195239711;6;2;DOUBLETAP;AnyNumberFinger;TOUCH_PRESSED;4;712.6666666666666;466.6666666666667;4;11;0;27.0;Target:7;0;None
1499195239716;6;2;DOUBLETAP;AnyNumberFinger;TOUCH_PRESSED;5;604.6666666666666;526.0;5;11;0;27.0;Target:7;0;Target:7
1499195239807;6;2;DOUBLETAP;AnyNumberFinger;TOUCH_MOVED;5;604.6666666666666;526.6666666666666;5;12;12;27.0;Target:7;0;Target:7
1499195239912;6;2;DOUBLETAP;AnyNumberFinger;TOUCH_RELEASED;5;604.6666666666666;526.6666666666666;5;11;12;27.0;Target:7;0;Target:7
1499195240028;6;2;DOUBLETAP;AnyNumberFinger;TOUCH_MOVED;1;852.0;532.0;4;11;14;27.0;Target:7;0;None
1499195240324;6;2;DOUBLETAP;AnyNumberFinger;TOUCH_PRESSED;6;597.3333333333334;531.3333333333334;5;4;0;27.0;Target:7;0;Target:7
1499195240336;6;2;DOUBLETAP;AnyNumberFinger;TOUCH_RELEASED;1;852.0;532.0;5;7;14;27.0;Target:7;0;None
1499195240353;6;2;DOUBLETAP;AnyNumberFinger;TOUCH_RELEASED;2;780.6666666666666;472.6666666666667;4;25;25;27.0;Target:7;0;None
1499195240372;6;2;DOUBLETAP;AnyNumberFinger;TOUCH_RELEASED;4;712.6666666666666;466.6666666666667;3;11;25;27.0;Target:7;0;None
1499195240377;6;2;DOUBLETAP;AnyNumberFinger;TOUCH_MOVED;3;636.0;719.3333333333334;2;11;25;27.0;Target:7;0;None
1499195240443;6;2;DOUBLETAP;AnyNumberFinger;TOUCH_PRESSED;7;710.0;470.0;3;10;0;27.0;Target:7;0;None
1499195240468;6;2;DOUBLETAP;AnyNumberFinger;TOUCH_MOVED;7;710.0;470.6666666666667;3;13;13;27.0;Target:7;0;None
1499195240489;6;2;DOUBLETAP;AnyNumberFinger;TOUCH_MOVED;3;636.6666666666666;719.3333333333334;3;12;25;27.0;Target:7;0;None
1499195240489;6;2;DOUBLETAP;AnyNumberFinger;TOUCH_MOVED;7;709.3333333333334;470.6666666666667;3;12;13;27.0;Target:7;0;None
1499195240506;6;2;DOUBLETAP;AnyNumberFinger;TOUCH_MOVED;3;637.3333333333334;719.3333333333334;3;6;25;27.0;Target:7;0;None
1499195240532;6;2;DOUBLETAP;AnyNumberFinger;TOUCH_RELEASED;3;637.3333333333334;719.3333333333334;3;11;25;27.0;Target:7;0;None
1499195240558;6;2;DOUBLETAP;AnyNumberFinger;TOUCH_MOVED;7;708.6666666666666;470.6666666666667;2;12;13;27.0;Target:7;0;None
1499195240604;6;2;DOUBLETAP;AnyNumberFinger;TOUCH_MOVED;6;596.6666666666666;531.3333333333334;2;9;25;27.0;Target:7;0;Target:7
1499195240605;6;2;DOUBLETAP;AnyNumberFinger;TOUCH_MOVED;7;708.6666666666666;471.3333333333333;2;9;13;27.0;Target:7;0;None
1499195240651;6;2;DOUBLETAP;AnyNumberFinger;TOUCH_MOVED;7;708.0;471.3333333333333;2;12;13;27.0;Target:7;0;None
1499195240657;6;2;DOUBLETAP;AnyNumberFinger;TOUCH_PRESSED;8;648.6666666666666;714.6666666666666;3;12;0;27.0;Target:7;0;None
1499195240729;6;2;DOUBLETAP;AnyNumberFinger;TOUCH_MOVED;7;707.3333333333334;472.0;3;11;13;27.0;Target:7;0;None
1499195240840;6;2;DOUBLETAP;AnyNumberFinger;TOUCH_MOVED;7;706.6666666666666;472.0;3;12;13;27.0;Target:7;0;None
1499195240955;6;2;DOUBLETAP;AnyNumberFinger;TOUCH_MOVED;7;706.0;472.0;3;12;13;27.0;Target:7;0;None
1499195241065;6;2;DOUBLETAP;AnyNumberFinger;TOUCH_MOVED;7;706.0;472.6666666666667;3;11;13;27.0;Target:7;0;None
1499195241075;6;2;DOUBLETAP;AnyNumberFinger;TOUCH_MOVED;8;649.3333333333334;714.6666666666666;3;13;13;27.0;Target:7;0;None
1499195241087;6;2;DOUBLETAP;AnyNumberFinger;TOUCH_RELEASED;6;596.6666666666666;531.3333333333334;3;9;25;27.0;Target:7;0;Target:7
1499195241207;6;2;DOUBLETAP;AnyNumberFinger;TOUCH_MOVED;7;706.0;473.3333333333333;2;12;13;27.0;Target:7;0;None
1499195241292;6;2;DOUBLETAP;AnyNumberFinger;TOUCH_PRESSED;9;607.3333333333334;526.0;3;9;0;27.0;Target:7;0;Target:7
1499195241444;6;2;DOUBLETAP;AnyNumberFinger;TOUCH_RELEASED;9;607.3333333333334;526.0;3;10;13;27.0;Target:7;0;Target:7
1499195241531;6;2;DOUBLETAP;AnyNumberFinger;TOUCH_MOVED;7;706.0;474.0;2;11;15;27.0;Target:7;0;None
1499195241663;6;2;DOUBLETAP;AnyNumberFinger;TOUCH_MOVED;8;649.3333333333334;715.3333333333334;2;10;15;27.0;Target:7;0;None
1499195241873;6;2;DOUBLETAP;AnyNumberFinger;TOUCH_PRESSED;10;600.6666666666666;533.3333333333334;3;11;0;27.0;Target:7;0;Target:7
1499195241947;6;2;DOUBLETAP;AnyNumberFinger;TOUCH_RELEASED;10;600.6666666666666;533.3333333333334;3;12;12;27.0;Target:7;0;Target:7
1499195241994;6;2;DOUBLETAP;AnyNumberFinger;TOUCH_MOVED;7;706.0;474.6666666666667;2;10;15;27.0;Target:7;0;None
1499195242027;6;2;DOUBLETAP;AnyNumberFinger;TOUCH_PRESSED;11;600.0;532.6666666666666;3;11;0;27.0;Target:7;0;Target:7
1499195242093;6;2;DOUBLETAP;AnyNumberFinger;TOUCH_RELEASED;11;600.0;532.6666666666666;3;15;15;27.0;Target:7;0;Target:7
1499195242094;6;2;DOUBLETAP;AnyNumberFinger;BUTTON_TRIGGERED;11;600.0;532.6666666666666;3;15;15;27.0;Target:7;0;Target:7
1499195242215;6;2;DOUBLETAP;AnyNumberFinger;TOUCH_MOVED;7;706.0;475.3333333333333;2;9;15;27.0;Target:1;1;None
1499195242414;6;2;DOUBLETAP;AnyNumberFinger;TOUCH_MOVED;8;649.3333333333334;716.0;2;10;17;27.0;Target:1;1;None
1499195242466;6;2;DOUBLETAP;AnyNumberFinger;TOUCH_RELEASED;8;649.3333333333334;716.0;2;12;17;27.0;Target:1;1;None
1499195242490;6;2;DOUBLETAP;AnyNumberFinger;TOUCH_RELEASED;7;706.0;475.3333333333333;1;10;17;27.0;Target:1;1;None
1499195245141;6;2;DOUBLETAP;AnyNumberFinger;TOUCH_PRESSED;1;806.0;151.33333333333334;1;11;11;27.0;Target:1;0;None
1499195245141;6;2;DOUBLETAP;AnyNumberFinger;TOUCH_PRESSED;2;864.6666666666666;162.66666666666666;2;11;0;27.0;Target:1;0;None
1499195245146;6;2;DOUBLETAP;AnyNumberFinger;TOUCH_PRESSED;3;936.0;230.0;3;11;0;27.0;Target:1;0;None
1499195245153;6;2;DOUBLETAP;AnyNumberFinger;TOUCH_PRESSED;4;705.3333333333334;477.3333333333333;4;10;0;27.0;Target:1;0;None
1499195245153;6;2;DOUBLETAP;AnyNumberFinger;TOUCH_PRESSED;5;651.3333333333334;717.3333333333334;5;10;0;27.0;Target:1;0;None
1499195245159;6;2;DOUBLETAP;AnyNumberFinger;TOUCH_PRESSED;6;716.6666666666666;380.6666666666667;6;10;0;27.0;Target:1;0;None
1499195245207;6;2;DOUBLETAP;AnyNumberFinger;TOUCH_RELEASED;4;705.3333333333334;477.3333333333333;6;11;11;27.0;Target:1;0;None
1499195245212;6;2;DOUBLETAP;AnyNumberFinger;TOUCH_RELEASED;5;651.3333333333334;717.3333333333334;5;11;11;27.0;Target:1;0;None
1499195245237;6;2;DOUBLETAP;AnyNumberFinger;TOUCH_MOVED;3;936.0;230.66666666666666;4;10;11;27.0;Target:1;0;None
1499195245311;6;2;DOUBLETAP;AnyNumberFinger;TOUCH_MOVED;6;717.3333333333334;380.6666666666667;4;10;12;27.0;Target:1;0;None
1499195245327;6;2;DOUBLETAP;AnyNumberFinger;TOUCH_MOVED;6;717.3333333333334;381.3333333333333;4;9;12;27.0;Target:1;0;None
1499195245348;6;2;DOUBLETAP;AnyNumberFinger;TOUCH_MOVED;2;864.6666666666666;163.33333333333334;4;11;12;27.0;Target:1;0;None
1499195245348;6;2;DOUBLETAP;AnyNumberFinger;TOUCH_MOVED;3;936.0;231.33333333333334;4;11;12;27.0;Target:1;0;None
1499195245390;6;2;DOUBLETAP;AnyNumberFinger;TOUCH_PRESSED;7;722.0;203.33333333333334;5;10;0;27.0;Target:1;0;Target:1
1499195245407;6;2;DOUBLETAP;AnyNumberFinger;TOUCH_MOVED;6;718.0;381.3333333333333;5;10;13;27.0;Target:1;0;None
1499195245459;6;2;DOUBLETAP;AnyNumberFinger;TOUCH_MOVED;3;936.0;232.0;5;12;13;27.0;Target:1;0;None
1499195245480;6;2;DOUBLETAP;AnyNumberFinger;TOUCH_RELEASED;7;722.0;203.33333333333334;5;11;13;27.0;Target:1;0;Target:1
1499195245506;6;2;DOUBLETAP;AnyNumberFinger;TOUCH_MOVED;6;718.0;382.0;4;10;13;27.0;Target:1;0;None
1499195245555;6;2;DOUBLETAP;AnyNumberFinger;TOUCH_PRESSED;8;723.3333333333334;200.0;5;10;0;27.0;Target:1;0;Target:1
1499195245586;6;2;DOUBLETAP;AnyNumberFinger;TOUCH_MOVED;8;723.3333333333334;199.33333333333334;5;10;10;27.0;Target:1;0;Target:1
1499195245596;6;2;DOUBLETAP;AnyNumberFinger;TOUCH_MOVED;8;724.0;199.33333333333334;5;11;11;27.0;Target:1;0;Target:1
1499195245623;6;2;DOUBLETAP;AnyNumberFinger;TOUCH_RELEASED;8;724.0;199.33333333333334;5;10;13;27.0;Target:1;0;Target:1
1499195245623;6;2;DOUBLETAP;AnyNumberFinger;BUTTON_TRIGGERED;8;724.0;199.33333333333334;5;10;13;27.0;Target:1;0;Target:1
1499195245684;6;2;DOUBLETAP;AnyNumberFinger;TOUCH_MOVED;6;718.6666666666666;382.0;4;11;13;27.0;Target:8;1;None
1499195245733;6;2;DOUBLETAP;AnyNumberFinger;TOUCH_MOVED;6;718.6666666666666;382.6666666666667;4;11;13;27.0;Target:8;1;None
1499195245744;6;2;DOUBLETAP;AnyNumberFinger;TOUCH_MOVED;3;936.0;232.66666666666666;4;11;13;27.0;Target:8;1;None
1499195245765;6;2;DOUBLETAP;AnyNumberFinger;TOUCH_MOVED;2;864.6666666666666;164.0;4;11;13;27.0;Target:8;1;None
1499195245796;6;2;DOUBLETAP;AnyNumberFinger;TOUCH_MOVED;6;719.3333333333334;382.6666666666667;4;12;13;27.0;Target:8;1;None
1499195245844;6;2;DOUBLETAP;AnyNumberFinger;TOUCH_MOVED;6;719.3333333333334;383.3333333333333;4;10;13;27.0;Target:8;1;None
1499195245913;6;2;DOUBLETAP;AnyNumberFinger;TOUCH_MOVED;6;720.0;383.3333333333333;4;8;13;27.0;Target:8;1;None
1499195245959;6;2;DOUBLETAP;AnyNumberFinger;TOUCH_MOVED;6;720.0;384.0;4;10;13;27.0;Target:8;1;None
1499195246002;6;2;DOUBLETAP;AnyNumberFinger;TOUCH_MOVED;3;936.0;233.33333333333334;4;10;13;27.0;Target:8;1;None
1499195246002;6;2;DOUBLETAP;AnyNumberFinger;TOUCH_RELEASED;6;720.0;384.0;4;10;13;27.0;Target:8;1;None
1499195246021;6;2;DOUBLETAP;AnyNumberFinger;TOUCH_RELEASED;1;806.0;151.33333333333334;3;12;13;27.0;Target:8;1;None
1499195246037;6;2;DOUBLETAP;AnyNumberFinger;TOUCH_RELEASED;2;864.6666666666666;164.0;2;10;13;27.0;Target:8;1;None
1499195246053;6;2;DOUBLETAP;AnyNumberFinger;TOUCH_RELEASED;3;936.0;233.33333333333334;1;11;13;27.0;Target:8;1;None
1499195247818;6;2;DOUBLETAP;AnyNumberFinger;TOUCH_PRESSED;1;627.3333333333334;371.3333333333333;1;12;0;27.0;Target:8;0;None
1499195247818;6;2;DOUBLETAP;AnyNumberFinger;TOUCH_PRESSED;2;707.3333333333334;405.3333333333333;2;12;0;27.0;Target:8;0;None
1499195247819;6;2;DOUBLETAP;AnyNumberFinger;TOUCH_PRESSED;3;594.6666666666666;643.3333333333334;3;12;0;27.0;Target:8;0;None
1499195247823;6;2;DOUBLETAP;AnyNumberFinger;TOUCH_PRESSED;4;564.0;396.0;4;10;0;27.0;Target:8;0;None
1499195247902;6;2;DOUBLETAP;AnyNumberFinger;TOUCH_MOVED;2;708.0;405.3333333333333;4;12;12;27.0;Target:8;0;None
1499195247940;6;2;DOUBLETAP;AnyNumberFinger;TOUCH_MOVED;2;708.0;406.0;4;10;12;27.0;Target:8;0;None
1499195248014;6;2;DOUBLETAP;AnyNumberFinger;TOUCH_MOVED;2;708.6666666666666;406.0;4;11;14;27.0;Target:8;0;None
1499195248045;6;2;DOUBLETAP;AnyNumberFinger;TOUCH_MOVED;2;708.6666666666666;406.6666666666667;4;10;14;27.0;Target:8;0;None
1499195248051;6;2;DOUBLETAP;AnyNumberFinger;TOUCH_PRESSED;5;515.3333333333334;478.6666666666667;5;10;0;27.0;Target:8;0;Target:8
1499195248147;6;2;DOUBLETAP;AnyNumberFinger;TOUCH_RELEASED;5;515.3333333333334;478.6666666666667;5;11;12;27.0;Target:8;0;Target:8
1499195248168;6;2;DOUBLETAP;AnyNumberFinger;TOUCH_MOVED;2;708.6666666666666;407.3333333333333;4;11;14;27.0;Target:8;0;None
1499195248225;6;2;DOUBLETAP;AnyNumberFinger;TOUCH_PRESSED;6;518.0;476.0;5;11;0;27.0;Target:8;0;Target:8
1499195248300;6;2;DOUBLETAP;AnyNumberFinger;TOUCH_RELEASED;6;518.0;476.0;5;11;12;27.0;Target:8;0;Target:8
1499195248300;6;2;DOUBLETAP;AnyNumberFinger;BUTTON_TRIGGERED;6;518.0;476.0;5;11;12;27.0;Target:8;0;Target:8
1499195248394;6;2;DOUBLETAP;AnyNumberFinger;TOUCH_RELEASED;3;594.6666666666666;643.3333333333334;4;10;17;27.0;Target:2;1;None
1499195248428;6;2;DOUBLETAP;AnyNumberFinger;TOUCH_MOVED;2;708.6666666666666;408.0;3;11;17;27.0;Target:2;1;None
1499195248428;6;2;DOUBLETAP;AnyNumberFinger;TOUCH_RELEASED;4;564.0;396.0;3;11;17;27.0;Target:2;1;None
1499195248433;6;2;DOUBLETAP;AnyNumberFinger;TOUCH_MOVED;2;709.3333333333334;408.0;2;11;17;27.0;Target:2;1;None
1499195248447;6;2;DOUBLETAP;AnyNumberFinger;TOUCH_RELEASED;1;627.3333333333334;371.3333333333333;2;13;17;27.0;Target:2;1;None
1499195248462;6;2;DOUBLETAP;AnyNumberFinger;TOUCH_RELEASED;2;709.3333333333334;408.0;1;11;17;27.0;Target:2;1;None
1499195250565;6;2;DOUBLETAP;AnyNumberFinger;TOUCH_PRESSED;1;985.3333333333334;303.3333333333333;1;11;0;27.0;Target:2;0;None
1499195250572;6;2;DOUBLETAP;AnyNumberFinger;TOUCH_PRESSED;2;938.6666666666666;228.66666666666666;2;11;0;27.0;Target:2;0;None
1499195250599;6;2;DOUBLETAP;AnyNumberFinger;TOUCH_PRESSED;3;888.0;214.66666666666666;3;11;0;27.0;Target:2;0;None
1499195250630;6;2;DOUBLETAP;AnyNumberFinger;TOUCH_PRESSED;4;740.6666666666666;430.0;4;11;0;27.0;Target:2;0;None
1499195250672;6;2;DOUBLETAP;AnyNumberFinger;TOUCH_MOVED;3;887.3333333333334;214.66666666666666;4;11;12;27.0;Target:2;0;None
1499195250687;6;2;DOUBLETAP;AnyNumberFinger;TOUCH_MOVED;3;887.3333333333334;215.33333333333334;4;11;12;27.0;Target:2;0;None
1499195250713;6;2;DOUBLETAP;AnyNumberFinger;TOUCH_MOVED;1;985.3333333333334;304.0;4;10;12;27.0;Target:2;0;None
1499195250719;6;2;DOUBLETAP;AnyNumberFinger;TOUCH_MOVED;1;984.6666666666666;304.0;4;12;12;27.0;Target:2;0;None
1499195250719;6;2;DOUBLETAP;AnyNumberFinger;TOUCH_MOVED;2;938.6666666666666;229.33333333333334;4;12;12;27.0;Target:2;0;None
1499195250776;6;2;DOUBLETAP;AnyNumberFinger;TOUCH_MOVED;3;886.6666666666666;215.33333333333334;4;9;13;27.0;Target:2;0;None
1499195250782;6;2;DOUBLETAP;AnyNumberFinger;TOUCH_MOVED;1;984.6666666666666;304.6666666666667;4;9;13;27.0;Target:2;0;None
1499195250787;6;2;DOUBLETAP;AnyNumberFinger;TOUCH_MOVED;4;740.6666666666666;430.6666666666667;4;9;13;27.0;Target:2;0;None
1499195250834;6;2;DOUBLETAP;AnyNumberFinger;TOUCH_MOVED;2;938.6666666666666;230.0;4;9;13;27.0;Target:2;0;None
1499195250855;6;2;DOUBLETAP;AnyNumberFinger;TOUCH_MOVED;4;741.3333333333334;430.6666666666667;4;13;13;27.0;Target:2;0;None
1499195250865;6;2;DOUBLETAP;AnyNumberFinger;TOUCH_MOVED;1;984.6666666666666;305.3333333333333;4;11;13;27.0;Target:2;0;None
1499195250882;6;2;DOUBLETAP;AnyNumberFinger;TOUCH_MOVED;1;984.0;305.3333333333333;4;11;13;27.0;Target:2;0;None
1499195250939;6;2;DOUBLETAP;AnyNumberFinger;TOUCH_MOVED;1;984.0;306.0;4;13;13;27.0;Target:2;0;None
1499195250970;6;2;DOUBLETAP;AnyNumberFinger;TOUCH_MOVED;2;938.6666666666666;230.66666666666666;4;11;13;27.0;Target:2;0;None
1499195250996;6;2;DOUBLETAP;AnyNumberFinger;TOUCH_MOVED;1;984.0;306.6666666666667;4;11;13;27.0;Target:2;0;None
1499195250996;6;2;DOUBLETAP;AnyNumberFinger;TOUCH_MOVED;4;742.0;430.6666666666667;4;11;13;27.0;Target:2;0;None
1499195251022;6;2;DOUBLETAP;AnyNumberFinger;TOUCH_MOVED;4;742.0;431.3333333333333;4;11;13;27.0;Target:2;0;None
1499195251066;6;2;DOUBLETAP;AnyNumberFinger;TOUCH_MOVED;1;984.0;307.3333333333333;4;9;13;27.0;Target:2;0;None
1499195251066;6;2;DOUBLETAP;AnyNumberFinger;TOUCH_MOVED;3;886.6666666666666;216.0;4;9;13;27.0;Target:2;0;None
1499195251101;6;2;DOUBLETAP;AnyNumberFinger;TOUCH_MOVED;2;938.6666666666666;231.33333333333334;4;13;13;27.0;Target:2;0;None
1499195251106;6;2;DOUBLETAP;AnyNumberFinger;TOUCH_MOVED;4;742.6666666666666;431.3333333333333;4;9;13;27.0;Target:2;0;None
1499195251132;6;2;DOUBLETAP;AnyNumberFinger;TOUCH_MOVED;4;742.6666666666666;432.0;4;18;18;27.0;Target:2;0;None
1499195251148;6;2;DOUBLETAP;AnyNumberFinger;TOUCH_MOVED;1;984.0;308.0;4;9;18;27.0;Target:2;0;None
1499195251207;6;2;DOUBLETAP;AnyNumberFinger;TOUCH_PRESSED;5;790.6666666666666;255.33333333333334;5;9;0;27.0;Target:2;0;Target:2
1499195251211;6;2;DOUBLETAP;AnyNumberFinger;TOUCH_MOVED;4;743.3333333333334;432.0;5;9;18;27.0;Target:2;0;None
1499195251217;6;2;DOUBLETAP;AnyNumberFinger;TOUCH_MOVED;2;938.6666666666666;232.0;5;12;18;27.0;Target:2;0;None
1499195251226;6;2;DOUBLETAP;AnyNumberFinger;TOUCH_MOVED;1;984.0;308.6666666666667;5;13;18;27.0;Target:2;0;None
1499195251248;6;2;DOUBLETAP;AnyNumberFinger;TOUCH_MOVED;4;743.3333333333334;432.6666666666667;5;10;18;27.0;Target:2;0;None
1499195251279;6;2;DOUBLETAP;AnyNumberFinger;TOUCH_MOVED;3;886.0;216.0;5;11;18;27.0;Target:2;0;None
1499195251300;6;2;DOUBLETAP;AnyNumberFinger;TOUCH_MOVED;5;790.6666666666666;256.0;5;13;14;27.0;Target:2;0;Target:2
1499195251321;6;2;DOUBLETAP;AnyNumberFinger;TOUCH_MOVED;4;744.0;432.6666666666667;5;11;18;27.0;Target:2;0;None
1499195251327;6;2;DOUBLETAP;AnyNumberFinger;TOUCH_MOVED;1;983.3333333333334;308.6666666666667;5;11;18;27.0;Target:2;0;None
1499195251332;6;2;DOUBLETAP;AnyNumberFinger;TOUCH_MOVED;1;983.3333333333334;309.3333333333333;5;11;18;27.0;Target:2;0;None
1499195251448;6;2;DOUBLETAP;AnyNumberFinger;TOUCH_MOVED;1;983.3333333333334;310.0;5;10;18;27.0;Target:2;0;None
1499195251453;6;2;DOUBLETAP;AnyNumberFinger;TOUCH_MOVED;4;744.0;433.3333333333333;5;10;18;27.0;Target:2;0;None
1499195251458;6;2;DOUBLETAP;AnyNumberFinger;TOUCH_RELEASED;5;790.6666666666666;256.0;5;11;14;27.0;Target:2;0;Target:2
1499195251489;6;2;DOUBLETAP;AnyNumberFinger;TOUCH_MOVED;4;744.6666666666666;433.3333333333333;4;12;18;27.0;Target:2;0;None
1499195251535;6;2;DOUBLETAP;AnyNumberFinger;TOUCH_MOVED;2;938.6666666666666;232.66666666666666;4;13;18;27.0;Target:2;0;None
1499195251604;6;2;DOUBLETAP;AnyNumberFinger;TOUCH_MOVED;1;983.3333333333334;310.6666666666667;4;12;18;27.0;Target:2;0;None
1499195251716;6;2;DOUBLETAP;AnyNumberFinger;TOUCH_MOVED;1;983.3333333333334;311.3333333333333;4;10;18;27.0;Target:2;0;None
1499195251721;6;2;DOUBLETAP;AnyNumberFinger;TOUCH_MOVED;2;938.6666666666666;233.33333333333334;4;11;18;27.0;Target:2;0;None
1499195251820;6;2;DOUBLETAP;AnyNumberFinger;TOUCH_MOVED;1;983.3333333333334;312.0;4;13;18;27.0;Target:2;0;None
1499195251856;6;2;DOUBLETAP;AnyNumberFinger;TOUCH_MOVED;2;938.0;233.33333333333334;4;10;18;27.0;Target:2;0;None
1499195251883;6;2;DOUBLETAP;AnyNumberFinger;TOUCH_MOVED;3;886.0;216.66666666666666;4;11;18;27.0;Target:2;0;None
1499195251936;6;2;DOUBLETAP;AnyNumberFinger;TOUCH_MOVED;1;983.3333333333334;312.6666666666667;4;11;18;27.0;Target:2;0;None
1499195251952;6;2;DOUBLETAP;AnyNumberFinger;TOUCH_PRESSED;6;796.6666666666666;257.3333333333333;5;10;0;27.0;Target:2;0;Target:2
1499195252029;6;2;DOUBLETAP;AnyNumberFinger;TOUCH_RELEASED;6;796.6666666666666;257.3333333333333;5;10;11;27.0;Target:2;0;Target:2
1499195252046;6;2;DOUBLETAP;AnyNumberFinger;TOUCH_MOVED;2;938.0;234.0;4;11;18;27.0;Target:2;0;None
1499195252066;6;2;DOUBLETAP;AnyNumberFinger;TOUCH_MOVED;4;744.6666666666666;434.0;4;14;18;27.0;Target:2;0;None
1499195252072;6;2;DOUBLETAP;AnyNumberFinger;TOUCH_MOVED;3;886.0;217.33333333333334;4;14;18;27.0;Target:2;0;None
1499195252072;6;2;DOUBLETAP;AnyNumberFinger;TOUCH_MOVED;4;745.3333333333334;434.0;4;14;18;27.0;Target:2;0;None
1499195252093;6;2;DOUBLETAP;AnyNumberFinger;TOUCH_MOVED;3;885.3333333333334;217.33333333333334;4;11;18;27.0;Target:2;0;None
1499195252114;6;2;DOUBLETAP;AnyNumberFinger;TOUCH_PRESSED;7;797.3333333333334;257.3333333333333;5;9;0;27.0;Target:2;0;Target:2
1499195252176;6;2;DOUBLETAP;AnyNumberFinger;TOUCH_MOVED;2;937.3333333333334;234.0;5;10;18;27.0;Target:2;0;None
1499195252176;6;2;DOUBLETAP;AnyNumberFinger;TOUCH_RELEASED;7;797.3333333333334;257.3333333333333;5;10;16;27.0;Target:2;0;Target:2
1499195252176;6;2;DOUBLETAP;AnyNumberFinger;BUTTON_TRIGGERED;7;797.3333333333334;257.3333333333333;5;10;16;27.0;Target:2;0;Target:2
1499195252202;6;2;DOUBLETAP;AnyNumberFinger;TOUCH_MOVED;4;745.3333333333334;434.6666666666667;4;9;18;27.0;Target:9;1;None
1499195252240;6;2;DOUBLETAP;AnyNumberFinger;TOUCH_MOVED;3;886.0;217.33333333333334;4;11;18;27.0;Target:9;1;None
1499195252240;6;2;DOUBLETAP;AnyNumberFinger;TOUCH_RELEASED;4;745.3333333333334;434.6666666666667;4;11;18;27.0;Target:9;1;None
1499195252257;6;2;DOUBLETAP;AnyNumberFinger;TOUCH_MOVED;1;983.3333333333334;313.3333333333333;3;11;18;27.0;Target:9;1;None
1499195252263;6;2;DOUBLETAP;AnyNumberFinger;TOUCH_RELEASED;3;886.0;217.33333333333334;3;11;18;27.0;Target:9;1;None
1499195252282;6;2;DOUBLETAP;AnyNumberFinger;TOUCH_RELEASED;2;937.3333333333334;234.0;2;12;18;27.0;Target:9;1;None
1499195252298;6;2;DOUBLETAP;AnyNumberFinger;TOUCH_RELEASED;1;983.3333333333334;313.3333333333333;1;10;18;27.0;Target:9;1;None
1499195253775;6;2;DOUBLETAP;AnyNumberFinger;TOUCH_PRESSED;1;596.0;317.3333333333333;1;11;0;27.0;Target:9;0;None
1499195253775;6;2;DOUBLETAP;AnyNumberFinger;TOUCH_PRESSED;2;666.0;367.3333333333333;2;11;0;27.0;Target:9;0;None
1499195253776;6;2;DOUBLETAP;AnyNumberFinger;TOUCH_PRESSED;3;541.3333333333334;334.0;3;11;0;27.0;Target:9;0;None
1499195253786;6;2;DOUBLETAP;AnyNumberFinger;TOUCH_PRESSED;4;516.0;580.0;4;12;0;27.0;Target:9;0;None
1499195253828;6;2;DOUBLETAP;AnyNumberFinger;TOUCH_MOVED;2;666.0;368.0;4;8;13;27.0;Target:9;0;None
1499195253844;6;2;DOUBLETAP;AnyNumberFinger;TOUCH_MOVED;2;666.6666666666666;368.0;4;9;13;27.0;Target:9;0;None
1499195253865;6;2;DOUBLETAP;AnyNumberFinger;TOUCH_MOVED;2;666.6666666666666;368.6666666666667;4;11;13;27.0;Target:9;0;None
1499195253882;6;2;DOUBLETAP;AnyNumberFinger;TOUCH_MOVED;4;516.6666666666666;580.0;4;10;13;27.0;Target:9;0;None
1499195253902;6;2;DOUBLETAP;AnyNumberFinger;TOUCH_MOVED;1;596.0;318.0;4;11;13;27.0;Target:9;0;None
1499195253902;6;2;DOUBLETAP;AnyNumberFinger;TOUCH_MOVED;2;666.6666666666666;369.3333333333333;4;11;13;27.0;Target:9;0;None
1499195253934;6;2;DOUBLETAP;AnyNumberFinger;TOUCH_MOVED;3;541.3333333333334;334.6666666666667;4;11;13;27.0;Target:9;0;None
1499195253940;6;2;DOUBLETAP;AnyNumberFinger;TOUCH_MOVED;2;666.6666666666666;370.0;4;11;13;27.0;Target:9;0;None
1499195253955;6;2;DOUBLETAP;AnyNumberFinger;TOUCH_MOVED;2;667.3333333333334;370.0;4;8;13;27.0;Target:9;0;None
1499195253991;6;2;DOUBLETAP;AnyNumberFinger;TOUCH_MOVED;4;517.3333333333334;580.0;4;10;13;27.0;Target:9;0;None
1499195253997;6;2;DOUBLETAP;AnyNumberFinger;TOUCH_MOVED;2;667.3333333333334;370.6666666666667;4;10;13;27.0;Target:9;0;None
1499195254013;6;2;DOUBLETAP;AnyNumberFinger;TOUCH_PRESSED;5;473.3333333333333;419.3333333333333;5;10;0;27.0;Target:9;0;Target:9
1499195254018;6;2;DOUBLETAP;AnyNumberFinger;TOUCH_MOVED;1;596.0;318.6666666666667;5;10;13;27.0;Target:9;0;None
1499195254066;6;2;DOUBLETAP;AnyNumberFinger;TOUCH_MOVED;2;667.3333333333334;371.3333333333333;5;10;13;27.0;Target:9;0;None
1499195254071;6;2;DOUBLETAP;AnyNumberFinger;TOUCH_MOVED;2;668.0;371.3333333333333;5;10;13;27.0;Target:9;0;None
1499195254103;6;2;DOUBLETAP;AnyNumberFinger;TOUCH_RELEASED;5;473.3333333333333;419.3333333333333;5;10;13;27.0;Target:9;0;Target:9
1499195254123;6;2;DOUBLETAP;AnyNumberFinger;TOUCH_MOVED;1;596.0;319.3333333333333;4;11;13;27.0;Target:9;0;None
1499195254135;6;2;DOUBLETAP;AnyNumberFinger;TOUCH_MOVED;4;518.0;580.0;4;11;13;27.0;Target:9;0;None
1499195254171;6;2;DOUBLETAP;AnyNumberFinger;TOUCH_PRESSED;6;472.6666666666667;418.0;5;10;0;27.0;Target:9;0;Target:9
1499195254177;6;2;DOUBLETAP;AnyNumberFinger;TOUCH_MOVED;2;668.0;372.0;5;10;13;27.0;Target:9;0;None
1499195254230;6;2;DOUBLETAP;AnyNumberFinger;TOUCH_RELEASED;6;472.6666666666667;418.0;5;10;12;27.0;Target:9;0;Target:9
1499195254231;6;2;DOUBLETAP;AnyNumberFinger;BUTTON_TRIGGERED;6;472.6666666666667;418.0;5;10;12;27.0;Target:9;0;Target:9
1499195254240;6;2;DOUBLETAP;AnyNumberFinger;TOUCH_MOVED;1;596.0;320.0;4;14;14;27.0;Target:3;1;None
1499195254251;6;2;DOUBLETAP;AnyNumberFinger;TOUCH_MOVED;4;518.0;580.6666666666666;4;10;14;27.0;Target:3;1;None
1499195254264;6;2;DOUBLETAP;AnyNumberFinger;TOUCH_MOVED;1;596.6666666666666;320.0;4;9;14;27.0;Target:3;1;None
1499195254276;6;2;DOUBLETAP;AnyNumberFinger;TOUCH_RELEASED;4;518.0;580.6666666666666;4;13;14;27.0;Target:3;1;None
1499195254284;6;2;DOUBLETAP;AnyNumberFinger;TOUCH_MOVED;2;668.0;372.6666666666667;3;11;14;27.0;Target:3;1;None
1499195254289;6;2;DOUBLETAP;AnyNumberFinger;TOUCH_RELEASED;3;541.3333333333334;334.6666666666667;3;12;14;27.0;Target:3;1;None
1499195254304;6;2;DOUBLETAP;AnyNumberFinger;TOUCH_RELEASED;1;596.6666666666666;320.0;2;12;14;27.0;Target:3;1;None
1499195254309;6;2;DOUBLETAP;AnyNumberFinger;TOUCH_RELEASED;2;668.0;372.6666666666667;1;11;14;27.0;Target:3;1;None
1499195255968;6;2;DOUBLETAP;AnyNumberFinger;TOUCH_PRESSED;1;1019.3333333333334;384.0;1;11;0;27.0;Target:3;0;None
1499195255968;6;2;DOUBLETAP;AnyNumberFinger;TOUCH_PRESSED;2;970.6666666666666;302.6666666666667;2;11;0;27.0;Target:3;0;None
1499195255973;6;2;DOUBLETAP;AnyNumberFinger;TOUCH_PRESSED;3;917.3333333333334;284.0;3;8;0;27.0;Target:3;0;None
1499195255984;6;2;DOUBLETAP;AnyNumberFinger;TOUCH_PRESSED;4;787.3333333333334;524.6666666666666;4;11;0;27.0;Target:3;0;None
1499195256006;6;2;DOUBLETAP;AnyNumberFinger;TOUCH_MOVED;2;970.6666666666666;303.3333333333333;4;10;13;27.0;Target:3;0;None
1499195256021;6;2;DOUBLETAP;AnyNumberFinger;TOUCH_MOVED;1;1019.3333333333334;384.6666666666667;4;11;13;27.0;Target:3;0;None
1499195256116;6;2;DOUBLETAP;AnyNumberFinger;TOUCH_MOVED;2;970.6666666666666;304.0;4;10;14;27.0;Target:3;0;None
1499195256132;6;2;DOUBLETAP;AnyNumberFinger;TOUCH_MOVED;1;1019.3333333333334;385.3333333333333;4;12;14;27.0;Target:3;0;None
1499195256227;6;2;DOUBLETAP;AnyNumberFinger;TOUCH_PRESSED;5;817.3333333333334;331.3333333333333;5;12;0;27.0;Target:3;0;Target:3
1499195256306;6;2;DOUBLETAP;AnyNumberFinger;TOUCH_MOVED;1;1019.3333333333334;386.0;5;10;14;27.0;Target:3;0;None
1499195256311;6;2;DOUBLETAP;AnyNumberFinger;TOUCH_RELEASED;5;817.3333333333334;331.3333333333333;5;14;14;27.0;Target:3;0;Target:3
1499195256343;6;2;DOUBLETAP;AnyNumberFinger;TOUCH_MOVED;2;970.6666666666666;304.6666666666667;4;9;14;27.0;Target:3;0;None
1499195256391;6;2;DOUBLETAP;AnyNumberFinger;TOUCH_PRESSED;6;817.3333333333334;330.0;5;9;0;27.0;Target:3;0;Target:3
1499195256417;6;2;DOUBLETAP;AnyNumberFinger;TOUCH_MOVED;1;1019.3333333333334;386.6666666666667;5;11;14;27.0;Target:3;0;None
1499195256439;6;2;DOUBLETAP;AnyNumberFinger;TOUCH_MOVED;4;788.0;524.6666666666666;5;9;14;27.0;Target:3;0;None
1499195256439;6;2;DOUBLETAP;AnyNumberFinger;TOUCH_RELEASED;6;817.3333333333334;330.0;5;9;11;27.0;Target:3;0;Target:3
1499195256439;6;2;DOUBLETAP;AnyNumberFinger;BUTTON_TRIGGERED;6;817.3333333333334;330.0;5;9;11;27.0;Target:3;0;Target:3
1499195256485;6;2;DOUBLETAP;AnyNumberFinger;TOUCH_RELEASED;4;788.0;524.6666666666666;4;13;14;27.0;Target:10;1;None
1499195256523;6;2;DOUBLETAP;AnyNumberFinger;TOUCH_MOVED;2;970.6666666666666;305.3333333333333;3;10;14;27.0;Target:10;1;None
1499195256523;6;2;DOUBLETAP;AnyNumberFinger;TOUCH_RELEASED;3;917.3333333333334;284.0;3;10;14;27.0;Target:10;1;None
1499195256538;6;2;DOUBLETAP;AnyNumberFinger;TOUCH_RELEASED;1;1019.3333333333334;386.6666666666667;2;10;14;27.0;Target:10;1;None
1499195256549;6;2;DOUBLETAP;AnyNumberFinger;TOUCH_RELEASED;2;970.6666666666666;305.3333333333333;1;11;14;27.0;Target:10;1;None
1499195257898;6;2;DOUBLETAP;AnyNumberFinger;TOUCH_PRESSED;1;578.0;252.0;1;11;0;27.0;Target:10;0;None
1499195257898;6;2;DOUBLETAP;AnyNumberFinger;TOUCH_PRESSED;2;650.6666666666666;303.3333333333333;2;11;0;27.0;Target:10;0;None
1499195257899;6;2;DOUBLETAP;AnyNumberFinger;TOUCH_PRESSED;3;527.3333333333334;259.3333333333333;3;11;0;27.0;Target:10;0;None
1499195257901;6;2;DOUBLETAP;AnyNumberFinger;TOUCH_PRESSED;4;476.0;489.3333333333333;4;11;0;27.0;Target:10;0;None
1499195257955;6;2;DOUBLETAP;AnyNumberFinger;TOUCH_MOVED;2;651.3333333333334;303.3333333333333;4;11;11;27.0;Target:10;0;None
1499195257955;6;2;DOUBLETAP;AnyNumberFinger;TOUCH_MOVED;4;475.3333333333333;489.3333333333333;4;11;11;27.0;Target:10;0;None
1499195257976;6;2;DOUBLETAP;AnyNumberFinger;TOUCH_MOVED;2;651.3333333333334;304.0;4;13;13;27.0;Target:10;0;None
1499195258018;6;2;DOUBLETAP;AnyNumberFinger;TOUCH_MOVED;1;578.0;252.66666666666666;4;9;13;27.0;Target:10;0;None
1499195258028;6;2;DOUBLETAP;AnyNumberFinger;TOUCH_MOVED;2;651.3333333333334;304.6666666666667;4;11;13;27.0;Target:10;0;None
1499195258060;6;2;DOUBLETAP;AnyNumberFinger;TOUCH_MOVED;2;652.0;304.6666666666667;4;10;13;27.0;Target:10;0;None
1499195258082;6;2;DOUBLETAP;AnyNumberFinger;TOUCH_MOVED;2;652.0;305.3333333333333;4;8;13;27.0;Target:10;0;None
1499195258124;6;2;DOUBLETAP;AnyNumberFinger;TOUCH_MOVED;3;527.3333333333334;260.0;4;7;13;27.0;Target:10;0;None
1499195258129;6;2;DOUBLETAP;AnyNumberFinger;TOUCH_MOVED;1;578.0;253.33333333333334;4;7;13;27.0;Target:10;0;None
1499195258139;6;2;DOUBLETAP;AnyNumberFinger;TOUCH_MOVED;2;652.0;306.0;4;9;13;27.0;Target:10;0;None
1499195258156;6;2;DOUBLETAP;AnyNumberFinger;TOUCH_PRESSED;5;458.6666666666667;326.0;5;11;0;27.0;Target:10;0;Target:10
1499195258188;6;2;DOUBLETAP;AnyNumberFinger;TOUCH_MOVED;1;578.0;254.0;5;12;13;27.0;Target:10;0;None
1499195258192;6;2;DOUBLETAP;AnyNumberFinger;TOUCH_MOVED;2;652.0;306.6666666666667;5;11;13;27.0;Target:10;0;None
1499195258240;6;2;DOUBLETAP;AnyNumberFinger;TOUCH_MOVED;1;578.0;254.66666666666666;5;11;13;27.0;Target:10;0;None
1499195258240;6;2;DOUBLETAP;AnyNumberFinger;TOUCH_MOVED;3;527.3333333333334;260.6666666666667;5;11;13;27.0;Target:10;0;None
1499195258250;6;2;DOUBLETAP;AnyNumberFinger;TOUCH_MOVED;2;652.0;307.3333333333333;5;11;13;27.0;Target:10;0;None
1499195258250;6;2;DOUBLETAP;AnyNumberFinger;TOUCH_RELEASED;5;458.6666666666667;326.0;5;11;12;27.0;Target:10;0;Target:10
1499195258272;6;2;DOUBLETAP;AnyNumberFinger;TOUCH_MOVED;2;652.6666666666666;307.3333333333333;4;10;13;27.0;Target:10;0;None
1499195258298;6;2;DOUBLETAP;AnyNumberFinger;TOUCH_MOVED;1;578.0;255.33333333333334;4;12;13;27.0;Target:10;0;None
1499195258303;6;2;DOUBLETAP;AnyNumberFinger;TOUCH_MOVED;2;652.6666666666666;308.0;4;10;13;27.0;Target:10;0;None
1499195258325;6;2;DOUBLETAP;AnyNumberFinger;TOUCH_PRESSED;6;459.3333333333333;325.3333333333333;5;10;0;27.0;Target:10;0;Target:10
1499195258346;6;2;DOUBLETAP;AnyNumberFinger;TOUCH_MOVED;6;459.3333333333333;326.0;5;12;20;27.0;Target:10;0;Target:10
1499195258371;6;2;DOUBLETAP;AnyNumberFinger;TOUCH_MOVED;1;578.0;256.0;5;11;20;27.0;Target:10;0;None
1499195258371;6;2;DOUBLETAP;AnyNumberFinger;TOUCH_RELEASED;6;459.3333333333333;326.0;5;11;20;27.0;Target:10;0;Target:10
1499195258371;6;2;DOUBLETAP;AnyNumberFinger;BUTTON_TRIGGERED;6;459.3333333333333;326.0;5;11;20;27.0;Target:10;0;Target:10
1499195258398;6;2;DOUBLETAP;AnyNumberFinger;TOUCH_MOVED;2;652.6666666666666;308.6666666666667;4;12;20;27.0;Target:4;1;None
1499195258424;6;2;DOUBLETAP;AnyNumberFinger;TOUCH_RELEASED;4;475.3333333333333;489.3333333333333;4;11;20;27.0;Target:4;1;None
1499195258435;6;2;DOUBLETAP;AnyNumberFinger;TOUCH_MOVED;2;652.6666666666666;309.3333333333333;3;10;20;27.0;Target:4;1;None
1499195258436;6;2;DOUBLETAP;AnyNumberFinger;TOUCH_MOVED;2;653.3333333333334;309.3333333333333;3;10;20;27.0;Target:4;1;None
1499195258442;6;2;DOUBLETAP;AnyNumberFinger;TOUCH_MOVED;2;653.3333333333334;310.0;3;12;20;27.0;Target:4;1;None
1499195258445;6;2;DOUBLETAP;AnyNumberFinger;TOUCH_RELEASED;3;527.3333333333334;260.6666666666667;3;12;20;27.0;Target:4;1;None
1499195258455;6;2;DOUBLETAP;AnyNumberFinger;TOUCH_RELEASED;1;578.0;256.0;2;11;20;27.0;Target:4;1;None
1499195258464;6;2;DOUBLETAP;AnyNumberFinger;TOUCH_RELEASED;2;653.3333333333334;310.0;1;11;20;27.0;Target:4;1;None
1499195259887;6;2;DOUBLETAP;AnyNumberFinger;TOUCH_PRESSED;1;923.3333333333334;381.3333333333333;1;11;0;27.0;Target:4;0;None
1499195259887;6;2;DOUBLETAP;AnyNumberFinger;TOUCH_PRESSED;2;974.6666666666666;400.6666666666667;2;11;0;27.0;Target:4;0;None
1499195259887;6;2;DOUBLETAP;AnyNumberFinger;TOUCH_PRESSED;3;1026.6666666666667;478.6666666666667;3;11;0;27.0;Target:4;0;None
1499195259918;6;2;DOUBLETAP;AnyNumberFinger;TOUCH_PRESSED;4;809.3333333333334;615.3333333333334;4;10;0;27.0;Target:4;0;None
1499195259993;6;2;DOUBLETAP;AnyNumberFinger;TOUCH_MOVED;3;1026.6666666666667;479.3333333333333;4;12;13;27.0;Target:4;0;None
1499195260103;6;2;DOUBLETAP;AnyNumberFinger;TOUCH_MOVED;3;1026.6666666666667;480.0;4;14;14;27.0;Target:4;0;None
1499195260157;6;2;DOUBLETAP;AnyNumberFinger;TOUCH_PRESSED;5;820.0;432.6666666666667;5;10;0;27.0;Target:4;0;Target:4
1499195260239;6;2;DOUBLETAP;AnyNumberFinger;TOUCH_RELEASED;5;820.0;432.6666666666667;5;9;13;27.0;Target:4;0;Target:4
1499195260323;6;2;DOUBLETAP;AnyNumberFinger;TOUCH_MOVED;3;1026.6666666666667;480.6666666666667;4;10;16;27.0;Target:4;0;None
1499195260329;6;2;DOUBLETAP;AnyNumberFinger;TOUCH_PRESSED;6;821.3333333333334;430.0;5;10;0;27.0;Target:4;0;Target:4
1499195260365;6;2;DOUBLETAP;AnyNumberFinger;TOUCH_RELEASED;6;821.3333333333334;430.0;5;10;12;27.0;Target:4;0;Target:4
1499195260365;6;2;DOUBLETAP;AnyNumberFinger;BUTTON_TRIGGERED;6;821.3333333333334;430.0;5;10;12;27.0;Target:4;0;Target:4
1499195260439;6;2;DOUBLETAP;AnyNumberFinger;TOUCH_RELEASED;4;809.3333333333334;615.3333333333334;4;11;16;27.0;Target:11;1;None
1499195260459;6;2;DOUBLETAP;AnyNumberFinger;TOUCH_MOVED;1;923.3333333333334;382.0;3;9;16;27.0;Target:11;1;None
1499195260485;6;2;DOUBLETAP;AnyNumberFinger;TOUCH_MOVED;2;974.6666666666666;401.3333333333333;3;12;16;27.0;Target:11;1;None
1499195260492;6;2;DOUBLETAP;AnyNumberFinger;TOUCH_MOVED;3;1026.0;481.3333333333333;3;10;16;27.0;Target:11;1;None
1499195260498;6;2;DOUBLETAP;AnyNumberFinger;TOUCH_RELEASED;1;923.3333333333334;382.0;3;10;16;27.0;Target:11;1;None
1499195260519;6;2;DOUBLETAP;AnyNumberFinger;TOUCH_RELEASED;2;974.6666666666666;401.3333333333333;2;10;16;27.0;Target:11;1;None
1499195260530;6;2;DOUBLETAP;AnyNumberFinger;TOUCH_RELEASED;3;1026.0;481.3333333333333;1;10;16;27.0;Target:11;1;None
1499195262432;6;2;DOUBLETAP;AnyNumberFinger;TOUCH_PRESSED;1;722.6666666666666;282.6666666666667;1;10;0;27.0;Target:11;0;None
1499195262432;6;2;DOUBLETAP;AnyNumberFinger;TOUCH_PRESSED;2;641.3333333333334;262.6666666666667;2;10;0;27.0;Target:11;0;None
1499195262444;6;2;DOUBLETAP;AnyNumberFinger;TOUCH_PRESSED;3;587.3333333333334;259.3333333333333;3;11;0;27.0;Target:11;0;None
1499195262464;6;2;DOUBLETAP;AnyNumberFinger;TOUCH_PRESSED;4;542.6666666666666;430.6666666666667;4;14;0;27.0;Target:11;0;None
1499195262484;6;2;DOUBLETAP;AnyNumberFinger;TOUCH_MOVED;1;722.6666666666666;282.0;4;10;14;27.0;Target:11;0;None
1499195262484;6;2;DOUBLETAP;AnyNumberFinger;TOUCH_MOVED;3;587.3333333333334;258.6666666666667;4;10;14;27.0;Target:11;0;None
1499195262491;6;2;DOUBLETAP;AnyNumberFinger;TOUCH_MOVED;1;722.0;282.0;4;10;14;27.0;Target:11;0;None
1499195262497;6;2;DOUBLETAP;AnyNumberFinger;TOUCH_MOVED;3;586.6666666666666;258.0;4;11;14;27.0;Target:11;0;None
1499195262511;6;2;DOUBLETAP;AnyNumberFinger;TOUCH_MOVED;3;586.6666666666666;257.3333333333333;4;14;14;27.0;Target:11;0;None
1499195262524;6;2;DOUBLETAP;AnyNumberFinger;TOUCH_MOVED;3;586.6666666666666;256.6666666666667;4;12;14;27.0;Target:11;0;None
1499195262543;6;2;DOUBLETAP;AnyNumberFinger;TOUCH_MOVED;1;722.0;281.3333333333333;4;10;14;27.0;Target:11;0;None
1499195262543;6;2;DOUBLETAP;AnyNumberFinger;TOUCH_MOVED;3;586.6666666666666;256.0;4;10;14;27.0;Target:11;0;None
1499195262564;6;2;DOUBLETAP;AnyNumberFinger;TOUCH_MOVED;3;586.6666666666666;255.33333333333334;4;10;14;27.0;Target:11;0;None
1499195262584;6;2;DOUBLETAP;AnyNumberFinger;TOUCH_MOVED;3;586.6666666666666;254.66666666666666;4;8;14;27.0;Target:11;0;None
1499195262616;6;2;DOUBLETAP;AnyNumberFinger;TOUCH_MOVED;3;586.6666666666666;254.0;4;11;14;27.0;Target:11;0;None
1499195262618;6;2;DOUBLETAP;AnyNumberFinger;TOUCH_MOVED;2;642.0;262.0;4;18;18;27.0;Target:11;0;None
1499195262636;6;2;DOUBLETAP;AnyNumberFinger;TOUCH_MOVED;3;586.6666666666666;253.33333333333334;4;12;18;27.0;Target:11;0;None
1499195262670;6;2;DOUBLETAP;AnyNumberFinger;TOUCH_MOVED;3;586.6666666666666;252.66666666666666;4;14;18;27.0;Target:11;0;None
1499195262710;6;2;DOUBLETAP;AnyNumberFinger;TOUCH_MOVED;3;586.6666666666666;252.0;4;9;18;27.0;Target:11;0;None
1499195262722;6;2;DOUBLETAP;AnyNumberFinger;TOUCH_PRESSED;5;501.3333333333333;266.0;5;9;0;27.0;Target:11;0;Target:11
1499195262732;6;2;DOUBLETAP;AnyNumberFinger;TOUCH_MOVED;3;586.6666666666666;251.33333333333334;5;10;18;27.0;Target:11;0;None
1499195262747;6;2;DOUBLETAP;AnyNumberFinger;TOUCH_MOVED;3;586.0;251.33333333333334;5;11;18;27.0;Target:11;0;None
1499195262752;6;2;DOUBLETAP;AnyNumberFinger;TOUCH_MOVED;3;586.0;250.66666666666666;5;11;18;27.0;Target:11;0;None
1499195262773;6;2;DOUBLETAP;AnyNumberFinger;TOUCH_MOVED;3;585.3333333333334;250.0;5;14;18;27.0;Target:11;0;None
1499195262807;6;2;DOUBLETAP;AnyNumberFinger;TOUCH_MOVED;3;585.3333333333334;249.33333333333334;5;8;18;27.0;Target:11;0;None
1499195262822;6;2;DOUBLETAP;AnyNumberFinger;TOUCH_RELEASED;5;501.3333333333333;266.0;5;10;14;27.0;Target:11;0;Target:11
1499195262837;6;2;DOUBLETAP;AnyNumberFinger;TOUCH_MOVED;3;584.6666666666666;249.33333333333334;4;9;18;27.0;Target:11;0;None
1499195262842;6;2;DOUBLETAP;AnyNumberFinger;TOUCH_MOVED;2;642.6666666666666;262.0;4;9;18;27.0;Target:11;0;None
1499195262864;6;2;DOUBLETAP;AnyNumberFinger;TOUCH_MOVED;3;584.6666666666666;248.66666666666666;4;12;18;27.0;Target:11;0;None
1499195262879;6;2;DOUBLETAP;AnyNumberFinger;TOUCH_MOVED;3;584.0;248.66666666666666;4;11;18;27.0;Target:11;0;None
1499195262890;6;2;DOUBLETAP;AnyNumberFinger;TOUCH_MOVED;3;584.0;248.0;4;9;18;27.0;Target:11;0;None
1499195262890;6;2;DOUBLETAP;AnyNumberFinger;TOUCH_PRESSED;6;502.0;264.6666666666667;5;9;0;27.0;Target:11;0;Target:11
1499195262895;6;2;DOUBLETAP;AnyNumberFinger;TOUCH_MOVED;4;542.6666666666666;431.3333333333333;5;9;18;27.0;Target:11;0;None
1499195262900;6;2;DOUBLETAP;AnyNumberFinger;TOUCH_MOVED;3;583.3333333333334;248.0;5;9;18;27.0;Target:11;0;None
1499195262910;6;2;DOUBLETAP;AnyNumberFinger;TOUCH_MOVED;3;583.3333333333334;247.33333333333334;5;11;18;27.0;Target:11;0;None
1499195262920;6;2;DOUBLETAP;AnyNumberFinger;TOUCH_MOVED;3;582.6666666666666;247.33333333333334;5;10;18;27.0;Target:11;0;None
1499195262934;6;2;DOUBLETAP;AnyNumberFinger;TOUCH_MOVED;3;582.6666666666666;246.66666666666666;5;9;18;27.0;Target:11;0;None
1499195262934;6;2;DOUBLETAP;AnyNumberFinger;TOUCH_MOVED;4;542.6666666666666;432.0;5;9;18;27.0;Target:11;0;None
1499195262940;6;2;DOUBLETAP;AnyNumberFinger;TOUCH_MOVED;3;582.0;246.66666666666666;5;8;18;27.0;Target:11;0;None
1499195262947;6;2;DOUBLETAP;AnyNumberFinger;TOUCH_RELEASED;6;502.0;264.6666666666667;5;12;12;27.0;Target:11;0;Target:11
1499195262947;6;2;DOUBLETAP;AnyNumberFinger;BUTTON_TRIGGERED;6;502.0;264.6666666666667;5;12;12;27.0;Target:11;0;Target:11
1499195262959;6;2;DOUBLETAP;AnyNumberFinger;TOUCH_MOVED;1;721.3333333333334;281.3333333333333;4;11;18;27.0;Target:5;1;None
1499195262966;6;2;DOUBLETAP;AnyNumberFinger;TOUCH_MOVED;3;581.3333333333334;246.0;4;9;18;27.0;Target:5;1;None
1499195262972;6;2;DOUBLETAP;AnyNumberFinger;TOUCH_MOVED;4;542.6666666666666;432.6666666666667;4;9;18;27.0;Target:5;1;None
1499195262999;6;2;DOUBLETAP;AnyNumberFinger;TOUCH_MOVED;3;580.6666666666666;246.0;4;8;18;27.0;Target:5;1;None
1499195263006;6;2;DOUBLETAP;AnyNumberFinger;TOUCH_RELEASED;4;542.6666666666666;432.6666666666667;4;9;18;27.0;Target:5;1;None
1499195263020;6;2;DOUBLETAP;AnyNumberFinger;TOUCH_MOVED;1;721.3333333333334;282.0;3;13;18;27.0;Target:5;1;None
1499195263023;6;2;DOUBLETAP;AnyNumberFinger;TOUCH_RELEASED;3;580.6666666666666;246.0;3;13;18;27.0;Target:5;1;None
1499195263037;6;2;DOUBLETAP;AnyNumberFinger;TOUCH_RELEASED;1;721.3333333333334;282.0;2;12;18;27.0;Target:5;1;None
1499195263051;6;2;DOUBLETAP;AnyNumberFinger;TOUCH_RELEASED;2;642.6666666666666;262.0;1;12;18;27.0;Target:5;1;None
1499195264578;6;2;DOUBLETAP;AnyNumberFinger;TOUCH_PRESSED;1;955.3333333333334;524.6666666666666;1;15;0;27.0;Target:5;0;None
1499195264579;6;2;DOUBLETAP;AnyNumberFinger;TOUCH_PRESSED;2;898.6666666666666;454.0;2;15;0;27.0;Target:5;0;None
1499195264584;6;2;DOUBLETAP;AnyNumberFinger;TOUCH_PRESSED;3;849.3333333333334;440.0;3;15;0;27.0;Target:5;0;None
1499195264651;6;2;DOUBLETAP;AnyNumberFinger;TOUCH_PRESSED;4;762.6666666666666;648.0;4;14;0;27.0;Target:5;0;None
1499195264671;6;2;DOUBLETAP;AnyNumberFinger;TOUCH_MOVED;3;850.0;440.0;4;10;14;27.0;Target:5;0;None
1499195264689;6;2;DOUBLETAP;AnyNumberFinger;TOUCH_MOVED;3;850.0;440.6666666666667;4;10;14;27.0;Target:5;0;None
1499195264703;6;2;DOUBLETAP;AnyNumberFinger;TOUCH_MOVED;2;899.3333333333334;454.0;4;12;14;27.0;Target:5;0;None
1499195264716;6;2;DOUBLETAP;AnyNumberFinger;TOUCH_MOVED;3;850.0;441.3333333333333;4;14;14;27.0;Target:5;0;None
1499195264749;6;2;DOUBLETAP;AnyNumberFinger;TOUCH_MOVED;3;850.0;442.0;4;12;14;27.0;Target:5;0;None
1499195264762;6;2;DOUBLETAP;AnyNumberFinger;TOUCH_MOVED;3;850.6666666666666;442.0;4;9;14;27.0;Target:5;0;None
1499195264782;6;2;DOUBLETAP;AnyNumberFinger;TOUCH_MOVED;2;899.3333333333334;454.6666666666667;4;11;14;27.0;Target:5;0;None
1499195264782;6;2;DOUBLETAP;AnyNumberFinger;TOUCH_MOVED;3;850.6666666666666;442.6666666666667;4;11;14;27.0;Target:5;0;None
1499195264802;6;2;DOUBLETAP;AnyNumberFinger;TOUCH_MOVED;4;762.6666666666666;647.3333333333334;4;11;14;27.0;Target:5;0;None
1499195264823;6;2;DOUBLETAP;AnyNumberFinger;TOUCH_MOVED;1;955.3333333333334;525.3333333333334;4;10;14;27.0;Target:5;0;None
1499195264830;6;2;DOUBLETAP;AnyNumberFinger;TOUCH_PRESSED;5;758.6666666666666;492.0;5;10;0;27.0;Target:5;0;Target:5
1499195264836;6;2;DOUBLETAP;AnyNumberFinger;TOUCH_MOVED;3;850.6666666666666;443.3333333333333;5;9;14;27.0;Target:5;0;None
1499195264899;6;2;DOUBLETAP;AnyNumberFinger;TOUCH_MOVED;3;850.6666666666666;444.0;5;11;14;27.0;Target:5;0;None
1499195264905;6;2;DOUBLETAP;AnyNumberFinger;TOUCH_MOVED;2;899.3333333333334;455.3333333333333;5;11;14;27.0;Target:5;0;None
1499195264909;6;2;DOUBLETAP;AnyNumberFinger;TOUCH_MOVED;1;955.3333333333334;526.0;5;11;14;27.0;Target:5;0;None
1499195264909;6;2;DOUBLETAP;AnyNumberFinger;TOUCH_MOVED;4;762.6666666666666;648.0;5;11;14;27.0;Target:5;0;None
1499195264915;6;2;DOUBLETAP;AnyNumberFinger;TOUCH_RELEASED;5;758.6666666666666;492.0;5;12;12;27.0;Target:5;0;Target:5
1499195264931;6;2;DOUBLETAP;AnyNumberFinger;TOUCH_MOVED;3;850.6666666666666;444.6666666666667;4;11;14;27.0;Target:5;0;None
1499195264941;6;2;DOUBLETAP;AnyNumberFinger;TOUCH_MOVED;1;955.3333333333334;526.6666666666666;4;11;14;27.0;Target:5;0;None
1499195264941;6;2;DOUBLETAP;AnyNumberFinger;TOUCH_MOVED;2;899.3333333333334;456.0;4;11;14;27.0;Target:5;0;None
1499195264941;6;2;DOUBLETAP;AnyNumberFinger;TOUCH_MOVED;4;762.6666666666666;648.6666666666666;4;11;14;27.0;Target:5;0;None
1499195264951;6;2;DOUBLETAP;AnyNumberFinger;TOUCH_MOVED;3;851.3333333333334;444.6666666666667;4;10;14;27.0;Target:5;0;None
1499195264957;6;2;DOUBLETAP;AnyNumberFinger;TOUCH_MOVED;3;851.3333333333334;445.3333333333333;4;9;14;27.0;Target:5;0;None
1499195264967;6;2;DOUBLETAP;AnyNumberFinger;TOUCH_MOVED;4;762.6666666666666;649.3333333333334;4;8;14;27.0;Target:5;0;None
1499195264972;6;2;DOUBLETAP;AnyNumberFinger;TOUCH_MOVED;1;955.3333333333334;527.3333333333334;4;8;14;27.0;Target:5;0;None
1499195264978;6;2;DOUBLETAP;AnyNumberFinger;TOUCH_MOVED;2;899.3333333333334;456.6666666666667;4;10;14;27.0;Target:5;0;None
1499195264983;6;2;DOUBLETAP;AnyNumberFinger;TOUCH_MOVED;1;954.6666666666666;527.3333333333334;4;10;14;27.0;Target:5;0;None
1499195264988;6;2;DOUBLETAP;AnyNumberFinger;TOUCH_MOVED;4;762.6666666666666;650.0;4;11;14;27.0;Target:5;0;None
1499195264993;6;2;DOUBLETAP;AnyNumberFinger;TOUCH_MOVED;3;851.3333333333334;446.0;4;11;14;27.0;Target:5;0;None
1499195264999;6;2;DOUBLETAP;AnyNumberFinger;TOUCH_MOVED;1;954.6666666666666;528.0;4;11;14;27.0;Target:5;0;None
1499195265000;6;2;DOUBLETAP;AnyNumberFinger;TOUCH_PRESSED;6;758.6666666666666;493.3333333333333;5;11;0;27.0;Target:5;0;Target:5
1499195265015;6;2;DOUBLETAP;AnyNumberFinger;TOUCH_MOVED;4;762.6666666666666;650.6666666666666;5;17;17;27.0;Target:5;0;None
1499195265032;6;2;DOUBLETAP;AnyNumberFinger;TOUCH_MOVED;1;954.6666666666666;528.6666666666666;5;11;17;27.0;Target:5;0;None
1499195265032;6;2;DOUBLETAP;AnyNumberFinger;TOUCH_MOVED;4;762.0;650.6666666666666;5;11;17;27.0;Target:5;0;None
1499195265035;6;2;DOUBLETAP;AnyNumberFinger;TOUCH_MOVED;2;899.3333333333334;457.3333333333333;5;10;17;27.0;Target:5;0;None
1499195265041;6;2;DOUBLETAP;AnyNumberFinger;TOUCH_MOVED;4;762.0;651.3333333333334;5;10;17;27.0;Target:5;0;None
1499195265041;6;2;DOUBLETAP;AnyNumberFinger;TOUCH_MOVED;6;759.3333333333334;493.3333333333333;5;10;17;27.0;Target:5;0;Target:5
1499195265047;6;2;DOUBLETAP;AnyNumberFinger;TOUCH_MOVED;3;851.3333333333334;446.6666666666667;5;11;17;27.0;Target:5;0;None
1499195265063;6;2;DOUBLETAP;AnyNumberFinger;TOUCH_MOVED;4;762.0;652.0;5;10;17;27.0;Target:5;0;None
1499195265072;6;2;DOUBLETAP;AnyNumberFinger;TOUCH_MOVED;4;762.0;652.6666666666666;5;11;17;27.0;Target:5;0;None
1499195265072;6;2;DOUBLETAP;AnyNumberFinger;TOUCH_RELEASED;6;759.3333333333334;493.3333333333333;5;11;17;27.0;Target:5;0;Target:5
1499195265072;6;2;DOUBLETAP;AnyNumberFinger;BUTTON_TRIGGERED;6;759.3333333333334;493.3333333333333;5;11;17;27.0;Target:5;0;Target:5
1499195265087;6;2;DOUBLETAP;AnyNumberFinger;TOUCH_MOVED;1;954.6666666666666;529.3333333333334;4;14;17;27.0;Target:12;1;None
1499195265087;6;2;DOUBLETAP;AnyNumberFinger;TOUCH_MOVED;4;761.3333333333334;652.6666666666666;4;14;17;27.0;Target:12;1;None
1499195265096;6;2;DOUBLETAP;AnyNumberFinger;TOUCH_MOVED;2;899.3333333333334;458.0;4;11;17;27.0;Target:12;1;None
1499195265102;6;2;DOUBLETAP;AnyNumberFinger;TOUCH_MOVED;3;851.3333333333334;447.3333333333333;4;11;17;27.0;Target:12;1;None
1499195265109;6;2;DOUBLETAP;AnyNumberFinger;TOUCH_MOVED;2;900.0;458.0;4;11;17;27.0;Target:12;1;None
1499195265109;6;2;DOUBLETAP;AnyNumberFinger;TOUCH_RELEASED;4;761.3333333333334;652.6666666666666;4;11;17;27.0;Target:12;1;None
1499195265122;6;2;DOUBLETAP;AnyNumberFinger;TOUCH_MOVED;1;954.6666666666666;530.0;3;11;17;27.0;Target:12;1;None
1499195265129;6;2;DOUBLETAP;AnyNumberFinger;TOUCH_MOVED;2;900.0;458.6666666666667;3;15;17;27.0;Target:12;1;None
1499195265136;6;2;DOUBLETAP;AnyNumberFinger;TOUCH_MOVED;1;955.3333333333334;530.6666666666666;3;11;17;27.0;Target:12;1;None
1499195265142;6;2;DOUBLETAP;AnyNumberFinger;TOUCH_MOVED;1;955.3333333333334;531.3333333333334;3;11;17;27.0;Target:12;1;None
1499195265147;6;2;DOUBLETAP;AnyNumberFinger;TOUCH_MOVED;2;900.0;459.3333333333333;3;10;17;27.0;Target:12;1;None
1499195265152;6;2;DOUBLETAP;AnyNumberFinger;TOUCH_RELEASED;3;851.3333333333334;447.3333333333333;3;10;17;27.0;Target:12;1;None
1499195265162;6;2;DOUBLETAP;AnyNumberFinger;TOUCH_RELEASED;1;955.3333333333334;531.3333333333334;2;12;17;27.0;Target:12;1;None
1499195265171;6;2;DOUBLETAP;AnyNumberFinger;TOUCH_RELEASED;2;900.0;459.3333333333333;1;9;17;27.0;Target:12;1;None
1499195266654;6;2;DOUBLETAP;AnyNumberFinger;TOUCH_PRESSED;1;628.0;99.33333333333333;1;9;0;27.0;Target:12;0;None
1499195266654;6;2;DOUBLETAP;AnyNumberFinger;TOUCH_PRESSED;2;686.0;105.33333333333333;2;9;0;27.0;Target:12;0;None
1499195266657;6;2;DOUBLETAP;AnyNumberFinger;TOUCH_PRESSED;3;760.6666666666666;172.66666666666666;3;14;0;27.0;Target:12;0;None
1499195266658;6;2;DOUBLETAP;AnyNumberFinger;TOUCH_PRESSED;4;570.0;372.0;4;14;0;27.0;Target:12;0;None
1499195266743;6;2;DOUBLETAP;AnyNumberFinger;TOUCH_MOVED;1;628.0;100.0;4;14;16;27.0;Target:12;0;None
1499195266779;6;2;DOUBLETAP;AnyNumberFinger;TOUCH_MOVED;1;628.0;100.66666666666667;4;9;16;27.0;Target:12;0;None
1499195266784;6;2;DOUBLETAP;AnyNumberFinger;TOUCH_MOVED;2;686.0;106.0;4;9;16;27.0;Target:12;0;None
1499195266805;6;2;DOUBLETAP;AnyNumberFinger;TOUCH_MOVED;3;760.6666666666666;173.33333333333334;4;9;16;27.0;Target:12;0;None
1499195266816;6;2;DOUBLETAP;AnyNumberFinger;TOUCH_MOVED;1;628.0;101.33333333333333;4;11;16;27.0;Target:12;0;None
1499195266832;6;2;DOUBLETAP;AnyNumberFinger;TOUCH_MOVED;4;570.6666666666666;372.0;4;11;16;27.0;Target:12;0;None
1499195266854;6;2;DOUBLETAP;AnyNumberFinger;TOUCH_MOVED;1;628.0;102.0;4;10;16;27.0;Target:12;0;None
1499195266865;6;2;DOUBLETAP;AnyNumberFinger;TOUCH_PRESSED;5;546.0;196.0;5;10;0;27.0;Target:12;0;Target:12
1499195266881;6;2;DOUBLETAP;AnyNumberFinger;TOUCH_MOVED;3;761.3333333333334;173.33333333333334;5;10;16;27.0;Target:12;0;None
1499195266885;6;2;DOUBLETAP;AnyNumberFinger;TOUCH_MOVED;4;570.6666666666666;372.6666666666667;5;10;16;27.0;Target:12;0;None
1499195266890;6;2;DOUBLETAP;AnyNumberFinger;TOUCH_MOVED;1;628.0;102.66666666666667;5;11;16;27.0;Target:12;0;None
1499195266896;6;2;DOUBLETAP;AnyNumberFinger;TOUCH_MOVED;2;686.0;106.66666666666667;5;11;16;27.0;Target:12;0;None
1499195266896;6;2;DOUBLETAP;AnyNumberFinger;TOUCH_MOVED;3;761.3333333333334;174.0;5;11;16;27.0;Target:12;0;None
1499195266922;6;2;DOUBLETAP;AnyNumberFinger;TOUCH_MOVED;1;628.0;103.33333333333333;5;10;16;27.0;Target:12;0;None
1499195266943;6;2;DOUBLETAP;AnyNumberFinger;TOUCH_MOVED;4;571.3333333333334;372.6666666666667;5;11;16;27.0;Target:12;0;None
1499195266949;6;2;DOUBLETAP;AnyNumberFinger;TOUCH_MOVED;3;761.3333333333334;174.66666666666666;5;11;16;27.0;Target:12;0;None
1499195266959;6;2;DOUBLETAP;AnyNumberFinger;TOUCH_MOVED;1;628.0;104.0;5;11;16;27.0;Target:12;0;None
1499195266959;6;2;DOUBLETAP;AnyNumberFinger;TOUCH_RELEASED;5;546.0;196.0;5;11;11;27.0;Target:12;0;Target:12
1499195266986;6;2;DOUBLETAP;AnyNumberFinger;TOUCH_MOVED;2;686.0;107.33333333333333;4;11;16;27.0;Target:12;0;None
1499195266991;6;2;DOUBLETAP;AnyNumberFinger;TOUCH_MOVED;4;571.3333333333334;373.3333333333333;4;12;16;27.0;Target:12;0;None
1499195266995;6;2;DOUBLETAP;AnyNumberFinger;TOUCH_MOVED;1;628.0;104.66666666666667;4;12;16;27.0;Target:12;0;None
1499195267006;6;2;DOUBLETAP;AnyNumberFinger;TOUCH_MOVED;2;686.6666666666666;107.33333333333333;4;11;16;27.0;Target:12;0;None
1499195267007;6;2;DOUBLETAP;AnyNumberFinger;TOUCH_MOVED;3;761.3333333333334;175.33333333333334;4;11;16;27.0;Target:12;0;None
1499195267023;6;2;DOUBLETAP;AnyNumberFinger;TOUCH_MOVED;3;762.0;175.33333333333334;4;11;16;27.0;Target:12;0;None
1499195267028;6;2;DOUBLETAP;AnyNumberFinger;TOUCH_MOVED;2;686.6666666666666;108.0;4;9;16;27.0;Target:12;0;None
1499195267034;6;2;DOUBLETAP;AnyNumberFinger;TOUCH_MOVED;1;628.0;105.33333333333333;4;9;16;27.0;Target:12;0;None
1499195267049;6;2;DOUBLETAP;AnyNumberFinger;TOUCH_PRESSED;6;549.3333333333334;193.33333333333334;5;10;0;27.0;Target:12;0;Target:12
1499195267055;6;2;DOUBLETAP;AnyNumberFinger;TOUCH_MOVED;4;572.0;373.3333333333333;5;10;16;27.0;Target:12;0;None
1499195267065;6;2;DOUBLETAP;AnyNumberFinger;TOUCH_MOVED;6;550.0;193.33333333333334;5;9;9;27.0;Target:12;0;Target:12
1499195267076;6;2;DOUBLETAP;AnyNumberFinger;TOUCH_MOVED;3;762.0;176.0;5;11;16;27.0;Target:12;0;None
1499195267087;6;2;DOUBLETAP;AnyNumberFinger;TOUCH_RELEASED;6;550.0;193.33333333333334;5;13;13;27.0;Target:12;0;Target:12
1499195267087;6;2;DOUBLETAP;AnyNumberFinger;BUTTON_TRIGGERED;6;550.0;193.33333333333334;5;13;13;27.0;Target:12;0;Target:12
1499195267097;6;2;DOUBLETAP;AnyNumberFinger;TOUCH_MOVED;1;628.0;106.0;4;10;16;27.0;Target:6;1;None
1499195267122;6;2;DOUBLETAP;AnyNumberFinger;TOUCH_MOVED;2;686.6666666666666;108.66666666666667;4;14;16;27.0;Target:6;1;None
1499195267129;6;2;DOUBLETAP;AnyNumberFinger;TOUCH_RELEASED;4;572.0;373.3333333333333;4;11;16;27.0;Target:6;1;None
1499195267142;6;2;DOUBLETAP;AnyNumberFinger;TOUCH_MOVED;1;628.6666666666666;106.0;3;10;16;27.0;Target:6;1;None
1499195267149;6;2;DOUBLETAP;AnyNumberFinger;TOUCH_MOVED;1;628.6666666666666;106.66666666666667;3;9;16;27.0;Target:6;1;None
1499195267167;6;2;DOUBLETAP;AnyNumberFinger;TOUCH_MOVED;3;762.0;176.66666666666666;3;9;16;27.0;Target:6;1;None
1499195267177;6;2;DOUBLETAP;AnyNumberFinger;TOUCH_RELEASED;1;628.6666666666666;106.66666666666667;3;11;16;27.0;Target:6;1;None
1499195267193;6;2;DOUBLETAP;AnyNumberFinger;TOUCH_MOVED;3;762.0;177.33333333333334;2;10;16;27.0;Target:6;1;None
1499195267193;6;2;DOUBLETAP;AnyNumberFinger;TOUCH_RELEASED;2;686.6666666666666;108.66666666666667;2;10;16;27.0;Target:6;1;None
1499195267209;6;2;DOUBLETAP;AnyNumberFinger;TOUCH_RELEASED;3;762.0;177.33333333333334;1;11;16;27.0;Target:6;1;None
1499195268600;6;2;DOUBLETAP;AnyNumberFinger;TOUCH_PRESSED;1;888.6666666666666;563.3333333333334;1;13;0;27.0;Target:6;0;None
1499195268601;6;2;DOUBLETAP;AnyNumberFinger;TOUCH_PRESSED;2;823.3333333333334;494.6666666666667;2;13;0;27.0;Target:6;0;None
1499195268605;6;2;DOUBLETAP;AnyNumberFinger;TOUCH_PRESSED;3;768.0;479.3333333333333;3;13;0;27.0;Target:6;0;Target:5
1499195268643;6;2;DOUBLETAP;AnyNumberFinger;TOUCH_PRESSED;4;696.6666666666666;706.6666666666666;4;11;0;27.0;Target:6;0;None
1499195268685;6;2;DOUBLETAP;AnyNumberFinger;TOUCH_MOVED;2;823.3333333333334;495.3333333333333;4;12;12;27.0;Target:6;0;None
1499195268791;6;2;DOUBLETAP;AnyNumberFinger;TOUCH_MOVED;2;823.3333333333334;496.0;4;10;12;27.0;Target:6;0;None
1499195268833;6;2;DOUBLETAP;AnyNumberFinger;TOUCH_PRESSED;5;680.6666666666666;532.6666666666666;5;11;0;27.0;Target:6;0;Target:6
1499195268922;6;2;DOUBLETAP;AnyNumberFinger;TOUCH_RELEASED;5;680.6666666666666;532.6666666666666;5;12;12;27.0;Target:6;0;Target:6
1499195269007;6;2;DOUBLETAP;AnyNumberFinger;TOUCH_MOVED;4;696.6666666666666;707.3333333333334;4;10;14;27.0;Target:6;0;None
1499195269007;6;2;DOUBLETAP;AnyNumberFinger;TOUCH_PRESSED;6;682.0;530.6666666666666;5;10;0;27.0;Target:6;0;Target:6
1499195269043;6;2;DOUBLETAP;AnyNumberFinger;TOUCH_MOVED;6;682.6666666666666;530.6666666666666;5;11;12;27.0;Target:6;0;Target:6
1499195269065;6;2;DOUBLETAP;AnyNumberFinger;TOUCH_RELEASED;6;682.6666666666666;530.6666666666666;5;10;12;27.0;Target:6;0;Target:6
1499195269065;6;2;DOUBLETAP;AnyNumberFinger;BUTTON_TRIGGERED;6;682.6666666666666;530.6666666666666;5;10;12;27.0;Target:6;0;Target:6
1499195269086;6;2;DOUBLETAP;AnyNumberFinger;TOUCH_MOVED;4;696.6666666666666;708.0;4;10;14;27.0;None;1;None
1499195269123;6;2;DOUBLETAP;AnyNumberFinger;TOUCH_RELEASED;4;696.6666666666666;708.0;4;11;14;27.0;None;1;None
1499195269137;6;2;DOUBLETAP;AnyNumberFinger;TOUCH_MOVED;3;768.0;480.0;3;11;14;27.0;None;1;Target:5
1499195269155;6;2;DOUBLETAP;AnyNumberFinger;TOUCH_MOVED;1;888.6666666666666;564.0;3;14;14;27.0;None;1;None
1499195269161;6;2;DOUBLETAP;AnyNumberFinger;TOUCH_RELEASED;3;768.0;480.0;3;11;14;27.0;None;1;Target:5
1499195269175;6;2;DOUBLETAP;AnyNumberFinger;TOUCH_RELEASED;2;823.3333333333334;496.0;2;10;14;27.0;None;1;None
1499195269189;6;2;DOUBLETAP;AnyNumberFinger;TOUCH_RELEASED;1;888.6666666666666;564.0;1;11;14;27.0;None;1;None
